<?xml version="1.0" encoding="UTF-8"?>
<osm version="0.6" generator="CGImap 0.1.0" copyright="OpenStreetMap and contributors" attribution="http://www.openstreetmap.org/copyright" license="http://opendatacommons.org/licenses/odbl/1-0/">
 <bounds minlat="49.1682900" minlon="16.5596000" maxlat="49.1694200" maxlon="16.5637000"/>
 <node id="287201511" lat="49.1692905" lon="16.5603634" user="hanoj" uid="4788" visible="true" version="2" changeset="570577" timestamp="2008-09-08T06:16:53Z"/>
 <node id="287842614" lat="49.1684237" lon="16.5624373" user="Ivan M" uid="57845" visible="true" version="3" changeset="2491887" timestamp="2009-09-15T13:07:52Z"/>
 <node id="287842615" lat="49.1693119" lon="16.5610324" user="Ivan M" uid="57845" visible="true" version="3" changeset="2499270" timestamp="2009-09-16T07:51:55Z"/>
 <node id="287842617" lat="49.1683629" lon="16.5609586" user="Ivan M" uid="57845" visible="true" version="2" changeset="2499270" timestamp="2009-09-16T07:51:55Z"/>
 <node id="294974148" lat="49.1693066" lon="16.5607010" user="hanoj" uid="4788" visible="true" version="1" changeset="570577" timestamp="2008-09-08T06:16:42Z"/>
 <node id="296457204" lat="49.1684284" lon="16.5619587" user="BiIbo" uid="3516" visible="true" version="3" changeset="3842828" timestamp="2010-02-10T20:49:12Z">
  <tag k="addr:conscriptionnumber" v="187"/>
  <tag k="addr:housenumber" v="187/7"/>
  <tag k="addr:postcode" v="62500"/>
  <tag k="addr:street" v="Dunajská"/>
  <tag k="addr:streetnumber" v="7"/>
  <tag k="source:addr" v="uir_adr"/>
  <tag k="uir_adr:ADRESA_KOD" v="19560664"/>
 </node>
 <node id="296494717" lat="49.1688869" lon="16.5622880" user="Radomír Černoch" uid="51295" visible="true" version="2" changeset="1966265" timestamp="2009-07-28T18:19:59Z">
  <tag k="addr:conscriptionnumber" v="184"/>
  <tag k="addr:housenumber" v="184/11"/>
  <tag k="addr:postcode" v="62500"/>
  <tag k="addr:street" v="Dunajská"/>
  <tag k="addr:streetnumber" v="11"/>
  <tag k="source:addr" v="uir_adr"/>
  <tag k="uir_adr:ADRESA_KOD" v="19560630"/>
 </node>
 <node id="296515409" lat="49.1692427" lon="16.5628534" user="BiIbo" uid="3516" visible="true" version="3" changeset="3842828" timestamp="2010-02-10T20:49:12Z">
  <tag k="addr:conscriptionnumber" v="188"/>
  <tag k="addr:housenumber" v="188/5"/>
  <tag k="addr:postcode" v="62500"/>
  <tag k="addr:street" v="Dunajská"/>
  <tag k="addr:streetnumber" v="5"/>
  <tag k="source:addr" v="uir_adr"/>
  <tag k="uir_adr:ADRESA_KOD" v="19560672"/>
 </node>
 <node id="296515821" lat="49.1688496" lon="16.5608167" user="BiIbo" uid="3516" visible="true" version="3" changeset="3842828" timestamp="2010-02-10T20:49:12Z">
  <tag k="addr:conscriptionnumber" v="173"/>
  <tag k="addr:housenumber" v="173/21"/>
  <tag k="addr:postcode" v="62500"/>
  <tag k="addr:street" v="Dunajská"/>
  <tag k="addr:streetnumber" v="21"/>
  <tag k="source:addr" v="uir_adr"/>
  <tag k="uir_adr:ADRESA_KOD" v="19560524"/>
 </node>
 <node id="296517647" lat="49.1690343" lon="16.5600425" user="Radomír Černoch" uid="51295" visible="true" version="2" changeset="1966265" timestamp="2009-07-28T18:20:04Z">
  <tag k="addr:conscriptionnumber" v="170"/>
  <tag k="addr:housenumber" v="170/25"/>
  <tag k="addr:postcode" v="62500"/>
  <tag k="addr:street" v="Dunajská"/>
  <tag k="addr:streetnumber" v="25"/>
  <tag k="source:addr" v="uir_adr"/>
  <tag k="uir_adr:ADRESA_KOD" v="19560494"/>
 </node>
 <node id="296541971" lat="49.1691745" lon="16.5632193" user="BiIbo" uid="3516" visible="true" version="3" changeset="3842828" timestamp="2010-02-10T20:49:13Z">
  <tag k="addr:conscriptionnumber" v="189"/>
  <tag k="addr:housenumber" v="189/3"/>
  <tag k="addr:postcode" v="62500"/>
  <tag k="addr:street" v="Dunajská"/>
  <tag k="addr:streetnumber" v="3"/>
  <tag k="source:addr" v="uir_adr"/>
  <tag k="uir_adr:ADRESA_KOD" v="19560681"/>
 </node>
 <node id="296543032" lat="49.1686622" lon="16.5620567" user="BiIbo" uid="3516" visible="true" version="3" changeset="3842828" timestamp="2010-02-10T20:49:12Z">
  <tag k="addr:conscriptionnumber" v="186"/>
  <tag k="addr:housenumber" v="186/9"/>
  <tag k="addr:postcode" v="62500"/>
  <tag k="addr:street" v="Dunajská"/>
  <tag k="addr:streetnumber" v="9"/>
  <tag k="source:addr" v="uir_adr"/>
  <tag k="uir_adr:ADRESA_KOD" v="19560656"/>
 </node>
 <node id="296564447" lat="49.1684215" lon="16.5604875" user="BiIbo" uid="3516" visible="true" version="3" changeset="3842828" timestamp="2010-02-10T20:49:11Z">
  <tag k="addr:conscriptionnumber" v="175"/>
  <tag k="addr:housenumber" v="175/17"/>
  <tag k="addr:postcode" v="62500"/>
  <tag k="addr:street" v="Dunajská"/>
  <tag k="addr:streetnumber" v="17"/>
  <tag k="source:addr" v="uir_adr"/>
  <tag k="uir_adr:ADRESA_KOD" v="19560541"/>
 </node>
 <node id="296579260" lat="49.1689612" lon="16.5618079" user="BiIbo" uid="3516" visible="true" version="3" changeset="3842828" timestamp="2010-02-10T20:49:12Z">
  <tag k="addr:conscriptionnumber" v="183"/>
  <tag k="addr:housenumber" v="183/13"/>
  <tag k="addr:postcode" v="62500"/>
  <tag k="addr:street" v="Dunajská"/>
  <tag k="addr:streetnumber" v="13"/>
  <tag k="source:addr" v="uir_adr"/>
  <tag k="uir_adr:ADRESA_KOD" v="19560621"/>
 </node>
 <node id="296593207" lat="49.1689371" lon="16.5603446" user="Petr Dlouhý" uid="17615" visible="true" version="3" changeset="2846378" timestamp="2009-10-14T15:35:21Z">
  <tag k="addr:conscriptionnumber" v="172"/>
  <tag k="addr:housenumber" v="172/23"/>
  <tag k="addr:postcode" v="62500"/>
  <tag k="addr:street" v="Dunajská"/>
  <tag k="addr:streetnumber" v="23"/>
  <tag k="source:addr" v="uir_adr"/>
  <tag k="uir_adr:ADRESA_KOD" v="19560516"/>
 </node>
 <node id="296608148" lat="49.1690606" lon="16.5635835" user="Radomír Černoch" uid="51295" visible="true" version="2" changeset="1966265" timestamp="2009-07-28T18:20:24Z">
  <tag k="addr:conscriptionnumber" v="201"/>
  <tag k="addr:housenumber" v="201/1"/>
  <tag k="addr:postcode" v="62500"/>
  <tag k="addr:street" v="Dunajská"/>
  <tag k="addr:streetnumber" v="1"/>
  <tag k="source:addr" v="uir_adr"/>
  <tag k="uir_adr:ADRESA_KOD" v="19560788"/>
 </node>
 <node id="296636819" lat="49.1688004" lon="16.5636129" user="Radomír Černoch" uid="51295" visible="true" version="2" changeset="1966265" timestamp="2009-07-28T18:20:28Z">
  <tag k="addr:conscriptionnumber" v="202"/>
  <tag k="addr:housenumber" v="202/3"/>
  <tag k="addr:postcode" v="62500"/>
  <tag k="addr:street" v="Vltavská"/>
  <tag k="addr:streetnumber" v="3"/>
  <tag k="source:addr" v="uir_adr"/>
  <tag k="uir_adr:ADRESA_KOD" v="19560796"/>
 </node>
 <node id="296667659" lat="49.1686362" lon="16.5606091" user="BiIbo" uid="3516" visible="true" version="3" changeset="3842828" timestamp="2010-02-10T20:49:12Z">
  <tag k="addr:conscriptionnumber" v="174"/>
  <tag k="addr:housenumber" v="174/19"/>
  <tag k="addr:postcode" v="62500"/>
  <tag k="addr:street" v="Dunajská"/>
  <tag k="addr:streetnumber" v="19"/>
  <tag k="source:addr" v="uir_adr"/>
  <tag k="uir_adr:ADRESA_KOD" v="19560532"/>
 </node>
 <node id="296689064" lat="49.1685106" lon="16.5634816" user="Radomír Černoch" uid="51295" visible="true" version="2" changeset="1966265" timestamp="2009-07-28T18:20:33Z">
  <tag k="addr:conscriptionnumber" v="203"/>
  <tag k="addr:housenumber" v="203/1"/>
  <tag k="addr:postcode" v="62500"/>
  <tag k="addr:street" v="Vltavská"/>
  <tag k="addr:streetnumber" v="1"/>
  <tag k="source:addr" v="uir_adr"/>
  <tag k="uir_adr:ADRESA_KOD" v="19560818"/>
 </node>
 <node id="296690784" lat="49.1690541" lon="16.5615322" user="Petr Dlouhý" uid="17615" visible="true" version="3" changeset="2846378" timestamp="2009-10-14T15:35:22Z">
  <tag k="addr:conscriptionnumber" v="182"/>
  <tag k="addr:housenumber" v="182/15"/>
  <tag k="addr:postcode" v="62500"/>
  <tag k="addr:street" v="Dunajská"/>
  <tag k="addr:streetnumber" v="15"/>
  <tag k="source:addr" v="uir_adr"/>
  <tag k="uir_adr:ADRESA_KOD" v="19560613"/>
 </node>
 <node id="316039000" lat="49.1684707" lon="16.5635394" user="honny" uid="54223" visible="true" version="1" changeset="10163" timestamp="2008-12-01T12:53:19Z"/>
 <node id="316038997" lat="49.1683795" lon="16.5630864" user="Ivan M" uid="57845" visible="true" version="2" changeset="2500243" timestamp="2009-09-16T09:58:09Z"/>
 <node id="449710942" lat="49.1683134" lon="16.5614564" user="BiIbo" uid="3516" visible="true" version="2" changeset="3842828" timestamp="2010-02-10T20:49:12Z">
  <tag k="addr:conscriptionnumber" v="678"/>
  <tag k="addr:housenumber" v="678/17a"/>
  <tag k="addr:postcode" v="62500"/>
  <tag k="addr:street" v="Dunajská"/>
  <tag k="addr:streetnumber" v="17a"/>
  <tag k="source:addr" v="uir_adr"/>
  <tag k="uir_adr:ADRESA_KOD" v="25121936"/>
 </node>
 <node id="497033111" lat="49.1693676" lon="16.5634830" user="Ivan M" uid="57845" visible="true" version="1" changeset="2491887" timestamp="2009-09-15T13:07:29Z">
  <tag k="amenity" v="parking"/>
  <tag k="parking" v="surface"/>
 </node>
 <node id="497033113" lat="49.1691310" lon="16.5624493" user="Ivan M" uid="57845" visible="true" version="1" changeset="2491887" timestamp="2009-09-15T13:07:29Z"/>
 <node id="497033114" lat="49.1688414" lon="16.5625987" user="Ivan M" uid="57845" visible="true" version="1" changeset="2491887" timestamp="2009-09-15T13:07:29Z"/>
 <node id="497033116" lat="49.1692555" lon="16.5617332" user="Ivan M" uid="57845" visible="true" version="1" changeset="2491887" timestamp="2009-09-15T13:07:29Z"/>
 <node id="497033117" lat="49.1691076" lon="16.5623792" user="Ivan M" uid="57845" visible="true" version="1" changeset="2491887" timestamp="2009-09-15T13:07:29Z"/>
 <node id="497033118" lat="49.1691777" lon="16.5620601" user="Ivan M" uid="57845" visible="true" version="1" changeset="2491887" timestamp="2009-09-15T13:07:29Z">
  <tag k="amenity" v="parking"/>
  <tag k="parking" v="surface"/>
 </node>
 <node id="497033119" lat="49.1685830" lon="16.5625006" user="Ivan M" uid="57845" visible="true" version="1" changeset="2491887" timestamp="2009-09-15T13:07:30Z">
  <tag k="amenity" v="parking"/>
  <tag k="parking" v="surface"/>
 </node>
 <node id="497033120" lat="49.1693695" lon="16.5625797" user="Ivan M" uid="57845" visible="true" version="1" changeset="2491887" timestamp="2009-09-15T13:07:30Z"/>
 <node id="497033121" lat="49.1693695" lon="16.5627205" user="Ivan M" uid="57845" visible="true" version="1" changeset="2491887" timestamp="2009-09-15T13:07:30Z"/>
 <node id="497033122" lat="49.1693035" lon="16.5627205" user="Ivan M" uid="57845" visible="true" version="1" changeset="2491887" timestamp="2009-09-15T13:07:30Z"/>
 <node id="497033124" lat="49.1693010" lon="16.5628475" user="Ivan M" uid="57845" visible="true" version="1" changeset="2491887" timestamp="2009-09-15T13:07:30Z"/>
 <node id="497033125" lat="49.1693159" lon="16.5628437" user="Ivan M" uid="57845" visible="true" version="1" changeset="2491887" timestamp="2009-09-15T13:07:30Z"/>
 <node id="497033126" lat="49.1693147" lon="16.5629496" user="Ivan M" uid="57845" visible="true" version="1" changeset="2491887" timestamp="2009-09-15T13:07:30Z"/>
 <node id="497033127" lat="49.1692125" lon="16.5629496" user="Ivan M" uid="57845" visible="true" version="1" changeset="2491887" timestamp="2009-09-15T13:07:30Z"/>
 <node id="497033129" lat="49.1692163" lon="16.5627503" user="Ivan M" uid="57845" visible="true" version="1" changeset="2491887" timestamp="2009-09-15T13:07:30Z"/>
 <node id="497033130" lat="49.1691851" lon="16.5627516" user="Ivan M" uid="57845" visible="true" version="1" changeset="2491887" timestamp="2009-09-15T13:07:30Z"/>
 <node id="497033131" lat="49.1691864" lon="16.5626495" user="Ivan M" uid="57845" visible="true" version="1" changeset="2491887" timestamp="2009-09-15T13:07:30Z"/>
 <node id="497033132" lat="49.1692997" lon="16.5626495" user="Ivan M" uid="57845" visible="true" version="1" changeset="2491887" timestamp="2009-09-15T13:07:30Z"/>
 <node id="497033133" lat="49.1692997" lon="16.5625822" user="Ivan M" uid="57845" visible="true" version="1" changeset="2491887" timestamp="2009-09-15T13:07:30Z"/>
 <node id="497033135" lat="49.1692835" lon="16.5629496" user="Ivan M" uid="57845" visible="true" version="1" changeset="2491887" timestamp="2009-09-15T13:07:30Z"/>
 <node id="497033136" lat="49.1692823" lon="16.5630804" user="Ivan M" uid="57845" visible="true" version="1" changeset="2491887" timestamp="2009-09-15T13:07:30Z"/>
 <node id="497033137" lat="49.1692188" lon="16.5630804" user="Ivan M" uid="57845" visible="true" version="1" changeset="2491887" timestamp="2009-09-15T13:07:30Z"/>
 <node id="497033138" lat="49.1692150" lon="16.5632074" user="Ivan M" uid="57845" visible="true" version="1" changeset="2491887" timestamp="2009-09-15T13:07:30Z"/>
 <node id="497033139" lat="49.1692287" lon="16.5632074" user="Ivan M" uid="57845" visible="true" version="1" changeset="2491887" timestamp="2009-09-15T13:07:30Z"/>
 <node id="497033140" lat="49.1692255" lon="16.5633125" user="Ivan M" uid="57845" visible="true" version="1" changeset="2491887" timestamp="2009-09-15T13:07:30Z"/>
 <node id="497033141" lat="49.1691303" lon="16.5633108" user="Ivan M" uid="57845" visible="true" version="1" changeset="2491887" timestamp="2009-09-15T13:07:30Z"/>
 <node id="497033142" lat="49.1691291" lon="16.5631140" user="Ivan M" uid="57845" visible="true" version="1" changeset="2491887" timestamp="2009-09-15T13:07:31Z"/>
 <node id="497033143" lat="49.1690992" lon="16.5631165" user="Ivan M" uid="57845" visible="true" version="1" changeset="2491887" timestamp="2009-09-15T13:07:31Z"/>
 <node id="497033145" lat="49.1691005" lon="16.5630094" user="Ivan M" uid="57845" visible="true" version="1" changeset="2491887" timestamp="2009-09-15T13:07:31Z"/>
 <node id="497033146" lat="49.1692113" lon="16.5630094" user="Ivan M" uid="57845" visible="true" version="1" changeset="2491887" timestamp="2009-09-15T13:07:31Z"/>
 <node id="497033147" lat="49.1691933" lon="16.5633119" user="Ivan M" uid="57845" visible="true" version="1" changeset="2491887" timestamp="2009-09-15T13:07:31Z"/>
 <node id="497033148" lat="49.1691924" lon="16.5634488" user="Ivan M" uid="57845" visible="true" version="1" changeset="2491887" timestamp="2009-09-15T13:07:31Z"/>
 <node id="497033149" lat="49.1691296" lon="16.5634488" user="Ivan M" uid="57845" visible="true" version="1" changeset="2491887" timestamp="2009-09-15T13:07:31Z"/>
 <node id="497033150" lat="49.1691286" lon="16.5635743" user="Ivan M" uid="57845" visible="true" version="1" changeset="2491887" timestamp="2009-09-15T13:07:31Z"/>
 <node id="497033151" lat="49.1691415" lon="16.5635733" user="Ivan M" uid="57845" visible="true" version="1" changeset="2491887" timestamp="2009-09-15T13:07:31Z"/>
 <node id="497033152" lat="49.1691406" lon="16.5636769" user="Ivan M" uid="57845" visible="true" version="1" changeset="2491887" timestamp="2009-09-15T13:07:31Z"/>
 <node id="497033153" lat="49.1690439" lon="16.5636769" user="Ivan M" uid="57845" visible="true" version="1" changeset="2491887" timestamp="2009-09-15T13:07:31Z"/>
 <node id="497033154" lat="49.1690419" lon="16.5634787" user="Ivan M" uid="57845" visible="true" version="1" changeset="2491887" timestamp="2009-09-15T13:07:31Z"/>
 <node id="497033155" lat="49.1690090" lon="16.5634797" user="Ivan M" uid="57845" visible="true" version="1" changeset="2491887" timestamp="2009-09-15T13:07:31Z"/>
 <node id="497033156" lat="49.1690090" lon="16.5633740" user="Ivan M" uid="57845" visible="true" version="1" changeset="2491887" timestamp="2009-09-15T13:07:31Z"/>
 <node id="497033158" lat="49.1691276" lon="16.5633720" user="Ivan M" uid="57845" visible="true" version="1" changeset="2491887" timestamp="2009-09-15T13:07:31Z"/>
 <node id="497033160" lat="49.1688436" lon="16.5634797" user="Ivan M" uid="57845" visible="true" version="1" changeset="2491887" timestamp="2009-09-15T13:07:31Z"/>
 <node id="497033161" lat="49.1688446" lon="16.5634288" user="Ivan M" uid="57845" visible="true" version="1" changeset="2491887" timestamp="2009-09-15T13:07:31Z"/>
 <node id="497033162" lat="49.1687809" lon="16.5634278" user="Ivan M" uid="57845" visible="true" version="1" changeset="2491887" timestamp="2009-09-15T13:07:31Z"/>
 <node id="497033163" lat="49.1687789" lon="16.5632764" user="Ivan M" uid="57845" visible="true" version="1" changeset="2491887" timestamp="2009-09-15T13:07:31Z"/>
 <node id="497033164" lat="49.1688427" lon="16.5632754" user="Ivan M" uid="57845" visible="true" version="1" changeset="2491887" timestamp="2009-09-15T13:07:31Z"/>
 <node id="497033166" lat="49.1688427" lon="16.5632425" user="Ivan M" uid="57845" visible="true" version="1" changeset="2491887" timestamp="2009-09-15T13:07:32Z"/>
 <node id="497033167" lat="49.1689443" lon="16.5632425" user="Ivan M" uid="57845" visible="true" version="1" changeset="2491887" timestamp="2009-09-15T13:07:32Z"/>
 <node id="497033168" lat="49.1689443" lon="16.5633740" user="Ivan M" uid="57845" visible="true" version="1" changeset="2491887" timestamp="2009-09-15T13:07:32Z"/>
 <node id="497033169" lat="49.1687802" lon="16.5633790" user="Ivan M" uid="57845" visible="true" version="1" changeset="2491887" timestamp="2009-09-15T13:07:32Z"/>
 <node id="497033173" lat="49.1686205" lon="16.5633780" user="Ivan M" uid="57845" visible="true" version="1" changeset="2491887" timestamp="2009-09-15T13:07:32Z"/>
 <node id="497033174" lat="49.1686185" lon="16.5633272" user="Ivan M" uid="57845" visible="true" version="1" changeset="2491887" timestamp="2009-09-15T13:07:33Z"/>
 <node id="497033175" lat="49.1685527" lon="16.5633262" user="Ivan M" uid="57845" visible="true" version="1" changeset="2491887" timestamp="2009-09-15T13:07:33Z"/>
 <node id="497033176" lat="49.1685527" lon="16.5631748" user="Ivan M" uid="57845" visible="true" version="1" changeset="2491887" timestamp="2009-09-15T13:07:33Z"/>
 <node id="497033177" lat="49.1686165" lon="16.5631758" user="Ivan M" uid="57845" visible="true" version="1" changeset="2491887" timestamp="2009-09-15T13:07:33Z"/>
 <node id="497033179" lat="49.1686165" lon="16.5631419" user="Ivan M" uid="57845" visible="true" version="1" changeset="2491887" timestamp="2009-09-15T13:07:33Z"/>
 <node id="497033180" lat="49.1687161" lon="16.5631429" user="Ivan M" uid="57845" visible="true" version="1" changeset="2491887" timestamp="2009-09-15T13:07:33Z"/>
 <node id="497033181" lat="49.1687171" lon="16.5632744" user="Ivan M" uid="57845" visible="true" version="1" changeset="2491887" timestamp="2009-09-15T13:07:33Z"/>
 <node id="497033457" lat="49.1691526" lon="16.5612653" user="Ivan M" uid="57845" visible="true" version="1" changeset="2491887" timestamp="2009-09-15T13:07:44Z"/>
 <node id="497033459" lat="49.1691518" lon="16.5614000" user="Ivan M" uid="57845" visible="true" version="1" changeset="2491887" timestamp="2009-09-15T13:07:44Z"/>
 <node id="497033461" lat="49.1690872" lon="16.5614000" user="Ivan M" uid="57845" visible="true" version="1" changeset="2491887" timestamp="2009-09-15T13:07:44Z"/>
 <node id="497033463" lat="49.1690864" lon="16.5615267" user="Ivan M" uid="57845" visible="true" version="1" changeset="2491887" timestamp="2009-09-15T13:07:44Z"/>
 <node id="497033466" lat="49.1690984" lon="16.5615267" user="Ivan M" uid="57845" visible="true" version="1" changeset="2491887" timestamp="2009-09-15T13:07:44Z"/>
 <node id="497033468" lat="49.1690976" lon="16.5616327" user="Ivan M" uid="57845" visible="true" version="1" changeset="2491887" timestamp="2009-09-15T13:07:44Z"/>
 <node id="497033469" lat="49.1689972" lon="16.5616319" user="Ivan M" uid="57845" visible="true" version="1" changeset="2491887" timestamp="2009-09-15T13:07:44Z"/>
 <node id="497033472" lat="49.1689956" lon="16.5614677" user="Ivan M" uid="57845" visible="true" version="1" changeset="2491887" timestamp="2009-09-15T13:07:44Z"/>
 <node id="497033474" lat="49.1688800" lon="16.5614653" user="Ivan M" uid="57845" visible="true" version="1" changeset="2491887" timestamp="2009-09-15T13:07:45Z"/>
 <node id="497033477" lat="49.1688792" lon="16.5614287" user="Ivan M" uid="57845" visible="true" version="1" changeset="2491887" timestamp="2009-09-15T13:07:45Z"/>
 <node id="497033478" lat="49.1689629" lon="16.5614303" user="Ivan M" uid="57845" visible="true" version="1" changeset="2491887" timestamp="2009-09-15T13:07:45Z"/>
 <node id="497033480" lat="49.1689637" lon="16.5613290" user="Ivan M" uid="57845" visible="true" version="1" changeset="2491887" timestamp="2009-09-15T13:07:45Z"/>
 <node id="497033482" lat="49.1690785" lon="16.5613282" user="Ivan M" uid="57845" visible="true" version="1" changeset="2491887" timestamp="2009-09-15T13:07:45Z"/>
 <node id="497033483" lat="49.1690793" lon="16.5612637" user="Ivan M" uid="57845" visible="true" version="1" changeset="2491887" timestamp="2009-09-15T13:07:45Z"/>
 <node id="497033486" lat="49.1690641" lon="16.5616324" user="Ivan M" uid="57845" visible="true" version="1" changeset="2491887" timestamp="2009-09-15T13:07:45Z"/>
 <node id="497033488" lat="49.1690641" lon="16.5617682" user="Ivan M" uid="57845" visible="true" version="1" changeset="2491887" timestamp="2009-09-15T13:07:45Z"/>
 <node id="497033490" lat="49.1690004" lon="16.5617674" user="Ivan M" uid="57845" visible="true" version="1" changeset="2491887" timestamp="2009-09-15T13:07:45Z"/>
 <node id="497033491" lat="49.1689988" lon="16.5618902" user="Ivan M" uid="57845" visible="true" version="1" changeset="2491887" timestamp="2009-09-15T13:07:45Z"/>
 <node id="497033493" lat="49.1690099" lon="16.5618910" user="Ivan M" uid="57845" visible="true" version="1" changeset="2491887" timestamp="2009-09-15T13:07:45Z"/>
 <node id="497033495" lat="49.1690075" lon="16.5619986" user="Ivan M" uid="57845" visible="true" version="1" changeset="2491887" timestamp="2009-09-15T13:07:45Z"/>
 <node id="497033497" lat="49.1689071" lon="16.5619970" user="Ivan M" uid="57845" visible="true" version="1" changeset="2491887" timestamp="2009-09-15T13:07:45Z"/>
 <node id="497033498" lat="49.1689071" lon="16.5617977" user="Ivan M" uid="57845" visible="true" version="1" changeset="2491887" timestamp="2009-09-15T13:07:46Z"/>
 <node id="497033501" lat="49.1688768" lon="16.5617977" user="Ivan M" uid="57845" visible="true" version="1" changeset="2491887" timestamp="2009-09-15T13:07:46Z"/>
 <node id="497033503" lat="49.1688776" lon="16.5616941" user="Ivan M" uid="57845" visible="true" version="1" changeset="2491887" timestamp="2009-09-15T13:07:46Z"/>
 <node id="497033504" lat="49.1689940" lon="16.5616941" user="Ivan M" uid="57845" visible="true" version="1" changeset="2491887" timestamp="2009-09-15T13:07:46Z"/>
 <node id="497033506" lat="49.1689772" lon="16.5619981" user="Ivan M" uid="57845" visible="true" version="1" changeset="2491887" timestamp="2009-09-15T13:07:46Z"/>
 <node id="497033507" lat="49.1689764" lon="16.5621277" user="Ivan M" uid="57845" visible="true" version="1" changeset="2491887" timestamp="2009-09-15T13:07:46Z"/>
 <node id="497033509" lat="49.1689127" lon="16.5621285" user="Ivan M" uid="57845" visible="true" version="1" changeset="2491887" timestamp="2009-09-15T13:07:46Z"/>
 <node id="497033510" lat="49.1689111" lon="16.5622592" user="Ivan M" uid="57845" visible="true" version="1" changeset="2491887" timestamp="2009-09-15T13:07:46Z"/>
 <node id="497033511" lat="49.1689238" lon="16.5622568" user="Ivan M" uid="57845" visible="true" version="1" changeset="2491887" timestamp="2009-09-15T13:07:46Z"/>
 <node id="497033512" lat="49.1689214" lon="16.5623556" user="Ivan M" uid="57845" visible="true" version="1" changeset="2491887" timestamp="2009-09-15T13:07:46Z"/>
 <node id="497033513" lat="49.1688218" lon="16.5623580" user="Ivan M" uid="57845" visible="true" version="1" changeset="2491887" timestamp="2009-09-15T13:07:46Z"/>
 <node id="497033514" lat="49.1688218" lon="16.5621627" user="Ivan M" uid="57845" visible="true" version="1" changeset="2491887" timestamp="2009-09-15T13:07:46Z"/>
 <node id="497033516" lat="49.1687915" lon="16.5621627" user="Ivan M" uid="57845" visible="true" version="1" changeset="2491887" timestamp="2009-09-15T13:07:46Z"/>
 <node id="497033517" lat="49.1687923" lon="16.5620591" user="Ivan M" uid="57845" visible="true" version="1" changeset="2491887" timestamp="2009-09-15T13:07:46Z"/>
 <node id="497033518" lat="49.1689087" lon="16.5620583" user="Ivan M" uid="57845" visible="true" version="1" changeset="2491887" timestamp="2009-09-15T13:07:46Z"/>
 <node id="497033519" lat="49.1686257" lon="16.5621635" user="Ivan M" uid="57845" visible="true" version="1" changeset="2491887" timestamp="2009-09-15T13:07:46Z"/>
 <node id="497033521" lat="49.1686257" lon="16.5621078" user="Ivan M" uid="57845" visible="true" version="1" changeset="2491887" timestamp="2009-09-15T13:07:46Z"/>
 <node id="497033522" lat="49.1685628" lon="16.5621078" user="Ivan M" uid="57845" visible="true" version="1" changeset="2491887" timestamp="2009-09-15T13:07:46Z"/>
 <node id="497033523" lat="49.1685636" lon="16.5619571" user="Ivan M" uid="57845" visible="true" version="1" changeset="2491887" timestamp="2009-09-15T13:07:46Z"/>
 <node id="497033524" lat="49.1686233" lon="16.5619603" user="Ivan M" uid="57845" visible="true" version="1" changeset="2491887" timestamp="2009-09-15T13:07:46Z"/>
 <node id="497033525" lat="49.1686257" lon="16.5619252" user="Ivan M" uid="57845" visible="true" version="1" changeset="2491887" timestamp="2009-09-15T13:07:46Z"/>
 <node id="497033527" lat="49.1687254" lon="16.5619268" user="Ivan M" uid="57845" visible="true" version="1" changeset="2491887" timestamp="2009-09-15T13:07:46Z"/>
 <node id="497033528" lat="49.1687254" lon="16.5620567" user="Ivan M" uid="57845" visible="true" version="1" changeset="2491887" timestamp="2009-09-15T13:07:47Z"/>
 <node id="497033529" lat="49.1685622" lon="16.5620599" user="Ivan M" uid="57845" visible="true" version="1" changeset="2491887" timestamp="2009-09-15T13:07:47Z"/>
 <node id="497033530" lat="49.1683970" lon="16.5620591" user="Ivan M" uid="57845" visible="true" version="1" changeset="2491887" timestamp="2009-09-15T13:07:47Z"/>
 <node id="497033531" lat="49.1683978" lon="16.5620073" user="Ivan M" uid="57845" visible="true" version="1" changeset="2491887" timestamp="2009-09-15T13:07:47Z"/>
 <node id="497033532" lat="49.1683356" lon="16.5620049" user="Ivan M" uid="57845" visible="true" version="1" changeset="2491887" timestamp="2009-09-15T13:07:47Z"/>
 <node id="497033533" lat="49.1683348" lon="16.5618551" user="Ivan M" uid="57845" visible="true" version="1" changeset="2491887" timestamp="2009-09-15T13:07:47Z"/>
 <node id="497033534" lat="49.1683731" lon="16.5618495" user="Ivan M" uid="57845" visible="true" version="1" changeset="2491887" timestamp="2009-09-15T13:07:47Z"/>
 <node id="497033535" lat="49.1684002" lon="16.5618503" user="Ivan M" uid="57845" visible="true" version="1" changeset="2491887" timestamp="2009-09-15T13:07:47Z"/>
 <node id="497033536" lat="49.1684010" lon="16.5618224" user="Ivan M" uid="57845" visible="true" version="1" changeset="2491887" timestamp="2009-09-15T13:07:47Z"/>
 <node id="497033538" lat="49.1684990" lon="16.5618216" user="Ivan M" uid="57845" visible="true" version="1" changeset="2491887" timestamp="2009-09-15T13:07:47Z"/>
 <node id="497033539" lat="49.1684982" lon="16.5619563" user="Ivan M" uid="57845" visible="true" version="1" changeset="2491887" timestamp="2009-09-15T13:07:47Z"/>
 <node id="287201509" lat="49.1693565" lon="16.5616275" user="Ivan M" uid="57845" visible="true" version="3" changeset="2491887" timestamp="2009-09-15T13:07:52Z"/>
 <node id="497516944" lat="49.1687683" lon="16.5611389" user="Ivan M" uid="57845" visible="true" version="1" changeset="2499270" timestamp="2009-09-16T07:51:39Z"/>
 <node id="497516951" lat="49.1692148" lon="16.5603959" user="Ivan M" uid="57845" visible="true" version="1" changeset="2499270" timestamp="2009-09-16T07:51:39Z"/>
 <node id="497516952" lat="49.1691654" lon="16.5604983" user="Ivan M" uid="57845" visible="true" version="1" changeset="2499270" timestamp="2009-09-16T07:51:39Z"/>
 <node id="497516954" lat="49.1691107" lon="16.5607348" user="Ivan M" uid="57845" visible="true" version="1" changeset="2499270" timestamp="2009-09-16T07:51:39Z">
  <tag k="amenity" v="parking"/>
  <tag k="parking" v="surface"/>
 </node>
 <node id="497516956" lat="49.1690281" lon="16.5610880" user="Ivan M" uid="57845" visible="true" version="1" changeset="2499270" timestamp="2009-09-16T07:51:39Z"/>
 <node id="497517067" lat="49.1691252" lon="16.5597823" user="Ivan M" uid="57845" visible="true" version="1" changeset="2499270" timestamp="2009-09-16T07:51:42Z"/>
 <node id="497517069" lat="49.1691218" lon="16.5599258" user="Ivan M" uid="57845" visible="true" version="1" changeset="2499270" timestamp="2009-09-16T07:51:42Z"/>
 <node id="497517072" lat="49.1690563" lon="16.5599255" user="Ivan M" uid="57845" visible="true" version="1" changeset="2499270" timestamp="2009-09-16T07:51:42Z"/>
 <node id="497517073" lat="49.1690563" lon="16.5600484" user="Ivan M" uid="57845" visible="true" version="1" changeset="2499270" timestamp="2009-09-16T07:51:42Z"/>
 <node id="497517076" lat="49.1690699" lon="16.5600475" user="Ivan M" uid="57845" visible="true" version="1" changeset="2499270" timestamp="2009-09-16T07:51:42Z"/>
 <node id="497517079" lat="49.1690680" lon="16.5601605" user="Ivan M" uid="57845" visible="true" version="1" changeset="2499270" timestamp="2009-09-16T07:51:42Z"/>
 <node id="497517081" lat="49.1689623" lon="16.5601596" user="Ivan M" uid="57845" visible="true" version="1" changeset="2499270" timestamp="2009-09-16T07:51:42Z"/>
 <node id="497517082" lat="49.1689632" lon="16.5599590" user="Ivan M" uid="57845" visible="true" version="1" changeset="2499270" timestamp="2009-09-16T07:51:42Z"/>
 <node id="497517085" lat="49.1689280" lon="16.5599590" user="Ivan M" uid="57845" visible="true" version="1" changeset="2499270" timestamp="2009-09-16T07:51:42Z"/>
 <node id="497517088" lat="49.1689298" lon="16.5598478" user="Ivan M" uid="57845" visible="true" version="1" changeset="2499270" timestamp="2009-09-16T07:51:42Z"/>
 <node id="497517090" lat="49.1690509" lon="16.5598460" user="Ivan M" uid="57845" visible="true" version="1" changeset="2499270" timestamp="2009-09-16T07:51:42Z"/>
 <node id="497517093" lat="49.1690518" lon="16.5597828" user="Ivan M" uid="57845" visible="true" version="1" changeset="2499270" timestamp="2009-09-16T07:51:42Z"/>
 <node id="497517094" lat="49.1690400" lon="16.5601602" user="Ivan M" uid="57845" visible="true" version="1" changeset="2499270" timestamp="2009-09-16T07:51:42Z"/>
 <node id="497517098" lat="49.1690409" lon="16.5602924" user="Ivan M" uid="57845" visible="true" version="1" changeset="2499270" timestamp="2009-09-16T07:51:42Z"/>
 <node id="497517100" lat="49.1689732" lon="16.5602942" user="Ivan M" uid="57845" visible="true" version="1" changeset="2499270" timestamp="2009-09-16T07:51:42Z"/>
 <node id="497517103" lat="49.1689723" lon="16.5604099" user="Ivan M" uid="57845" visible="true" version="1" changeset="2499270" timestamp="2009-09-16T07:51:43Z"/>
 <node id="497517105" lat="49.1689849" lon="16.5604099" user="Ivan M" uid="57845" visible="true" version="1" changeset="2499270" timestamp="2009-09-16T07:51:43Z"/>
 <node id="497517107" lat="49.1689822" lon="16.5605192" user="Ivan M" uid="57845" visible="true" version="1" changeset="2499270" timestamp="2009-09-16T07:51:43Z"/>
 <node id="497517109" lat="49.1688792" lon="16.5605210" user="Ivan M" uid="57845" visible="true" version="1" changeset="2499270" timestamp="2009-09-16T07:51:43Z"/>
 <node id="497517112" lat="49.1688792" lon="16.5603195" user="Ivan M" uid="57845" visible="true" version="1" changeset="2499270" timestamp="2009-09-16T07:51:43Z"/>
 <node id="497517114" lat="49.1688485" lon="16.5603231" user="Ivan M" uid="57845" visible="true" version="1" changeset="2499270" timestamp="2009-09-16T07:51:43Z"/>
 <node id="497517116" lat="49.1688485" lon="16.5602138" user="Ivan M" uid="57845" visible="true" version="1" changeset="2499270" timestamp="2009-09-16T07:51:43Z"/>
 <node id="497517117" lat="49.1689623" lon="16.5602138" user="Ivan M" uid="57845" visible="true" version="1" changeset="2499270" timestamp="2009-09-16T07:51:43Z"/>
 <node id="497517120" lat="49.1689497" lon="16.5605198" user="Ivan M" uid="57845" visible="true" version="1" changeset="2499270" timestamp="2009-09-16T07:51:43Z"/>
 <node id="497517126" lat="49.1689470" lon="16.5606593" user="Ivan M" uid="57845" visible="true" version="1" changeset="2499270" timestamp="2009-09-16T07:51:43Z"/>
 <node id="497517128" lat="49.1688855" lon="16.5606584" user="Ivan M" uid="57845" visible="true" version="1" changeset="2499270" timestamp="2009-09-16T07:51:43Z"/>
 <node id="497517130" lat="49.1688855" lon="16.5607758" user="Ivan M" uid="57845" visible="true" version="1" changeset="2499270" timestamp="2009-09-16T07:51:43Z"/>
 <node id="497517132" lat="49.1688991" lon="16.5607758" user="Ivan M" uid="57845" visible="true" version="1" changeset="2499270" timestamp="2009-09-16T07:51:43Z"/>
 <node id="497517134" lat="49.1688973" lon="16.5608852" user="Ivan M" uid="57845" visible="true" version="1" changeset="2499270" timestamp="2009-09-16T07:51:43Z"/>
 <node id="497517136" lat="49.1687906" lon="16.5608852" user="Ivan M" uid="57845" visible="true" version="1" changeset="2499270" timestamp="2009-09-16T07:51:43Z"/>
 <node id="497517138" lat="49.1687906" lon="16.5606891" user="Ivan M" uid="57845" visible="true" version="1" changeset="2499270" timestamp="2009-09-16T07:51:43Z"/>
 <node id="497517140" lat="49.1687608" lon="16.5606891" user="Ivan M" uid="57845" visible="true" version="1" changeset="2499270" timestamp="2009-09-16T07:51:43Z"/>
 <node id="497517143" lat="49.1687626" lon="16.5605797" user="Ivan M" uid="57845" visible="true" version="1" changeset="2499270" timestamp="2009-09-16T07:51:43Z"/>
 <node id="497517144" lat="49.1688747" lon="16.5605779" user="Ivan M" uid="57845" visible="true" version="1" changeset="2499270" timestamp="2009-09-16T07:51:43Z"/>
 <node id="497517146" lat="49.1685964" lon="16.5606873" user="Ivan M" uid="57845" visible="true" version="1" changeset="2499270" timestamp="2009-09-16T07:51:43Z"/>
 <node id="497517149" lat="49.1685973" lon="16.5606376" user="Ivan M" uid="57845" visible="true" version="1" changeset="2499270" timestamp="2009-09-16T07:51:43Z"/>
 <node id="497517151" lat="49.1685304" lon="16.5606367" user="Ivan M" uid="57845" visible="true" version="1" changeset="2499270" timestamp="2009-09-16T07:51:43Z"/>
 <node id="497517153" lat="49.1685313" lon="16.5604822" user="Ivan M" uid="57845" visible="true" version="1" changeset="2499270" timestamp="2009-09-16T07:51:44Z"/>
 <node id="497517155" lat="49.1685955" lon="16.5604822" user="Ivan M" uid="57845" visible="true" version="1" changeset="2499270" timestamp="2009-09-16T07:51:44Z"/>
 <node id="497517158" lat="49.1685955" lon="16.5604505" user="Ivan M" uid="57845" visible="true" version="1" changeset="2499270" timestamp="2009-09-16T07:51:44Z"/>
 <node id="497517160" lat="49.1686967" lon="16.5604478" user="Ivan M" uid="57845" visible="true" version="1" changeset="2499270" timestamp="2009-09-16T07:51:44Z"/>
 <node id="497517162" lat="49.1686967" lon="16.5605816" user="Ivan M" uid="57845" visible="true" version="1" changeset="2499270" timestamp="2009-09-16T07:51:44Z"/>
 <node id="497517166" lat="49.1685307" lon="16.5605861" user="Ivan M" uid="57845" visible="true" version="1" changeset="2499270" timestamp="2009-09-16T07:51:44Z"/>
 <node id="497517168" lat="49.1683678" lon="16.5605870" user="Ivan M" uid="57845" visible="true" version="1" changeset="2499270" timestamp="2009-09-16T07:51:44Z"/>
 <node id="497517172" lat="49.1683669" lon="16.5605355" user="Ivan M" uid="57845" visible="true" version="1" changeset="2499270" timestamp="2009-09-16T07:51:44Z"/>
 <node id="497517174" lat="49.1683009" lon="16.5605373" user="Ivan M" uid="57845" visible="true" version="1" changeset="2499270" timestamp="2009-09-16T07:51:44Z"/>
 <node id="497517177" lat="49.1683000" lon="16.5603773" user="Ivan M" uid="57845" visible="true" version="1" changeset="2499270" timestamp="2009-09-16T07:51:44Z"/>
 <node id="497517179" lat="49.1683705" lon="16.5603773" user="Ivan M" uid="57845" visible="true" version="1" changeset="2499270" timestamp="2009-09-16T07:51:44Z"/>
 <node id="497517182" lat="49.1683696" lon="16.5603448" user="Ivan M" uid="57845" visible="true" version="1" changeset="2499270" timestamp="2009-09-16T07:51:44Z"/>
 <node id="497517189" lat="49.1684681" lon="16.5603457" user="Ivan M" uid="57845" visible="true" version="1" changeset="2499270" timestamp="2009-09-16T07:51:44Z"/>
 <node id="497517191" lat="49.1684681" lon="16.5604831" user="Ivan M" uid="57845" visible="true" version="1" changeset="2499270" timestamp="2009-09-16T07:51:44Z"/>
 <node id="497582202" lat="49.1690328" lon="16.5630934" user="Ivan M" uid="57845" visible="true" version="1" changeset="2500243" timestamp="2009-09-16T09:58:02Z"/>
 <node id="497582203" lat="49.1690779" lon="16.5630400" user="Ivan M" uid="57845" visible="true" version="1" changeset="2500243" timestamp="2009-09-16T09:58:02Z"/>
 <node id="497582204" lat="49.1690930" lon="16.5624689" user="Ivan M" uid="57845" visible="true" version="1" changeset="2500243" timestamp="2009-09-16T09:58:03Z"/>
 <node id="497582211" lat="49.1689733" lon="16.5636602" user="Ivan M" uid="57845" visible="true" version="1" changeset="2500243" timestamp="2009-09-16T09:58:03Z"/>
 <node id="497582212" lat="49.1686204" lon="16.5635272" user="Ivan M" uid="57845" visible="true" version="1" changeset="2500243" timestamp="2009-09-16T09:58:03Z"/>
 <node id="497582213" lat="49.1685943" lon="16.5635783" user="Ivan M" uid="57845" visible="true" version="1" changeset="2500243" timestamp="2009-09-16T09:58:03Z"/>
 <node id="497582257" lat="49.1694045" lon="16.5612300" user="Ivan M" uid="57845" visible="true" version="1" changeset="2500243" timestamp="2009-09-16T09:58:04Z"/>
 <node id="497582258" lat="49.1693733" lon="16.5607009" user="Ivan M" uid="57845" visible="true" version="1" changeset="2500243" timestamp="2009-09-16T09:58:04Z"/>
 <node id="497582259" lat="49.1693733" lon="16.5601472" user="Ivan M" uid="57845" visible="true" version="1" changeset="2500243" timestamp="2009-09-16T09:58:05Z"/>
 <node id="497582292" lat="49.1693240" lon="16.5611943" user="Ivan M" uid="57845" visible="true" version="1" changeset="2500243" timestamp="2009-09-16T09:58:06Z"/>
 <node id="497582293" lat="49.1692768" lon="16.5612345" user="Ivan M" uid="57845" visible="true" version="1" changeset="2500243" timestamp="2009-09-16T09:58:06Z"/>
 <node id="497582294" lat="49.1689765" lon="16.5625290" user="Ivan M" uid="57845" visible="true" version="1" changeset="2500243" timestamp="2009-09-16T09:58:06Z"/>
 <node id="497582295" lat="49.1687610" lon="16.5625682" user="Ivan M" uid="57845" visible="true" version="1" changeset="2500243" timestamp="2009-09-16T09:58:06Z"/>
 <node id="497582296" lat="49.1687644" lon="16.5623470" user="Ivan M" uid="57845" visible="true" version="1" changeset="2500243" timestamp="2009-09-16T09:58:07Z"/>
 <node id="506460635" lat="49.1693906" lon="16.5601636" user="Ivan M" uid="57845" visible="true" version="1" changeset="2602368" timestamp="2009-09-24T07:37:26Z"/>
 <node id="651957496" lat="49.1689100" lon="16.5636720" user="BiIbo" uid="3516" visible="true" version="1" changeset="3957856" timestamp="2010-02-23T20:22:15Z"/>
 <node id="651957497" lat="49.1689610" lon="16.5636720" user="BiIbo" uid="3516" visible="true" version="1" changeset="3957856" timestamp="2010-02-23T20:22:15Z"/>
 <node id="1278034363" lat="49.1688535" lon="16.5625273" user="Zdeněk Zavadil" uid="64743" visible="true" version="1" changeset="8090990" timestamp="2011-05-09T09:27:18Z"/>
 <node id="1278034372" lat="49.1688666" lon="16.5611196" user="Zdeněk Zavadil" uid="64743" visible="true" version="1" changeset="8090990" timestamp="2011-05-09T09:27:18Z"/>
 <node id="1278034383" lat="49.1687272" lon="16.5610371" user="Zdeněk Zavadil" uid="64743" visible="true" version="1" changeset="8090990" timestamp="2011-05-09T09:27:19Z"/>
 <node id="1278034388" lat="49.1690807" lon="16.5611316" user="Zdeněk Zavadil" uid="64743" visible="true" version="1" changeset="8090990" timestamp="2011-05-09T09:27:19Z"/>
 <node id="1278034423" lat="49.1689344" lon="16.5611064" user="Zdeněk Zavadil" uid="64743" visible="true" version="1" changeset="8090990" timestamp="2011-05-09T09:27:21Z"/>
 <node id="1278034424" lat="49.1687945" lon="16.5610556" user="Zdeněk Zavadil" uid="64743" visible="true" version="1" changeset="8090990" timestamp="2011-05-09T09:27:21Z"/>
 <node id="1278034429" lat="49.1692309" lon="16.5611211" user="Zdeněk Zavadil" uid="64743" visible="true" version="1" changeset="8090990" timestamp="2011-05-09T09:27:21Z"/>
 <node id="1278034441" lat="49.1683146" lon="16.5596807" user="Zdeněk Zavadil" uid="64743" visible="true" version="1" changeset="8090990" timestamp="2011-05-09T09:27:22Z"/>
 <node id="1278034458" lat="49.1692412" lon="16.5597433" user="Zdeněk Zavadil" uid="64743" visible="true" version="1" changeset="8090990" timestamp="2011-05-09T09:27:22Z"/>
 <node id="1278034461" lat="49.1683075" lon="16.5626337" user="Zdeněk Zavadil" uid="64743" visible="true" version="1" changeset="8090990" timestamp="2011-05-09T09:27:22Z"/>
 <node id="1278034463" lat="49.1692757" lon="16.5611659" user="Zdeněk Zavadil" uid="64743" visible="true" version="1" changeset="8090990" timestamp="2011-05-09T09:27:23Z"/>
 <node id="1278034471" lat="49.1693979" lon="16.5597697" user="Zdeněk Zavadil" uid="64743" visible="true" version="1" changeset="8090990" timestamp="2011-05-09T09:27:23Z"/>
 <node id="1278034475" lat="49.1689912" lon="16.5624655" user="Zdeněk Zavadil" uid="64743" visible="true" version="1" changeset="8090990" timestamp="2011-05-09T09:27:23Z"/>
 <node id="1278034497" lat="49.1693130" lon="16.5597567" user="Zdeněk Zavadil" uid="64743" visible="true" version="1" changeset="8090990" timestamp="2011-05-09T09:27:24Z">
  <tag k="highway" v="crossing"/>
  <tag k="source" v="cuzk:km;survey"/>
 </node>
 <node id="1278034500" lat="49.1687621" lon="16.5624979" user="Zdeněk Zavadil" uid="64743" visible="true" version="1" changeset="8090990" timestamp="2011-05-09T09:27:25Z"/>
 <node id="1278034509" lat="49.1688616" lon="16.5617756" user="Zdeněk Zavadil" uid="64743" visible="true" version="1" changeset="8090990" timestamp="2011-05-09T09:27:25Z"/>
 <node id="1278034511" lat="49.1692136" lon="16.5596721" user="Zdeněk Zavadil" uid="64743" visible="true" version="1" changeset="8090990" timestamp="2011-05-09T09:27:25Z"/>
 <node id="1278034519" lat="49.1687254" lon="16.5608682" user="Zdeněk Zavadil" uid="64743" visible="true" version="1" changeset="8090990" timestamp="2011-05-09T09:27:25Z"/>
 <node id="1278034520" lat="49.1688660" lon="16.5612055" user="Zdeněk Zavadil" uid="64743" visible="true" version="1" changeset="8090990" timestamp="2011-05-09T09:27:25Z"/>
 <node id="1278034531" lat="49.1689497" lon="16.5610380" user="Zdeněk Zavadil" uid="64743" visible="true" version="1" changeset="8090990" timestamp="2011-05-09T09:27:26Z"/>
 <node id="2184505157" lat="49.1683005" lon="16.5607956" user="hanoj" uid="4788" visible="true" version="1" changeset="15239391" timestamp="2013-03-03T20:51:07Z"/>
 <node id="2184505158" lat="49.1683016" lon="16.5612948" user="hanoj" uid="4788" visible="true" version="1" changeset="15239391" timestamp="2013-03-03T20:51:08Z"/>
 <node id="2184505159" lat="49.1684444" lon="16.5613703" user="hanoj" uid="4788" visible="true" version="1" changeset="15239391" timestamp="2013-03-03T20:51:08Z"/>
 <node id="2184505160" lat="49.1686162" lon="16.5612882" user="hanoj" uid="4788" visible="true" version="1" changeset="15239391" timestamp="2013-03-03T20:51:08Z"/>
 <node id="2184505161" lat="49.1686527" lon="16.5609450" user="hanoj" uid="4788" visible="true" version="1" changeset="15239391" timestamp="2013-03-03T20:51:08Z"/>
 <node id="281257487" lat="49.1683397" lon="16.5595291" user="Zdeněk Zavadil" uid="64743" visible="true" version="3" changeset="8090990" timestamp="2011-05-09T09:27:34Z"/>
 <node id="281257530" lat="49.1693326" lon="16.5595344" user="Zdeněk Zavadil" uid="64743" visible="true" version="3" changeset="8090990" timestamp="2011-05-09T09:27:39Z"/>
 <node id="287201389" lat="49.1696007" lon="16.5637973" user="hanoj" uid="4788" visible="true" version="2" changeset="570577" timestamp="2008-09-08T06:16:53Z"/>
 <node id="287201474" lat="49.1694840" lon="16.5623492" user="Ivan M" uid="57845" visible="true" version="4" changeset="2491887" timestamp="2009-09-15T13:07:52Z"/>
 <node id="287201503" lat="49.1695642" lon="16.5629682" user="hanoj" uid="4788" visible="true" version="2" changeset="570577" timestamp="2008-09-08T06:16:53Z"/>
 <node id="287842620" lat="49.1696368" lon="16.5584024" user="Ivan M" uid="57845" visible="true" version="3" changeset="2602368" timestamp="2009-09-24T07:37:36Z"/>
 <node id="287842622" lat="49.1694341" lon="16.5604765" user="Ivan M" uid="57845" visible="true" version="2" changeset="2602368" timestamp="2009-09-24T07:37:36Z"/>
 <node id="287842623" lat="49.1700638" lon="16.5604727" user="Ivan M" uid="57845" visible="true" version="3" changeset="2602368" timestamp="2009-09-24T07:37:35Z"/>
 <node id="287842625" lat="49.1700739" lon="16.5605802" user="Ivan M" uid="57845" visible="true" version="2" changeset="2602368" timestamp="2009-09-24T07:37:36Z"/>
 <node id="287842626" lat="49.1705449" lon="16.5605927" user="Ivan M" uid="57845" visible="true" version="2" changeset="2602368" timestamp="2009-09-24T07:37:36Z"/>
 <node id="287842628" lat="49.1710425" lon="16.5603688" user="Ivan M" uid="57845" visible="true" version="2" changeset="2602368" timestamp="2009-09-24T07:37:36Z"/>
 <node id="287842629" lat="49.1710468" lon="16.5588380" user="Ivan M" uid="57845" visible="true" version="2" changeset="2500243" timestamp="2009-09-16T09:58:10Z"/>
 <node id="287842631" lat="49.1709844" lon="16.5586762" user="Ivan M" uid="57845" visible="true" version="2" changeset="2602368" timestamp="2009-09-24T07:37:36Z"/>
 <node id="288138977" lat="49.1699282" lon="16.5607004" user="hanoj" uid="4788" visible="true" version="2" changeset="570577" timestamp="2008-09-08T06:17:09Z"/>
 <node id="288138979" lat="49.1696356" lon="16.5641551" user="Ivan M" uid="57845" visible="true" version="4" changeset="2500243" timestamp="2009-09-16T09:58:10Z"/>
 <node id="288139000" lat="49.1695334" lon="16.5659667" user="honny" uid="54223" visible="true" version="4" changeset="3216803" timestamp="2009-11-25T22:34:19Z"/>
 <node id="294974147" lat="49.1694490" lon="16.5621227" user="hanoj" uid="4788" visible="true" version="1" changeset="570577" timestamp="2008-09-08T06:16:42Z"/>
 <node id="294974149" lat="49.1694328" lon="16.5595216" user="Ivan M" uid="57845" visible="true" version="2" changeset="2602368" timestamp="2009-09-24T07:37:36Z"/>
 <node id="294974151" lat="49.1696443" lon="16.5639100" user="hanoj" uid="4788" visible="true" version="1" changeset="570577" timestamp="2008-09-08T06:16:42Z"/>
 <node id="294980686" lat="49.1694631" lon="16.5675443" user="Ivan M" uid="57845" visible="true" version="1" changeset="569465" timestamp="2008-09-08T07:55:13Z"/>
 <node id="294980974" lat="49.1696504" lon="16.5637966" user="Ivan M" uid="57845" visible="true" version="1" changeset="569465" timestamp="2008-09-08T08:00:02Z"/>
 <node id="316038985" lat="49.1682232" lon="16.5603040" user="honny" uid="54223" visible="true" version="1" changeset="10163" timestamp="2008-12-01T12:53:18Z"/>
 <node id="316038988" lat="49.1681939" lon="16.5606697" user="Zdeněk Zavadil" uid="64743" visible="true" version="2" changeset="8090990" timestamp="2011-05-09T09:27:41Z"/>
 <node id="316038991" lat="49.1682282" lon="16.5617712" user="Zdeněk Zavadil" uid="64743" visible="true" version="2" changeset="8090990" timestamp="2011-05-09T09:27:43Z"/>
 <node id="316039003" lat="49.1686881" lon="16.5644253" user="Zdeněk Zavadil" uid="64743" visible="true" version="2" changeset="8090990" timestamp="2011-05-09T09:27:36Z"/>
 <node id="316039006" lat="49.1686911" lon="16.5647523" user="honny" uid="54223" visible="true" version="1" changeset="10163" timestamp="2008-12-01T12:53:19Z"/>
 <node id="497033109" lat="49.1694641" lon="16.5630798" user="Ivan M" uid="57845" visible="true" version="1" changeset="2491887" timestamp="2009-09-15T13:07:29Z"/>
 <node id="497033110" lat="49.1692753" lon="16.5638921" user="Ivan M" uid="57845" visible="true" version="1" changeset="2491887" timestamp="2009-09-15T13:07:29Z"/>
 <node id="497582199" lat="49.1695841" lon="16.5652287" user="Ivan M" uid="57845" visible="true" version="1" changeset="2500243" timestamp="2009-09-16T09:58:02Z"/>
 <node id="497582200" lat="49.1696132" lon="16.5643830" user="Ivan M" uid="57845" visible="true" version="1" changeset="2500243" timestamp="2009-09-16T09:58:02Z"/>
 <node id="497582205" lat="49.1695130" lon="16.5625731" user="Ivan M" uid="57845" visible="true" version="1" changeset="2500243" timestamp="2009-09-16T09:58:03Z"/>
 <node id="497582207" lat="49.1691801" lon="16.5638753" user="Ivan M" uid="57845" visible="true" version="1" changeset="2500243" timestamp="2009-09-16T09:58:03Z"/>
 <node id="497582209" lat="49.1691005" lon="16.5638801" user="Ivan M" uid="57845" visible="true" version="1" changeset="2500243" timestamp="2009-09-16T09:58:03Z"/>
 <node id="497582210" lat="49.1689793" lon="16.5638218" user="Ivan M" uid="57845" visible="true" version="1" changeset="2500243" timestamp="2009-09-16T09:58:03Z"/>
 <node id="497582215" lat="49.1696613" lon="16.5636317" user="Ivan M" uid="57845" visible="true" version="1" changeset="2500243" timestamp="2009-09-16T09:58:03Z"/>
 <node id="497582216" lat="49.1696673" lon="16.5632681" user="Ivan M" uid="57845" visible="true" version="1" changeset="2500243" timestamp="2009-09-16T09:58:03Z"/>
 <node id="497582217" lat="49.1696506" lon="16.5630103" user="Ivan M" uid="57845" visible="true" version="1" changeset="2500243" timestamp="2009-09-16T09:58:03Z"/>
 <node id="497582218" lat="49.1695235" lon="16.5621225" user="Ivan M" uid="57845" visible="true" version="1" changeset="2500243" timestamp="2009-09-16T09:58:03Z"/>
 <node id="497582254" lat="49.1701368" lon="16.5607006" user="Ivan M" uid="57845" visible="true" version="1" changeset="2500243" timestamp="2009-09-16T09:58:04Z"/>
 <node id="497582255" lat="49.1699675" lon="16.5614291" user="Ivan M" uid="57845" visible="true" version="1" changeset="2500243" timestamp="2009-09-16T09:58:04Z"/>
 <node id="497582256" lat="49.1698174" lon="16.5614142" user="Ivan M" uid="57845" visible="true" version="1" changeset="2500243" timestamp="2009-09-16T09:58:04Z"/>
 <node id="497582260" lat="49.1694134" lon="16.5595308" user="Ivan M" uid="57845" visible="true" version="1" changeset="2500243" timestamp="2009-09-16T09:58:05Z"/>
 <node id="497582263" lat="49.1695189" lon="16.5588372" user="Ivan M" uid="57845" visible="true" version="1" changeset="2500243" timestamp="2009-09-16T09:58:05Z"/>
 <node id="497582264" lat="49.1696541" lon="16.5582371" user="Ivan M" uid="57845" visible="true" version="1" changeset="2500243" timestamp="2009-09-16T09:58:05Z"/>
 <node id="497582265" lat="49.1697150" lon="16.5580529" user="Ivan M" uid="57845" visible="true" version="1" changeset="2500243" timestamp="2009-09-16T09:58:05Z"/>
 <node id="497582266" lat="49.1698412" lon="16.5577529" user="Ivan M" uid="57845" visible="true" version="1" changeset="2500243" timestamp="2009-09-16T09:58:05Z"/>
 <node id="497582267" lat="49.1699704" lon="16.5576163" user="Ivan M" uid="57845" visible="true" version="1" changeset="2500243" timestamp="2009-09-16T09:58:05Z"/>
 <node id="497582268" lat="49.1700477" lon="16.5576133" user="Ivan M" uid="57845" visible="true" version="1" changeset="2500243" timestamp="2009-09-16T09:58:05Z"/>
 <node id="497582269" lat="49.1706062" lon="16.5572316" user="Ivan M" uid="57845" visible="true" version="1" changeset="2500243" timestamp="2009-09-16T09:58:06Z"/>
 <node id="497582283" lat="49.1696019" lon="16.5613181" user="Ivan M" uid="57845" visible="true" version="1" changeset="2500243" timestamp="2009-09-16T09:58:06Z"/>
 <node id="497582288" lat="49.1694506" lon="16.5617440" user="Ivan M" uid="57845" visible="true" version="1" changeset="2500243" timestamp="2009-09-16T09:58:06Z"/>
 <node id="497582297" lat="49.1682488" lon="16.5621274" user="Ivan M" uid="57845" visible="true" version="1" changeset="2500243" timestamp="2009-09-16T09:58:07Z"/>
 <node id="506460628" lat="49.1700222" lon="16.5584148" user="Ivan M" uid="57845" visible="true" version="1" changeset="2602368" timestamp="2009-09-24T07:37:26Z"/>
 <node id="506460629" lat="49.1701189" lon="16.5585198" user="Ivan M" uid="57845" visible="true" version="1" changeset="2602368" timestamp="2009-09-24T07:37:26Z"/>
 <node id="506460630" lat="49.1705160" lon="16.5585156" user="Ivan M" uid="57845" visible="true" version="1" changeset="2602368" timestamp="2009-09-24T07:37:26Z"/>
 <node id="506460631" lat="49.1705222" lon="16.5586761" user="Ivan M" uid="57845" visible="true" version="1" changeset="2602368" timestamp="2009-09-24T07:37:26Z"/>
 <node id="506460632" lat="49.1704090" lon="16.5606224" user="Ivan M" uid="57845" visible="true" version="1" changeset="2602368" timestamp="2009-09-24T07:37:26Z"/>
 <node id="506460633" lat="49.1703720" lon="16.5605812" user="Ivan M" uid="57845" visible="true" version="1" changeset="2602368" timestamp="2009-09-24T07:37:26Z"/>
 <node id="506460634" lat="49.1694276" lon="16.5602438" user="Ivan M" uid="57845" visible="true" version="1" changeset="2602368" timestamp="2009-09-24T07:37:26Z"/>
 <node id="506460636" lat="49.1695285" lon="16.5588798" user="Ivan M" uid="57845" visible="true" version="1" changeset="2602368" timestamp="2009-09-24T07:37:26Z"/>
 <node id="506460639" lat="49.1710456" lon="16.5593908" user="Petr Dlouhý" uid="17615" visible="true" version="2" changeset="2846183" timestamp="2009-10-14T15:19:37Z"/>
 <node id="506460640" lat="49.1710439" lon="16.5597378" user="Petr Dlouhý" uid="17615" visible="true" version="2" changeset="2846183" timestamp="2009-10-14T15:19:37Z"/>
 <node id="506460664" lat="49.1705210" lon="16.5586461" user="Ivan M" uid="57845" visible="true" version="1" changeset="2602368" timestamp="2009-09-24T07:37:27Z"/>
 <node id="571259856" lat="49.1695200" lon="16.5662672" user="honny" uid="54223" visible="true" version="1" changeset="3216803" timestamp="2009-11-25T22:34:14Z"/>
 <node id="651957494" lat="49.1689610" lon="16.5637750" user="BiIbo" uid="3516" visible="true" version="1" changeset="3957856" timestamp="2010-02-23T20:22:15Z"/>
 <node id="651957495" lat="49.1689120" lon="16.5637750" user="BiIbo" uid="3516" visible="true" version="1" changeset="3957856" timestamp="2010-02-23T20:22:15Z"/>
 <node id="1278034374" lat="49.1692257" lon="16.5595344" user="Zdeněk Zavadil" uid="64743" visible="true" version="1" changeset="8090990" timestamp="2011-05-09T09:27:18Z">
  <tag k="highway" v="crossing"/>
  <tag k="source" v="cuzk:km;survey"/>
 </node>
 <node id="1278034390" lat="49.1683649" lon="16.5593998" user="Zdeněk Zavadil" uid="64743" visible="true" version="1" changeset="8090990" timestamp="2011-05-09T09:27:19Z"/>
 <node id="1278034482" lat="49.1685709" lon="16.5639959" user="Zdeněk Zavadil" uid="64743" visible="true" version="1" changeset="8090990" timestamp="2011-05-09T09:27:23Z"/>
 <node id="1278034491" lat="49.1687288" lon="16.5594044" user="Zdeněk Zavadil" uid="64743" visible="true" version="1" changeset="8090990" timestamp="2011-05-09T09:27:24Z"/>
 <node id="1278034496" lat="49.1683303" lon="16.5595856" user="Zdeněk Zavadil" uid="64743" visible="true" version="1" changeset="8090990" timestamp="2011-05-09T09:27:24Z"/>
 <node id="1278034523" lat="49.1692395" lon="16.5594108" user="Zdeněk Zavadil" uid="64743" visible="true" version="1" changeset="8090990" timestamp="2011-05-09T09:27:25Z"/>
 <node id="1278034528" lat="49.1686256" lon="16.5642222" user="Zdeněk Zavadil" uid="64743" visible="true" version="1" changeset="8090990" timestamp="2011-05-09T09:27:26Z"/>
 <way id="40850612" user="Ivan M" uid="57845" visible="true" version="1" changeset="2491887" timestamp="2009-09-15T13:07:51Z">
  <nd ref="497033516"/>
  <nd ref="497033519"/>
  <nd ref="497033521"/>
  <nd ref="497033522"/>
  <nd ref="497033529"/>
  <nd ref="497033523"/>
  <nd ref="497033524"/>
  <nd ref="497033525"/>
  <nd ref="497033527"/>
  <nd ref="497033528"/>
  <nd ref="497033517"/>
  <nd ref="497033516"/>
  <tag k="building" v="yes"/>
  <tag k="source" v="cuzk:km"/>
 </way>
 <way id="40883004" user="Ivan M" uid="57845" visible="true" version="1" changeset="2499270" timestamp="2009-09-16T07:51:53Z">
  <nd ref="497517120"/>
  <nd ref="497517126"/>
  <nd ref="497517128"/>
  <nd ref="497517130"/>
  <nd ref="497517132"/>
  <nd ref="497517134"/>
  <nd ref="497517136"/>
  <nd ref="497517138"/>
  <nd ref="497517140"/>
  <nd ref="497517143"/>
  <nd ref="497517144"/>
  <nd ref="497517109"/>
  <nd ref="497517120"/>
  <tag k="building" v="yes"/>
  <tag k="source" v="cuzk:km"/>
 </way>
 <way id="40883001" user="Ivan M" uid="57845" visible="true" version="1" changeset="2499270" timestamp="2009-09-16T07:51:52Z">
  <nd ref="497517067"/>
  <nd ref="497517069"/>
  <nd ref="497517072"/>
  <nd ref="497517073"/>
  <nd ref="497517076"/>
  <nd ref="497517079"/>
  <nd ref="497517094"/>
  <nd ref="497517081"/>
  <nd ref="497517082"/>
  <nd ref="497517085"/>
  <nd ref="497517088"/>
  <nd ref="497517090"/>
  <nd ref="497517093"/>
  <nd ref="497517067"/>
  <tag k="building" v="yes"/>
  <tag k="source" v="cuzk:km"/>
 </way>
 <way id="40850581" user="Ivan M" uid="57845" visible="true" version="1" changeset="2491887" timestamp="2009-09-15T13:07:47Z">
  <nd ref="287201503"/>
  <nd ref="497033109"/>
  <nd ref="497033111"/>
  <nd ref="497033110"/>
  <tag k="highway" v="service"/>
  <tag k="service" v="parking_aisle"/>
  <tag k="source" v="cuzk:km"/>
 </way>
 <way id="40883003" user="Ivan M" uid="57845" visible="true" version="1" changeset="2499270" timestamp="2009-09-16T07:51:52Z">
  <nd ref="497517094"/>
  <nd ref="497517098"/>
  <nd ref="497517100"/>
  <nd ref="497517103"/>
  <nd ref="497517105"/>
  <nd ref="497517107"/>
  <nd ref="497517120"/>
  <nd ref="497517109"/>
  <nd ref="497517112"/>
  <nd ref="497517114"/>
  <nd ref="497517116"/>
  <nd ref="497517117"/>
  <nd ref="497517081"/>
  <nd ref="497517094"/>
  <tag k="building" v="yes"/>
  <tag k="source" v="cuzk:km"/>
 </way>
 <way id="26228042" user="Zdeněk Zavadil" uid="64743" visible="true" version="7" changeset="8090990" timestamp="2011-05-09T09:27:37Z">
  <nd ref="287201389"/>
  <nd ref="287201503"/>
  <nd ref="497582205"/>
  <nd ref="287201474"/>
  <nd ref="294974147"/>
  <nd ref="287201509"/>
  <nd ref="497582292"/>
  <nd ref="287842615"/>
  <nd ref="294974148"/>
  <nd ref="287201511"/>
  <nd ref="1278034497"/>
  <nd ref="281257530"/>
  <tag k="highway" v="residential"/>
  <tag k="name" v="Dunajská"/>
  <tag k="source" v="uhul:ortofoto"/>
 </way>
 <way id="112448637" user="Zdeněk Zavadil" uid="64743" visible="true" version="1" changeset="8090990" timestamp="2011-05-09T09:27:27Z">
  <nd ref="1278034500"/>
  <nd ref="1278034363"/>
  <nd ref="1278034475"/>
  <tag k="highway" v="footway"/>
  <tag k="source" v="cuzk:km;uhul:ortofoto"/>
 </way>
 <way id="26302253" user="Ivan M" uid="57845" visible="true" version="9" changeset="2500243" timestamp="2009-09-16T09:58:11Z">
  <nd ref="294974148"/>
  <nd ref="497582258"/>
  <nd ref="288138977"/>
  <tag k="highway" v="footway"/>
 </way>
 <way id="112448653" user="Zdeněk Zavadil" uid="64743" visible="true" version="1" changeset="8090990" timestamp="2011-05-09T09:27:29Z">
  <nd ref="316038988"/>
  <nd ref="1278034519"/>
  <nd ref="1278034383"/>
  <nd ref="1278034424"/>
  <nd ref="1278034531"/>
  <tag k="highway" v="footway"/>
  <tag k="source" v="cuzk:km;uhul:ortofoto"/>
 </way>
 <way id="40887820" user="Ivan M" uid="57845" visible="true" version="1" changeset="2500243" timestamp="2009-09-16T09:58:07Z">
  <nd ref="316038997"/>
  <nd ref="497582202"/>
  <nd ref="497582203"/>
  <nd ref="497582204"/>
  <tag k="highway" v="footway"/>
  <tag k="source" v="cuzk:km"/>
 </way>
 <way id="40850583" user="Ivan M" uid="57845" visible="true" version="1" changeset="2491887" timestamp="2009-09-15T13:07:48Z">
  <nd ref="497033120"/>
  <nd ref="497033121"/>
  <nd ref="497033122"/>
  <nd ref="497033124"/>
  <nd ref="497033125"/>
  <nd ref="497033126"/>
  <nd ref="497033135"/>
  <nd ref="497033127"/>
  <nd ref="497033129"/>
  <nd ref="497033130"/>
  <nd ref="497033131"/>
  <nd ref="497033132"/>
  <nd ref="497033133"/>
  <nd ref="497033120"/>
  <tag k="building" v="yes"/>
  <tag k="source" v="cuzk:km"/>
 </way>
 <way id="40887840" user="Zdeněk Zavadil" uid="64743" visible="true" version="2" changeset="8090990" timestamp="2011-05-09T09:27:43Z">
  <nd ref="497582295"/>
  <nd ref="1278034500"/>
  <nd ref="497582296"/>
  <nd ref="497582297"/>
  <tag k="highway" v="footway"/>
  <tag k="source" v="cuzk:km"/>
 </way>
 <way id="112448660" user="Zdeněk Zavadil" uid="64743" visible="true" version="1" changeset="8090990" timestamp="2011-05-09T09:27:30Z">
  <nd ref="1278034458"/>
  <nd ref="1278034511"/>
  <nd ref="1278034374"/>
  <nd ref="1278034523"/>
  <nd ref="1278034491"/>
  <nd ref="1278034390"/>
  <tag k="highway" v="footway"/>
  <tag k="source" v="cuzk:km;uhul:ortofoto"/>
 </way>
 <way id="40850586" user="Ivan M" uid="57845" visible="true" version="1" changeset="2491887" timestamp="2009-09-15T13:07:48Z">
  <nd ref="497033155"/>
  <nd ref="497033160"/>
  <nd ref="497033161"/>
  <nd ref="497033162"/>
  <nd ref="497033169"/>
  <nd ref="497033163"/>
  <nd ref="497033164"/>
  <nd ref="497033166"/>
  <nd ref="497033167"/>
  <nd ref="497033168"/>
  <nd ref="497033156"/>
  <nd ref="497033155"/>
  <tag k="building" v="yes"/>
  <tag k="source" v="cuzk:km"/>
 </way>
 <way id="208129061" user="hanoj" uid="4788" visible="true" version="1" changeset="15239391" timestamp="2013-03-03T20:51:08Z">
  <nd ref="2184505161"/>
  <nd ref="2184505157"/>
  <nd ref="2184505158"/>
  <nd ref="2184505159"/>
  <nd ref="2184505160"/>
  <nd ref="2184505161"/>
  <tag k="amenity" v="parking"/>
  <tag k="parking" v="surface"/>
  <tag k="source" v="cuzk:km"/>
 </way>
 <way id="51104702" user="BiIbo" uid="3516" visible="true" version="1" changeset="3957856" timestamp="2010-02-23T20:22:16Z">
  <nd ref="651957494"/>
  <nd ref="651957495"/>
  <nd ref="651957496"/>
  <nd ref="651957497"/>
  <nd ref="651957494"/>
  <tag k="building" v="yes"/>
  <tag k="source" v="cuzk:km"/>
 </way>
 <way id="26302254" user="Zdeněk Zavadil" uid="64743" visible="true" version="11" changeset="8090990" timestamp="2011-05-09T09:27:33Z">
  <nd ref="497582269"/>
  <nd ref="497582268"/>
  <nd ref="497582267"/>
  <nd ref="497582266"/>
  <nd ref="497582265"/>
  <nd ref="497582264"/>
  <nd ref="497582263"/>
  <nd ref="497582260"/>
  <nd ref="1278034471"/>
  <nd ref="497582259"/>
  <nd ref="497582258"/>
  <nd ref="497582257"/>
  <nd ref="497582288"/>
  <nd ref="497582218"/>
  <nd ref="497582217"/>
  <nd ref="497582216"/>
  <nd ref="497582215"/>
  <nd ref="294980974"/>
  <nd ref="294974151"/>
  <nd ref="288138979"/>
  <nd ref="497582200"/>
  <nd ref="497582199"/>
  <nd ref="288139000"/>
  <nd ref="571259856"/>
  <nd ref="294980686"/>
  <tag k="highway" v="footway"/>
 </way>
 <way id="40850613" user="Ivan M" uid="57845" visible="true" version="1" changeset="2491887" timestamp="2009-09-15T13:07:51Z">
  <nd ref="497033529"/>
  <nd ref="497033530"/>
  <nd ref="497033531"/>
  <nd ref="497033532"/>
  <nd ref="497033533"/>
  <nd ref="497033534"/>
  <nd ref="497033535"/>
  <nd ref="497033536"/>
  <nd ref="497033538"/>
  <nd ref="497033539"/>
  <nd ref="497033523"/>
  <nd ref="497033529"/>
  <tag k="building" v="yes"/>
  <tag k="source" v="cuzk:km"/>
 </way>
 <way id="40850582" user="Ivan M" uid="57845" visible="true" version="2" changeset="2499270" timestamp="2009-09-16T07:51:56Z">
  <nd ref="287201509"/>
  <nd ref="497033116"/>
  <nd ref="497033118"/>
  <nd ref="497033117"/>
  <nd ref="497033113"/>
  <tag k="highway" v="service"/>
  <tag k="oneway" v="yes"/>
  <tag k="service" v="parking_aisle"/>
 </way>
 <way id="40850611" user="Ivan M" uid="57845" visible="true" version="1" changeset="2491887" timestamp="2009-09-15T13:07:51Z">
  <nd ref="497033506"/>
  <nd ref="497033507"/>
  <nd ref="497033509"/>
  <nd ref="497033510"/>
  <nd ref="497033511"/>
  <nd ref="497033512"/>
  <nd ref="497033513"/>
  <nd ref="497033514"/>
  <nd ref="497033516"/>
  <nd ref="497033517"/>
  <nd ref="497033518"/>
  <nd ref="497033497"/>
  <nd ref="497033506"/>
  <tag k="building" v="yes"/>
  <tag k="source" v="cuzk:km"/>
 </way>
 <way id="26278558" user="hanoj" uid="4788" visible="true" version="7" changeset="15239391" timestamp="2013-03-03T20:51:08Z">
  <nd ref="287842615"/>
  <nd ref="497516956"/>
  <nd ref="1278034423"/>
  <nd ref="1278034372"/>
  <nd ref="497516944"/>
  <nd ref="287842617"/>
  <tag k="highway" v="residential"/>
  <tag k="name" v="Dunajská"/>
  <tag k="source" v="uhul:ortofoto"/>
 </way>
 <way id="40850584" user="Ivan M" uid="57845" visible="true" version="1" changeset="2491887" timestamp="2009-09-15T13:07:48Z">
  <nd ref="497033135"/>
  <nd ref="497033136"/>
  <nd ref="497033137"/>
  <nd ref="497033138"/>
  <nd ref="497033139"/>
  <nd ref="497033140"/>
  <nd ref="497033147"/>
  <nd ref="497033141"/>
  <nd ref="497033142"/>
  <nd ref="497033143"/>
  <nd ref="497033145"/>
  <nd ref="497033146"/>
  <nd ref="497033127"/>
  <nd ref="497033135"/>
  <tag k="building" v="yes"/>
  <tag k="source" v="cuzk:km"/>
 </way>
 <way id="26278559" user="Ivan M" uid="57845" visible="true" version="5" changeset="2602368" timestamp="2009-09-24T07:37:36Z">
  <nd ref="287842620"/>
  <nd ref="506460636"/>
  <nd ref="294974149"/>
  <nd ref="506460635"/>
  <nd ref="506460634"/>
  <nd ref="287842622"/>
  <nd ref="287842623"/>
  <nd ref="287842625"/>
  <nd ref="506460633"/>
  <nd ref="506460632"/>
  <nd ref="287842626"/>
  <nd ref="287842628"/>
  <nd ref="506460640"/>
  <nd ref="506460639"/>
  <nd ref="287842629"/>
  <nd ref="287842631"/>
  <nd ref="506460631"/>
  <nd ref="506460664"/>
  <nd ref="506460630"/>
  <nd ref="506460629"/>
  <nd ref="506460628"/>
  <nd ref="287842620"/>
  <tag k="amenity" v="school"/>
  <tag k="area" v="yes"/>
  <tag k="source" v="uhul:ortofoto"/>
 </way>
 <way id="40883005" user="Ivan M" uid="57845" visible="true" version="1" changeset="2499270" timestamp="2009-09-16T07:51:53Z">
  <nd ref="497517140"/>
  <nd ref="497517146"/>
  <nd ref="497517149"/>
  <nd ref="497517151"/>
  <nd ref="497517166"/>
  <nd ref="497517153"/>
  <nd ref="497517155"/>
  <nd ref="497517158"/>
  <nd ref="497517160"/>
  <nd ref="497517162"/>
  <nd ref="497517143"/>
  <nd ref="497517140"/>
  <tag k="building" v="yes"/>
  <tag k="source" v="cuzk:km"/>
 </way>
 <way id="40887839" user="Zdeněk Zavadil" uid="64743" visible="true" version="2" changeset="8090990" timestamp="2011-05-09T09:27:35Z">
  <nd ref="497582292"/>
  <nd ref="497582293"/>
  <nd ref="1278034475"/>
  <nd ref="497582294"/>
  <tag k="highway" v="footway"/>
  <tag k="source" v="cuzk:km"/>
 </way>
 <way id="40882995" user="Ivan M" uid="57845" visible="true" version="1" changeset="2499270" timestamp="2009-09-16T07:51:52Z">
  <nd ref="287201511"/>
  <nd ref="497516951"/>
  <nd ref="497516952"/>
  <nd ref="497516954"/>
  <nd ref="497516956"/>
  <tag k="highway" v="service"/>
  <tag k="oneway" v="yes"/>
  <tag k="service" v="parking_aisle"/>
  <tag k="source" v="cuzk:km"/>
 </way>
 <way id="112448661" user="Zdeněk Zavadil" uid="64743" visible="true" version="1" changeset="8090990" timestamp="2011-05-09T09:27:30Z">
  <nd ref="316038991"/>
  <nd ref="1278034509"/>
  <nd ref="1278034520"/>
  <nd ref="1278034372"/>
  <tag k="highway" v="footway"/>
  <tag k="source" v="cuzk:km;uhul:ortofoto"/>
 </way>
 <way id="112448639" user="Zdeněk Zavadil" uid="64743" visible="true" version="1" changeset="8090990" timestamp="2011-05-09T09:27:27Z">
  <nd ref="1278034520"/>
  <nd ref="1278034388"/>
  <nd ref="1278034429"/>
  <nd ref="1278034463"/>
  <nd ref="497582293"/>
  <tag k="highway" v="footway"/>
  <tag k="source" v="cuzk:km;uhul:ortofoto"/>
 </way>
 <way id="40887832" user="Ivan M" uid="57845" visible="true" version="1" changeset="2500243" timestamp="2009-09-16T09:58:08Z">
  <nd ref="497582254"/>
  <nd ref="497582255"/>
  <nd ref="497582256"/>
  <nd ref="497582283"/>
  <nd ref="497582257"/>
  <tag k="highway" v="footway"/>
  <tag k="source" v="cuzk:km"/>
 </way>
 <way id="128887083" user="hanoj" uid="4788" visible="true" version="1" changeset="9209418" timestamp="2011-09-04T14:25:25Z">
  <nd ref="281257487"/>
  <nd ref="1278034496"/>
  <nd ref="1278034441"/>
  <nd ref="316038985"/>
  <nd ref="316038988"/>
  <nd ref="316038991"/>
  <nd ref="497582297"/>
  <nd ref="1278034461"/>
  <nd ref="316038997"/>
  <nd ref="316039000"/>
  <nd ref="1278034482"/>
  <nd ref="1278034528"/>
  <nd ref="316039003"/>
  <nd ref="316039006"/>
  <tag k="highway" v="footway"/>
 </way>
 <way id="112448664" user="Zdeněk Zavadil" uid="64743" visible="true" version="1" changeset="8090990" timestamp="2011-05-09T09:27:31Z">
  <nd ref="1278034423"/>
  <nd ref="1278034531"/>
  <nd ref="1278034458"/>
  <nd ref="1278034497"/>
  <nd ref="1278034471"/>
  <tag k="highway" v="footway"/>
  <tag k="source" v="cuzk:km;uhul:ortofoto"/>
 </way>
 <way id="40887822" user="Ivan M" uid="57845" visible="true" version="1" changeset="2500243" timestamp="2009-09-16T09:58:07Z">
  <nd ref="497582207"/>
  <nd ref="497582209"/>
  <nd ref="497582210"/>
  <nd ref="497582211"/>
  <nd ref="497582212"/>
  <nd ref="497582213"/>
  <nd ref="316039000"/>
  <tag k="highway" v="footway"/>
  <tag k="source" v="cuzk:km"/>
 </way>
 <way id="40883006" user="Ivan M" uid="57845" visible="true" version="1" changeset="2499270" timestamp="2009-09-16T07:51:53Z">
  <nd ref="497517166"/>
  <nd ref="497517168"/>
  <nd ref="497517172"/>
  <nd ref="497517174"/>
  <nd ref="497517177"/>
  <nd ref="497517179"/>
  <nd ref="497517182"/>
  <nd ref="497517189"/>
  <nd ref="497517191"/>
  <nd ref="497517153"/>
  <nd ref="497517166"/>
  <tag k="building" v="yes"/>
  <tag k="source" v="cuzk:km"/>
 </way>
 <way id="40850585" user="Ivan M" uid="57845" visible="true" version="1" changeset="2491887" timestamp="2009-09-15T13:07:48Z">
  <nd ref="497033147"/>
  <nd ref="497033148"/>
  <nd ref="497033149"/>
  <nd ref="497033150"/>
  <nd ref="497033151"/>
  <nd ref="497033152"/>
  <nd ref="497033153"/>
  <nd ref="497033154"/>
  <nd ref="497033155"/>
  <nd ref="497033156"/>
  <nd ref="497033158"/>
  <nd ref="497033141"/>
  <nd ref="497033147"/>
  <tag k="building" v="yes"/>
  <tag k="source" v="cuzk:km"/>
 </way>
 <way id="40850609" user="Ivan M" uid="57845" visible="true" version="1" changeset="2491887" timestamp="2009-09-15T13:07:51Z">
  <nd ref="497033457"/>
  <nd ref="497033459"/>
  <nd ref="497033461"/>
  <nd ref="497033463"/>
  <nd ref="497033466"/>
  <nd ref="497033468"/>
  <nd ref="497033486"/>
  <nd ref="497033469"/>
  <nd ref="497033472"/>
  <nd ref="497033474"/>
  <nd ref="497033477"/>
  <nd ref="497033478"/>
  <nd ref="497033480"/>
  <nd ref="497033482"/>
  <nd ref="497033483"/>
  <nd ref="497033457"/>
  <tag k="building" v="yes"/>
  <tag k="source" v="cuzk:km"/>
 </way>
 <way id="40850610" user="Ivan M" uid="57845" visible="true" version="1" changeset="2491887" timestamp="2009-09-15T13:07:51Z">
  <nd ref="497033486"/>
  <nd ref="497033488"/>
  <nd ref="497033490"/>
  <nd ref="497033491"/>
  <nd ref="497033493"/>
  <nd ref="497033495"/>
  <nd ref="497033506"/>
  <nd ref="497033497"/>
  <nd ref="497033498"/>
  <nd ref="497033501"/>
  <nd ref="497033503"/>
  <nd ref="497033504"/>
  <nd ref="497033469"/>
  <nd ref="497033486"/>
  <tag k="building" v="yes"/>
  <tag k="source" v="cuzk:km"/>
 </way>
 <way id="112448662" user="Zdeněk Zavadil" uid="64743" visible="true" version="1" changeset="8090990" timestamp="2011-05-09T09:27:30Z">
  <nd ref="1278034511"/>
  <nd ref="1278034441"/>
  <tag k="highway" v="footway"/>
  <tag k="source" v="cuzk:km;uhul:ortofoto"/>
 </way>
 <way id="26278557" user="Ivan M" uid="57845" visible="true" version="6" changeset="2500243" timestamp="2009-09-16T09:58:13Z">
  <nd ref="287201474"/>
  <nd ref="497033113"/>
  <nd ref="497582204"/>
  <nd ref="497582294"/>
  <nd ref="497033114"/>
  <nd ref="497582295"/>
  <nd ref="497033119"/>
  <nd ref="287842614"/>
  <tag k="highway" v="residential"/>
  <tag k="name" v="Dunajská"/>
  <tag k="source" v="uhul:ortofoto"/>
 </way>
 <way id="40850587" user="Ivan M" uid="57845" visible="true" version="1" changeset="2491887" timestamp="2009-09-15T13:07:48Z">
  <nd ref="497033169"/>
  <nd ref="497033173"/>
  <nd ref="497033174"/>
  <nd ref="497033175"/>
  <nd ref="497033176"/>
  <nd ref="497033177"/>
  <nd ref="497033179"/>
  <nd ref="497033180"/>
  <nd ref="497033181"/>
  <nd ref="497033163"/>
  <nd ref="497033169"/>
  <tag k="building" v="yes"/>
  <tag k="source" v="cuzk:km"/>
 </way>
 <relation id="1739170" user="Petr Dlouhý" uid="17615" visible="true" version="6" changeset="14889244" timestamp="2013-02-02T21:42:58Z">
  <member type="way" ref="16136482" role=""/>
  <member type="way" ref="16136481" role=""/>
  <member type="way" ref="40280244" role=""/>
  <member type="way" ref="203685515" role=""/>
  <member type="way" ref="16136483" role=""/>
  <member type="way" ref="4071898" role=""/>
  <member type="way" ref="25787326" role=""/>
  <member type="way" ref="33871824" role=""/>
  <member type="way" ref="28210596" role=""/>
  <member type="way" ref="45782764" role=""/>
  <member type="way" ref="128887076" role=""/>
  <member type="way" ref="25787328" role=""/>
  <member type="way" ref="26228042" role=""/>
  <member type="way" ref="128887082" role=""/>
  <member type="way" ref="26228032" role=""/>
  <member type="way" ref="128979372" role="forward"/>
  <member type="way" ref="28210604" role="backward"/>
  <member type="way" ref="48028130" role=""/>
  <member type="way" ref="128979370" role="forward"/>
  <member type="way" ref="158823595" role="forward"/>
  <member type="way" ref="158823536" role="forward"/>
  <member type="way" ref="158823559" role="forward"/>
  <member type="way" ref="158823568" role="forward"/>
  <member type="way" ref="158823590" role="forward"/>
  <member type="way" ref="158823512" role="forward"/>
  <member type="way" ref="50663586" role="forward"/>
  <member type="way" ref="128979371" role="forward"/>
  <member type="way" ref="50663584" role=""/>
  <member type="way" ref="50663589" role=""/>
  <tag k="complete" v="yes"/>
  <tag k="lcn:description" v="neoficiální doporučená trasa"/>
  <tag k="network" v="rcn"/>
  <tag k="operator" v="cz:BrnoNaKole"/>
  <tag k="ref" v="X162"/>
  <tag k="route" v="bicycle"/>
  <tag k="state" v="recommended"/>
  <tag k="type" v="route"/>
  <tag k="website" v="http://www.brnonakole.cz/"/>
 </relation>
</osm>
