<?xml version="1.0" encoding="UTF-8"?>
<osm version="0.6" generator="CGImap 0.1.0" copyright="OpenStreetMap and contributors" attribution="http://www.openstreetmap.org/copyright" license="http://opendatacommons.org/licenses/odbl/1-0/">
 <bounds minlat="49.1993700" minlon="16.5946700" maxlat="49.2007600" maxlon="16.5966800"/>
 <node id="296540047" lat="49.1996482" lon="16.5946877" user="Radomír Černoch" uid="51295" visible="true" version="2" changeset="1966265" timestamp="2009-07-28T17:22:49Z">
  <tag k="addr:conscriptionnumber" v="11"/>
  <tag k="addr:housenumber" v="11/3"/>
  <tag k="addr:postcode" v="60200"/>
  <tag k="addr:street" v="Čápkova"/>
  <tag k="addr:streetnumber" v="3"/>
  <tag k="source:addr" v="uir_adr"/>
  <tag k="uir_adr:ADRESA_KOD" v="19163835"/>
 </node>
 <node id="296568993" lat="49.1999445" lon="16.5950390" user="Radomír Černoch" uid="51295" visible="true" version="2" changeset="1966265" timestamp="2009-07-28T17:22:58Z">
  <tag k="addr:conscriptionnumber" v="14"/>
  <tag k="addr:housenumber" v="14/6"/>
  <tag k="addr:postcode" v="60200"/>
  <tag k="addr:street" v="Čápkova"/>
  <tag k="addr:streetnumber" v="6"/>
  <tag k="source:addr" v="uir_adr"/>
  <tag k="uir_adr:ADRESA_KOD" v="19163860"/>
 </node>
 <node id="296580935" lat="49.1995122" lon="16.5946826" user="Radomír Černoch" uid="51295" visible="true" version="2" changeset="1966265" timestamp="2009-07-28T17:23:03Z">
  <tag k="addr:conscriptionnumber" v="8"/>
  <tag k="addr:housenumber" v="8/40"/>
  <tag k="addr:postcode" v="60200"/>
  <tag k="addr:street" v="Gorkého"/>
  <tag k="addr:streetnumber" v="40"/>
  <tag k="source:addr" v="uir_adr"/>
  <tag k="uir_adr:ADRESA_KOD" v="19163762"/>
 </node>
 <node id="296694223" lat="49.2001472" lon="16.5949641" user="Radomír Černoch" uid="51295" visible="true" version="2" changeset="1966265" timestamp="2009-07-28T17:23:34Z">
  <tag k="addr:conscriptionnumber" v="16"/>
  <tag k="addr:housenumber" v="16/8"/>
  <tag k="addr:postcode" v="60200"/>
  <tag k="addr:street" v="Čápkova"/>
  <tag k="addr:streetnumber" v="8"/>
  <tag k="source:addr" v="uir_adr"/>
  <tag k="uir_adr:ADRESA_KOD" v="19163894"/>
 </node>
 <node id="296458888" lat="49.1995508" lon="16.5947176" user="Radomír Černoch" uid="51295" visible="true" version="2" changeset="1966265" timestamp="2009-07-28T17:22:29Z">
  <tag k="addr:conscriptionnumber" v="8"/>
  <tag k="addr:housenumber" v="8/1"/>
  <tag k="addr:postcode" v="60200"/>
  <tag k="addr:street" v="Čápkova"/>
  <tag k="addr:streetnumber" v="1"/>
  <tag k="source:addr" v="uir_adr"/>
  <tag k="uir_adr:ADRESA_KOD" v="19163771"/>
 </node>
 <node id="635137551" lat="49.2000580" lon="16.5948350" user="BiIbo" uid="3516" visible="true" version="1" changeset="3841197" timestamp="2010-02-10T18:57:11Z"/>
 <node id="635137555" lat="49.2002491" lon="16.5947710" user="BiIbo" uid="3516" visible="true" version="1" changeset="3841197" timestamp="2010-02-10T18:57:12Z"/>
 <node id="635137556" lat="49.2002510" lon="16.5947829" user="BiIbo" uid="3516" visible="true" version="1" changeset="3841197" timestamp="2010-02-10T18:57:12Z"/>
 <node id="635137557" lat="49.1994220" lon="16.5950400" user="BiIbo" uid="3516" visible="true" version="1" changeset="3841197" timestamp="2010-02-10T18:57:12Z"/>
 <node id="635137564" lat="49.1996905" lon="16.5949500" user="BiIbo" uid="3516" visible="true" version="1" changeset="3841197" timestamp="2010-02-10T18:57:12Z"/>
 <node id="635137567" lat="49.1995790" lon="16.5949900" user="BiIbo" uid="3516" visible="true" version="1" changeset="3841197" timestamp="2010-02-10T18:57:12Z"/>
 <node id="635137574" lat="49.1998610" lon="16.5951000" user="BiIbo" uid="3516" visible="true" version="1" changeset="3841197" timestamp="2010-02-10T18:57:13Z"/>
 <node id="635137594" lat="49.1999500" lon="16.5950500" user="BiIbo" uid="3516" visible="true" version="1" changeset="3841197" timestamp="2010-02-10T18:57:14Z"/>
 <node id="635137596" lat="49.1998960" lon="16.5950710" user="BiIbo" uid="3516" visible="true" version="1" changeset="3841197" timestamp="2010-02-10T18:57:14Z"/>
 <node id="635137597" lat="49.2000350" lon="16.5950280" user="BiIbo" uid="3516" visible="true" version="1" changeset="3841197" timestamp="2010-02-10T18:57:14Z"/>
 <node id="635137598" lat="49.2000360" lon="16.5950500" user="BiIbo" uid="3516" visible="true" version="1" changeset="3841197" timestamp="2010-02-10T18:57:14Z"/>
 <node id="635137599" lat="49.1998990" lon="16.5950880" user="BiIbo" uid="3516" visible="true" version="1" changeset="3841197" timestamp="2010-02-10T18:57:14Z"/>
 <node id="635137600" lat="49.1998715" lon="16.5948900" user="BiIbo" uid="3516" visible="true" version="1" changeset="3841197" timestamp="2010-02-10T18:57:14Z"/>
 <node id="635137601" lat="49.2001220" lon="16.5950980" user="BiIbo" uid="3516" visible="true" version="1" changeset="3841197" timestamp="2010-02-10T18:57:14Z"/>
 <node id="635137602" lat="49.2001170" lon="16.5950650" user="BiIbo" uid="3516" visible="true" version="1" changeset="3841197" timestamp="2010-02-10T18:57:14Z"/>
 <node id="635137603" lat="49.2000920" lon="16.5950730" user="BiIbo" uid="3516" visible="true" version="1" changeset="3841197" timestamp="2010-02-10T18:57:14Z"/>
 <node id="635137604" lat="49.2000800" lon="16.5949970" user="BiIbo" uid="3516" visible="true" version="1" changeset="3841197" timestamp="2010-02-10T18:57:14Z"/>
 <node id="635137605" lat="49.2000620" lon="16.5950020" user="BiIbo" uid="3516" visible="true" version="1" changeset="3841197" timestamp="2010-02-10T18:57:14Z"/>
 <node id="635137606" lat="49.2000650" lon="16.5950170" user="BiIbo" uid="3516" visible="true" version="1" changeset="3841197" timestamp="2010-02-10T18:57:15Z"/>
 <node id="635137608" lat="49.2000540" lon="16.5950430" user="BiIbo" uid="3516" visible="true" version="1" changeset="3841197" timestamp="2010-02-10T18:57:15Z"/>
 <node id="635137609" lat="49.2000550" lon="16.5950660" user="BiIbo" uid="3516" visible="true" version="1" changeset="3841197" timestamp="2010-02-10T18:57:15Z"/>
 <node id="635137610" lat="49.2000700" lon="16.5950610" user="BiIbo" uid="3516" visible="true" version="1" changeset="3841197" timestamp="2010-02-10T18:57:15Z"/>
 <node id="635137686" lat="49.2002710" lon="16.5949480" user="BiIbo" uid="3516" visible="true" version="1" changeset="3841197" timestamp="2010-02-10T18:57:18Z"/>
 <node id="635137688" lat="49.2002550" lon="16.5950200" user="BiIbo" uid="3516" visible="true" version="1" changeset="3841197" timestamp="2010-02-10T18:57:18Z"/>
 <node id="635137691" lat="49.2002570" lon="16.5950510" user="BiIbo" uid="3516" visible="true" version="1" changeset="3841197" timestamp="2010-02-10T18:57:18Z"/>
 <node id="640171939" lat="49.1993840" lon="16.5947920" user="Kuratkoo" uid="81148" visible="true" version="1" changeset="3885812" timestamp="2010-02-15T18:58:39Z"/>
 <node id="640172216" lat="49.1995805" lon="16.5947250" user="Kuratkoo" uid="81148" visible="true" version="1" changeset="3885812" timestamp="2010-02-15T18:58:43Z"/>
 <node id="640172218" lat="49.1997390" lon="16.5946725" user="Kuratkoo" uid="81148" visible="true" version="1" changeset="3885812" timestamp="2010-02-15T18:58:43Z"/>
 <node id="296673442" lat="49.2003072" lon="16.5949239" user="Radomír Černoch" uid="51295" visible="true" version="2" changeset="1966265" timestamp="2009-07-28T17:23:29Z">
  <tag k="addr:conscriptionnumber" v="531"/>
  <tag k="addr:housenumber" v="531/10"/>
  <tag k="addr:postcode" v="60200"/>
  <tag k="addr:street" v="Čápkova"/>
  <tag k="addr:streetnumber" v="10"/>
  <tag k="source:addr" v="uir_adr"/>
  <tag k="uir_adr:ADRESA_KOD" v="19171331"/>
 </node>
 <node id="635135360" lat="49.2007220" lon="16.5947930" user="BiIbo" uid="3516" visible="true" version="1" changeset="3841197" timestamp="2010-02-10T18:53:23Z"/>
 <node id="635135363" lat="49.2006060" lon="16.5946760" user="BiIbo" uid="3516" visible="true" version="1" changeset="3841197" timestamp="2010-02-10T18:53:23Z"/>
 <node id="635135364" lat="49.2007450" lon="16.5948470" user="BiIbo" uid="3516" visible="true" version="1" changeset="3841197" timestamp="2010-02-10T18:53:23Z"/>
 <node id="635135372" lat="49.2007420" lon="16.5947970" user="BiIbo" uid="3516" visible="true" version="1" changeset="3841197" timestamp="2010-02-10T18:53:23Z"/>
 <node id="635135374" lat="49.2007320" lon="16.5948010" user="BiIbo" uid="3516" visible="true" version="1" changeset="3841197" timestamp="2010-02-10T18:53:23Z"/>
 <node id="635135375" lat="49.2007290" lon="16.5947900" user="BiIbo" uid="3516" visible="true" version="1" changeset="3841197" timestamp="2010-02-10T18:53:23Z"/>
 <node id="635135474" lat="49.2006405" lon="16.5949265" user="BiIbo" uid="3516" visible="true" version="1" changeset="3841197" timestamp="2010-02-10T18:53:26Z"/>
 <node id="635135476" lat="49.2006565" lon="16.5950455" user="BiIbo" uid="3516" visible="true" version="1" changeset="3841197" timestamp="2010-02-10T18:53:26Z"/>
 <node id="635135482" lat="49.2007400" lon="16.5949210" user="BiIbo" uid="3516" visible="true" version="1" changeset="3841197" timestamp="2010-02-10T18:53:26Z"/>
 <node id="635135483" lat="49.2007570" lon="16.5949150" user="BiIbo" uid="3516" visible="true" version="1" changeset="3841197" timestamp="2010-02-10T18:53:26Z"/>
 <node id="635135484" lat="49.2007360" lon="16.5948895" user="BiIbo" uid="3516" visible="true" version="1" changeset="3841197" timestamp="2010-02-10T18:53:26Z"/>
 <node id="635137552" lat="49.2004140" lon="16.5947310" user="BiIbo" uid="3516" visible="true" version="1" changeset="3841197" timestamp="2010-02-10T18:57:11Z"/>
 <node id="635137553" lat="49.2004200" lon="16.5947860" user="BiIbo" uid="3516" visible="true" version="1" changeset="3841197" timestamp="2010-02-10T18:57:11Z"/>
 <node id="635137554" lat="49.2004500" lon="16.5947750" user="BiIbo" uid="3516" visible="true" version="1" changeset="3841197" timestamp="2010-02-10T18:57:12Z"/>
 <node id="635137684" lat="49.2003550" lon="16.5950670" user="BiIbo" uid="3516" visible="true" version="1" changeset="3841197" timestamp="2010-02-10T18:57:18Z"/>
 <node id="635137685" lat="49.2003660" lon="16.5949180" user="BiIbo" uid="3516" visible="true" version="1" changeset="3841197" timestamp="2010-02-10T18:57:18Z"/>
 <node id="635137687" lat="49.2002800" lon="16.5950110" user="BiIbo" uid="3516" visible="true" version="1" changeset="3841197" timestamp="2010-02-10T18:57:18Z"/>
 <node id="635137692" lat="49.2003840" lon="16.5950600" user="BiIbo" uid="3516" visible="true" version="1" changeset="3841197" timestamp="2010-02-10T18:57:18Z"/>
 <node id="635137695" lat="49.2004845" lon="16.5950285" user="BiIbo" uid="3516" visible="true" version="1" changeset="3841197" timestamp="2010-02-10T18:57:18Z"/>
 <node id="1659248033" lat="49.2006751" lon="16.5948060" user="xybot" uid="70696" visible="true" version="2" changeset="10872161" timestamp="2012-03-04T18:45:50Z">
  <tag k="name" v="Potraviny"/>
  <tag k="shop" v="convenience"/>
 </node>
 <node id="296496289" lat="49.1996463" lon="16.5951711" user="Radomír Černoch" uid="51295" visible="true" version="2" changeset="1966265" timestamp="2009-07-28T17:22:36Z">
  <tag k="addr:conscriptionnumber" v="10"/>
  <tag k="addr:housenumber" v="10/2a"/>
  <tag k="addr:postcode" v="60200"/>
  <tag k="addr:street" v="Čápkova"/>
  <tag k="addr:streetnumber" v="2a"/>
  <tag k="source:addr" v="uir_adr"/>
  <tag k="uir_adr:ADRESA_KOD" v="19163819"/>
 </node>
 <node id="296505899" lat="49.1997328" lon="16.5951154" user="Radomír Černoch" uid="51295" visible="true" version="2" changeset="1966265" timestamp="2009-07-28T17:22:40Z">
  <tag k="addr:conscriptionnumber" v="12"/>
  <tag k="addr:housenumber" v="12/4"/>
  <tag k="addr:postcode" v="60200"/>
  <tag k="addr:street" v="Čápkova"/>
  <tag k="addr:streetnumber" v="4"/>
  <tag k="source:addr" v="uir_adr"/>
  <tag k="uir_adr:ADRESA_KOD" v="19163843"/>
 </node>
 <node id="296510424" lat="49.2000669" lon="16.5965095" user="Radomír Černoch" uid="51295" visible="true" version="2" changeset="1966265" timestamp="2009-07-28T17:22:41Z">
  <tag k="addr:conscriptionnumber" v="211"/>
  <tag k="addr:housenumber" v="211/3"/>
  <tag k="addr:postcode" v="60200"/>
  <tag k="addr:street" v="Jiráskova"/>
  <tag k="addr:streetnumber" v="3"/>
  <tag k="source:addr" v="uir_adr"/>
  <tag k="uir_adr:ADRESA_KOD" v="19166656"/>
 </node>
 <node id="296528121" lat="49.1996464" lon="16.5956818" user="Radomír Černoch" uid="51295" visible="true" version="2" changeset="1966265" timestamp="2009-07-28T17:22:46Z">
  <tag k="addr:conscriptionnumber" v="79"/>
  <tag k="addr:housenumber" v="79/34"/>
  <tag k="addr:postcode" v="60200"/>
  <tag k="addr:street" v="Gorkého"/>
  <tag k="addr:streetnumber" v="34"/>
  <tag k="source:addr" v="uir_adr"/>
  <tag k="uir_adr:ADRESA_KOD" v="19164769"/>
 </node>
 <node id="296556406" lat="49.1997366" lon="16.5963156" user="Radomír Černoch" uid="51295" visible="true" version="2" changeset="1966265" timestamp="2009-07-28T17:22:55Z">
  <tag k="addr:conscriptionnumber" v="73"/>
  <tag k="addr:housenumber" v="73/28"/>
  <tag k="addr:postcode" v="60200"/>
  <tag k="addr:street" v="Gorkého"/>
  <tag k="addr:streetnumber" v="28"/>
  <tag k="source:addr" v="uir_adr"/>
  <tag k="uir_adr:ADRESA_KOD" v="19164700"/>
 </node>
 <node id="296560329" lat="49.2002160" lon="16.5964435" user="Radomír Černoch" uid="51295" visible="true" version="2" changeset="1966265" timestamp="2009-07-28T17:22:55Z">
  <tag k="addr:conscriptionnumber" v="213"/>
  <tag k="addr:housenumber" v="213/5"/>
  <tag k="addr:postcode" v="60200"/>
  <tag k="addr:street" v="Jiráskova"/>
  <tag k="addr:streetnumber" v="5"/>
  <tag k="source:addr" v="uir_adr"/>
  <tag k="uir_adr:ADRESA_KOD" v="19166672"/>
 </node>
 <node id="296571167" lat="49.1996031" lon="16.5954543" user="Radomír Černoch" uid="51295" visible="true" version="2" changeset="1966265" timestamp="2009-07-28T17:22:59Z">
  <tag k="addr:conscriptionnumber" v="81"/>
  <tag k="addr:housenumber" v="81/36"/>
  <tag k="addr:postcode" v="60200"/>
  <tag k="addr:street" v="Gorkého"/>
  <tag k="addr:streetnumber" v="36"/>
  <tag k="source:addr" v="uir_adr"/>
  <tag k="uir_adr:ADRESA_KOD" v="19164807"/>
 </node>
 <node id="296617195" lat="49.1996943" lon="16.5961018" user="Radomír Černoch" uid="51295" visible="true" version="2" changeset="1966265" timestamp="2009-07-28T17:23:15Z">
  <tag k="addr:conscriptionnumber" v="75"/>
  <tag k="addr:housenumber" v="75/30"/>
  <tag k="addr:postcode" v="60200"/>
  <tag k="addr:street" v="Gorkého"/>
  <tag k="addr:streetnumber" v="30"/>
  <tag k="source:addr" v="uir_adr"/>
  <tag k="uir_adr:ADRESA_KOD" v="19164726"/>
 </node>
 <node id="296622549" lat="49.1997828" lon="16.5965841" user="Radomír Černoch" uid="51295" visible="true" version="2" changeset="1966265" timestamp="2009-07-28T17:23:18Z">
  <tag k="addr:conscriptionnumber" v="71"/>
  <tag k="addr:housenumber" v="71/1"/>
  <tag k="addr:postcode" v="60200"/>
  <tag k="addr:street" v="Jiráskova"/>
  <tag k="addr:streetnumber" v="1"/>
  <tag k="source:addr" v="uir_adr"/>
  <tag k="uir_adr:ADRESA_KOD" v="19164670"/>
 </node>
 <node id="369487900" lat="49.1994217" lon="16.5963081" user="hanoj" uid="4788" visible="true" version="1" changeset="125945" timestamp="2009-04-03T18:48:52Z"/>
 <node id="296450084" lat="49.1997610" lon="16.5965324" user="Radomír Černoch" uid="51295" visible="true" version="2" changeset="1966265" timestamp="2009-07-28T17:22:28Z">
  <tag k="addr:conscriptionnumber" v="72"/>
  <tag k="addr:housenumber" v="72/26"/>
  <tag k="addr:postcode" v="60200"/>
  <tag k="addr:street" v="Gorkého"/>
  <tag k="addr:streetnumber" v="26"/>
  <tag k="source:addr" v="uir_adr"/>
  <tag k="uir_adr:ADRESA_KOD" v="19164696"/>
 </node>
 <node id="296464327" lat="49.1996788" lon="16.5958835" user="Radomír Černoch" uid="51295" visible="true" version="2" changeset="1966265" timestamp="2009-07-28T17:22:30Z">
  <tag k="addr:conscriptionnumber" v="77"/>
  <tag k="addr:housenumber" v="77/32"/>
  <tag k="addr:postcode" v="60200"/>
  <tag k="addr:street" v="Gorkého"/>
  <tag k="addr:streetnumber" v="32"/>
  <tag k="source:addr" v="uir_adr"/>
  <tag k="uir_adr:ADRESA_KOD" v="19164742"/>
 </node>
 <node id="296467388" lat="49.1999079" lon="16.5965634" user="Radomír Černoch" uid="51295" visible="true" version="2" changeset="1966265" timestamp="2009-07-28T17:22:32Z">
  <tag k="addr:conscriptionnumber" v="209"/>
  <tag k="addr:housenumber" v="209/1a"/>
  <tag k="addr:postcode" v="60200"/>
  <tag k="addr:street" v="Jiráskova"/>
  <tag k="addr:streetnumber" v="1a"/>
  <tag k="source:addr" v="uir_adr"/>
  <tag k="uir_adr:ADRESA_KOD" v="19166621"/>
 </node>
 <node id="296517413" lat="49.1996096" lon="16.5951634" user="Radomír Černoch" uid="51295" visible="true" version="2" changeset="1966265" timestamp="2009-07-28T17:22:44Z">
  <tag k="addr:conscriptionnumber" v="9"/>
  <tag k="addr:housenumber" v="9/2"/>
  <tag k="addr:postcode" v="60200"/>
  <tag k="addr:street" v="Čápkova"/>
  <tag k="addr:streetnumber" v="2"/>
  <tag k="source:addr" v="uir_adr"/>
  <tag k="uir_adr:ADRESA_KOD" v="19163797"/>
 </node>
 <node id="296622791" lat="49.1995925" lon="16.5953042" user="Radomír Černoch" uid="51295" visible="true" version="2" changeset="1966265" timestamp="2009-07-28T17:23:18Z">
  <tag k="addr:conscriptionnumber" v="9"/>
  <tag k="addr:housenumber" v="9/38"/>
  <tag k="addr:postcode" v="60200"/>
  <tag k="addr:street" v="Gorkého"/>
  <tag k="addr:streetnumber" v="38"/>
  <tag k="source:addr" v="uir_adr"/>
  <tag k="uir_adr:ADRESA_KOD" v="19163789"/>
 </node>
 <node id="635137558" lat="49.1994570" lon="16.5952970" user="BiIbo" uid="3516" visible="true" version="1" changeset="3841197" timestamp="2010-02-10T18:57:12Z"/>
 <node id="635137560" lat="49.1994780" lon="16.5954475" user="BiIbo" uid="3516" visible="true" version="1" changeset="3841197" timestamp="2010-02-10T18:57:12Z"/>
 <node id="635137561" lat="49.1995080" lon="16.5956600" user="BiIbo" uid="3516" visible="true" version="1" changeset="3841197" timestamp="2010-02-10T18:57:12Z"/>
 <node id="635137562" lat="49.1996310" lon="16.5951580" user="BiIbo" uid="3516" visible="true" version="1" changeset="3841197" timestamp="2010-02-10T18:57:12Z"/>
 <node id="635137563" lat="49.1996260" lon="16.5951410" user="BiIbo" uid="3516" visible="true" version="1" changeset="3841197" timestamp="2010-02-10T18:57:12Z"/>
 <node id="635137565" lat="49.1995420" lon="16.5951680" user="BiIbo" uid="3516" visible="true" version="1" changeset="3841197" timestamp="2010-02-10T18:57:12Z"/>
 <node id="635137566" lat="49.1996010" lon="16.5951505" user="BiIbo" uid="3516" visible="true" version="1" changeset="3841197" timestamp="2010-02-10T18:57:12Z"/>
 <node id="635137568" lat="49.1997560" lon="16.5951320" user="BiIbo" uid="3516" visible="true" version="1" changeset="3841197" timestamp="2010-02-10T18:57:12Z"/>
 <node id="635137569" lat="49.1997040" lon="16.5951480" user="BiIbo" uid="3516" visible="true" version="1" changeset="3841197" timestamp="2010-02-10T18:57:12Z"/>
 <node id="635137570" lat="49.1997010" lon="16.5951350" user="BiIbo" uid="3516" visible="true" version="1" changeset="3841197" timestamp="2010-02-10T18:57:12Z"/>
 <node id="635137571" lat="49.1997170" lon="16.5951470" user="BiIbo" uid="3516" visible="true" version="1" changeset="3841197" timestamp="2010-02-10T18:57:12Z"/>
 <node id="635137572" lat="49.1997153" lon="16.5951342" user="BiIbo" uid="3516" visible="true" version="1" changeset="3841197" timestamp="2010-02-10T18:57:12Z"/>
 <node id="635137575" lat="49.1998660" lon="16.5951710" user="BiIbo" uid="3516" visible="true" version="1" changeset="3841197" timestamp="2010-02-10T18:57:13Z"/>
 <node id="635137576" lat="49.1998390" lon="16.5951800" user="BiIbo" uid="3516" visible="true" version="1" changeset="3841197" timestamp="2010-02-10T18:57:13Z"/>
 <node id="635137577" lat="49.1998190" lon="16.5951730" user="BiIbo" uid="3516" visible="true" version="1" changeset="3841197" timestamp="2010-02-10T18:57:13Z"/>
 <node id="635137578" lat="49.1998050" lon="16.5951770" user="BiIbo" uid="3516" visible="true" version="1" changeset="3841197" timestamp="2010-02-10T18:57:13Z"/>
 <node id="635137579" lat="49.1998050" lon="16.5951900" user="BiIbo" uid="3516" visible="true" version="1" changeset="3841197" timestamp="2010-02-10T18:57:13Z"/>
 <node id="635137581" lat="49.1995540" lon="16.5952650" user="BiIbo" uid="3516" visible="true" version="1" changeset="3841197" timestamp="2010-02-10T18:57:13Z"/>
 <node id="635137582" lat="49.1996110" lon="16.5953510" user="BiIbo" uid="3516" visible="true" version="1" changeset="3841197" timestamp="2010-02-10T18:57:13Z"/>
 <node id="635137583" lat="49.1995890" lon="16.5953550" user="BiIbo" uid="3516" visible="true" version="1" changeset="3841197" timestamp="2010-02-10T18:57:13Z"/>
 <node id="635137584" lat="49.1995750" lon="16.5952570" user="BiIbo" uid="3516" visible="true" version="1" changeset="3841197" timestamp="2010-02-10T18:57:13Z"/>
 <node id="635137585" lat="49.1995820" lon="16.5953010" user="BiIbo" uid="3516" visible="true" version="1" changeset="3841197" timestamp="2010-02-10T18:57:13Z"/>
 <node id="635137586" lat="49.1996040" lon="16.5952930" user="BiIbo" uid="3516" visible="true" version="1" changeset="3841197" timestamp="2010-02-10T18:57:13Z"/>
 <node id="635137587" lat="49.1996020" lon="16.5954550" user="BiIbo" uid="3516" visible="true" version="1" changeset="3841197" timestamp="2010-02-10T18:57:13Z"/>
 <node id="635137588" lat="49.1996110" lon="16.5954530" user="BiIbo" uid="3516" visible="true" version="1" changeset="3841197" timestamp="2010-02-10T18:57:14Z"/>
 <node id="635137589" lat="49.1995960" lon="16.5954085" user="BiIbo" uid="3516" visible="true" version="1" changeset="3841197" timestamp="2010-02-10T18:57:14Z"/>
 <node id="635137590" lat="49.1997660" lon="16.5952020" user="BiIbo" uid="3516" visible="true" version="1" changeset="3841197" timestamp="2010-02-10T18:57:14Z"/>
 <node id="635137591" lat="49.2000200" lon="16.5951580" user="BiIbo" uid="3516" visible="true" version="1" changeset="3841197" timestamp="2010-02-10T18:57:14Z"/>
 <node id="635137592" lat="49.2000100" lon="16.5951780" user="BiIbo" uid="3516" visible="true" version="1" changeset="3841197" timestamp="2010-02-10T18:57:14Z"/>
 <node id="635137593" lat="49.1999650" lon="16.5951730" user="BiIbo" uid="3516" visible="true" version="1" changeset="3841197" timestamp="2010-02-10T18:57:14Z"/>
 <node id="635137611" lat="49.2000800" lon="16.5951410" user="BiIbo" uid="3516" visible="true" version="1" changeset="3841197" timestamp="2010-02-10T18:57:15Z"/>
 <node id="635137612" lat="49.2000120" lon="16.5954930" user="BiIbo" uid="3516" visible="true" version="1" changeset="3841197" timestamp="2010-02-10T18:57:15Z"/>
 <node id="635137613" lat="49.1999820" lon="16.5951920" user="BiIbo" uid="3516" visible="true" version="1" changeset="3841197" timestamp="2010-02-10T18:57:15Z"/>
 <node id="635137614" lat="49.2000610" lon="16.5954780" user="BiIbo" uid="3516" visible="true" version="1" changeset="3841197" timestamp="2010-02-10T18:57:15Z"/>
 <node id="635137615" lat="49.2001995" lon="16.5954181" user="BiIbo" uid="3516" visible="true" version="1" changeset="3841197" timestamp="2010-02-10T18:57:15Z"/>
 <node id="635137616" lat="49.2001532" lon="16.5954304" user="BiIbo" uid="3516" visible="true" version="1" changeset="3841197" timestamp="2010-02-10T18:57:15Z"/>
 <node id="635137617" lat="49.2001435" lon="16.5953449" user="BiIbo" uid="3516" visible="true" version="1" changeset="3841197" timestamp="2010-02-10T18:57:15Z"/>
 <node id="635137618" lat="49.2001898" lon="16.5953326" user="BiIbo" uid="3516" visible="true" version="1" changeset="3841197" timestamp="2010-02-10T18:57:15Z"/>
 <node id="635137620" lat="49.1996300" lon="16.5955760" user="BiIbo" uid="3516" visible="true" version="1" changeset="3841197" timestamp="2010-02-10T18:57:16Z"/>
 <node id="635137621" lat="49.1996220" lon="16.5955780" user="BiIbo" uid="3516" visible="true" version="1" changeset="3841197" timestamp="2010-02-10T18:57:16Z"/>
 <node id="635137622" lat="49.1996570" lon="16.5957850" user="BiIbo" uid="3516" visible="true" version="1" changeset="3841197" timestamp="2010-02-10T18:57:16Z"/>
 <node id="635137623" lat="49.1996470" lon="16.5957900" user="BiIbo" uid="3516" visible="true" version="1" changeset="3841197" timestamp="2010-02-10T18:57:16Z"/>
 <node id="635137624" lat="49.1996320" lon="16.5956580" user="BiIbo" uid="3516" visible="true" version="1" changeset="3841197" timestamp="2010-02-10T18:57:16Z"/>
 <node id="635137625" lat="49.1996400" lon="16.5956550" user="BiIbo" uid="3516" visible="true" version="1" changeset="3841197" timestamp="2010-02-10T18:57:16Z"/>
 <node id="635137626" lat="49.1996255" lon="16.5956255" user="BiIbo" uid="3516" visible="true" version="1" changeset="3841197" timestamp="2010-02-10T18:57:16Z"/>
 <node id="635137627" lat="49.1996540" lon="16.5958620" user="BiIbo" uid="3516" visible="true" version="1" changeset="3841197" timestamp="2010-02-10T18:57:16Z"/>
 <node id="635137628" lat="49.1996710" lon="16.5958560" user="BiIbo" uid="3516" visible="true" version="1" changeset="3841197" timestamp="2010-02-10T18:57:16Z"/>
 <node id="635137629" lat="49.1995365" lon="16.5958705" user="BiIbo" uid="3516" visible="true" version="1" changeset="3841197" timestamp="2010-02-10T18:57:16Z"/>
 <node id="635137630" lat="49.1996495" lon="16.5958310" user="BiIbo" uid="3516" visible="true" version="1" changeset="3841197" timestamp="2010-02-10T18:57:16Z"/>
 <node id="635137631" lat="49.1996750" lon="16.5960160" user="BiIbo" uid="3516" visible="true" version="1" changeset="3841197" timestamp="2010-02-10T18:57:16Z"/>
 <node id="635137632" lat="49.1996910" lon="16.5960080" user="BiIbo" uid="3516" visible="true" version="1" changeset="3841197" timestamp="2010-02-10T18:57:16Z"/>
 <node id="635137633" lat="49.1996890" lon="16.5960700" user="BiIbo" uid="3516" visible="true" version="1" changeset="3841197" timestamp="2010-02-10T18:57:16Z"/>
 <node id="635137634" lat="49.1995665" lon="16.5960835" user="BiIbo" uid="3516" visible="true" version="1" changeset="3841197" timestamp="2010-02-10T18:57:16Z"/>
 <node id="635137636" lat="49.1996820" lon="16.5960435" user="BiIbo" uid="3516" visible="true" version="1" changeset="3841197" timestamp="2010-02-10T18:57:16Z"/>
 <node id="635137637" lat="49.1997660" lon="16.5962020" user="BiIbo" uid="3516" visible="true" version="1" changeset="3841197" timestamp="2010-02-10T18:57:16Z"/>
 <node id="635137638" lat="49.1997120" lon="16.5962200" user="BiIbo" uid="3516" visible="true" version="1" changeset="3841197" timestamp="2010-02-10T18:57:16Z"/>
 <node id="635137639" lat="49.1997460" lon="16.5960530" user="BiIbo" uid="3516" visible="true" version="1" changeset="3841197" timestamp="2010-02-10T18:57:17Z"/>
 <node id="635137642" lat="49.1997520" lon="16.5961050" user="BiIbo" uid="3516" visible="true" version="1" changeset="3841197" timestamp="2010-02-10T18:57:17Z"/>
 <node id="635137644" lat="49.1997390" lon="16.5961120" user="BiIbo" uid="3516" visible="true" version="1" changeset="3841197" timestamp="2010-02-10T18:57:17Z"/>
 <node id="635137647" lat="49.1997440" lon="16.5961500" user="BiIbo" uid="3516" visible="true" version="1" changeset="3841197" timestamp="2010-02-10T18:57:17Z"/>
 <node id="635137649" lat="49.1997570" lon="16.5961450" user="BiIbo" uid="3516" visible="true" version="1" changeset="3841197" timestamp="2010-02-10T18:57:17Z"/>
 <node id="635137652" lat="49.2000380" lon="16.5957035" user="BiIbo" uid="3516" visible="true" version="1" changeset="3841197" timestamp="2010-02-10T18:57:17Z"/>
 <node id="635137654" lat="49.2000800" lon="16.5956080" user="BiIbo" uid="3516" visible="true" version="1" changeset="3841197" timestamp="2010-02-10T18:57:17Z"/>
 <node id="635137657" lat="49.2000500" lon="16.5957920" user="BiIbo" uid="3516" visible="true" version="1" changeset="3841197" timestamp="2010-02-10T18:57:17Z"/>
 <node id="635137659" lat="49.2000570" lon="16.5958370" user="BiIbo" uid="3516" visible="true" version="1" changeset="3841197" timestamp="2010-02-10T18:57:17Z"/>
 <node id="635137662" lat="49.2001720" lon="16.5957960" user="BiIbo" uid="3516" visible="true" version="1" changeset="3841197" timestamp="2010-02-10T18:57:17Z"/>
 <node id="635137665" lat="49.2001840" lon="16.5958750" user="BiIbo" uid="3516" visible="true" version="1" changeset="3841197" timestamp="2010-02-10T18:57:17Z"/>
 <node id="635137666" lat="49.2001990" lon="16.5958710" user="BiIbo" uid="3516" visible="true" version="1" changeset="3841197" timestamp="2010-02-10T18:57:17Z"/>
 <node id="635137667" lat="49.2000660" lon="16.5959120" user="BiIbo" uid="3516" visible="true" version="1" changeset="3841197" timestamp="2010-02-10T18:57:17Z"/>
 <node id="635137668" lat="49.2001760" lon="16.5960980" user="BiIbo" uid="3516" visible="true" version="1" changeset="3841197" timestamp="2010-02-10T18:57:17Z"/>
 <node id="635137670" lat="49.2001490" lon="16.5958860" user="BiIbo" uid="3516" visible="true" version="1" changeset="3841197" timestamp="2010-02-10T18:57:17Z"/>
 <node id="635137671" lat="49.2001440" lon="16.5961980" user="BiIbo" uid="3516" visible="true" version="1" changeset="3841197" timestamp="2010-02-10T18:57:17Z"/>
 <node id="635137673" lat="49.2001870" lon="16.5961850" user="BiIbo" uid="3516" visible="true" version="1" changeset="3841197" timestamp="2010-02-10T18:57:17Z"/>
 <node id="635137714" lat="49.2002250" lon="16.5955550" user="BiIbo" uid="3516" visible="true" version="1" changeset="3841197" timestamp="2010-02-10T18:57:19Z"/>
 <node id="635137715" lat="49.2002500" lon="16.5957255" user="BiIbo" uid="3516" visible="true" version="1" changeset="3841197" timestamp="2010-02-10T18:57:19Z"/>
 <node id="635137716" lat="49.2002369" lon="16.5956360" user="BiIbo" uid="3516" visible="true" version="1" changeset="3841197" timestamp="2010-02-10T18:57:19Z"/>
 <node id="635137734" lat="49.2002290" lon="16.5960800" user="BiIbo" uid="3516" visible="true" version="1" changeset="3841197" timestamp="2010-02-10T18:57:20Z"/>
 <node id="635137758" lat="49.1995950" lon="16.5962860" user="BiIbo" uid="3516" visible="true" version="1" changeset="3841197" timestamp="2010-02-10T18:57:21Z"/>
 <node id="635137760" lat="49.1996230" lon="16.5964860" user="BiIbo" uid="3516" visible="true" version="1" changeset="3841197" timestamp="2010-02-10T18:57:21Z"/>
 <node id="635137761" lat="49.1997160" lon="16.5963620" user="BiIbo" uid="3516" visible="true" version="1" changeset="3841197" timestamp="2010-02-10T18:57:21Z"/>
 <node id="635137762" lat="49.1997440" lon="16.5963520" user="BiIbo" uid="3516" visible="true" version="1" changeset="3841197" timestamp="2010-02-10T18:57:21Z"/>
 <node id="635137763" lat="49.1997490" lon="16.5964000" user="BiIbo" uid="3516" visible="true" version="1" changeset="3841197" timestamp="2010-02-10T18:57:21Z"/>
 <node id="635137764" lat="49.1997060" lon="16.5962520" user="BiIbo" uid="3516" visible="true" version="1" changeset="3841197" timestamp="2010-02-10T18:57:21Z"/>
 <node id="635137767" lat="49.1997440" lon="16.5965360" user="BiIbo" uid="3516" visible="true" version="1" changeset="3841197" timestamp="2010-02-10T18:57:21Z"/>
 <node id="635137768" lat="49.1997375" lon="16.5964465" user="BiIbo" uid="3516" visible="true" version="1" changeset="3841197" timestamp="2010-02-10T18:57:21Z"/>
 <node id="635137769" lat="49.1997810" lon="16.5965220" user="BiIbo" uid="3516" visible="true" version="1" changeset="3841197" timestamp="2010-02-10T18:57:21Z"/>
 <node id="635137770" lat="49.1997720" lon="16.5964530" user="BiIbo" uid="3516" visible="true" version="1" changeset="3841197" timestamp="2010-02-10T18:57:21Z"/>
 <node id="635137771" lat="49.1997850" lon="16.5964510" user="BiIbo" uid="3516" visible="true" version="1" changeset="3841197" timestamp="2010-02-10T18:57:21Z"/>
 <node id="635137772" lat="49.1997870" lon="16.5964220" user="BiIbo" uid="3516" visible="true" version="1" changeset="3841197" timestamp="2010-02-10T18:57:21Z"/>
 <node id="635137773" lat="49.1997630" lon="16.5965275" user="BiIbo" uid="3516" visible="true" version="1" changeset="3841197" timestamp="2010-02-10T18:57:21Z"/>
 <node id="635137777" lat="49.1997805" lon="16.5966540" user="BiIbo" uid="3516" visible="true" version="1" changeset="3841197" timestamp="2010-02-10T18:57:21Z"/>
 <node id="635137779" lat="49.1998900" lon="16.5963860" user="BiIbo" uid="3516" visible="true" version="1" changeset="3841197" timestamp="2010-02-10T18:57:21Z"/>
 <node id="635137781" lat="49.1998970" lon="16.5964410" user="BiIbo" uid="3516" visible="true" version="1" changeset="3841197" timestamp="2010-02-10T18:57:22Z"/>
 <node id="635137783" lat="49.1999400" lon="16.5964310" user="BiIbo" uid="3516" visible="true" version="1" changeset="3841197" timestamp="2010-02-10T18:57:22Z"/>
 <node id="635137788" lat="49.1999370" lon="16.5964060" user="BiIbo" uid="3516" visible="true" version="1" changeset="3841197" timestamp="2010-02-10T18:57:22Z"/>
 <node id="635137791" lat="49.2000270" lon="16.5963760" user="BiIbo" uid="3516" visible="true" version="1" changeset="3841197" timestamp="2010-02-10T18:57:22Z"/>
 <node id="635137793" lat="49.2000300" lon="16.5963970" user="BiIbo" uid="3516" visible="true" version="1" changeset="3841197" timestamp="2010-02-10T18:57:22Z"/>
 <node id="635137796" lat="49.2001110" lon="16.5963700" user="BiIbo" uid="3516" visible="true" version="1" changeset="3841197" timestamp="2010-02-10T18:57:22Z"/>
 <node id="635137800" lat="49.2001090" lon="16.5963510" user="BiIbo" uid="3516" visible="true" version="1" changeset="3841197" timestamp="2010-02-10T18:57:22Z"/>
 <node id="635137814" lat="49.2001150" lon="16.5963370" user="BiIbo" uid="3516" visible="true" version="1" changeset="3841197" timestamp="2010-02-10T18:57:22Z"/>
 <node id="635137816" lat="49.2000530" lon="16.5963880" user="BiIbo" uid="3516" visible="true" version="1" changeset="3841197" timestamp="2010-02-10T18:57:22Z"/>
 <node id="635137818" lat="49.2001370" lon="16.5963300" user="BiIbo" uid="3516" visible="true" version="1" changeset="3841197" timestamp="2010-02-10T18:57:22Z"/>
 <node id="635137822" lat="49.2001470" lon="16.5963400" user="BiIbo" uid="3516" visible="true" version="1" changeset="3841197" timestamp="2010-02-10T18:57:22Z"/>
 <node id="635137825" lat="49.2001500" lon="16.5963570" user="BiIbo" uid="3516" visible="true" version="1" changeset="3841197" timestamp="2010-02-10T18:57:22Z"/>
 <node id="635137827" lat="49.2002080" lon="16.5963320" user="BiIbo" uid="3516" visible="true" version="1" changeset="3841197" timestamp="2010-02-10T18:57:22Z"/>
 <node id="635137829" lat="49.2002000" lon="16.5962720" user="BiIbo" uid="3516" visible="true" version="1" changeset="3841197" timestamp="2010-02-10T18:57:22Z"/>
 <node id="635137832" lat="49.2001570" lon="16.5962880" user="BiIbo" uid="3516" visible="true" version="1" changeset="3841197" timestamp="2010-02-10T18:57:23Z"/>
 <node id="635137836" lat="49.2000785" lon="16.5965575" user="BiIbo" uid="3516" visible="true" version="1" changeset="3841197" timestamp="2010-02-10T18:57:23Z"/>
 <node id="635137838" lat="49.1999205" lon="16.5966110" user="BiIbo" uid="3516" visible="true" version="1" changeset="3841197" timestamp="2010-02-10T18:57:23Z"/>
 <node id="635137841" lat="49.2002670" lon="16.5963100" user="BiIbo" uid="3516" visible="true" version="1" changeset="3841197" timestamp="2010-02-10T18:57:23Z"/>
 <node id="635137843" lat="49.2002650" lon="16.5962960" user="BiIbo" uid="3516" visible="true" version="1" changeset="3841197" timestamp="2010-02-10T18:57:23Z"/>
 <node id="635137847" lat="49.2002310" lon="16.5965045" user="BiIbo" uid="3516" visible="true" version="1" changeset="3841197" timestamp="2010-02-10T18:57:23Z"/>
 <node id="635573888" lat="49.1993790" lon="16.5962770" user="BiIbo" uid="3516" visible="true" version="1" changeset="3845468" timestamp="2010-02-11T03:50:17Z"/>
 <node id="635573890" lat="49.1994320" lon="16.5964630" user="BiIbo" uid="3516" visible="true" version="1" changeset="3845468" timestamp="2010-02-11T03:50:17Z"/>
 <node id="635573892" lat="49.1994140" lon="16.5963100" user="BiIbo" uid="3516" visible="true" version="1" changeset="3845468" timestamp="2010-02-11T03:50:18Z"/>
 <node id="635573893" lat="49.1994160" lon="16.5965080" user="BiIbo" uid="3516" visible="true" version="1" changeset="3845468" timestamp="2010-02-11T03:50:18Z"/>
 <node id="635573887" lat="49.1994068" lon="16.5965118" user="hanoj" uid="4788" visible="true" version="2" changeset="3907409" timestamp="2010-02-18T09:26:21Z"/>
 <node id="635573886" lat="49.1994025" lon="16.5964713" user="hanoj" uid="4788" visible="true" version="2" changeset="3907409" timestamp="2010-02-18T09:26:21Z"/>
 <node id="26261758" lat="49.2007554" lon="16.5964636" user="Zlaťák" uid="275594" visible="true" version="3" changeset="4534666" timestamp="2010-04-26T18:47:32Z"/>
 <node id="296485006" lat="49.2006137" lon="16.5961845" user="Radomír Černoch" uid="51295" visible="true" version="2" changeset="1966265" timestamp="2009-07-28T17:22:34Z">
  <tag k="addr:conscriptionnumber" v="113"/>
  <tag k="addr:housenumber" v="113/17"/>
  <tag k="addr:postcode" v="60200"/>
  <tag k="addr:street" v="Grohova"/>
  <tag k="addr:streetnumber" v="17"/>
  <tag k="source:addr" v="uir_adr"/>
  <tag k="uir_adr:ADRESA_KOD" v="19165251"/>
 </node>
 <node id="296488329" lat="49.2004634" lon="16.5963612" user="Radomír Černoch" uid="51295" visible="true" version="2" changeset="1966265" timestamp="2009-07-28T17:22:34Z">
  <tag k="addr:conscriptionnumber" v="217"/>
  <tag k="addr:housenumber" v="217/9"/>
  <tag k="addr:postcode" v="60200"/>
  <tag k="addr:street" v="Jiráskova"/>
  <tag k="addr:streetnumber" v="9"/>
  <tag k="source:addr" v="uir_adr"/>
  <tag k="uir_adr:ADRESA_KOD" v="19166711"/>
 </node>
 <node id="296524773" lat="49.2004971" lon="16.5953066" user="Radomír Černoch" uid="51295" visible="true" version="2" changeset="1966265" timestamp="2009-07-28T17:22:45Z">
  <tag k="addr:conscriptionnumber" v="119"/>
  <tag k="addr:housenumber" v="119/23"/>
  <tag k="addr:postcode" v="60200"/>
  <tag k="addr:street" v="Grohova"/>
  <tag k="addr:streetnumber" v="23"/>
  <tag k="source:addr" v="uir_adr"/>
  <tag k="uir_adr:ADRESA_KOD" v="19165340"/>
 </node>
 <node id="296540554" lat="49.2004667" lon="16.5951322" user="Radomír Černoch" uid="51295" visible="true" version="2" changeset="1966265" timestamp="2009-07-28T17:22:49Z">
  <tag k="addr:conscriptionnumber" v="121"/>
  <tag k="addr:housenumber" v="121/25"/>
  <tag k="addr:postcode" v="60200"/>
  <tag k="addr:street" v="Grohova"/>
  <tag k="addr:streetnumber" v="25"/>
  <tag k="source:addr" v="uir_adr"/>
  <tag k="uir_adr:ADRESA_KOD" v="19165366"/>
 </node>
 <node id="296554553" lat="49.2005903" lon="16.5959813" user="Radomír Černoch" uid="51295" visible="true" version="2" changeset="1966265" timestamp="2009-07-28T17:22:54Z">
  <tag k="addr:conscriptionnumber" v="115"/>
  <tag k="addr:housenumber" v="115/19"/>
  <tag k="addr:postcode" v="60200"/>
  <tag k="addr:street" v="Grohova"/>
  <tag k="addr:streetnumber" v="19"/>
  <tag k="source:addr" v="uir_adr"/>
  <tag k="uir_adr:ADRESA_KOD" v="19165277"/>
 </node>
 <node id="296559646" lat="49.2005383" lon="16.5956310" user="Radomír Černoch" uid="51295" visible="true" version="2" changeset="1966265" timestamp="2009-07-28T17:22:55Z">
  <tag k="addr:conscriptionnumber" v="117"/>
  <tag k="addr:housenumber" v="117/21"/>
  <tag k="addr:postcode" v="60200"/>
  <tag k="addr:street" v="Grohova"/>
  <tag k="addr:streetnumber" v="21"/>
  <tag k="source:addr" v="uir_adr"/>
  <tag k="uir_adr:ADRESA_KOD" v="19165315"/>
 </node>
 <node id="296571829" lat="49.2005509" lon="16.5963191" user="Radomír Černoch" uid="51295" visible="true" version="2" changeset="1966265" timestamp="2009-07-28T17:23:00Z">
  <tag k="addr:conscriptionnumber" v="111"/>
  <tag k="addr:housenumber" v="111/11"/>
  <tag k="addr:postcode" v="60200"/>
  <tag k="addr:street" v="Jiráskova"/>
  <tag k="addr:streetnumber" v="11"/>
  <tag k="source:addr" v="uir_adr"/>
  <tag k="uir_adr:ADRESA_KOD" v="19165226"/>
 </node>
 <node id="296630949" lat="49.2003482" lon="16.5963940" user="Radomír Černoch" uid="51295" visible="true" version="2" changeset="1966265" timestamp="2009-07-28T17:23:19Z">
  <tag k="addr:conscriptionnumber" v="215"/>
  <tag k="addr:housenumber" v="215/7"/>
  <tag k="addr:postcode" v="60200"/>
  <tag k="addr:street" v="Jiráskova"/>
  <tag k="addr:streetnumber" v="7"/>
  <tag k="source:addr" v="uir_adr"/>
  <tag k="uir_adr:ADRESA_KOD" v="19166699"/>
 </node>
 <node id="296669305" lat="49.2006294" lon="16.5962785" user="Radomír Černoch" uid="51295" visible="true" version="2" changeset="1966265" timestamp="2009-07-28T17:23:27Z">
  <tag k="addr:conscriptionnumber" v="111"/>
  <tag k="addr:housenumber" v="111/15"/>
  <tag k="addr:postcode" v="60200"/>
  <tag k="addr:street" v="Grohova"/>
  <tag k="addr:streetnumber" v="15"/>
  <tag k="source:addr" v="uir_adr"/>
  <tag k="uir_adr:ADRESA_KOD" v="19165234"/>
 </node>
 <node id="635134084" lat="49.2006950" lon="16.5966170" user="BiIbo" uid="3516" visible="true" version="1" changeset="3841197" timestamp="2010-02-10T18:51:17Z"/>
 <node id="635134085" lat="49.2007050" lon="16.5966320" user="BiIbo" uid="3516" visible="true" version="1" changeset="3841197" timestamp="2010-02-10T18:51:17Z"/>
 <node id="635134088" lat="49.2005810" lon="16.5966590" user="BiIbo" uid="3516" visible="true" version="1" changeset="3841197" timestamp="2010-02-10T18:51:17Z"/>
 <node id="635135491" lat="49.2006915" lon="16.5953015" user="BiIbo" uid="3516" visible="true" version="1" changeset="3841197" timestamp="2010-02-10T18:53:26Z"/>
 <node id="635135493" lat="49.2007125" lon="16.5954420" user="BiIbo" uid="3516" visible="true" version="1" changeset="3841197" timestamp="2010-02-10T18:53:26Z"/>
 <node id="635135511" lat="49.2007335" lon="16.5955885" user="BiIbo" uid="3516" visible="true" version="1" changeset="3841197" timestamp="2010-02-10T18:53:27Z"/>
 <node id="635137674" lat="49.2003340" lon="16.5951320" user="BiIbo" uid="3516" visible="true" version="1" changeset="3841197" timestamp="2010-02-10T18:57:17Z"/>
 <node id="635137680" lat="49.2003470" lon="16.5951300" user="BiIbo" uid="3516" visible="true" version="1" changeset="3841197" timestamp="2010-02-10T18:57:18Z"/>
 <node id="635137681" lat="49.2003470" lon="16.5951210" user="BiIbo" uid="3516" visible="true" version="1" changeset="3841197" timestamp="2010-02-10T18:57:18Z"/>
 <node id="635137683" lat="49.2003610" lon="16.5951130" user="BiIbo" uid="3516" visible="true" version="1" changeset="3841197" timestamp="2010-02-10T18:57:18Z"/>
 <node id="635137696" lat="49.2003790" lon="16.5953300" user="BiIbo" uid="3516" visible="true" version="1" changeset="3841197" timestamp="2010-02-10T18:57:18Z"/>
 <node id="635137699" lat="49.2003710" lon="16.5953180" user="BiIbo" uid="3516" visible="true" version="1" changeset="3841197" timestamp="2010-02-10T18:57:18Z"/>
 <node id="635137700" lat="49.2003590" lon="16.5953250" user="BiIbo" uid="3516" visible="true" version="1" changeset="3841197" timestamp="2010-02-10T18:57:18Z"/>
 <node id="635137701" lat="49.2003490" lon="16.5952080" user="BiIbo" uid="3516" visible="true" version="1" changeset="3841197" timestamp="2010-02-10T18:57:18Z"/>
 <node id="635137702" lat="49.2003440" lon="16.5952070" user="BiIbo" uid="3516" visible="true" version="1" changeset="3841197" timestamp="2010-02-10T18:57:19Z"/>
 <node id="635137703" lat="49.2004020" lon="16.5954930" user="BiIbo" uid="3516" visible="true" version="1" changeset="3841197" timestamp="2010-02-10T18:57:19Z"/>
 <node id="635137706" lat="49.2003940" lon="16.5953660" user="BiIbo" uid="3516" visible="true" version="1" changeset="3841197" timestamp="2010-02-10T18:57:19Z"/>
 <node id="635137707" lat="49.2003870" lon="16.5953230" user="BiIbo" uid="3516" visible="true" version="1" changeset="3841197" timestamp="2010-02-10T18:57:19Z"/>
 <node id="635137708" lat="49.2004020" lon="16.5955120" user="BiIbo" uid="3516" visible="true" version="1" changeset="3841197" timestamp="2010-02-10T18:57:19Z"/>
 <node id="635137709" lat="49.2004310" lon="16.5955060" user="BiIbo" uid="3516" visible="true" version="1" changeset="3841197" timestamp="2010-02-10T18:57:19Z"/>
 <node id="635137711" lat="49.2004100" lon="16.5953610" user="BiIbo" uid="3516" visible="true" version="1" changeset="3841197" timestamp="2010-02-10T18:57:19Z"/>
 <node id="635137713" lat="49.2005250" lon="16.5953245" user="BiIbo" uid="3516" visible="true" version="1" changeset="3841197" timestamp="2010-02-10T18:57:19Z"/>
 <node id="635137719" lat="49.2004240" lon="16.5956670" user="BiIbo" uid="3516" visible="true" version="1" changeset="3841197" timestamp="2010-02-10T18:57:19Z"/>
 <node id="635137720" lat="49.2004600" lon="16.5957460" user="BiIbo" uid="3516" visible="true" version="1" changeset="3841197" timestamp="2010-02-10T18:57:19Z"/>
 <node id="635137721" lat="49.2004420" lon="16.5957520" user="BiIbo" uid="3516" visible="true" version="1" changeset="3841197" timestamp="2010-02-10T18:57:19Z"/>
 <node id="635137722" lat="49.2004420" lon="16.5956000" user="BiIbo" uid="3516" visible="true" version="1" changeset="3841197" timestamp="2010-02-10T18:57:19Z"/>
 <node id="635137725" lat="49.2004390" lon="16.5955730" user="BiIbo" uid="3516" visible="true" version="1" changeset="3841197" timestamp="2010-02-10T18:57:19Z"/>
 <node id="635137726" lat="49.2004650" lon="16.5955620" user="BiIbo" uid="3516" visible="true" version="1" changeset="3841197" timestamp="2010-02-10T18:57:19Z"/>
 <node id="635137729" lat="49.2004625" lon="16.5957845" user="BiIbo" uid="3516" visible="true" version="1" changeset="3841197" timestamp="2010-02-10T18:57:19Z"/>
 <node id="635137730" lat="49.2004140" lon="16.5955780" user="BiIbo" uid="3516" visible="true" version="1" changeset="3841197" timestamp="2010-02-10T18:57:20Z"/>
 <node id="635137733" lat="49.2004266" lon="16.5956218" user="BiIbo" uid="3516" visible="true" version="1" changeset="3841197" timestamp="2010-02-10T18:57:20Z"/>
 <node id="635137739" lat="49.2003440" lon="16.5961270" user="BiIbo" uid="3516" visible="true" version="1" changeset="3841197" timestamp="2010-02-10T18:57:20Z"/>
 <node id="635137740" lat="49.2003310" lon="16.5960460" user="BiIbo" uid="3516" visible="true" version="1" changeset="3841197" timestamp="2010-02-10T18:57:20Z"/>
 <node id="635137741" lat="49.2005420" lon="16.5962060" user="BiIbo" uid="3516" visible="true" version="1" changeset="3841197" timestamp="2010-02-10T18:57:20Z"/>
 <node id="635137742" lat="49.2005290" lon="16.5961130" user="BiIbo" uid="3516" visible="true" version="1" changeset="3841197" timestamp="2010-02-10T18:57:20Z"/>
 <node id="635137744" lat="49.2005040" lon="16.5961210" user="BiIbo" uid="3516" visible="true" version="1" changeset="3841197" timestamp="2010-02-10T18:57:20Z"/>
 <node id="635137747" lat="49.2005350" lon="16.5961635" user="BiIbo" uid="3516" visible="true" version="1" changeset="3841197" timestamp="2010-02-10T18:57:20Z"/>
 <node id="635137748" lat="49.2004855" lon="16.5959940" user="BiIbo" uid="3516" visible="true" version="1" changeset="3841197" timestamp="2010-02-10T18:57:20Z"/>
 <node id="635137749" lat="49.2004800" lon="16.5960830" user="BiIbo" uid="3516" visible="true" version="1" changeset="3841197" timestamp="2010-02-10T18:57:20Z"/>
 <node id="635137750" lat="49.2004700" lon="16.5959970" user="BiIbo" uid="3516" visible="true" version="1" changeset="3841197" timestamp="2010-02-10T18:57:20Z"/>
 <node id="635137751" lat="49.2005820" lon="16.5957465" user="BiIbo" uid="3516" visible="true" version="1" changeset="3841197" timestamp="2010-02-10T18:57:20Z"/>
 <node id="635137753" lat="49.2005545" lon="16.5955355" user="BiIbo" uid="3516" visible="true" version="1" changeset="3841197" timestamp="2010-02-10T18:57:21Z"/>
 <node id="635137755" lat="49.2006335" lon="16.5961330" user="BiIbo" uid="3516" visible="true" version="1" changeset="3841197" timestamp="2010-02-10T18:57:21Z"/>
 <node id="635137756" lat="49.2006115" lon="16.5959525" user="BiIbo" uid="3516" visible="true" version="1" changeset="3841197" timestamp="2010-02-10T18:57:21Z"/>
 <node id="635137844" lat="49.2003040" lon="16.5962830" user="BiIbo" uid="3516" visible="true" version="1" changeset="3841197" timestamp="2010-02-10T18:57:23Z"/>
 <node id="635137845" lat="49.2003040" lon="16.5962960" user="BiIbo" uid="3516" visible="true" version="1" changeset="3841197" timestamp="2010-02-10T18:57:23Z"/>
 <node id="635137849" lat="49.2003640" lon="16.5962780" user="BiIbo" uid="3516" visible="true" version="1" changeset="3841197" timestamp="2010-02-10T18:57:23Z"/>
 <node id="635137851" lat="49.2004120" lon="16.5962670" user="BiIbo" uid="3516" visible="true" version="1" changeset="3841197" timestamp="2010-02-10T18:57:23Z"/>
 <node id="635137852" lat="49.2004110" lon="16.5962530" user="BiIbo" uid="3516" visible="true" version="1" changeset="3841197" timestamp="2010-02-10T18:57:23Z"/>
 <node id="635137856" lat="49.2004610" lon="16.5962360" user="BiIbo" uid="3516" visible="true" version="1" changeset="3841197" timestamp="2010-02-10T18:57:23Z"/>
 <node id="635137858" lat="49.2004650" lon="16.5962510" user="BiIbo" uid="3516" visible="true" version="1" changeset="3841197" timestamp="2010-02-10T18:57:23Z"/>
 <node id="635137861" lat="49.2005040" lon="16.5962410" user="BiIbo" uid="3516" visible="true" version="1" changeset="3841197" timestamp="2010-02-10T18:57:23Z"/>
 <node id="635137864" lat="49.2003880" lon="16.5964555" user="BiIbo" uid="3516" visible="true" version="1" changeset="3841197" timestamp="2010-02-10T18:57:23Z"/>
 <node id="635137866" lat="49.2005050" lon="16.5962570" user="BiIbo" uid="3516" visible="true" version="1" changeset="3841197" timestamp="2010-02-10T18:57:23Z"/>
 <node id="635137870" lat="49.2005290" lon="16.5962510" user="BiIbo" uid="3516" visible="true" version="1" changeset="3841197" timestamp="2010-02-10T18:57:23Z"/>
 <node id="635137873" lat="49.2005255" lon="16.5964120" user="BiIbo" uid="3516" visible="true" version="1" changeset="3841197" timestamp="2010-02-10T18:57:23Z"/>
 <node id="635137876" lat="49.2006690" lon="16.5963680" user="BiIbo" uid="3516" visible="true" version="1" changeset="3841197" timestamp="2010-02-10T18:57:24Z"/>
 <node id="25631552" lat="49.1995740" lon="16.5968000" user="LM_1" uid="475704" visible="true" version="4" changeset="10017286" timestamp="2011-12-02T15:01:08Z"/>
 <node id="25631553" lat="49.2023935" lon="16.5959282" user="hanoj" uid="4788" visible="true" version="2" changeset="853361" timestamp="2009-03-24T18:28:25Z">
  <tag k="created_by" v="JOSM"/>
 </node>
 <node id="25631555" lat="49.2041889" lon="16.5953179" user="hanoj" uid="4788" visible="true" version="3" changeset="853361" timestamp="2009-03-24T18:28:25Z">
  <tag k="created_by" v="JOSM"/>
 </node>
 <node id="26261759" lat="49.2012380" lon="16.5995634" user="Zlaťák" uid="275594" visible="true" version="3" changeset="4534666" timestamp="2010-04-26T18:47:32Z"/>
 <node id="26364817" lat="49.2005070" lon="16.5945557" user="hanoj" uid="4788" visible="true" version="2" changeset="853361" timestamp="2009-03-24T18:28:30Z">
  <tag k="created_by" v="JOSM"/>
 </node>
 <node id="26411683" lat="49.2010501" lon="16.5985400" user="Zlaťák" uid="275594" visible="true" version="3" changeset="4534666" timestamp="2010-04-26T18:47:32Z"/>
 <node id="178830797" lat="49.1994879" lon="16.5967578" user="BiIbo" uid="3516" visible="true" version="3" changeset="3845468" timestamp="2010-02-11T03:50:22Z"/>
 <node id="178830800" lat="49.1983479" lon="16.5971197" user="hanoj" uid="4788" visible="true" version="3" changeset="3907409" timestamp="2010-02-18T09:26:20Z"/>
 <node id="178830803" lat="49.1984558" lon="16.5949533" user="hanoj" uid="4788" visible="true" version="3" changeset="3907409" timestamp="2010-02-18T09:26:20Z"/>
 <node id="178830805" lat="49.1987267" lon="16.5949887" user="hanoj" uid="4788" visible="true" version="3" changeset="3907409" timestamp="2010-02-18T09:26:20Z"/>
 <node id="365353445" lat="49.1996726" lon="16.5968246" user="hanoj" uid="4788" visible="true" version="1" changeset="853361" timestamp="2009-03-24T18:28:11Z"/>
 <node id="365353454" lat="49.2011767" lon="16.5993978" user="Zlaťák" uid="275594" visible="true" version="2" changeset="4534666" timestamp="2010-04-26T18:47:32Z"/>
 <node id="365353503" lat="49.2043074" lon="16.5954315" user="hanoj" uid="4788" visible="true" version="2" changeset="11987970" timestamp="2012-06-23T11:39:48Z"/>
 <node id="635134071" lat="49.2005440" lon="16.5968410" user="BiIbo" uid="3516" visible="true" version="1" changeset="3841197" timestamp="2010-02-10T18:51:17Z"/>
 <node id="635134072" lat="49.2005410" lon="16.5968660" user="BiIbo" uid="3516" visible="true" version="1" changeset="3841197" timestamp="2010-02-10T18:51:17Z"/>
 <node id="635134073" lat="49.2005250" lon="16.5968810" user="BiIbo" uid="3516" visible="true" version="1" changeset="3841197" timestamp="2010-02-10T18:51:17Z"/>
 <node id="635134074" lat="49.2005090" lon="16.5968730" user="BiIbo" uid="3516" visible="true" version="1" changeset="3841197" timestamp="2010-02-10T18:51:17Z"/>
 <node id="635134075" lat="49.2005050" lon="16.5968550" user="BiIbo" uid="3516" visible="true" version="1" changeset="3841197" timestamp="2010-02-10T18:51:17Z"/>
 <node id="635134078" lat="49.2004475" lon="16.5968740" user="BiIbo" uid="3516" visible="true" version="1" changeset="3841197" timestamp="2010-02-10T18:51:17Z"/>
 <node id="635134079" lat="49.2004250" lon="16.5967070" user="BiIbo" uid="3516" visible="true" version="1" changeset="3841197" timestamp="2010-02-10T18:51:17Z"/>
 <node id="635134080" lat="49.2006200" lon="16.5968830" user="BiIbo" uid="3516" visible="true" version="1" changeset="3841197" timestamp="2010-02-10T18:51:17Z"/>
 <node id="635134082" lat="49.2006340" lon="16.5968780" user="BiIbo" uid="3516" visible="true" version="1" changeset="3841197" timestamp="2010-02-10T18:51:17Z"/>
 <node id="635134083" lat="49.2006240" lon="16.5968170" user="BiIbo" uid="3516" visible="true" version="1" changeset="3841197" timestamp="2010-02-10T18:51:17Z"/>
 <node id="635134086" lat="49.2006030" lon="16.5968220" user="BiIbo" uid="3516" visible="true" version="1" changeset="3841197" timestamp="2010-02-10T18:51:17Z"/>
 <node id="635134106" lat="49.2006440" lon="16.5970620" user="BiIbo" uid="3516" visible="true" version="1" changeset="3841197" timestamp="2010-02-10T18:51:19Z"/>
 <node id="635134107" lat="49.2006320" lon="16.5969860" user="BiIbo" uid="3516" visible="true" version="1" changeset="3841197" timestamp="2010-02-10T18:51:19Z"/>
 <node id="635134109" lat="49.2006470" lon="16.5969800" user="BiIbo" uid="3516" visible="true" version="1" changeset="3841197" timestamp="2010-02-10T18:51:19Z"/>
 <node id="635134110" lat="49.2006410" lon="16.5969270" user="BiIbo" uid="3516" visible="true" version="1" changeset="3841197" timestamp="2010-02-10T18:51:19Z"/>
 <node id="635134111" lat="49.2006270" lon="16.5969350" user="BiIbo" uid="3516" visible="true" version="1" changeset="3841197" timestamp="2010-02-10T18:51:19Z"/>
 <node id="635134112" lat="49.2007565" lon="16.5970260" user="BiIbo" uid="3516" visible="true" version="1" changeset="3841197" timestamp="2010-02-10T18:51:19Z"/>
 <node id="635135367" lat="49.2008660" lon="16.5946330" user="BiIbo" uid="3516" visible="true" version="1" changeset="3841197" timestamp="2010-02-10T18:53:23Z"/>
 <node id="635135370" lat="49.2008790" lon="16.5948280" user="BiIbo" uid="3516" visible="true" version="1" changeset="3841197" timestamp="2010-02-10T18:53:23Z"/>
 <node id="635135377" lat="49.2007310" lon="16.5946555" user="BiIbo" uid="3516" visible="true" version="1" changeset="3841197" timestamp="2010-02-10T18:53:23Z"/>
 <node id="635135485" lat="49.2008000" lon="16.5950680" user="BiIbo" uid="3516" visible="true" version="1" changeset="3841197" timestamp="2010-02-10T18:53:26Z"/>
 <node id="635135486" lat="49.2008040" lon="16.5951100" user="BiIbo" uid="3516" visible="true" version="1" changeset="3841197" timestamp="2010-02-10T18:53:26Z"/>
 <node id="635135487" lat="49.2008060" lon="16.5951100" user="BiIbo" uid="3516" visible="true" version="1" changeset="3841197" timestamp="2010-02-10T18:53:26Z"/>
 <node id="635135488" lat="49.2007855" lon="16.5950015" user="BiIbo" uid="3516" visible="true" version="1" changeset="3841197" timestamp="2010-02-10T18:53:26Z"/>
 <node id="635135497" lat="49.2008240" lon="16.5952570" user="BiIbo" uid="3516" visible="true" version="1" changeset="3841197" timestamp="2010-02-10T18:53:26Z"/>
 <node id="635135499" lat="49.2008020" lon="16.5952620" user="BiIbo" uid="3516" visible="true" version="1" changeset="3841197" timestamp="2010-02-10T18:53:27Z"/>
 <node id="635135501" lat="49.2008070" lon="16.5953180" user="BiIbo" uid="3516" visible="true" version="1" changeset="3841197" timestamp="2010-02-10T18:53:27Z"/>
 <node id="635135503" lat="49.2008220" lon="16.5953130" user="BiIbo" uid="3516" visible="true" version="1" changeset="3841197" timestamp="2010-02-10T18:53:27Z"/>
 <node id="635135505" lat="49.2008470" lon="16.5954910" user="BiIbo" uid="3516" visible="true" version="1" changeset="3841197" timestamp="2010-02-10T18:53:27Z"/>
 <node id="635135507" lat="49.2008350" lon="16.5955000" user="BiIbo" uid="3516" visible="true" version="1" changeset="3841197" timestamp="2010-02-10T18:53:27Z"/>
 <node id="635135509" lat="49.2008340" lon="16.5954030" user="BiIbo" uid="3516" visible="true" version="1" changeset="3841197" timestamp="2010-02-10T18:53:27Z"/>
 <node id="635135513" lat="49.2008485" lon="16.5955500" user="BiIbo" uid="3516" visible="true" version="1" changeset="3841197" timestamp="2010-02-10T18:53:27Z"/>
 <node id="635135518" lat="49.2007610" lon="16.5958040" user="BiIbo" uid="3516" visible="true" version="1" changeset="3841197" timestamp="2010-02-10T18:53:27Z"/>
 <node id="635135528" lat="49.2008810" lon="16.5957665" user="BiIbo" uid="3516" visible="true" version="1" changeset="3841197" timestamp="2010-02-10T18:53:28Z"/>
 <node id="635137774" lat="49.1996520" lon="16.5967020" user="BiIbo" uid="3516" visible="true" version="1" changeset="3841197" timestamp="2010-02-10T18:57:21Z"/>
 <node id="635573718" lat="49.1987350" lon="16.5948270" user="BiIbo" uid="3516" visible="true" version="1" changeset="3845468" timestamp="2010-02-11T03:50:09Z"/>
 <node id="635573719" lat="49.1987420" lon="16.5946770" user="BiIbo" uid="3516" visible="true" version="1" changeset="3845468" timestamp="2010-02-11T03:50:09Z"/>
 <node id="635573771" lat="49.1989050" lon="16.5946320" user="BiIbo" uid="3516" visible="true" version="1" changeset="3845468" timestamp="2010-02-11T03:50:12Z"/>
 <node id="635573773" lat="49.1991790" lon="16.5945420" user="BiIbo" uid="3516" visible="true" version="1" changeset="3845468" timestamp="2010-02-11T03:50:12Z"/>
 <node id="635573774" lat="49.1990600" lon="16.5945850" user="BiIbo" uid="3516" visible="true" version="1" changeset="3845468" timestamp="2010-02-11T03:50:12Z"/>
 <node id="635573776" lat="49.1990610" lon="16.5948480" user="BiIbo" uid="3516" visible="true" version="1" changeset="3845468" timestamp="2010-02-11T03:50:12Z"/>
 <node id="635573777" lat="49.1991740" lon="16.5948130" user="BiIbo" uid="3516" visible="true" version="1" changeset="3845468" timestamp="2010-02-11T03:50:12Z"/>
 <node id="635573778" lat="49.1991875" lon="16.5946036" user="BiIbo" uid="3516" visible="true" version="1" changeset="3845468" timestamp="2010-02-11T03:50:12Z"/>
 <node id="635573779" lat="49.1992145" lon="16.5948006" user="BiIbo" uid="3516" visible="true" version="1" changeset="3845468" timestamp="2010-02-11T03:50:12Z"/>
 <node id="635573818" lat="49.1992590" lon="16.5961110" user="BiIbo" uid="3516" visible="true" version="1" changeset="3845468" timestamp="2010-02-11T03:50:14Z"/>
 <node id="635573819" lat="49.1992350" lon="16.5961150" user="BiIbo" uid="3516" visible="true" version="1" changeset="3845468" timestamp="2010-02-11T03:50:14Z"/>
 <node id="635573846" lat="49.1988130" lon="16.5969745" user="hanoj" uid="4788" visible="true" version="2" changeset="3907409" timestamp="2010-02-18T09:26:20Z"/>
 <node id="635573847" lat="49.1988110" lon="16.5969630" user="hanoj" uid="4788" visible="true" version="2" changeset="3907409" timestamp="2010-02-18T09:26:20Z"/>
 <node id="635573848" lat="49.1986284" lon="16.5970240" user="hanoj" uid="4788" visible="true" version="2" changeset="3907409" timestamp="2010-02-18T09:26:20Z"/>
 <node id="635573849" lat="49.1986290" lon="16.5970310" user="BiIbo" uid="3516" visible="true" version="1" changeset="3845468" timestamp="2010-02-11T03:50:15Z"/>
 <node id="635573850" lat="49.1985297" lon="16.5970620" user="hanoj" uid="4788" visible="true" version="2" changeset="3907409" timestamp="2010-02-18T09:26:20Z"/>
 <node id="635573864" lat="49.1990190" lon="16.5968950" user="BiIbo" uid="3516" visible="true" version="1" changeset="3845468" timestamp="2010-02-11T03:50:16Z"/>
 <node id="635573865" lat="49.1990200" lon="16.5969070" user="BiIbo" uid="3516" visible="true" version="1" changeset="3845468" timestamp="2010-02-11T03:50:16Z"/>
 <node id="635573874" lat="49.1992570" lon="16.5963620" user="BiIbo" uid="3516" visible="true" version="1" changeset="3845468" timestamp="2010-02-11T03:50:16Z"/>
 <node id="635573875" lat="49.1992460" lon="16.5962880" user="BiIbo" uid="3516" visible="true" version="1" changeset="3845468" timestamp="2010-02-11T03:50:17Z"/>
 <node id="635573876" lat="49.1992415" lon="16.5963680" user="BiIbo" uid="3516" visible="true" version="1" changeset="3845468" timestamp="2010-02-11T03:50:17Z"/>
 <node id="635573881" lat="49.1992800" lon="16.5962810" user="BiIbo" uid="3516" visible="true" version="1" changeset="3845468" timestamp="2010-02-11T03:50:17Z"/>
 <node id="635573882" lat="49.1993150" lon="16.5963450" user="BiIbo" uid="3516" visible="true" version="1" changeset="3845468" timestamp="2010-02-11T03:50:17Z"/>
 <node id="635573884" lat="49.1993092" lon="16.5962910" user="hanoj" uid="4788" visible="true" version="2" changeset="3907409" timestamp="2010-02-18T09:26:21Z"/>
 <node id="635573885" lat="49.1992620" lon="16.5965230" user="BiIbo" uid="3516" visible="true" version="1" changeset="3845468" timestamp="2010-02-11T03:50:17Z"/>
 <node id="635573889" lat="49.1993526" lon="16.5962840" user="hanoj" uid="4788" visible="true" version="2" changeset="3907409" timestamp="2010-02-18T09:26:21Z"/>
 <node id="635573891" lat="49.1993580" lon="16.5963298" user="hanoj" uid="4788" visible="true" version="2" changeset="3907409" timestamp="2010-02-18T09:26:21Z"/>
 <node id="635573894" lat="49.1993040" lon="16.5968070" user="BiIbo" uid="3516" visible="true" version="1" changeset="3845468" timestamp="2010-02-11T03:50:18Z"/>
 <node id="635573895" lat="49.1992100" lon="16.5968360" user="BiIbo" uid="3516" visible="true" version="1" changeset="3845468" timestamp="2010-02-11T03:50:18Z"/>
 <node id="635573896" lat="49.1992020" lon="16.5968310" user="BiIbo" uid="3516" visible="true" version="1" changeset="3845468" timestamp="2010-02-11T03:50:18Z"/>
 <node id="635573898" lat="49.1993500" lon="16.5967810" user="BiIbo" uid="3516" visible="true" version="1" changeset="3845468" timestamp="2010-02-11T03:50:18Z"/>
 <node id="635573899" lat="49.1993300" lon="16.5966300" user="BiIbo" uid="3516" visible="true" version="1" changeset="3845468" timestamp="2010-02-11T03:50:18Z"/>
 <node id="635573900" lat="49.1993240" lon="16.5966230" user="BiIbo" uid="3516" visible="true" version="1" changeset="3845468" timestamp="2010-02-11T03:50:18Z"/>
 <node id="635573901" lat="49.1992790" lon="16.5966380" user="BiIbo" uid="3516" visible="true" version="1" changeset="3845468" timestamp="2010-02-11T03:50:18Z"/>
 <node id="635573902" lat="49.1994490" lon="16.5967500" user="BiIbo" uid="3516" visible="true" version="1" changeset="3845468" timestamp="2010-02-11T03:50:18Z"/>
 <node id="635573903" lat="49.1989450" lon="16.5969280" user="BiIbo" uid="3516" visible="true" version="1" changeset="3845468" timestamp="2010-02-11T03:50:18Z"/>
 <node id="635573904" lat="49.1989300" lon="16.5969450" user="BiIbo" uid="3516" visible="true" version="1" changeset="3845468" timestamp="2010-02-11T03:50:18Z"/>
 <node id="635573905" lat="49.1989050" lon="16.5969520" user="BiIbo" uid="3516" visible="true" version="1" changeset="3845468" timestamp="2010-02-11T03:50:18Z"/>
 <node id="635573906" lat="49.1988950" lon="16.5969480" user="BiIbo" uid="3516" visible="true" version="1" changeset="3845468" timestamp="2010-02-11T03:50:18Z"/>
 <node id="640171897" lat="49.1993380" lon="16.5944645" user="Kuratkoo" uid="81148" visible="true" version="1" changeset="3885812" timestamp="2010-02-15T18:58:39Z"/>
 <node id="640171922" lat="49.1994670" lon="16.5944810" user="Kuratkoo" uid="81148" visible="true" version="1" changeset="3885812" timestamp="2010-02-15T18:58:39Z"/>
 <node id="640171926" lat="49.1994820" lon="16.5944750" user="Kuratkoo" uid="81148" visible="true" version="1" changeset="3885812" timestamp="2010-02-15T18:58:39Z"/>
 <node id="640171935" lat="49.1994605" lon="16.5944265" user="Kuratkoo" uid="81148" visible="true" version="1" changeset="3885812" timestamp="2010-02-15T18:58:39Z"/>
 <node id="640171942" lat="49.1994900" lon="16.5945150" user="Kuratkoo" uid="81148" visible="true" version="1" changeset="3885812" timestamp="2010-02-15T18:58:39Z"/>
 <node id="640171947" lat="49.1994600" lon="16.5945250" user="Kuratkoo" uid="81148" visible="true" version="1" changeset="3885812" timestamp="2010-02-15T18:58:39Z"/>
 <node id="640171950" lat="49.1994650" lon="16.5945670" user="Kuratkoo" uid="81148" visible="true" version="1" changeset="3885812" timestamp="2010-02-15T18:58:39Z"/>
 <node id="640172157" lat="49.1995470" lon="16.5944800" user="Kuratkoo" uid="81148" visible="true" version="1" changeset="3885812" timestamp="2010-02-15T18:58:42Z"/>
 <node id="640172160" lat="49.1995690" lon="16.5944750" user="Kuratkoo" uid="81148" visible="true" version="1" changeset="3885812" timestamp="2010-02-15T18:58:43Z"/>
 <node id="640172164" lat="49.1995660" lon="16.5944500" user="Kuratkoo" uid="81148" visible="true" version="1" changeset="3885812" timestamp="2010-02-15T18:58:43Z"/>
 <node id="640172168" lat="49.1996740" lon="16.5944120" user="Kuratkoo" uid="81148" visible="true" version="1" changeset="3885812" timestamp="2010-02-15T18:58:43Z"/>
 <node id="640172172" lat="49.1996820" lon="16.5944400" user="Kuratkoo" uid="81148" visible="true" version="1" changeset="3885812" timestamp="2010-02-15T18:58:43Z"/>
 <node id="640172176" lat="49.1997090" lon="16.5944680" user="Kuratkoo" uid="81148" visible="true" version="1" changeset="3885812" timestamp="2010-02-15T18:58:43Z"/>
 <node id="640172180" lat="49.1997320" lon="16.5944660" user="Kuratkoo" uid="81148" visible="true" version="1" changeset="3885812" timestamp="2010-02-15T18:58:43Z"/>
 <node id="640172184" lat="49.1997260" lon="16.5944180" user="Kuratkoo" uid="81148" visible="true" version="1" changeset="3885812" timestamp="2010-02-15T18:58:43Z"/>
 <node id="640172188" lat="49.1997440" lon="16.5944100" user="Kuratkoo" uid="81148" visible="true" version="1" changeset="3885812" timestamp="2010-02-15T18:58:43Z"/>
 <node id="640172192" lat="49.1997410" lon="16.5943860" user="Kuratkoo" uid="81148" visible="true" version="1" changeset="3885812" timestamp="2010-02-15T18:58:43Z"/>
 <node id="640172197" lat="49.1998140" lon="16.5943600" user="Kuratkoo" uid="81148" visible="true" version="1" changeset="3885812" timestamp="2010-02-15T18:58:43Z"/>
 <node id="640172200" lat="49.1998210" lon="16.5943860" user="Kuratkoo" uid="81148" visible="true" version="1" changeset="3885812" timestamp="2010-02-15T18:58:43Z"/>
 <node id="640172204" lat="49.1998400" lon="16.5943780" user="Kuratkoo" uid="81148" visible="true" version="1" changeset="3885812" timestamp="2010-02-15T18:58:43Z"/>
 <node id="640172207" lat="49.1998450" lon="16.5944260" user="Kuratkoo" uid="81148" visible="true" version="1" changeset="3885812" timestamp="2010-02-15T18:58:43Z"/>
 <node id="640172210" lat="49.1997050" lon="16.5944310" user="Kuratkoo" uid="81148" visible="true" version="1" changeset="3885812" timestamp="2010-02-15T18:58:43Z"/>
 <node id="640172213" lat="49.1995550" lon="16.5945360" user="Kuratkoo" uid="81148" visible="true" version="1" changeset="3885812" timestamp="2010-02-15T18:58:43Z"/>
 <node id="640172227" lat="49.1998720" lon="16.5944350" user="Kuratkoo" uid="81148" visible="true" version="1" changeset="3885812" timestamp="2010-02-15T18:58:43Z"/>
 <node id="640172236" lat="49.1998700" lon="16.5944170" user="Kuratkoo" uid="81148" visible="true" version="1" changeset="3885812" timestamp="2010-02-15T18:58:44Z"/>
 <node id="640172239" lat="49.1998990" lon="16.5946215" user="Kuratkoo" uid="81148" visible="true" version="1" changeset="3885812" timestamp="2010-02-15T18:58:44Z"/>
 <node id="644610987" lat="49.1993520" lon="16.5962782" user="hanoj" uid="4788" visible="true" version="1" changeset="3907409" timestamp="2010-02-18T09:26:15Z"/>
 <node id="1491762658" lat="49.2042453" lon="16.5953395" user="LM_1" uid="475704" visible="true" version="1" changeset="9740832" timestamp="2011-11-04T18:42:17Z"/>
 <node id="1710293430" lat="49.2011909" lon="16.5994362" user="Mar4s" uid="461574" visible="true" version="1" changeset="11255255" timestamp="2012-04-10T17:39:52Z">
  <tag k="highway" v="crossing"/>
 </node>
 <way id="50004944" user="BiIbo" uid="3516" visible="true" version="1" changeset="3841197" timestamp="2010-02-10T18:57:26Z">
  <nd ref="635137631"/>
  <nd ref="635137636"/>
  <nd ref="635137634"/>
  <nd ref="635137629"/>
  <nd ref="635137630"/>
  <nd ref="635137627"/>
  <nd ref="635137628"/>
  <nd ref="635137632"/>
  <nd ref="635137631"/>
  <tag k="building" v="yes"/>
  <tag k="source" v="cuzk:km"/>
 </way>
 <way id="50004930" user="BiIbo" uid="3516" visible="true" version="1" changeset="3841197" timestamp="2010-02-10T18:57:24Z">
  <nd ref="635137620"/>
  <nd ref="635137621"/>
  <nd ref="635137626"/>
  <nd ref="635137561"/>
  <nd ref="635137560"/>
  <nd ref="635137589"/>
  <nd ref="635137587"/>
  <nd ref="635137588"/>
  <nd ref="635137620"/>
  <tag k="building" v="yes"/>
  <tag k="source" v="cuzk:km"/>
 </way>
 <way id="50004943" user="BiIbo" uid="3516" visible="true" version="1" changeset="3841197" timestamp="2010-02-10T18:57:26Z">
  <nd ref="635137734"/>
  <nd ref="635137668"/>
  <nd ref="635137670"/>
  <nd ref="635137665"/>
  <nd ref="635137666"/>
  <nd ref="635137734"/>
  <tag k="building" v="yes"/>
  <tag k="source" v="cuzk:km"/>
 </way>
 <way id="50004940" user="BiIbo" uid="3516" visible="true" version="1" changeset="3841197" timestamp="2010-02-10T18:57:25Z">
  <nd ref="635137847"/>
  <nd ref="635137836"/>
  <nd ref="635137816"/>
  <nd ref="635137796"/>
  <nd ref="635137800"/>
  <nd ref="635137814"/>
  <nd ref="635137818"/>
  <nd ref="635137822"/>
  <nd ref="635137825"/>
  <nd ref="635137827"/>
  <nd ref="635137847"/>
  <tag k="building" v="yes"/>
  <tag k="source" v="cuzk:km"/>
 </way>
 <way id="50004946" user="BiIbo" uid="3516" visible="true" version="1" changeset="3841197" timestamp="2010-02-10T18:57:26Z">
  <nd ref="635137615"/>
  <nd ref="635137616"/>
  <nd ref="635137617"/>
  <nd ref="635137618"/>
  <nd ref="635137615"/>
  <tag k="building" v="yes"/>
  <tag k="source" v="cuzk:km"/>
 </way>
 <way id="32791178" user="BiIbo" uid="3516" visible="true" version="2" changeset="3845468" timestamp="2010-02-11T03:50:22Z">
  <nd ref="369487900"/>
  <nd ref="635573779"/>
  <tag k="barrier" v="wall"/>
  <tag k="source" v="cuzk:km"/>
 </way>
 <way id="50004697" user="BiIbo" uid="3516" visible="true" version="1" changeset="3841197" timestamp="2010-02-10T18:51:24Z">
  <nd ref="635134086"/>
  <nd ref="635134071"/>
  <nd ref="635134072"/>
  <nd ref="635134073"/>
  <nd ref="635134074"/>
  <nd ref="635134075"/>
  <nd ref="635134078"/>
  <nd ref="635134079"/>
  <nd ref="635134088"/>
  <nd ref="635134086"/>
  <tag k="building" v="yes"/>
  <tag k="source" v="cuzk:km"/>
 </way>
 <way id="50004802" user="BiIbo" uid="3516" visible="true" version="1" changeset="3841197" timestamp="2010-02-10T18:53:37Z">
  <nd ref="635135509"/>
  <nd ref="635135493"/>
  <nd ref="635135491"/>
  <nd ref="635135499"/>
  <nd ref="635135501"/>
  <nd ref="635135503"/>
  <nd ref="635135509"/>
  <tag k="building" v="yes"/>
  <tag k="source" v="cuzk:km"/>
 </way>
 <way id="50004941" user="BiIbo" uid="3516" visible="true" version="1" changeset="3841197" timestamp="2010-02-10T18:57:25Z">
  <nd ref="635137847"/>
  <nd ref="635137827"/>
  <nd ref="635137841"/>
  <nd ref="635137843"/>
  <nd ref="635137844"/>
  <nd ref="635137845"/>
  <nd ref="635137849"/>
  <nd ref="635137864"/>
  <nd ref="635137847"/>
  <tag k="building" v="yes"/>
  <tag k="source" v="cuzk:km"/>
 </way>
 <way id="50004787" user="BiIbo" uid="3516" visible="true" version="1" changeset="3841197" timestamp="2010-02-10T18:53:36Z">
  <nd ref="635135372"/>
  <nd ref="635135374"/>
  <nd ref="635135375"/>
  <nd ref="635135360"/>
  <nd ref="635135484"/>
  <nd ref="635135474"/>
  <nd ref="635135363"/>
  <nd ref="635135377"/>
  <nd ref="635135372"/>
  <tag k="building" v="yes"/>
  <tag k="source" v="cuzk:km"/>
 </way>
 <way id="50004951" user="BiIbo" uid="3516" visible="true" version="1" changeset="3841197" timestamp="2010-02-10T18:57:27Z">
  <nd ref="635137730"/>
  <nd ref="635137716"/>
  <nd ref="635137714"/>
  <nd ref="635137703"/>
  <nd ref="635137708"/>
  <nd ref="635137730"/>
  <tag k="building" v="yes"/>
  <tag k="source" v="cuzk:km"/>
 </way>
 <way id="50004948" user="BiIbo" uid="3516" visible="true" version="1" changeset="3841197" timestamp="2010-02-10T18:57:26Z">
  <nd ref="635137572"/>
  <nd ref="635137564"/>
  <nd ref="635137600"/>
  <nd ref="635137596"/>
  <nd ref="635137599"/>
  <nd ref="635137574"/>
  <nd ref="635137575"/>
  <nd ref="635137576"/>
  <nd ref="635137577"/>
  <nd ref="635137578"/>
  <nd ref="635137579"/>
  <nd ref="635137590"/>
  <nd ref="635137568"/>
  <nd ref="635137572"/>
  <tag k="building" v="yes"/>
  <tag k="source" v="cuzk:km"/>
 </way>
 <way id="50004803" user="BiIbo" uid="3516" visible="true" version="1" changeset="3841197" timestamp="2010-02-10T18:53:38Z">
  <nd ref="635135505"/>
  <nd ref="635135507"/>
  <nd ref="635135513"/>
  <nd ref="635135511"/>
  <nd ref="635135493"/>
  <nd ref="635135509"/>
  <nd ref="635135505"/>
  <tag k="building" v="yes"/>
  <tag k="source" v="cuzk:km"/>
 </way>
 <way id="50004959" user="BiIbo" uid="3516" visible="true" version="1" changeset="3841197" timestamp="2010-02-10T18:57:28Z">
  <nd ref="635137838"/>
  <nd ref="635137777"/>
  <nd ref="635137773"/>
  <nd ref="635137769"/>
  <nd ref="635137770"/>
  <nd ref="635137771"/>
  <nd ref="635137772"/>
  <nd ref="635137779"/>
  <nd ref="635137781"/>
  <nd ref="635137838"/>
  <tag k="building" v="yes"/>
  <tag k="source" v="cuzk:km"/>
 </way>
 <way id="92057337" user="hanoj" uid="4788" visible="true" version="3" changeset="11987970" timestamp="2012-06-23T11:39:44Z">
  <nd ref="26261758"/>
  <nd ref="25631553"/>
  <nd ref="25631555"/>
  <nd ref="1491762658"/>
  <nd ref="365353503"/>
  <tag k="highway" v="residential"/>
  <tag k="name" v="Jiráskova"/>
  <tag k="oneway" v="yes"/>
  <tag k="source" v="cuzk:km"/>
 </way>
 <way id="50004947" user="BiIbo" uid="3516" visible="true" version="1" changeset="3841197" timestamp="2010-02-10T18:57:26Z">
  <nd ref="635137569"/>
  <nd ref="635137570"/>
  <nd ref="635137562"/>
  <nd ref="635137563"/>
  <nd ref="635137566"/>
  <nd ref="635137567"/>
  <nd ref="635137564"/>
  <nd ref="635137572"/>
  <nd ref="635137571"/>
  <nd ref="635137569"/>
  <tag k="building" v="yes"/>
  <tag k="source" v="cuzk:km"/>
 </way>
 <way id="50004956" user="BiIbo" uid="3516" visible="true" version="1" changeset="3841197" timestamp="2010-02-10T18:57:27Z">
  <nd ref="635137749"/>
  <nd ref="635137739"/>
  <nd ref="635137740"/>
  <nd ref="635137750"/>
  <nd ref="635137749"/>
  <tag k="building" v="yes"/>
  <tag k="source" v="cuzk:km"/>
 </way>
 <way id="50004696" user="BiIbo" uid="3516" visible="true" version="1" changeset="3841197" timestamp="2010-02-10T18:51:24Z">
  <nd ref="635134112"/>
  <nd ref="635134106"/>
  <nd ref="635134107"/>
  <nd ref="635134109"/>
  <nd ref="635134110"/>
  <nd ref="635134111"/>
  <nd ref="635134080"/>
  <nd ref="635134082"/>
  <nd ref="635134083"/>
  <nd ref="635134086"/>
  <nd ref="635134088"/>
  <nd ref="635134084"/>
  <nd ref="635134085"/>
  <nd ref="635134112"/>
  <tag k="building" v="yes"/>
  <tag k="source" v="cuzk:km"/>
 </way>
 <way id="8061797" user="Mar4s" uid="461574" visible="true" version="6" changeset="11255255" timestamp="2012-04-10T17:39:57Z">
  <nd ref="26261758"/>
  <nd ref="26411683"/>
  <nd ref="365353454"/>
  <nd ref="1710293430"/>
  <nd ref="26261759"/>
  <tag k="highway" v="residential"/>
  <tag k="name" v="Grohova"/>
  <tag k="old_name" v="Sirotčí"/>
  <tag k="oneway" v="yes"/>
  <tag k="source" v="cuzk:km"/>
 </way>
 <way id="50004935" user="BiIbo" uid="3516" visible="true" version="1" changeset="3841197" timestamp="2010-02-10T18:57:25Z">
  <nd ref="635137715"/>
  <nd ref="635137657"/>
  <nd ref="635137652"/>
  <nd ref="635137716"/>
  <nd ref="635137715"/>
  <tag k="building" v="yes"/>
  <tag k="source" v="cuzk:km"/>
 </way>
 <way id="50381491" user="Kuratkoo" uid="81148" visible="true" version="1" changeset="3885812" timestamp="2010-02-15T18:58:51Z">
  <nd ref="640172239"/>
  <nd ref="640172218"/>
  <nd ref="640172176"/>
  <nd ref="640172180"/>
  <nd ref="640172184"/>
  <nd ref="640172188"/>
  <nd ref="640172192"/>
  <nd ref="640172197"/>
  <nd ref="640172200"/>
  <nd ref="640172204"/>
  <nd ref="640172207"/>
  <nd ref="640172236"/>
  <nd ref="640172227"/>
  <nd ref="640172239"/>
  <tag k="building" v="yes"/>
  <tag k="source" v="cuzk:km"/>
 </way>
 <way id="4337092" user="hanoj" uid="4788" visible="true" version="3" changeset="853361" timestamp="2009-03-24T18:29:14Z">
  <nd ref="26364817"/>
  <nd ref="26261758"/>
  <tag k="created_by" v="JOSM"/>
  <tag k="highway" v="residential"/>
  <tag k="name" v="Grohova"/>
  <tag k="old_name" v="Sirotčí"/>
  <tag k="source" v="cuzk:km"/>
 </way>
 <way id="50004801" user="BiIbo" uid="3516" visible="true" version="1" changeset="3841197" timestamp="2010-02-10T18:53:37Z">
  <nd ref="635135497"/>
  <nd ref="635135499"/>
  <nd ref="635135491"/>
  <nd ref="635135476"/>
  <nd ref="635135488"/>
  <nd ref="635135485"/>
  <nd ref="635135486"/>
  <nd ref="635135487"/>
  <nd ref="635135497"/>
  <tag k="building" v="yes"/>
  <tag k="source" v="cuzk:km"/>
 </way>
 <way id="50004804" user="BiIbo" uid="3516" visible="true" version="1" changeset="3841197" timestamp="2010-02-10T18:53:38Z">
  <nd ref="635135528"/>
  <nd ref="635135518"/>
  <nd ref="635135511"/>
  <nd ref="635135513"/>
  <nd ref="635135528"/>
  <tag k="building" v="yes"/>
  <tag k="source" v="cuzk:km"/>
 </way>
 <way id="50004796" user="BiIbo" uid="3516" visible="true" version="1" changeset="3841197" timestamp="2010-02-10T18:53:37Z">
  <nd ref="635135364"/>
  <nd ref="635135372"/>
  <nd ref="635135377"/>
  <nd ref="635135367"/>
  <nd ref="635135370"/>
  <nd ref="635135364"/>
  <tag k="building" v="yes"/>
  <tag k="source" v="cuzk:km"/>
 </way>
 <way id="50381462" user="Kuratkoo" uid="81148" visible="true" version="1" changeset="3885812" timestamp="2010-02-15T18:58:48Z">
  <nd ref="640172216"/>
  <nd ref="640171939"/>
  <nd ref="640171897"/>
  <nd ref="640171935"/>
  <nd ref="640171922"/>
  <nd ref="640171926"/>
  <nd ref="640171942"/>
  <nd ref="640171947"/>
  <nd ref="640171950"/>
  <nd ref="640172213"/>
  <nd ref="640172216"/>
  <tag k="building" v="yes"/>
  <tag k="source" v="cuzk:km"/>
 </way>
 <way id="50004953" user="BiIbo" uid="3516" visible="true" version="1" changeset="3841197" timestamp="2010-02-10T18:57:27Z">
  <nd ref="635137730"/>
  <nd ref="635137708"/>
  <nd ref="635137709"/>
  <nd ref="635137711"/>
  <nd ref="635137713"/>
  <nd ref="635137753"/>
  <nd ref="635137726"/>
  <nd ref="635137725"/>
  <nd ref="635137730"/>
  <tag k="building" v="yes"/>
  <tag k="source" v="cuzk:km"/>
 </way>
 <way id="50004937" user="Simonetta 8" uid="1251211" visible="true" version="2" changeset="15355829" timestamp="2013-03-13T20:10:52Z">
  <nd ref="635137876"/>
  <nd ref="635137873"/>
  <nd ref="635137866"/>
  <nd ref="635137870"/>
  <nd ref="635137741"/>
  <nd ref="635137747"/>
  <nd ref="635137755"/>
  <nd ref="635137876"/>
  <tag k="building" v="yes"/>
  <tag k="name" v="Restaurace U Chluparů"/>
  <tag k="source" v="cuzk:km"/>
 </way>
 <way id="50004949" user="BiIbo" uid="3516" visible="true" version="1" changeset="3841197" timestamp="2010-02-10T18:57:26Z">
  <nd ref="635137747"/>
  <nd ref="635137742"/>
  <nd ref="635137744"/>
  <nd ref="635137748"/>
  <nd ref="635137756"/>
  <nd ref="635137755"/>
  <nd ref="635137747"/>
  <tag k="building" v="yes"/>
  <tag k="source" v="cuzk:km"/>
 </way>
 <way id="50048875" user="hanoj" uid="4788" visible="true" version="2" changeset="3907409" timestamp="2010-02-18T09:26:26Z">
  <nd ref="635573884"/>
  <nd ref="635573882"/>
  <nd ref="635573874"/>
  <nd ref="635573875"/>
  <nd ref="635573881"/>
  <nd ref="635573818"/>
  <nd ref="635573819"/>
  <nd ref="635573776"/>
  <nd ref="635573777"/>
  <nd ref="635573888"/>
  <nd ref="635573889"/>
  <nd ref="644610987"/>
  <nd ref="635573884"/>
  <tag k="building" v="yes"/>
  <tag k="name" v="C2"/>
  <tag k="source" v="cuzk:km"/>
 </way>
 <way id="50004952" user="BiIbo" uid="3516" visible="true" version="1" changeset="3841197" timestamp="2010-02-10T18:57:27Z">
  <nd ref="635137713"/>
  <nd ref="635137711"/>
  <nd ref="635137706"/>
  <nd ref="635137707"/>
  <nd ref="635137696"/>
  <nd ref="635137699"/>
  <nd ref="635137700"/>
  <nd ref="635137701"/>
  <nd ref="635137702"/>
  <nd ref="635137674"/>
  <nd ref="635137680"/>
  <nd ref="635137681"/>
  <nd ref="635137683"/>
  <nd ref="635137684"/>
  <nd ref="635137692"/>
  <nd ref="635137695"/>
  <nd ref="635137713"/>
  <tag k="building" v="yes"/>
  <tag k="source" v="cuzk:km"/>
 </way>
 <way id="50004936" user="BiIbo" uid="3516" visible="true" version="1" changeset="3841197" timestamp="2010-02-10T18:57:25Z">
  <nd ref="635137637"/>
  <nd ref="635137638"/>
  <nd ref="635137764"/>
  <nd ref="635137758"/>
  <nd ref="635137634"/>
  <nd ref="635137636"/>
  <nd ref="635137633"/>
  <nd ref="635137639"/>
  <nd ref="635137642"/>
  <nd ref="635137644"/>
  <nd ref="635137647"/>
  <nd ref="635137649"/>
  <nd ref="635137637"/>
  <tag k="building" v="yes"/>
  <tag k="source" v="cuzk:km"/>
 </way>
 <way id="4268522" user="hanoj" uid="4788" visible="true" version="7" changeset="6789362" timestamp="2010-12-28T15:32:21Z">
  <nd ref="25631552"/>
  <nd ref="365353445"/>
  <nd ref="26261758"/>
  <tag k="highway" v="residential"/>
  <tag k="name" v="Jiráskova"/>
  <tag k="oneway" v="yes"/>
  <tag k="source" v="cuzk:km"/>
 </way>
 <way id="50004932" user="BiIbo" uid="3516" visible="true" version="1" changeset="3841197" timestamp="2010-02-10T18:57:25Z">
  <nd ref="635137692"/>
  <nd ref="635137685"/>
  <nd ref="635137686"/>
  <nd ref="635137556"/>
  <nd ref="635137552"/>
  <nd ref="635137553"/>
  <nd ref="635137554"/>
  <nd ref="635137695"/>
  <nd ref="635137692"/>
  <tag k="building" v="yes"/>
  <tag k="source" v="cuzk:km"/>
 </way>
 <way id="50381492" user="Kuratkoo" uid="81148" visible="true" version="1" changeset="3885812" timestamp="2010-02-15T18:58:51Z">
  <nd ref="640172216"/>
  <nd ref="640172213"/>
  <nd ref="640172157"/>
  <nd ref="640172160"/>
  <nd ref="640172164"/>
  <nd ref="640172168"/>
  <nd ref="640172172"/>
  <nd ref="640172210"/>
  <nd ref="640172176"/>
  <nd ref="640172218"/>
  <nd ref="640172216"/>
  <tag k="building" v="yes"/>
  <tag k="source" v="cuzk:km"/>
 </way>
 <way id="50048896" user="hanoj" uid="4788" visible="true" version="3" changeset="3948486" timestamp="2010-02-22T23:10:08Z">
  <nd ref="644610987"/>
  <nd ref="635573889"/>
  <nd ref="635573891"/>
  <nd ref="635573892"/>
  <nd ref="635573890"/>
  <nd ref="635573886"/>
  <nd ref="635573887"/>
  <nd ref="635573893"/>
  <nd ref="635573902"/>
  <nd ref="635573898"/>
  <nd ref="635573899"/>
  <nd ref="635573900"/>
  <nd ref="635573901"/>
  <nd ref="635573885"/>
  <nd ref="635573876"/>
  <nd ref="635573874"/>
  <nd ref="635573882"/>
  <nd ref="635573884"/>
  <nd ref="644610987"/>
  <tag k="building" v="yes"/>
  <tag k="name" v="C1"/>
  <tag k="source" v="cuzk:km"/>
 </way>
 <way id="50004933" user="BiIbo" uid="3516" visible="true" version="1" changeset="3841197" timestamp="2010-02-10T18:57:25Z">
  <nd ref="635137687"/>
  <nd ref="635137688"/>
  <nd ref="635137691"/>
  <nd ref="635137601"/>
  <nd ref="635137602"/>
  <nd ref="635137603"/>
  <nd ref="635137604"/>
  <nd ref="635137551"/>
  <nd ref="635137555"/>
  <nd ref="635137556"/>
  <nd ref="635137686"/>
  <nd ref="635137687"/>
  <tag k="building" v="yes"/>
  <tag k="source" v="cuzk:km"/>
 </way>
 <way id="50004945" user="BiIbo" uid="3516" visible="true" version="1" changeset="3841197" timestamp="2010-02-10T18:57:26Z">
  <nd ref="635137667"/>
  <nd ref="635137659"/>
  <nd ref="635137662"/>
  <nd ref="635137665"/>
  <nd ref="635137670"/>
  <nd ref="635137667"/>
  <tag k="building" v="yes"/>
  <tag k="source" v="cuzk:km"/>
 </way>
 <way id="50004800" user="BiIbo" uid="3516" visible="true" version="1" changeset="3841197" timestamp="2010-02-10T18:53:37Z">
  <nd ref="635135476"/>
  <nd ref="635135474"/>
  <nd ref="635135484"/>
  <nd ref="635135482"/>
  <nd ref="635135483"/>
  <nd ref="635135488"/>
  <nd ref="635135476"/>
  <tag k="building" v="yes"/>
  <tag k="source" v="cuzk:km"/>
 </way>
 <way id="50004961" user="BiIbo" uid="3516" visible="true" version="1" changeset="3841197" timestamp="2010-02-10T18:57:28Z">
  <nd ref="635137873"/>
  <nd ref="635137864"/>
  <nd ref="635137849"/>
  <nd ref="635137851"/>
  <nd ref="635137852"/>
  <nd ref="635137856"/>
  <nd ref="635137858"/>
  <nd ref="635137861"/>
  <nd ref="635137866"/>
  <nd ref="635137873"/>
  <tag k="building" v="yes"/>
  <tag k="source" v="cuzk:km"/>
 </way>
 <way id="50004929" user="BiIbo" uid="3516" visible="true" version="1" changeset="3841197" timestamp="2010-02-10T18:57:24Z">
  <nd ref="635137582"/>
  <nd ref="635137583"/>
  <nd ref="635137589"/>
  <nd ref="635137560"/>
  <nd ref="635137558"/>
  <nd ref="635137581"/>
  <nd ref="635137584"/>
  <nd ref="635137585"/>
  <nd ref="635137586"/>
  <nd ref="635137582"/>
  <tag k="building" v="yes"/>
  <tag k="source" v="cuzk:km"/>
 </way>
 <way id="50004960" user="BiIbo" uid="3516" visible="true" version="1" changeset="3841197" timestamp="2010-02-10T18:57:28Z">
  <nd ref="635137836"/>
  <nd ref="635137838"/>
  <nd ref="635137781"/>
  <nd ref="635137783"/>
  <nd ref="635137788"/>
  <nd ref="635137791"/>
  <nd ref="635137793"/>
  <nd ref="635137816"/>
  <nd ref="635137836"/>
  <tag k="building" v="yes"/>
  <tag k="source" v="cuzk:km"/>
 </way>
 <way id="50004926" user="BiIbo" uid="3516" visible="true" version="1" changeset="3841197" timestamp="2010-02-10T18:57:24Z">
  <nd ref="635137591"/>
  <nd ref="635137592"/>
  <nd ref="635137613"/>
  <nd ref="635137593"/>
  <nd ref="635137594"/>
  <nd ref="635137596"/>
  <nd ref="635137600"/>
  <nd ref="635137551"/>
  <nd ref="635137604"/>
  <nd ref="635137605"/>
  <nd ref="635137606"/>
  <nd ref="635137597"/>
  <nd ref="635137598"/>
  <nd ref="635137608"/>
  <nd ref="635137609"/>
  <nd ref="635137610"/>
  <nd ref="635137611"/>
  <nd ref="635137591"/>
  <tag k="building" v="yes"/>
  <tag k="source" v="cuzk:km"/>
 </way>
 <way id="50004934" user="BiIbo" uid="3516" visible="true" version="1" changeset="3841197" timestamp="2010-02-10T18:57:25Z">
  <nd ref="635137652"/>
  <nd ref="635137612"/>
  <nd ref="635137614"/>
  <nd ref="635137654"/>
  <nd ref="635137714"/>
  <nd ref="635137716"/>
  <nd ref="635137652"/>
  <tag k="building" v="yes"/>
  <tag k="source" v="cuzk:km"/>
 </way>
 <way id="50004939" user="BiIbo" uid="3516" visible="true" version="1" changeset="3841197" timestamp="2010-02-10T18:57:25Z">
  <nd ref="635137829"/>
  <nd ref="635137832"/>
  <nd ref="635137671"/>
  <nd ref="635137673"/>
  <nd ref="635137829"/>
  <tag k="building" v="yes"/>
  <tag k="source" v="cuzk:km"/>
 </way>
 <way id="50004955" user="BiIbo" uid="3516" visible="true" version="1" changeset="3841197" timestamp="2010-02-10T18:57:27Z">
  <nd ref="635137751"/>
  <nd ref="635137729"/>
  <nd ref="635137720"/>
  <nd ref="635137721"/>
  <nd ref="635137733"/>
  <nd ref="635137722"/>
  <nd ref="635137725"/>
  <nd ref="635137726"/>
  <nd ref="635137753"/>
  <nd ref="635137751"/>
  <tag k="building" v="yes"/>
  <tag k="source" v="cuzk:km"/>
 </way>
 <way id="17254055" user="hanoj" uid="4788" visible="true" version="7" changeset="3907409" timestamp="2010-02-18T09:26:25Z">
  <nd ref="635573849"/>
  <nd ref="635573850"/>
  <nd ref="178830800"/>
  <nd ref="178830803"/>
  <nd ref="178830805"/>
  <nd ref="635573718"/>
  <nd ref="635573719"/>
  <nd ref="635573771"/>
  <nd ref="635573774"/>
  <nd ref="635573773"/>
  <nd ref="635573778"/>
  <nd ref="635573779"/>
  <nd ref="369487900"/>
  <nd ref="178830797"/>
  <nd ref="635573894"/>
  <nd ref="635573895"/>
  <nd ref="635573896"/>
  <nd ref="635573864"/>
  <nd ref="635573865"/>
  <nd ref="635573903"/>
  <nd ref="635573904"/>
  <nd ref="635573905"/>
  <nd ref="635573906"/>
  <nd ref="635573846"/>
  <nd ref="635573847"/>
  <nd ref="635573848"/>
  <nd ref="635573849"/>
  <tag k="amenity" v="hospital"/>
  <tag k="name" v="Porodnice Obilný trh"/>
  <tag k="old_name" v="Zemská porodnice"/>
  <tag k="operator" v="FN Bohunice"/>
  <tag k="source" v="cuzk:km"/>
 </way>
 <way id="50004954" user="BiIbo" uid="3516" visible="true" version="1" changeset="3841197" timestamp="2010-02-10T18:57:27Z">
  <nd ref="635137719"/>
  <nd ref="635137715"/>
  <nd ref="635137716"/>
  <nd ref="635137730"/>
  <nd ref="635137719"/>
  <tag k="building" v="yes"/>
  <tag k="source" v="cuzk:km"/>
 </way>
 <way id="50004950" user="BiIbo" uid="3516" visible="true" version="1" changeset="3841197" timestamp="2010-02-10T18:57:27Z">
  <nd ref="635137756"/>
  <nd ref="635137748"/>
  <nd ref="635137729"/>
  <nd ref="635137751"/>
  <nd ref="635137756"/>
  <tag k="building" v="yes"/>
  <tag k="source" v="cuzk:km"/>
 </way>
 <way id="50004927" user="BiIbo" uid="3516" visible="true" version="1" changeset="3841197" timestamp="2010-02-10T18:57:24Z">
  <nd ref="635137566"/>
  <nd ref="635137565"/>
  <nd ref="635137581"/>
  <nd ref="635137558"/>
  <nd ref="635137557"/>
  <nd ref="635137567"/>
  <nd ref="635137566"/>
  <tag k="building" v="yes"/>
  <tag k="source" v="cuzk:km"/>
 </way>
 <way id="50004958" user="BiIbo" uid="3516" visible="true" version="1" changeset="3841197" timestamp="2010-02-10T18:57:28Z">
  <nd ref="635137777"/>
  <nd ref="635137774"/>
  <nd ref="635137760"/>
  <nd ref="635137768"/>
  <nd ref="635137767"/>
  <nd ref="635137773"/>
  <nd ref="635137777"/>
  <tag k="building" v="yes"/>
  <tag k="source" v="cuzk:km"/>
 </way>
 <way id="50004957" user="BiIbo" uid="3516" visible="true" version="1" changeset="3841197" timestamp="2010-02-10T18:57:27Z">
  <nd ref="635137768"/>
  <nd ref="635137760"/>
  <nd ref="635137758"/>
  <nd ref="635137764"/>
  <nd ref="635137761"/>
  <nd ref="635137762"/>
  <nd ref="635137763"/>
  <nd ref="635137768"/>
  <tag k="building" v="yes"/>
  <tag k="source" v="cuzk:km"/>
 </way>
 <way id="50004931" user="BiIbo" uid="3516" visible="true" version="1" changeset="3841197" timestamp="2010-02-10T18:57:24Z">
  <nd ref="635137622"/>
  <nd ref="635137623"/>
  <nd ref="635137630"/>
  <nd ref="635137629"/>
  <nd ref="635137561"/>
  <nd ref="635137626"/>
  <nd ref="635137624"/>
  <nd ref="635137625"/>
  <nd ref="635137622"/>
  <tag k="building" v="yes"/>
  <tag k="source" v="cuzk:km"/>
 </way>
 <relation id="1345703" user="hopet" uid="191339" visible="true" version="6" changeset="15682898" timestamp="2013-04-10T20:55:14Z">
  <member type="way" ref="158978501" role="forward"/>
  <member type="way" ref="158977552" role="forward"/>
  <member type="way" ref="158977550" role="forward"/>
  <member type="way" ref="158978492" role="forward"/>
  <member type="way" ref="158978497" role="forward"/>
  <member type="way" ref="158978499" role="forward"/>
  <member type="way" ref="145274773" role="forward"/>
  <member type="way" ref="145274756" role="forward"/>
  <member type="way" ref="31483092" role="forward"/>
  <member type="way" ref="4861079" role=""/>
  <member type="way" ref="48646520" role=""/>
  <member type="way" ref="216880763" role=""/>
  <member type="way" ref="48646517" role=""/>
  <member type="way" ref="92057335" role=""/>
  <member type="way" ref="48646524" role=""/>
  <member type="way" ref="27062771" role=""/>
  <member type="way" ref="43969937" role=""/>
  <member type="way" ref="92057337" role="forward"/>
  <member type="way" ref="168703994" role="forward"/>
  <member type="way" ref="40552441" role="backward"/>
  <member type="way" ref="56461536" role="forward"/>
  <tag k="complete" v="yes"/>
  <tag k="lcn:description" v="neoficiální doporučená trasa"/>
  <tag k="network" v="rcn"/>
  <tag k="operator" v="cz:BrnoNaKole"/>
  <tag k="ref" v="X133"/>
  <tag k="route" v="bicycle"/>
  <tag k="state" v="recommended"/>
  <tag k="type" v="route"/>
  <tag k="website" v="http://www.brnonakole.cz/"/>
 </relation>
 <relation id="1345701" user="Petr Dlouhý" uid="17615" visible="true" version="9" changeset="14889244" timestamp="2013-02-02T21:42:33Z">
  <member type="way" ref="25800135" role=""/>
  <member type="way" ref="92057262" role=""/>
  <member type="way" ref="25800126" role="forward"/>
  <member type="way" ref="8513482" role=""/>
  <member type="way" ref="141175946" role=""/>
  <member type="way" ref="141175947" role=""/>
  <member type="way" ref="35559180" role=""/>
  <member type="way" ref="17416336" role=""/>
  <member type="way" ref="85194597" role=""/>
  <member type="way" ref="85194609" role=""/>
  <member type="way" ref="92057320" role=""/>
  <member type="way" ref="27063372" role="forward"/>
  <member type="way" ref="74440685" role=""/>
  <member type="way" ref="201505403" role=""/>
  <member type="way" ref="201505402" role=""/>
  <member type="way" ref="201505399" role=""/>
  <member type="way" ref="201505401" role=""/>
  <member type="way" ref="92057323" role=""/>
  <member type="way" ref="8361835" role=""/>
  <member type="way" ref="92057292" role=""/>
  <member type="way" ref="8361834" role=""/>
  <member type="way" ref="8391653" role=""/>
  <member type="way" ref="10417535" role=""/>
  <member type="way" ref="8140003" role="forward"/>
  <member type="way" ref="4315188" role="forward"/>
  <member type="way" ref="4268522" role=""/>
  <member type="way" ref="4337092" role="backward"/>
  <member type="way" ref="4315190" role="forward"/>
  <member type="way" ref="8061797" role="forward"/>
  <member type="way" ref="92057298" role=""/>
  <member type="way" ref="27063767" role="forward"/>
  <member type="way" ref="27063768" role="forward"/>
  <member type="way" ref="48578320" role=""/>
  <member type="way" ref="83531063" role="forward"/>
  <member type="way" ref="8513483" role="forward"/>
  <tag k="complete" v="yes"/>
  <tag k="lcn:description" v="neoficiální doporučená trasa"/>
  <tag k="network" v="rcn"/>
  <tag k="operator" v="cz:BrnoNaKole"/>
  <tag k="ref" v="X128"/>
  <tag k="route" v="bicycle"/>
  <tag k="state" v="recommended"/>
  <tag k="type" v="route"/>
  <tag k="website" v="http://www.brnonakole.cz/"/>
 </relation>
</osm>
