<?xml version="1.0" encoding="UTF-8"?>
<osm version="0.6" generator="CGImap 0.1.0" copyright="OpenStreetMap and contributors" attribution="http://www.openstreetmap.org/copyright" license="http://opendatacommons.org/licenses/odbl/1-0/">
 <bounds minlat="49.1991100" minlon="16.5919300" maxlat="49.2005200" maxlon="16.5933300"/>
 <node id="1591345884" lat="49.1991915" lon="16.5922454" user="hanoj" uid="4788" visible="true" version="2" changeset="11332099" timestamp="2012-04-17T12:25:27Z">
  <tag k="amenity" v="pub"/>
  <tag k="name" v="Na Bláhovce"/>
  <tag k="official_name" v="Hostinec Na Bláhovce"/>
 </node>
 <node id="296454939" lat="49.1997283" lon="16.5921209" user="Radomír Černoch" uid="51295" visible="true" version="2" changeset="1966265" timestamp="2009-07-28T17:22:28Z">
  <tag k="addr:conscriptionnumber" v="373"/>
  <tag k="addr:housenumber" v="373/10"/>
  <tag k="addr:postcode" v="60200"/>
  <tag k="addr:street" v="Stojanova"/>
  <tag k="addr:streetnumber" v="10"/>
  <tag k="source:addr" v="uir_adr"/>
  <tag k="uir_adr:ADRESA_KOD" v="19169442"/>
 </node>
 <node id="296481349" lat="49.1997476" lon="16.5930287" user="Radomír Černoch" uid="51295" visible="true" version="2" changeset="1966265" timestamp="2009-07-28T17:22:33Z">
  <tag k="addr:conscriptionnumber" v="421"/>
  <tag k="addr:housenumber" v="421/45"/>
  <tag k="addr:postcode" v="60200"/>
  <tag k="addr:street" v="Úvoz"/>
  <tag k="addr:streetnumber" v="45"/>
  <tag k="source:addr" v="uir_adr"/>
  <tag k="uir_adr:ADRESA_KOD" v="19170025"/>
 </node>
 <node id="296488831" lat="49.1993137" lon="16.5923965" user="Radomír Černoch" uid="51295" visible="true" version="2" changeset="1966265" timestamp="2009-07-28T17:22:35Z">
  <tag k="addr:conscriptionnumber" v="96"/>
  <tag k="addr:housenumber" v="96/54"/>
  <tag k="addr:postcode" v="60200"/>
  <tag k="addr:street" v="Gorkého"/>
  <tag k="addr:streetnumber" v="54"/>
  <tag k="source:addr" v="uir_adr"/>
  <tag k="uir_adr:ADRESA_KOD" v="19165013"/>
 </node>
 <node id="296489753" lat="49.1993130" lon="16.5922586" user="Radomír Černoch" uid="51295" visible="true" version="2" changeset="1966265" timestamp="2009-07-28T17:22:35Z">
  <tag k="addr:conscriptionnumber" v="368"/>
  <tag k="addr:housenumber" v="368/4"/>
  <tag k="addr:postcode" v="60200"/>
  <tag k="addr:street" v="Stojanova"/>
  <tag k="addr:streetnumber" v="4"/>
  <tag k="source:addr" v="uir_adr"/>
  <tag k="uir_adr:ADRESA_KOD" v="19169396"/>
 </node>
 <node id="296496450" lat="49.2001198" lon="16.5925393" user="Radomír Černoch" uid="51295" visible="true" version="2" changeset="1966265" timestamp="2009-07-28T17:22:36Z">
  <tag k="addr:conscriptionnumber" v="132"/>
  <tag k="addr:housenumber" v="132/39"/>
  <tag k="addr:postcode" v="60200"/>
  <tag k="addr:street" v="Grohova"/>
  <tag k="addr:streetnumber" v="39"/>
  <tag k="source:addr" v="uir_adr"/>
  <tag k="uir_adr:ADRESA_KOD" v="19165501"/>
 </node>
 <node id="296502664" lat="49.1993353" lon="16.5930830" user="Radomír Černoch" uid="51295" visible="true" version="2" changeset="1966265" timestamp="2009-07-28T17:22:39Z">
  <tag k="addr:conscriptionnumber" v="90"/>
  <tag k="addr:housenumber" v="90/48"/>
  <tag k="addr:postcode" v="60200"/>
  <tag k="addr:street" v="Gorkého"/>
  <tag k="addr:streetnumber" v="48"/>
  <tag k="source:addr" v="uir_adr"/>
  <tag k="uir_adr:ADRESA_KOD" v="19164939"/>
 </node>
 <node id="296526345" lat="49.1999489" lon="16.5920430" user="Radomír Černoch" uid="51295" visible="true" version="2" changeset="1966265" timestamp="2009-07-28T17:22:46Z">
  <tag k="addr:conscriptionnumber" v="135"/>
  <tag k="addr:housenumber" v="135/14"/>
  <tag k="addr:postcode" v="60200"/>
  <tag k="addr:street" v="Stojanova"/>
  <tag k="addr:streetnumber" v="14"/>
  <tag k="source:addr" v="uir_adr"/>
  <tag k="uir_adr:ADRESA_KOD" v="19165536"/>
 </node>
 <node id="296530754" lat="49.1992950" lon="16.5928965" user="Radomír Černoch" uid="51295" visible="true" version="2" changeset="1966265" timestamp="2009-07-28T17:22:47Z">
  <tag k="addr:conscriptionnumber" v="92"/>
  <tag k="addr:housenumber" v="92/50"/>
  <tag k="addr:postcode" v="60200"/>
  <tag k="addr:street" v="Gorkého"/>
  <tag k="addr:streetnumber" v="50"/>
  <tag k="source:addr" v="uir_adr"/>
  <tag k="uir_adr:ADRESA_KOD" v="19164955"/>
 </node>
 <node id="296552541" lat="49.1994372" lon="16.5922242" user="Radomír Černoch" uid="51295" visible="true" version="2" changeset="1966265" timestamp="2009-07-28T17:22:53Z">
  <tag k="addr:conscriptionnumber" v="370"/>
  <tag k="addr:housenumber" v="370/6"/>
  <tag k="addr:postcode" v="60200"/>
  <tag k="addr:street" v="Stojanova"/>
  <tag k="addr:streetnumber" v="6"/>
  <tag k="source:addr" v="uir_adr"/>
  <tag k="uir_adr:ADRESA_KOD" v="19169418"/>
 </node>
 <node id="296554429" lat="49.2000620" lon="16.5921071" user="Radomír Černoch" uid="51295" visible="true" version="2" changeset="1966265" timestamp="2009-07-28T17:22:54Z">
  <tag k="addr:conscriptionnumber" v="134"/>
  <tag k="addr:housenumber" v="134/41"/>
  <tag k="addr:postcode" v="60200"/>
  <tag k="addr:street" v="Grohova"/>
  <tag k="addr:streetnumber" v="41"/>
  <tag k="source:addr" v="uir_adr"/>
  <tag k="uir_adr:ADRESA_KOD" v="19165528"/>
 </node>
 <node id="296598123" lat="49.2000360" lon="16.5922495" user="Radomír Černoch" uid="51295" visible="true" version="2" changeset="1966265" timestamp="2009-07-28T17:23:10Z">
  <tag k="addr:conscriptionnumber" v="135"/>
  <tag k="addr:housenumber" v="135/41a"/>
  <tag k="addr:postcode" v="60200"/>
  <tag k="addr:street" v="Grohova"/>
  <tag k="addr:streetnumber" v="41a"/>
  <tag k="source:addr" v="uir_adr"/>
  <tag k="uir_adr:ADRESA_KOD" v="19165544"/>
 </node>
 <node id="296613026" lat="49.2001680" lon="16.5928350" user="Radomír Černoch" uid="51295" visible="true" version="2" changeset="1966265" timestamp="2009-07-28T17:23:14Z">
  <tag k="addr:conscriptionnumber" v="130"/>
  <tag k="addr:housenumber" v="130/37"/>
  <tag k="addr:postcode" v="60200"/>
  <tag k="addr:street" v="Grohova"/>
  <tag k="addr:streetnumber" v="37"/>
  <tag k="source:addr" v="uir_adr"/>
  <tag k="uir_adr:ADRESA_KOD" v="19165480"/>
 </node>
 <node id="296616570" lat="49.1993919" lon="16.5931151" user="Radomír Černoch" uid="51295" visible="true" version="2" changeset="1966265" timestamp="2009-07-28T17:23:15Z">
  <tag k="addr:conscriptionnumber" v="90"/>
  <tag k="addr:housenumber" v="90/41"/>
  <tag k="addr:postcode" v="60200"/>
  <tag k="addr:street" v="Úvoz"/>
  <tag k="addr:streetnumber" v="41"/>
  <tag k="source:addr" v="uir_adr"/>
  <tag k="uir_adr:ADRESA_KOD" v="19164921"/>
 </node>
 <node id="296635112" lat="49.1992935" lon="16.5926207" user="Radomír Černoch" uid="51295" visible="true" version="2" changeset="1966265" timestamp="2009-07-28T17:23:20Z">
  <tag k="addr:conscriptionnumber" v="94"/>
  <tag k="addr:housenumber" v="94/52"/>
  <tag k="addr:postcode" v="60200"/>
  <tag k="addr:street" v="Gorkého"/>
  <tag k="addr:streetnumber" v="52"/>
  <tag k="source:addr" v="uir_adr"/>
  <tag k="uir_adr:ADRESA_KOD" v="19164971"/>
 </node>
 <node id="296683398" lat="49.1998436" lon="16.5920880" user="Radomír Černoch" uid="51295" visible="true" version="2" changeset="1966265" timestamp="2009-07-28T17:23:30Z">
  <tag k="addr:conscriptionnumber" v="374"/>
  <tag k="addr:housenumber" v="374/12"/>
  <tag k="addr:postcode" v="60200"/>
  <tag k="addr:street" v="Stojanova"/>
  <tag k="addr:streetnumber" v="12"/>
  <tag k="source:addr" v="uir_adr"/>
  <tag k="uir_adr:ADRESA_KOD" v="19169451"/>
 </node>
 <node id="296685533" lat="49.1993487" lon="16.5922526" user="Radomír Černoch" uid="51295" visible="true" version="2" changeset="1966265" timestamp="2009-07-28T17:23:31Z">
  <tag k="addr:conscriptionnumber" v="96"/>
  <tag k="addr:housenumber" v="96/2"/>
  <tag k="addr:postcode" v="60200"/>
  <tag k="addr:street" v="Stojanova"/>
  <tag k="addr:streetnumber" v="2"/>
  <tag k="source:addr" v="uir_adr"/>
  <tag k="uir_adr:ADRESA_KOD" v="19165005"/>
 </node>
 <node id="296690216" lat="49.2000576" lon="16.5929361" user="Radomír Černoch" uid="51295" visible="true" version="2" changeset="1966265" timestamp="2009-07-28T17:23:33Z">
  <tag k="addr:conscriptionnumber" v="422"/>
  <tag k="addr:housenumber" v="422/47"/>
  <tag k="addr:postcode" v="60200"/>
  <tag k="addr:street" v="Úvoz"/>
  <tag k="addr:streetnumber" v="47"/>
  <tag k="source:addr" v="uir_adr"/>
  <tag k="uir_adr:ADRESA_KOD" v="19170033"/>
 </node>
 <node id="296604290" lat="49.1995872" lon="16.5921718" user="Radomír Černoch" uid="51295" visible="true" version="2" changeset="1966265" timestamp="2009-07-28T17:23:12Z">
  <tag k="addr:conscriptionnumber" v="372"/>
  <tag k="addr:housenumber" v="372/8"/>
  <tag k="addr:postcode" v="60200"/>
  <tag k="addr:street" v="Stojanova"/>
  <tag k="addr:streetnumber" v="8"/>
  <tag k="source:addr" v="uir_adr"/>
  <tag k="uir_adr:ADRESA_KOD" v="19169434"/>
 </node>
 <node id="296608367" lat="49.1994803" lon="16.5930867" user="Radomír Černoch" uid="51295" visible="true" version="2" changeset="1966265" timestamp="2009-07-28T17:23:13Z">
  <tag k="addr:conscriptionnumber" v="420"/>
  <tag k="addr:housenumber" v="420/43"/>
  <tag k="addr:postcode" v="60200"/>
  <tag k="addr:street" v="Úvoz"/>
  <tag k="addr:streetnumber" v="43"/>
  <tag k="source:addr" v="uir_adr"/>
  <tag k="uir_adr:ADRESA_KOD" v="19170017"/>
 </node>
 <node id="634892513" lat="49.2002335" lon="16.5920472" user="hanoj" uid="4788" visible="true" version="1" changeset="3839355" timestamp="2010-02-10T11:18:01Z"/>
 <node id="634892520" lat="49.2001987" lon="16.5922720" user="hanoj" uid="4788" visible="true" version="1" changeset="3839355" timestamp="2010-02-10T11:18:01Z"/>
 <node id="640171962" lat="49.2000370" lon="16.5932645" user="Kuratkoo" uid="81148" visible="true" version="1" changeset="3885812" timestamp="2010-02-15T18:58:40Z"/>
 <node id="640171984" lat="49.2001570" lon="16.5932250" user="Kuratkoo" uid="81148" visible="true" version="1" changeset="3885812" timestamp="2010-02-15T18:58:40Z"/>
 <node id="640171988" lat="49.2001660" lon="16.5932130" user="Kuratkoo" uid="81148" visible="true" version="1" changeset="3885812" timestamp="2010-02-15T18:58:40Z"/>
 <node id="640171999" lat="49.2002340" lon="16.5932000" user="Kuratkoo" uid="81148" visible="true" version="1" changeset="3885812" timestamp="2010-02-15T18:58:40Z"/>
 <node id="640187575" lat="49.1991740" lon="16.5922070" user="Kuratkoo" uid="81148" visible="true" version="1" changeset="3885861" timestamp="2010-02-15T19:05:09Z"/>
 <node id="640187598" lat="49.1991800" lon="16.5924755" user="Kuratkoo" uid="81148" visible="true" version="1" changeset="3885861" timestamp="2010-02-15T19:05:10Z"/>
 <node id="640187601" lat="49.1992565" lon="16.5921825" user="Kuratkoo" uid="81148" visible="true" version="1" changeset="3885861" timestamp="2010-02-15T19:05:10Z"/>
 <node id="640187604" lat="49.1992665" lon="16.5922690" user="Kuratkoo" uid="81148" visible="true" version="1" changeset="3885861" timestamp="2010-02-15T19:05:10Z"/>
 <node id="640187606" lat="49.1993520" lon="16.5923300" user="Kuratkoo" uid="81148" visible="true" version="1" changeset="3885861" timestamp="2010-02-15T19:05:10Z"/>
 <node id="640187608" lat="49.1993520" lon="16.5923460" user="Kuratkoo" uid="81148" visible="true" version="1" changeset="3885861" timestamp="2010-02-15T19:05:10Z"/>
 <node id="640187615" lat="49.1993360" lon="16.5923520" user="Kuratkoo" uid="81148" visible="true" version="1" changeset="3885861" timestamp="2010-02-15T19:05:10Z"/>
 <node id="640187616" lat="49.1993220" lon="16.5923560" user="Kuratkoo" uid="81148" visible="true" version="1" changeset="3885861" timestamp="2010-02-15T19:05:10Z"/>
 <node id="640187619" lat="49.1993210" lon="16.5923400" user="Kuratkoo" uid="81148" visible="true" version="1" changeset="3885861" timestamp="2010-02-15T19:05:10Z"/>
 <node id="640187622" lat="49.1993160" lon="16.5923330" user="Kuratkoo" uid="81148" visible="true" version="1" changeset="3885861" timestamp="2010-02-15T19:05:10Z"/>
 <node id="640187624" lat="49.1993060" lon="16.5923380" user="Kuratkoo" uid="81148" visible="true" version="1" changeset="3885861" timestamp="2010-02-15T19:05:10Z"/>
 <node id="640187627" lat="49.1993020" lon="16.5923220" user="Kuratkoo" uid="81148" visible="true" version="1" changeset="3885861" timestamp="2010-02-15T19:05:11Z"/>
 <node id="640187631" lat="49.1992760" lon="16.5923050" user="Kuratkoo" uid="81148" visible="true" version="1" changeset="3885861" timestamp="2010-02-15T19:05:11Z"/>
 <node id="640187634" lat="49.1992770" lon="16.5922850" user="Kuratkoo" uid="81148" visible="true" version="1" changeset="3885861" timestamp="2010-02-15T19:05:11Z"/>
 <node id="640187637" lat="49.1992810" lon="16.5923080" user="Kuratkoo" uid="81148" visible="true" version="1" changeset="3885861" timestamp="2010-02-15T19:05:11Z"/>
 <node id="640187642" lat="49.1993010" lon="16.5923125" user="Kuratkoo" uid="81148" visible="true" version="1" changeset="3885861" timestamp="2010-02-15T19:05:11Z"/>
 <node id="640187650" lat="49.1994460" lon="16.5923460" user="Kuratkoo" uid="81148" visible="true" version="1" changeset="3885861" timestamp="2010-02-15T19:05:11Z"/>
 <node id="640187653" lat="49.1994450" lon="16.5923350" user="Kuratkoo" uid="81148" visible="true" version="1" changeset="3885861" timestamp="2010-02-15T19:05:11Z"/>
 <node id="640187655" lat="49.1994140" lon="16.5923430" user="Kuratkoo" uid="81148" visible="true" version="1" changeset="3885861" timestamp="2010-02-15T19:05:11Z"/>
 <node id="640187659" lat="49.1994110" lon="16.5923120" user="Kuratkoo" uid="81148" visible="true" version="1" changeset="3885861" timestamp="2010-02-15T19:05:11Z"/>
 <node id="640187662" lat="49.1993870" lon="16.5921390" user="Kuratkoo" uid="81148" visible="true" version="1" changeset="3885861" timestamp="2010-02-15T19:05:11Z"/>
 <node id="640187666" lat="49.1993040" lon="16.5924730" user="Kuratkoo" uid="81148" visible="true" version="1" changeset="3885861" timestamp="2010-02-15T19:05:11Z"/>
 <node id="640187670" lat="49.1993510" lon="16.5926600" user="Kuratkoo" uid="81148" visible="true" version="1" changeset="3885861" timestamp="2010-02-15T19:05:11Z"/>
 <node id="640187673" lat="49.1993410" lon="16.5924710" user="Kuratkoo" uid="81148" visible="true" version="1" changeset="3885861" timestamp="2010-02-15T19:05:11Z"/>
 <node id="640187676" lat="49.1993410" lon="16.5925770" user="Kuratkoo" uid="81148" visible="true" version="1" changeset="3885861" timestamp="2010-02-15T19:05:11Z"/>
 <node id="640187686" lat="49.1993300" lon="16.5925770" user="Kuratkoo" uid="81148" visible="true" version="1" changeset="3885861" timestamp="2010-02-15T19:05:11Z"/>
 <node id="640187690" lat="49.1993290" lon="16.5926100" user="Kuratkoo" uid="81148" visible="true" version="1" changeset="3885861" timestamp="2010-02-15T19:05:12Z"/>
 <node id="640187694" lat="49.1993500" lon="16.5926130" user="Kuratkoo" uid="81148" visible="true" version="1" changeset="3885861" timestamp="2010-02-15T19:05:12Z"/>
 <node id="640187697" lat="49.1993470" lon="16.5927700" user="Kuratkoo" uid="81148" visible="true" version="1" changeset="3885861" timestamp="2010-02-15T19:05:12Z"/>
 <node id="640187700" lat="49.1993110" lon="16.5926630" user="Kuratkoo" uid="81148" visible="true" version="1" changeset="3885861" timestamp="2010-02-15T19:05:12Z"/>
 <node id="640187702" lat="49.1993100" lon="16.5927010" user="Kuratkoo" uid="81148" visible="true" version="1" changeset="3885861" timestamp="2010-02-15T19:05:12Z"/>
 <node id="640187705" lat="49.1991845" lon="16.5926690" user="Kuratkoo" uid="81148" visible="true" version="1" changeset="3885861" timestamp="2010-02-15T19:05:12Z"/>
 <node id="640187707" lat="49.1993990" lon="16.5927000" user="Kuratkoo" uid="81148" visible="true" version="1" changeset="3885861" timestamp="2010-02-15T19:05:12Z"/>
 <node id="640187710" lat="49.1993990" lon="16.5927710" user="Kuratkoo" uid="81148" visible="true" version="1" changeset="3885861" timestamp="2010-02-15T19:05:12Z"/>
 <node id="640187741" lat="49.1993510" lon="16.5928060" user="Kuratkoo" uid="81148" visible="true" version="1" changeset="3885861" timestamp="2010-02-15T19:05:13Z"/>
 <node id="640187748" lat="49.1993110" lon="16.5928780" user="Kuratkoo" uid="81148" visible="true" version="1" changeset="3885861" timestamp="2010-02-15T19:05:13Z"/>
 <node id="640187750" lat="49.1993120" lon="16.5929150" user="Kuratkoo" uid="81148" visible="true" version="1" changeset="3885861" timestamp="2010-02-15T19:05:13Z"/>
 <node id="640187753" lat="49.1992990" lon="16.5929160" user="Kuratkoo" uid="81148" visible="true" version="1" changeset="3885861" timestamp="2010-02-15T19:05:13Z"/>
 <node id="640187756" lat="49.1992970" lon="16.5929850" user="Kuratkoo" uid="81148" visible="true" version="1" changeset="3885861" timestamp="2010-02-15T19:05:13Z"/>
 <node id="640187757" lat="49.1993490" lon="16.5930420" user="Kuratkoo" uid="81148" visible="true" version="1" changeset="3885861" timestamp="2010-02-15T19:05:13Z"/>
 <node id="640187760" lat="49.1993400" lon="16.5930570" user="Kuratkoo" uid="81148" visible="true" version="1" changeset="3885861" timestamp="2010-02-15T19:05:13Z"/>
 <node id="640187764" lat="49.1993420" lon="16.5930580" user="Kuratkoo" uid="81148" visible="true" version="1" changeset="3885861" timestamp="2010-02-15T19:05:13Z"/>
 <node id="640187766" lat="49.1991875" lon="16.5929210" user="Kuratkoo" uid="81148" visible="true" version="1" changeset="3885861" timestamp="2010-02-15T19:05:13Z"/>
 <node id="640187768" lat="49.1993770" lon="16.5928050" user="Kuratkoo" uid="81148" visible="true" version="1" changeset="3885861" timestamp="2010-02-15T19:05:13Z"/>
 <node id="640187770" lat="49.1993790" lon="16.5928780" user="Kuratkoo" uid="81148" visible="true" version="1" changeset="3885861" timestamp="2010-02-15T19:05:13Z"/>
 <node id="640187782" lat="49.1993850" lon="16.5930460" user="Kuratkoo" uid="81148" visible="true" version="1" changeset="3885861" timestamp="2010-02-15T19:05:13Z"/>
 <node id="640187784" lat="49.1993840" lon="16.5930360" user="Kuratkoo" uid="81148" visible="true" version="1" changeset="3885861" timestamp="2010-02-15T19:05:13Z"/>
 <node id="640187787" lat="49.1994040" lon="16.5930270" user="Kuratkoo" uid="81148" visible="true" version="1" changeset="3885861" timestamp="2010-02-15T19:05:14Z"/>
 <node id="640187790" lat="49.1993920" lon="16.5929280" user="Kuratkoo" uid="81148" visible="true" version="1" changeset="3885861" timestamp="2010-02-15T19:05:14Z"/>
 <node id="640187792" lat="49.1994540" lon="16.5929210" user="Kuratkoo" uid="81148" visible="true" version="1" changeset="3885861" timestamp="2010-02-15T19:05:14Z"/>
 <node id="640187795" lat="49.1994520" lon="16.5928810" user="Kuratkoo" uid="81148" visible="true" version="1" changeset="3885861" timestamp="2010-02-15T19:05:14Z"/>
 <node id="640187798" lat="49.1994940" lon="16.5928670" user="Kuratkoo" uid="81148" visible="true" version="1" changeset="3885861" timestamp="2010-02-15T19:05:14Z"/>
 <node id="640187803" lat="49.1995090" lon="16.5929920" user="Kuratkoo" uid="81148" visible="true" version="1" changeset="3885861" timestamp="2010-02-15T19:05:14Z"/>
 <node id="640187805" lat="49.1992370" lon="16.5932680" user="Kuratkoo" uid="81148" visible="true" version="1" changeset="3885861" timestamp="2010-02-15T19:05:14Z"/>
 <node id="640187816" lat="49.1991920" lon="16.5932120" user="Kuratkoo" uid="81148" visible="true" version="1" changeset="3885861" timestamp="2010-02-15T19:05:14Z"/>
 <node id="640187819" lat="49.1994050" lon="16.5932155" user="Kuratkoo" uid="81148" visible="true" version="1" changeset="3885861" timestamp="2010-02-15T19:05:14Z"/>
 <node id="640188086" lat="49.1995465" lon="16.5920875" user="Kuratkoo" uid="81148" visible="true" version="1" changeset="3885861" timestamp="2010-02-15T19:05:19Z"/>
 <node id="640188092" lat="49.1998270" lon="16.5919950" user="Kuratkoo" uid="81148" visible="true" version="1" changeset="3885861" timestamp="2010-02-15T19:05:20Z"/>
 <node id="640188098" lat="49.1997060" lon="16.5920325" user="Kuratkoo" uid="81148" visible="true" version="1" changeset="3885861" timestamp="2010-02-15T19:05:20Z"/>
 <node id="640188120" lat="49.1999495" lon="16.5919525" user="Kuratkoo" uid="81148" visible="true" version="1" changeset="3885861" timestamp="2010-02-15T19:05:20Z"/>
 <node id="640188122" lat="49.1996510" lon="16.5927080" user="Kuratkoo" uid="81148" visible="true" version="1" changeset="3885861" timestamp="2010-02-15T19:05:20Z"/>
 <node id="640188124" lat="49.1998090" lon="16.5922580" user="Kuratkoo" uid="81148" visible="true" version="1" changeset="3885861" timestamp="2010-02-15T19:05:21Z"/>
 <node id="640188126" lat="49.1998050" lon="16.5922310" user="Kuratkoo" uid="81148" visible="true" version="1" changeset="3885861" timestamp="2010-02-15T19:05:21Z"/>
 <node id="640188128" lat="49.1997350" lon="16.5922550" user="Kuratkoo" uid="81148" visible="true" version="1" changeset="3885861" timestamp="2010-02-15T19:05:21Z"/>
 <node id="640188129" lat="49.1998610" lon="16.5922415" user="Kuratkoo" uid="81148" visible="true" version="1" changeset="3885861" timestamp="2010-02-15T19:05:21Z"/>
 <node id="640188131" lat="49.1997350" lon="16.5922470" user="Kuratkoo" uid="81148" visible="true" version="1" changeset="3885861" timestamp="2010-02-15T19:05:21Z"/>
 <node id="640188133" lat="49.1995755" lon="16.5923025" user="Kuratkoo" uid="81148" visible="true" version="1" changeset="3885861" timestamp="2010-02-15T19:05:21Z"/>
 <node id="640188136" lat="49.2000150" lon="16.5922480" user="Kuratkoo" uid="81148" visible="true" version="1" changeset="3885861" timestamp="2010-02-15T19:05:21Z"/>
 <node id="640188138" lat="49.2000200" lon="16.5922480" user="Kuratkoo" uid="81148" visible="true" version="1" changeset="3885861" timestamp="2010-02-15T19:05:21Z"/>
 <node id="640188142" lat="49.2000100" lon="16.5921800" user="Kuratkoo" uid="81148" visible="true" version="1" changeset="3885861" timestamp="2010-02-15T19:05:21Z"/>
 <node id="640188144" lat="49.2000170" lon="16.5921730" user="Kuratkoo" uid="81148" visible="true" version="1" changeset="3885861" timestamp="2010-02-15T19:05:21Z"/>
 <node id="640188146" lat="49.2000140" lon="16.5921400" user="Kuratkoo" uid="81148" visible="true" version="1" changeset="3885861" timestamp="2010-02-15T19:05:21Z"/>
 <node id="640188148" lat="49.2000040" lon="16.5921370" user="Kuratkoo" uid="81148" visible="true" version="1" changeset="3885861" timestamp="2010-02-15T19:05:21Z"/>
 <node id="640188150" lat="49.1999970" lon="16.5921060" user="Kuratkoo" uid="81148" visible="true" version="1" changeset="3885861" timestamp="2010-02-15T19:05:21Z"/>
 <node id="640188151" lat="49.1999720" lon="16.5921120" user="Kuratkoo" uid="81148" visible="true" version="1" changeset="3885861" timestamp="2010-02-15T19:05:21Z"/>
 <node id="640188153" lat="49.1999140" lon="16.5921960" user="Kuratkoo" uid="81148" visible="true" version="1" changeset="3885861" timestamp="2010-02-15T19:05:21Z"/>
 <node id="640188154" lat="49.1999140" lon="16.5922230" user="Kuratkoo" uid="81148" visible="true" version="1" changeset="3885861" timestamp="2010-02-15T19:05:21Z"/>
 <node id="640188155" lat="49.1999800" lon="16.5921730" user="Kuratkoo" uid="81148" visible="true" version="1" changeset="3885861" timestamp="2010-02-15T19:05:21Z"/>
 <node id="640188159" lat="49.2001150" lon="16.5922165" user="Kuratkoo" uid="81148" visible="true" version="1" changeset="3885861" timestamp="2010-02-15T19:05:21Z"/>
 <node id="640188161" lat="49.1999240" lon="16.5926220" user="Kuratkoo" uid="81148" visible="true" version="1" changeset="3885861" timestamp="2010-02-15T19:05:22Z"/>
 <node id="640188163" lat="49.1999770" lon="16.5927110" user="Kuratkoo" uid="81148" visible="true" version="1" changeset="3885861" timestamp="2010-02-15T19:05:22Z"/>
 <node id="640188165" lat="49.1999770" lon="16.5927300" user="Kuratkoo" uid="81148" visible="true" version="1" changeset="3885861" timestamp="2010-02-15T19:05:22Z"/>
 <node id="640188167" lat="49.1998760" lon="16.5927630" user="Kuratkoo" uid="81148" visible="true" version="1" changeset="3885861" timestamp="2010-02-15T19:05:22Z"/>
 <node id="640188168" lat="49.2000870" lon="16.5927450" user="Kuratkoo" uid="81148" visible="true" version="1" changeset="3885861" timestamp="2010-02-15T19:05:22Z"/>
 <node id="640188169" lat="49.2001850" lon="16.5927120" user="Kuratkoo" uid="81148" visible="true" version="1" changeset="3885861" timestamp="2010-02-15T19:05:22Z"/>
 <node id="640188170" lat="49.2001740" lon="16.5926460" user="Kuratkoo" uid="81148" visible="true" version="1" changeset="3885861" timestamp="2010-02-15T19:05:22Z"/>
 <node id="640188171" lat="49.2000750" lon="16.5926770" user="Kuratkoo" uid="81148" visible="true" version="1" changeset="3885861" timestamp="2010-02-15T19:05:22Z"/>
 <node id="640188172" lat="49.2001540" lon="16.5924935" user="Kuratkoo" uid="81148" visible="true" version="1" changeset="3885861" timestamp="2010-02-15T19:05:22Z"/>
 <node id="640188176" lat="49.2000540" lon="16.5925265" user="Kuratkoo" uid="81148" visible="true" version="1" changeset="3885861" timestamp="2010-02-15T19:05:22Z"/>
 <node id="640188178" lat="49.1995310" lon="16.5929800" user="Kuratkoo" uid="81148" visible="true" version="1" changeset="3885861" timestamp="2010-02-15T19:05:22Z"/>
 <node id="640188180" lat="49.1995240" lon="16.5929460" user="Kuratkoo" uid="81148" visible="true" version="1" changeset="3885861" timestamp="2010-02-15T19:05:22Z"/>
 <node id="640188182" lat="49.1995740" lon="16.5929280" user="Kuratkoo" uid="81148" visible="true" version="1" changeset="3885861" timestamp="2010-02-15T19:05:22Z"/>
 <node id="640188183" lat="49.1995770" lon="16.5929360" user="Kuratkoo" uid="81148" visible="true" version="1" changeset="3885861" timestamp="2010-02-15T19:05:22Z"/>
 <node id="640188184" lat="49.1996800" lon="16.5929020" user="Kuratkoo" uid="81148" visible="true" version="1" changeset="3885861" timestamp="2010-02-15T19:05:23Z"/>
 <node id="640188185" lat="49.1996870" lon="16.5929620" user="Kuratkoo" uid="81148" visible="true" version="1" changeset="3885861" timestamp="2010-02-15T19:05:23Z"/>
 <node id="640188187" lat="49.1996690" lon="16.5928350" user="Kuratkoo" uid="81148" visible="true" version="1" changeset="3885861" timestamp="2010-02-15T19:05:23Z"/>
 <node id="640188188" lat="49.1997560" lon="16.5930900" user="Kuratkoo" uid="81148" visible="true" version="1" changeset="3885861" timestamp="2010-02-15T19:05:23Z"/>
 <node id="640188190" lat="49.1997490" lon="16.5930980" user="Kuratkoo" uid="81148" visible="true" version="1" changeset="3885861" timestamp="2010-02-15T19:05:23Z"/>
 <node id="640188192" lat="49.1997240" lon="16.5929510" user="Kuratkoo" uid="81148" visible="true" version="1" changeset="3885861" timestamp="2010-02-15T19:05:23Z"/>
 <node id="640188194" lat="49.1997310" lon="16.5929360" user="Kuratkoo" uid="81148" visible="true" version="1" changeset="3885861" timestamp="2010-02-15T19:05:23Z"/>
 <node id="640188195" lat="49.1997290" lon="16.5929160" user="Kuratkoo" uid="81148" visible="true" version="1" changeset="3885861" timestamp="2010-02-15T19:05:23Z"/>
 <node id="640188197" lat="49.1997850" lon="16.5929000" user="Kuratkoo" uid="81148" visible="true" version="1" changeset="3885861" timestamp="2010-02-15T19:05:23Z"/>
 <node id="640188199" lat="49.1997690" lon="16.5928010" user="Kuratkoo" uid="81148" visible="true" version="1" changeset="3885861" timestamp="2010-02-15T19:05:23Z"/>
 <node id="640188201" lat="49.1997070" lon="16.5931100" user="Kuratkoo" uid="81148" visible="true" version="1" changeset="3885861" timestamp="2010-02-15T19:05:23Z"/>
 <node id="640188203" lat="49.1995545" lon="16.5931630" user="Kuratkoo" uid="81148" visible="true" version="1" changeset="3885861" timestamp="2010-02-15T19:05:23Z"/>
 <node id="640188205" lat="49.1998900" lon="16.5928610" user="Kuratkoo" uid="81148" visible="true" version="1" changeset="3885861" timestamp="2010-02-15T19:05:23Z"/>
 <node id="640188206" lat="49.1999370" lon="16.5928460" user="Kuratkoo" uid="81148" visible="true" version="1" changeset="3885861" timestamp="2010-02-15T19:05:23Z"/>
 <node id="640188213" lat="49.1999410" lon="16.5928760" user="Kuratkoo" uid="81148" visible="true" version="1" changeset="3885861" timestamp="2010-02-15T19:05:24Z"/>
 <node id="640188215" lat="49.2000140" lon="16.5930115" user="Kuratkoo" uid="81148" visible="true" version="1" changeset="3885861" timestamp="2010-02-15T19:05:24Z"/>
 <node id="640188217" lat="49.1999945" lon="16.5928560" user="Kuratkoo" uid="81148" visible="true" version="1" changeset="3885861" timestamp="2010-02-15T19:05:24Z"/>
 <node id="640188219" lat="49.2001390" lon="16.5928860" user="Kuratkoo" uid="81148" visible="true" version="1" changeset="3885861" timestamp="2010-02-15T19:05:24Z"/>
 <node id="640188221" lat="49.2001510" lon="16.5929670" user="Kuratkoo" uid="81148" visible="true" version="1" changeset="3885861" timestamp="2010-02-15T19:05:24Z"/>
 <node id="640188223" lat="49.2000670" lon="16.5928310" user="Kuratkoo" uid="81148" visible="true" version="1" changeset="3885861" timestamp="2010-02-15T19:05:24Z"/>
 <node id="640188225" lat="49.2000750" lon="16.5928530" user="Kuratkoo" uid="81148" visible="true" version="1" changeset="3885861" timestamp="2010-02-15T19:05:24Z"/>
 <node id="640188226" lat="49.2000970" lon="16.5928450" user="Kuratkoo" uid="81148" visible="true" version="1" changeset="3885861" timestamp="2010-02-15T19:05:24Z"/>
 <node id="640188227" lat="49.2002060" lon="16.5928650" user="Kuratkoo" uid="81148" visible="true" version="1" changeset="3885861" timestamp="2010-02-15T19:05:24Z"/>
 <node id="1399376352" lat="49.1995291" lon="16.5931893" user="LM_1" uid="475704" visible="true" version="1" changeset="9022438" timestamp="2011-08-15T00:47:35Z">
  <tag k="amenity" v="fast_food"/>
  <tag k="cuisine" v="pizza"/>
  <tag k="name" v="Pizza u Doktora"/>
  <tag k="opening_hours" v="10:00 - 02:00"/>
 </node>
 <node id="1399376494" lat="49.2002277" lon="16.5930769" user="LM_1" uid="475704" visible="true" version="1" changeset="9022438" timestamp="2011-08-15T00:47:38Z">
  <tag k="crossing" v="uncontrolled"/>
  <tag k="crossing_ref" v="zebra"/>
  <tag k="highway" v="crossing"/>
 </node>
 <node id="640187289" lat="49.1991694" lon="16.5919655" user="LM_1" uid="475704" visible="true" version="2" changeset="9167843" timestamp="2011-08-30T14:21:08Z"/>
 <node id="640187360" lat="49.1992309" lon="16.5919528" user="LM_1" uid="475704" visible="true" version="2" changeset="9167843" timestamp="2011-08-30T14:21:08Z"/>
 <node id="640187364" lat="49.1992309" lon="16.5919665" user="LM_1" uid="475704" visible="true" version="2" changeset="9167843" timestamp="2011-08-30T14:21:08Z"/>
 <node id="1799801308" lat="49.2004198" lon="16.5928896" user="hanoj" uid="4788" visible="true" version="1" changeset="11993000" timestamp="2012-06-23T20:09:55Z"/>
 <node id="1799801307" lat="49.2003524" lon="16.5928561" user="hanoj" uid="4788" visible="true" version="1" changeset="11993000" timestamp="2012-06-23T20:09:55Z"/>
 <node id="1799801306" lat="49.2003251" lon="16.5927892" user="hanoj" uid="4788" visible="true" version="1" changeset="11993000" timestamp="2012-06-23T20:09:55Z"/>
 <node id="21405198" lat="49.2003061" lon="16.5930515" user="hanoj" uid="4788" visible="true" version="2" changeset="853361" timestamp="2009-03-24T18:28:33Z">
  <tag k="created_by" v="JOSM"/>
 </node>
 <node id="634892522" lat="49.2005174" lon="16.5927287" user="hanoj" uid="4788" visible="true" version="1" changeset="3839355" timestamp="2010-02-10T11:18:01Z"/>
 <node id="634892523" lat="49.2004408" lon="16.5927168" user="hanoj" uid="4788" visible="true" version="1" changeset="3839355" timestamp="2010-02-10T11:18:01Z"/>
 <node id="634892524" lat="49.2003898" lon="16.5921118" user="hanoj" uid="4788" visible="true" version="1" changeset="3839355" timestamp="2010-02-10T11:18:01Z"/>
 <node id="634892525" lat="49.2003786" lon="16.5924517" user="hanoj" uid="4788" visible="true" version="1" changeset="3839355" timestamp="2010-02-10T11:18:01Z"/>
 <node id="634892526" lat="49.2003920" lon="16.5926199" user="hanoj" uid="4788" visible="true" version="1" changeset="3839355" timestamp="2010-02-10T11:18:01Z"/>
 <node id="634892529" lat="49.2004927" lon="16.5924521" user="hanoj" uid="4788" visible="true" version="1" changeset="3839355" timestamp="2010-02-10T11:18:01Z"/>
 <node id="21405197" lat="49.2019439" lon="16.5927556" user="hanoj" uid="4788" visible="true" version="3" changeset="853361" timestamp="2009-03-24T18:28:34Z">
  <tag k="created_by" v="JOSM"/>
 </node>
 <node id="21405200" lat="49.1997214" lon="16.5898539" user="hanoj" uid="4788" visible="true" version="2" changeset="853361" timestamp="2009-03-24T18:28:35Z">
  <tag k="created_by" v="JOSM"/>
 </node>
 <node id="21405201" lat="49.1988092" lon="16.5881079" user="hanoj" uid="4788" visible="true" version="3" changeset="894936" timestamp="2009-04-22T09:25:59Z">
  <tag k="created_by" v="JOSM"/>
 </node>
 <node id="21405206" lat="49.1994846" lon="16.5892468" user="hanoj" uid="4788" visible="true" version="2" changeset="853361" timestamp="2009-03-24T18:28:34Z">
  <tag k="created_by" v="JOSM"/>
 </node>
 <node id="21405207" lat="49.1999568" lon="16.5907503" user="hanoj" uid="4788" visible="true" version="2" changeset="853361" timestamp="2009-03-24T18:28:34Z">
  <tag k="created_by" v="JOSM"/>
 </node>
 <node id="21639109" lat="49.2014826" lon="16.5928179" user="glmosm" uid="27716" visible="true" version="2" changeset="633513" timestamp="2008-09-14T21:28:14Z">
  <tag k="created_by" v="JOSM"/>
 </node>
 <node id="21639110" lat="49.2025414" lon="16.5927422" user="hanoj" uid="4788" visible="true" version="3" changeset="853361" timestamp="2009-03-24T18:28:24Z">
  <tag k="created_by" v="JOSM"/>
 </node>
 <node id="25262358" lat="49.1998363" lon="16.5902422" user="hanoj" uid="4788" visible="true" version="2" changeset="853361" timestamp="2009-03-24T18:28:26Z">
  <tag k="created_by" v="JOSM"/>
 </node>
 <node id="25262363" lat="49.1991141" lon="16.5934370" user="hanoj" uid="4788" visible="true" version="3" changeset="853361" timestamp="2009-03-24T18:28:26Z">
  <tag k="created_by" v="JOSM"/>
 </node>
 <node id="26159591" lat="49.2001344" lon="16.5918051" user="hanoj" uid="4788" visible="true" version="2" changeset="853361" timestamp="2009-03-24T18:28:23Z">
  <tag k="created_by" v="JOSM"/>
 </node>
 <node id="26364817" lat="49.2005070" lon="16.5945557" user="hanoj" uid="4788" visible="true" version="2" changeset="853361" timestamp="2009-03-24T18:28:30Z">
  <tag k="created_by" v="JOSM"/>
 </node>
 <node id="26411682" lat="49.1992666" lon="16.5888083" user="hanoj" uid="4788" visible="true" version="2" changeset="853361" timestamp="2009-03-24T18:28:19Z">
  <tag k="created_by" v="JOSM"/>
 </node>
 <node id="360863654" lat="49.2027055" lon="16.5914301" user="pavel_p" uid="101526" visible="true" version="1" changeset="817121" timestamp="2009-03-15T19:55:26Z"/>
 <node id="360863660" lat="49.2018740" lon="16.5920668" user="pavel_p" uid="101526" visible="true" version="1" changeset="817121" timestamp="2009-03-15T19:55:26Z"/>
 <node id="360863673" lat="49.2006340" lon="16.5924445" user="hanoj" uid="4788" visible="true" version="2" changeset="11993000" timestamp="2012-06-23T20:10:00Z"/>
 <node id="360863684" lat="49.2001490" lon="16.5892952" user="hanoj" uid="4788" visible="true" version="2" changeset="3839355" timestamp="2010-02-10T11:18:04Z"/>
 <node id="360863691" lat="49.2003212" lon="16.5891598" user="hanoj" uid="4788" visible="true" version="2" changeset="3839355" timestamp="2010-02-10T11:18:05Z"/>
 <node id="365353499" lat="49.1989422" lon="16.5882509" user="hanoj" uid="4788" visible="true" version="2" changeset="894936" timestamp="2009-04-22T09:25:59Z"/>
 <node id="365353507" lat="49.2030076" lon="16.5928570" user="hanoj" uid="4788" visible="true" version="3" changeset="11260177" timestamp="2012-04-11T03:04:23Z"/>
 <node id="634347880" lat="49.2003986" lon="16.5889805" user="hanoj" uid="4788" visible="true" version="2" changeset="3839355" timestamp="2010-02-10T11:18:05Z"/>
 <node id="634892467" lat="49.2009031" lon="16.5839724" user="hanoj" uid="4788" visible="true" version="1" changeset="3839355" timestamp="2010-02-10T11:17:59Z"/>
 <node id="634892468" lat="49.2002359" lon="16.5891404" user="hanoj" uid="4788" visible="true" version="1" changeset="3839355" timestamp="2010-02-10T11:17:59Z"/>
 <node id="634892499" lat="49.2002068" lon="16.5899497" user="hanoj" uid="4788" visible="true" version="1" changeset="3839355" timestamp="2010-02-10T11:18:00Z"/>
 <node id="634892500" lat="49.2000832" lon="16.5897097" user="hanoj" uid="4788" visible="true" version="1" changeset="3839355" timestamp="2010-02-10T11:18:00Z"/>
 <node id="634892501" lat="49.2000957" lon="16.5893698" user="hanoj" uid="4788" visible="true" version="1" changeset="3839355" timestamp="2010-02-10T11:18:00Z"/>
 <node id="634892506" lat="49.2002914" lon="16.5906444" user="hanoj" uid="4788" visible="true" version="1" changeset="3839355" timestamp="2010-02-10T11:18:00Z"/>
 <node id="634892507" lat="49.2002099" lon="16.5909166" user="hanoj" uid="4788" visible="true" version="1" changeset="3839355" timestamp="2010-02-10T11:18:00Z"/>
 <node id="634892508" lat="49.2002350" lon="16.5914425" user="hanoj" uid="4788" visible="true" version="1" changeset="3839355" timestamp="2010-02-10T11:18:00Z"/>
 <node id="634892509" lat="49.2003414" lon="16.5907654" user="hanoj" uid="4788" visible="true" version="1" changeset="3839355" timestamp="2010-02-10T11:18:01Z"/>
 <node id="634892510" lat="49.2003935" lon="16.5916371" user="hanoj" uid="4788" visible="true" version="1" changeset="3839355" timestamp="2010-02-10T11:18:01Z"/>
 <node id="634892511" lat="49.2003842" lon="16.5914333" user="hanoj" uid="4788" visible="true" version="1" changeset="3839355" timestamp="2010-02-10T11:18:01Z"/>
 <node id="634892521" lat="49.2008561" lon="16.5926743" user="hanoj" uid="4788" visible="true" version="1" changeset="3839355" timestamp="2010-02-10T11:18:01Z"/>
 <node id="634892527" lat="49.2006494" lon="16.5925084" user="hopet" uid="191339" visible="true" version="2" changeset="9371237" timestamp="2011-09-22T18:43:35Z"/>
 <node id="634892528" lat="49.2006064" lon="16.5925323" user="hopet" uid="191339" visible="true" version="2" changeset="9371237" timestamp="2011-09-22T18:43:35Z"/>
 <node id="634892533" lat="49.2020487" lon="16.5925519" user="hanoj" uid="4788" visible="true" version="1" changeset="3839355" timestamp="2010-02-10T11:18:01Z"/>
 <node id="634892534" lat="49.2020971" lon="16.5925019" user="hanoj" uid="4788" visible="true" version="3" changeset="8808972" timestamp="2011-07-23T18:42:33Z">
  <tag k="man_made" v="adit"/>
  <tag k="name" v="Protiletadlový kryt"/>
 </node>
 <node id="640171957" lat="49.1997205" lon="16.5933730" user="Kuratkoo" uid="81148" visible="true" version="1" changeset="3885812" timestamp="2010-02-15T18:58:40Z"/>
 <node id="640171967" lat="49.2000650" lon="16.5934570" user="Kuratkoo" uid="81148" visible="true" version="1" changeset="3885812" timestamp="2010-02-15T18:58:40Z"/>
 <node id="640171970" lat="49.2001670" lon="16.5933860" user="Kuratkoo" uid="81148" visible="true" version="1" changeset="3885812" timestamp="2010-02-15T18:58:40Z"/>
 <node id="640171972" lat="49.2001390" lon="16.5933950" user="Kuratkoo" uid="81148" visible="true" version="1" changeset="3885812" timestamp="2010-02-15T18:58:40Z"/>
 <node id="640171975" lat="49.2001250" lon="16.5934080" user="Kuratkoo" uid="81148" visible="true" version="1" changeset="3885812" timestamp="2010-02-15T18:58:40Z"/>
 <node id="640171979" lat="49.2000590" lon="16.5934310" user="Kuratkoo" uid="81148" visible="true" version="1" changeset="3885812" timestamp="2010-02-15T18:58:40Z"/>
 <node id="640172117" lat="49.1997500" lon="16.5935620" user="Kuratkoo" uid="81148" visible="true" version="1" changeset="3885812" timestamp="2010-02-15T18:58:42Z"/>
 <node id="640172148" lat="49.2001790" lon="16.5935580" user="Kuratkoo" uid="81148" visible="true" version="1" changeset="3885812" timestamp="2010-02-15T18:58:42Z"/>
 <node id="640172151" lat="49.2001710" lon="16.5934960" user="Kuratkoo" uid="81148" visible="true" version="1" changeset="3885812" timestamp="2010-02-15T18:58:42Z"/>
 <node id="640172154" lat="49.2001820" lon="16.5934910" user="Kuratkoo" uid="81148" visible="true" version="1" changeset="3885812" timestamp="2010-02-15T18:58:42Z"/>
 <node id="640172295" lat="49.2002768" lon="16.5935258" user="Kuratkoo" uid="81148" visible="true" version="1" changeset="3885812" timestamp="2010-02-15T18:58:45Z"/>
 <node id="640187242" lat="49.1991676" lon="16.5916716" user="LM_1" uid="475704" visible="true" version="2" changeset="9167843" timestamp="2011-08-30T14:21:07Z"/>
 <node id="640187290" lat="49.1992740" lon="16.5916670" user="Kuratkoo" uid="81148" visible="true" version="1" changeset="3885861" timestamp="2010-02-15T19:05:03Z"/>
 <node id="640187292" lat="49.1992840" lon="16.5916820" user="Kuratkoo" uid="81148" visible="true" version="1" changeset="3885861" timestamp="2010-02-15T19:05:03Z"/>
 <node id="640187294" lat="49.1993000" lon="16.5916870" user="Kuratkoo" uid="81148" visible="true" version="1" changeset="3885861" timestamp="2010-02-15T19:05:03Z"/>
 <node id="640187297" lat="49.1993000" lon="16.5917480" user="Kuratkoo" uid="81148" visible="true" version="1" changeset="3885861" timestamp="2010-02-15T19:05:03Z"/>
 <node id="640187300" lat="49.1992560" lon="16.5917470" user="Kuratkoo" uid="81148" visible="true" version="1" changeset="3885861" timestamp="2010-02-15T19:05:03Z"/>
 <node id="640187301" lat="49.1992560" lon="16.5917510" user="Kuratkoo" uid="81148" visible="true" version="1" changeset="3885861" timestamp="2010-02-15T19:05:03Z"/>
 <node id="640187303" lat="49.1992550" lon="16.5917570" user="Kuratkoo" uid="81148" visible="true" version="1" changeset="3885861" timestamp="2010-02-15T19:05:03Z"/>
 <node id="640187319" lat="49.1993650" lon="16.5917370" user="Kuratkoo" uid="81148" visible="true" version="1" changeset="3885861" timestamp="2010-02-15T19:05:03Z"/>
 <node id="640187365" lat="49.1992760" lon="16.5917710" user="Kuratkoo" uid="81148" visible="true" version="1" changeset="3885861" timestamp="2010-02-15T19:05:04Z"/>
 <node id="640187366" lat="49.1993860" lon="16.5919030" user="Kuratkoo" uid="81148" visible="true" version="1" changeset="3885861" timestamp="2010-02-15T19:05:05Z"/>
 <node id="640188118" lat="49.2000740" lon="16.5919120" user="Kuratkoo" uid="81148" visible="true" version="1" changeset="3885861" timestamp="2010-02-15T19:05:20Z"/>
 <node id="663561458" lat="49.2008624" lon="16.5839705" user="hanoj" uid="4788" visible="true" version="1" changeset="4087017" timestamp="2010-03-10T09:02:52Z"/>
 <node id="663561463" lat="49.1999963" lon="16.5858540" user="hanoj" uid="4788" visible="true" version="2" changeset="11993000" timestamp="2012-06-23T20:10:00Z"/>
 <node id="663561464" lat="49.1999226" lon="16.5863469" user="hanoj" uid="4788" visible="true" version="2" changeset="11993000" timestamp="2012-06-23T20:10:00Z"/>
 <node id="663561471" lat="49.2009282" lon="16.5839677" user="hanoj" uid="4788" visible="true" version="1" changeset="4087017" timestamp="2010-03-10T09:02:52Z"/>
 <node id="663561494" lat="49.1997717" lon="16.5866560" user="hanoj" uid="4788" visible="true" version="1" changeset="4087017" timestamp="2010-03-10T09:02:53Z"/>
 <node id="663561495" lat="49.2000255" lon="16.5869485" user="hanoj" uid="4788" visible="true" version="1" changeset="4087017" timestamp="2010-03-10T09:02:53Z"/>
 <node id="741651454" lat="49.1999314" lon="16.5882128" user="hanoj" uid="4788" visible="true" version="1" changeset="4762009" timestamp="2010-05-20T22:22:10Z"/>
 <node id="741651469" lat="49.2001836" lon="16.5888027" user="hanoj" uid="4788" visible="true" version="1" changeset="4762009" timestamp="2010-05-20T22:22:10Z"/>
 <node id="741651480" lat="49.2000626" lon="16.5879949" user="hanoj" uid="4788" visible="true" version="1" changeset="4762009" timestamp="2010-05-20T22:22:10Z"/>
 <node id="741651484" lat="49.1999565" lon="16.5874652" user="hanoj" uid="4788" visible="true" version="1" changeset="4762009" timestamp="2010-05-20T22:22:10Z"/>
 <node id="741651493" lat="49.2003194" lon="16.5889220" user="hanoj" uid="4788" visible="true" version="1" changeset="4762009" timestamp="2010-05-20T22:22:10Z"/>
 <node id="1440681139" lat="49.2005477" lon="16.5925293" user="hopet" uid="191339" visible="true" version="1" changeset="9371237" timestamp="2011-09-22T18:43:28Z"/>
 <node id="1581989010" lat="49.2003921" lon="16.5907074" user="hanoj" uid="4788" visible="true" version="2" changeset="11993000" timestamp="2012-06-23T20:09:59Z"/>
 <node id="1581989015" lat="49.2027468" lon="16.5916579" user="LM_1" uid="475704" visible="true" version="1" changeset="10327643" timestamp="2012-01-08T01:52:22Z"/>
 <node id="1581989016" lat="49.2028432" lon="16.5918670" user="LM_1" uid="475704" visible="true" version="1" changeset="10327643" timestamp="2012-01-08T01:52:22Z"/>
 <node id="1581989025" lat="49.2029083" lon="16.5920147" user="LM_1" uid="475704" visible="true" version="1" changeset="10327643" timestamp="2012-01-08T01:52:23Z"/>
 <node id="1581989043" lat="49.2030159" lon="16.5920887" user="LM_1" uid="475704" visible="true" version="1" changeset="10327643" timestamp="2012-01-08T01:52:23Z"/>
 <node id="1581989097" lat="49.2033943" lon="16.5923425" user="LM_1" uid="475704" visible="true" version="1" changeset="10327643" timestamp="2012-01-08T01:52:26Z"/>
 <node id="1581989098" lat="49.2034047" lon="16.5923061" user="LM_1" uid="475704" visible="true" version="1" changeset="10327643" timestamp="2012-01-08T01:52:26Z"/>
 <node id="1581989104" lat="49.2034263" lon="16.5924872" user="LM_1" uid="475704" visible="true" version="1" changeset="10327643" timestamp="2012-01-08T01:52:26Z"/>
 <node id="1581989112" lat="49.2034667" lon="16.5923477" user="LM_1" uid="475704" visible="true" version="1" changeset="10327643" timestamp="2012-01-08T01:52:26Z"/>
 <node id="1581989127" lat="49.2035583" lon="16.5926819" user="hanoj" uid="4788" visible="true" version="2" changeset="11993000" timestamp="2012-06-23T20:09:59Z"/>
 <node id="1581989137" lat="49.2036271" lon="16.5925750" user="LM_1" uid="475704" visible="true" version="1" changeset="10327643" timestamp="2012-01-08T01:52:27Z"/>
 <node id="1710887621" lat="49.2023694" lon="16.5927461" user="hanoj" uid="4788" visible="true" version="1" changeset="11260177" timestamp="2012-04-11T03:04:14Z"/>
 <node id="1799801267" lat="49.1991199" lon="16.5878500" user="hanoj" uid="4788" visible="true" version="1" changeset="11993000" timestamp="2012-06-23T20:09:54Z"/>
 <node id="1799801268" lat="49.1992086" lon="16.5870755" user="hanoj" uid="4788" visible="true" version="1" changeset="11993000" timestamp="2012-06-23T20:09:54Z"/>
 <node id="1799801270" lat="49.1992215" lon="16.5877421" user="hanoj" uid="4788" visible="true" version="1" changeset="11993000" timestamp="2012-06-23T20:09:54Z"/>
 <node id="1799801284" lat="49.1993066" lon="16.5867679" user="hanoj" uid="4788" visible="true" version="1" changeset="11993000" timestamp="2012-06-23T20:09:54Z"/>
 <node id="1799801286" lat="49.1993143" lon="16.5875211" user="hanoj" uid="4788" visible="true" version="1" changeset="11993000" timestamp="2012-06-23T20:09:54Z"/>
 <node id="1799801288" lat="49.1994122" lon="16.5865115" user="hanoj" uid="4788" visible="true" version="1" changeset="11993000" timestamp="2012-06-23T20:09:54Z"/>
 <node id="1799801290" lat="49.1994122" lon="16.5872372" user="hanoj" uid="4788" visible="true" version="1" changeset="11993000" timestamp="2012-06-23T20:09:54Z"/>
 <node id="1799801292" lat="49.1994560" lon="16.5864248" user="hanoj" uid="4788" visible="true" version="1" changeset="11993000" timestamp="2012-06-23T20:09:54Z"/>
 <node id="1799801294" lat="49.1995462" lon="16.5862808" user="hanoj" uid="4788" visible="true" version="1" changeset="11993000" timestamp="2012-06-23T20:09:54Z"/>
 <node id="1799801295" lat="49.1997872" lon="16.5860245" user="hanoj" uid="4788" visible="true" version="1" changeset="11993000" timestamp="2012-06-23T20:09:54Z"/>
 <node id="1799801297" lat="49.1997875" lon="16.5896186" user="hanoj" uid="4788" visible="true" version="1" changeset="11993000" timestamp="2012-06-23T20:09:54Z"/>
 <node id="1799801298" lat="49.1999346" lon="16.5894518" user="hanoj" uid="4788" visible="true" version="1" changeset="11993000" timestamp="2012-06-23T20:09:54Z"/>
 <node id="1799801299" lat="49.1999611" lon="16.5857287" user="hanoj" uid="4788" visible="true" version="1" changeset="11993000" timestamp="2012-06-23T20:09:54Z"/>
 <node id="1799801300" lat="49.2000463" lon="16.5905751" user="hanoj" uid="4788" visible="true" version="1" changeset="11993000" timestamp="2012-06-23T20:09:54Z"/>
 <node id="1799801301" lat="49.2000645" lon="16.5909822" user="hanoj" uid="4788" visible="true" version="1" changeset="11993000" timestamp="2012-06-23T20:09:54Z"/>
 <node id="1799801302" lat="49.2000759" lon="16.5860381" user="hanoj" uid="4788" visible="true" version="1" changeset="11993000" timestamp="2012-06-23T20:09:54Z"/>
 <node id="1799801303" lat="49.2001108" lon="16.5859656" user="hanoj" uid="4788" visible="true" version="1" changeset="11993000" timestamp="2012-06-23T20:09:54Z"/>
 <node id="1799801304" lat="49.2001187" lon="16.5871280" user="hanoj" uid="4788" visible="true" version="1" changeset="11993000" timestamp="2012-06-23T20:09:54Z"/>
 <node id="1799801305" lat="49.2003231" lon="16.5849794" user="hanoj" uid="4788" visible="true" version="1" changeset="11993000" timestamp="2012-06-23T20:09:54Z"/>
 <node id="1799801309" lat="49.2007548" lon="16.5840172" user="hanoj" uid="4788" visible="true" version="1" changeset="11993000" timestamp="2012-06-23T20:09:55Z"/>
 <node id="1799801315" lat="49.2008797" lon="16.5837707" user="hanoj" uid="4788" visible="true" version="1" changeset="11993000" timestamp="2012-06-23T20:09:55Z"/>
 <node id="1799801317" lat="49.2009925" lon="16.5840324" user="hanoj" uid="4788" visible="true" version="1" changeset="11993000" timestamp="2012-06-23T20:09:55Z"/>
 <node id="1799801319" lat="49.2010794" lon="16.5834276" user="hanoj" uid="4788" visible="true" version="1" changeset="11993000" timestamp="2012-06-23T20:09:55Z"/>
 <node id="1799801321" lat="49.2011961" lon="16.5927271" user="hanoj" uid="4788" visible="true" version="1" changeset="11993000" timestamp="2012-06-23T20:09:55Z"/>
 <node id="1799801323" lat="49.2012907" lon="16.5834473" user="hanoj" uid="4788" visible="true" version="1" changeset="11993000" timestamp="2012-06-23T20:09:55Z"/>
 <node id="1799801325" lat="49.2014106" lon="16.5829090" user="hanoj" uid="4788" visible="true" version="1" changeset="11993000" timestamp="2012-06-23T20:09:55Z"/>
 <node id="1799801327" lat="49.2014492" lon="16.5829780" user="hanoj" uid="4788" visible="true" version="1" changeset="11993000" timestamp="2012-06-23T20:09:55Z"/>
 <node id="1799801329" lat="49.2020360" lon="16.5926135" user="hanoj" uid="4788" visible="true" version="1" changeset="11993000" timestamp="2012-06-23T20:09:55Z"/>
 <node id="1799801331" lat="49.2024587" lon="16.5925884" user="hanoj" uid="4788" visible="true" version="1" changeset="11993000" timestamp="2012-06-23T20:09:55Z"/>
 <node id="1799801333" lat="49.2029397" lon="16.5926749" user="hanoj" uid="4788" visible="true" version="1" changeset="11993000" timestamp="2012-06-23T20:09:55Z"/>
 <node id="1799801334" lat="49.2032568" lon="16.5928060" user="hanoj" uid="4788" visible="true" version="1" changeset="11993000" timestamp="2012-06-23T20:09:55Z"/>
 <node id="1799801337" lat="49.2035547" lon="16.5929774" user="hanoj" uid="4788" visible="true" version="1" changeset="11993000" timestamp="2012-06-23T20:09:55Z"/>
 <node id="1799801339" lat="49.2035948" lon="16.5929802" user="hanoj" uid="4788" visible="true" version="1" changeset="11993000" timestamp="2012-06-23T20:09:55Z"/>
 <node id="1799801341" lat="49.2036367" lon="16.5929454" user="hanoj" uid="4788" visible="true" version="1" changeset="11993000" timestamp="2012-06-23T20:09:55Z"/>
 <node id="1799801343" lat="49.2036640" lon="16.5925884" user="hanoj" uid="4788" visible="true" version="1" changeset="11993000" timestamp="2012-06-23T20:09:55Z"/>
 <node id="1799801344" lat="49.2036959" lon="16.5924713" user="hanoj" uid="4788" visible="true" version="1" changeset="11993000" timestamp="2012-06-23T20:09:55Z"/>
 <node id="1799801346" lat="49.2037150" lon="16.5924434" user="hanoj" uid="4788" visible="true" version="1" changeset="11993000" timestamp="2012-06-23T20:09:55Z"/>
 <node id="1799801347" lat="49.2037706" lon="16.5924825" user="hanoj" uid="4788" visible="true" version="1" changeset="11993000" timestamp="2012-06-23T20:09:55Z"/>
 <node id="2178333135" lat="49.2003755" lon="16.5935708" user="brabcak" uid="1243413" visible="true" version="1" changeset="15196634" timestamp="2013-02-28T13:06:47Z"/>
 <way id="50382405" user="Kuratkoo" uid="81148" visible="true" version="1" changeset="3885861" timestamp="2010-02-15T19:05:37Z">
  <nd ref="640188219"/>
  <nd ref="640188221"/>
  <nd ref="640188215"/>
  <nd ref="640188217"/>
  <nd ref="640188223"/>
  <nd ref="640188225"/>
  <nd ref="640188226"/>
  <nd ref="640188168"/>
  <nd ref="640188169"/>
  <nd ref="640188227"/>
  <nd ref="640188219"/>
  <tag k="building" v="yes"/>
  <tag k="source" v="cuzk:km"/>
 </way>
 <way id="50382399" user="Kuratkoo" uid="81148" visible="true" version="1" changeset="3885861" timestamp="2010-02-15T19:05:37Z">
  <nd ref="640188215"/>
  <nd ref="640188188"/>
  <nd ref="640188190"/>
  <nd ref="640188201"/>
  <nd ref="640188185"/>
  <nd ref="640188192"/>
  <nd ref="640188194"/>
  <nd ref="640188195"/>
  <nd ref="640188197"/>
  <nd ref="640188199"/>
  <nd ref="640188187"/>
  <nd ref="640188122"/>
  <nd ref="640188161"/>
  <nd ref="640188163"/>
  <nd ref="640188165"/>
  <nd ref="640188167"/>
  <nd ref="640188205"/>
  <nd ref="640188206"/>
  <nd ref="640188213"/>
  <nd ref="640188217"/>
  <nd ref="640188215"/>
  <tag k="building" v="yes"/>
  <tag k="source" v="cuzk:km"/>
 </way>
 <way id="124710118" user="hanoj" uid="4788" visible="true" version="3" changeset="11260177" timestamp="2012-04-11T03:04:22Z">
  <nd ref="25262363"/>
  <nd ref="1399376494"/>
  <nd ref="21405198"/>
  <nd ref="21639109"/>
  <nd ref="21405197"/>
  <nd ref="1710887621"/>
  <nd ref="21639110"/>
  <nd ref="365353507"/>
  <tag k="busway:left" v="lane"/>
  <tag k="cycleway:left" v="share_busway"/>
  <tag k="highway" v="primary"/>
  <tag k="maxspeed" v="50"/>
  <tag k="name" v="Úvoz"/>
  <tag k="old_name" v="Úvozní;Hohlweggasse"/>
  <tag k="trolley_wire" v="yes"/>
 </way>
 <way id="50382398" user="Kuratkoo" uid="81148" visible="true" version="1" changeset="3885861" timestamp="2010-02-15T19:05:37Z">
  <nd ref="640188201"/>
  <nd ref="640188203"/>
  <nd ref="640188178"/>
  <nd ref="640188180"/>
  <nd ref="640188182"/>
  <nd ref="640188183"/>
  <nd ref="640188184"/>
  <nd ref="640188185"/>
  <nd ref="640188201"/>
  <tag k="building" v="yes"/>
  <tag k="source" v="cuzk:km"/>
 </way>
 <way id="50382351" user="Kuratkoo" uid="81148" visible="true" version="1" changeset="3885861" timestamp="2010-02-15T19:05:33Z">
  <nd ref="640187659"/>
  <nd ref="640187606"/>
  <nd ref="640187608"/>
  <nd ref="640187615"/>
  <nd ref="640187616"/>
  <nd ref="640187619"/>
  <nd ref="640187622"/>
  <nd ref="640187624"/>
  <nd ref="640187627"/>
  <nd ref="640187642"/>
  <nd ref="640187637"/>
  <nd ref="640187631"/>
  <nd ref="640187634"/>
  <nd ref="640187604"/>
  <nd ref="640187601"/>
  <nd ref="640187662"/>
  <nd ref="640187659"/>
  <tag k="building" v="yes"/>
  <tag k="source" v="cuzk:km"/>
 </way>
 <way id="49976379" user="hopet" uid="191339" visible="true" version="2" changeset="9371237" timestamp="2011-09-22T18:43:30Z">
  <nd ref="634347880"/>
  <nd ref="634892468"/>
  <nd ref="634892501"/>
  <nd ref="634892500"/>
  <nd ref="634892499"/>
  <nd ref="634892506"/>
  <nd ref="634892509"/>
  <nd ref="634892511"/>
  <nd ref="634892510"/>
  <nd ref="634892529"/>
  <nd ref="1440681139"/>
  <nd ref="634892528"/>
  <nd ref="634892527"/>
  <tag k="highway" v="footway"/>
  <tag k="source" v="cuzk:km"/>
 </way>
 <way id="50381487" user="Kuratkoo" uid="81148" visible="true" version="1" changeset="3885812" timestamp="2010-02-15T18:58:51Z">
  <nd ref="640172295"/>
  <nd ref="640172148"/>
  <nd ref="640172151"/>
  <nd ref="640172154"/>
  <nd ref="640171970"/>
  <nd ref="640171972"/>
  <nd ref="640171975"/>
  <nd ref="640171979"/>
  <nd ref="640171962"/>
  <nd ref="640171984"/>
  <nd ref="640171988"/>
  <nd ref="640171999"/>
  <nd ref="640172295"/>
  <tag k="building" v="yes"/>
  <tag k="source" v="cuzk:km"/>
 </way>
 <way id="50382406" user="Kuratkoo" uid="81148" visible="true" version="1" changeset="3885861" timestamp="2010-02-15T19:05:37Z">
  <nd ref="640188170"/>
  <nd ref="640188171"/>
  <nd ref="640188176"/>
  <nd ref="640188172"/>
  <nd ref="640188170"/>
  <tag k="building" v="yes"/>
  <tag k="source" v="cuzk:km"/>
 </way>
 <way id="50382272" user="Kuratkoo" uid="81148" visible="true" version="1" changeset="3885861" timestamp="2010-02-15T19:05:27Z">
  <nd ref="640188133"/>
  <nd ref="640187650"/>
  <nd ref="640187653"/>
  <nd ref="640187655"/>
  <nd ref="640187659"/>
  <nd ref="640187662"/>
  <nd ref="640188086"/>
  <nd ref="640188133"/>
  <tag k="building" v="yes"/>
  <tag k="source" v="cuzk:km"/>
 </way>
 <way id="50382407" user="Kuratkoo" uid="81148" visible="true" version="1" changeset="3885861" timestamp="2010-02-15T19:05:37Z">
  <nd ref="640188172"/>
  <nd ref="640188176"/>
  <nd ref="640188136"/>
  <nd ref="640188138"/>
  <nd ref="640188159"/>
  <nd ref="640188172"/>
  <tag k="building" v="yes"/>
  <tag k="source" v="cuzk:km"/>
 </way>
 <way id="50382372" user="Kuratkoo" uid="81148" visible="true" version="1" changeset="3885861" timestamp="2010-02-15T19:05:35Z">
  <nd ref="640188129"/>
  <nd ref="640188124"/>
  <nd ref="640188126"/>
  <nd ref="640188128"/>
  <nd ref="640188131"/>
  <nd ref="640188098"/>
  <nd ref="640188092"/>
  <nd ref="640188129"/>
  <tag k="building" v="yes"/>
  <tag k="source" v="cuzk:km"/>
 </way>
 <way id="50382367" user="Kuratkoo" uid="81148" visible="true" version="1" changeset="3885861" timestamp="2010-02-15T19:05:34Z">
  <nd ref="640188159"/>
  <nd ref="640188138"/>
  <nd ref="640188136"/>
  <nd ref="640188142"/>
  <nd ref="640188144"/>
  <nd ref="640188146"/>
  <nd ref="640188148"/>
  <nd ref="640188150"/>
  <nd ref="640188151"/>
  <nd ref="640188120"/>
  <nd ref="640188118"/>
  <nd ref="640188159"/>
  <tag k="building" v="yes"/>
  <tag k="source" v="cuzk:km"/>
 </way>
 <way id="50382270" user="Kuratkoo" uid="81148" visible="true" version="1" changeset="3885861" timestamp="2010-02-15T19:05:27Z">
  <nd ref="640188203"/>
  <nd ref="640187819"/>
  <nd ref="640187782"/>
  <nd ref="640187784"/>
  <nd ref="640187787"/>
  <nd ref="640187790"/>
  <nd ref="640187792"/>
  <nd ref="640187795"/>
  <nd ref="640187798"/>
  <nd ref="640187803"/>
  <nd ref="640188178"/>
  <nd ref="640188203"/>
  <tag k="building" v="yes"/>
  <tag k="source" v="cuzk:km"/>
 </way>
 <way id="50382362" user="Kuratkoo" uid="81148" visible="true" version="1" changeset="3885861" timestamp="2010-02-15T19:05:34Z">
  <nd ref="640187819"/>
  <nd ref="640187805"/>
  <nd ref="640187816"/>
  <nd ref="640187766"/>
  <nd ref="640187753"/>
  <nd ref="640187756"/>
  <nd ref="640187757"/>
  <nd ref="640187760"/>
  <nd ref="640187764"/>
  <nd ref="640187782"/>
  <nd ref="640187819"/>
  <tag k="building" v="yes"/>
  <tag k="source" v="cuzk:km"/>
 </way>
 <way id="50382353" user="Kuratkoo" uid="81148" visible="true" version="1" changeset="3885861" timestamp="2010-02-15T19:05:33Z">
  <nd ref="640187666"/>
  <nd ref="640187598"/>
  <nd ref="640187575"/>
  <nd ref="640187601"/>
  <nd ref="640187604"/>
  <nd ref="640187634"/>
  <nd ref="640187631"/>
  <nd ref="640187637"/>
  <nd ref="640187642"/>
  <nd ref="640187627"/>
  <nd ref="640187624"/>
  <nd ref="640187666"/>
  <tag k="building" v="yes"/>
  <tag k="source" v="cuzk:km"/>
 </way>
 <way id="121178525" user="hanoj" uid="4788" visible="true" version="1" changeset="8689256" timestamp="2011-07-10T22:34:15Z">
  <nd ref="634892534"/>
  <nd ref="634892533"/>
  <nd ref="634892521"/>
  <nd ref="634892522"/>
  <nd ref="634892523"/>
  <nd ref="634892526"/>
  <nd ref="634892525"/>
  <nd ref="634892524"/>
  <tag k="highway" v="footway"/>
  <tag k="source" v="cuzk:km"/>
 </way>
 <way id="50382370" user="Kuratkoo" uid="81148" visible="true" version="1" changeset="3885861" timestamp="2010-02-15T19:05:35Z">
  <nd ref="640188153"/>
  <nd ref="640188154"/>
  <nd ref="640188129"/>
  <nd ref="640188092"/>
  <nd ref="640188120"/>
  <nd ref="640188151"/>
  <nd ref="640188155"/>
  <nd ref="640188153"/>
  <tag k="building" v="yes"/>
  <tag k="source" v="cuzk:km"/>
 </way>
 <way id="49976394" user="hanoj" uid="4788" visible="true" version="1" changeset="3839355" timestamp="2010-02-10T11:18:04Z">
  <nd ref="634892529"/>
  <nd ref="634892524"/>
  <nd ref="634892508"/>
  <tag k="highway" v="footway"/>
  <tag k="source" v="cuzk:km"/>
 </way>
 <way id="50382360" user="Kuratkoo" uid="81148" visible="true" version="1" changeset="3885861" timestamp="2010-02-15T19:05:34Z">
  <nd ref="640187697"/>
  <nd ref="640187741"/>
  <nd ref="640187768"/>
  <nd ref="640187770"/>
  <nd ref="640187748"/>
  <nd ref="640187750"/>
  <nd ref="640187753"/>
  <nd ref="640187766"/>
  <nd ref="640187705"/>
  <nd ref="640187700"/>
  <nd ref="640187702"/>
  <nd ref="640187707"/>
  <nd ref="640187710"/>
  <nd ref="640187697"/>
  <tag k="building" v="yes"/>
  <tag k="source" v="cuzk:km"/>
 </way>
 <way id="50381486" user="Kuratkoo" uid="81148" visible="true" version="1" changeset="3885812" timestamp="2010-02-15T18:58:51Z">
  <nd ref="640171967"/>
  <nd ref="640172117"/>
  <nd ref="640171957"/>
  <nd ref="640171962"/>
  <nd ref="640171979"/>
  <nd ref="640171967"/>
  <tag k="building" v="yes"/>
  <tag k="source" v="cuzk:km"/>
 </way>
 <way id="49976397" user="hanoj" uid="4788" visible="true" version="1" changeset="3839355" timestamp="2010-02-10T11:18:04Z">
  <nd ref="634892507"/>
  <nd ref="634892508"/>
  <nd ref="634892513"/>
  <nd ref="634892520"/>
  <tag k="highway" v="footway"/>
  <tag k="source" v="cuzk:km"/>
 </way>
 <way id="50382358" user="Kuratkoo" uid="81148" visible="true" version="1" changeset="3885861" timestamp="2010-02-15T19:05:33Z">
  <nd ref="640187670"/>
  <nd ref="640187700"/>
  <nd ref="640187705"/>
  <nd ref="640187598"/>
  <nd ref="640187666"/>
  <nd ref="640187673"/>
  <nd ref="640187676"/>
  <nd ref="640187686"/>
  <nd ref="640187690"/>
  <nd ref="640187694"/>
  <nd ref="640187670"/>
  <tag k="building" v="yes"/>
  <tag k="source" v="cuzk:km"/>
 </way>
 <way id="50382377" user="Kuratkoo" uid="81148" visible="true" version="1" changeset="3885861" timestamp="2010-02-15T19:05:35Z">
  <nd ref="640188133"/>
  <nd ref="640188086"/>
  <nd ref="640188098"/>
  <nd ref="640188131"/>
  <nd ref="640188133"/>
  <tag k="building" v="yes"/>
  <tag k="source" v="cuzk:km"/>
 </way>
 <way id="168766336" user="hanoj" uid="4788" visible="true" version="1" changeset="11993000" timestamp="2012-06-23T20:09:56Z">
  <nd ref="663561463"/>
  <nd ref="663561458"/>
  <nd ref="634892467"/>
  <nd ref="663561471"/>
  <nd ref="1799801317"/>
  <nd ref="1799801323"/>
  <nd ref="1799801327"/>
  <nd ref="1799801325"/>
  <nd ref="1799801319"/>
  <nd ref="1799801315"/>
  <nd ref="1799801309"/>
  <nd ref="1799801305"/>
  <nd ref="1799801299"/>
  <nd ref="1799801295"/>
  <nd ref="1799801294"/>
  <nd ref="1799801292"/>
  <nd ref="1799801288"/>
  <nd ref="1799801284"/>
  <nd ref="1799801268"/>
  <nd ref="1799801290"/>
  <nd ref="1799801286"/>
  <nd ref="1799801270"/>
  <nd ref="1799801267"/>
  <nd ref="1799801298"/>
  <nd ref="1799801297"/>
  <nd ref="1799801300"/>
  <nd ref="1799801301"/>
  <nd ref="1799801306"/>
  <nd ref="1799801307"/>
  <nd ref="1799801308"/>
  <nd ref="1799801321"/>
  <nd ref="1799801329"/>
  <nd ref="1799801331"/>
  <nd ref="1799801333"/>
  <nd ref="1799801334"/>
  <nd ref="1799801337"/>
  <nd ref="1799801339"/>
  <nd ref="1799801341"/>
  <nd ref="1799801347"/>
  <nd ref="1799801346"/>
  <nd ref="1799801344"/>
  <nd ref="1799801343"/>
  <nd ref="1581989137"/>
  <nd ref="1581989127"/>
  <nd ref="1581989104"/>
  <nd ref="1581989112"/>
  <nd ref="1581989098"/>
  <nd ref="1581989097"/>
  <nd ref="1581989043"/>
  <nd ref="1581989025"/>
  <nd ref="1581989016"/>
  <nd ref="1581989015"/>
  <nd ref="360863654"/>
  <nd ref="360863660"/>
  <nd ref="360863673"/>
  <nd ref="1581989010"/>
  <nd ref="360863684"/>
  <nd ref="360863691"/>
  <nd ref="741651493"/>
  <nd ref="741651469"/>
  <nd ref="741651454"/>
  <nd ref="741651480"/>
  <nd ref="741651484"/>
  <nd ref="1799801304"/>
  <nd ref="663561495"/>
  <nd ref="663561494"/>
  <nd ref="663561464"/>
  <nd ref="1799801302"/>
  <nd ref="1799801303"/>
  <nd ref="663561463"/>
  <tag k="natural" v="wood"/>
 </way>
 <way id="4315190" user="brabcak" uid="1243413" visible="true" version="9" changeset="15196634" timestamp="2013-02-28T13:06:47Z">
  <nd ref="26364817"/>
  <nd ref="2178333135"/>
  <nd ref="21405198"/>
  <nd ref="634892520"/>
  <nd ref="26159591"/>
  <nd ref="21405207"/>
  <nd ref="25262358"/>
  <nd ref="21405200"/>
  <nd ref="21405206"/>
  <nd ref="26411682"/>
  <nd ref="365353499"/>
  <nd ref="21405201"/>
  <tag k="highway" v="residential"/>
  <tag k="name" v="Grohova"/>
  <tag k="old_name" v="Sirotčí"/>
  <tag k="oneway" v="yes"/>
  <tag k="source" v="cuzk:km"/>
 </way>
 <way id="50382328" user="Kuratkoo" uid="81148" visible="true" version="1" changeset="3885861" timestamp="2010-02-15T19:05:31Z">
  <nd ref="640187366"/>
  <nd ref="640187360"/>
  <nd ref="640187364"/>
  <nd ref="640187289"/>
  <nd ref="640187242"/>
  <nd ref="640187290"/>
  <nd ref="640187292"/>
  <nd ref="640187294"/>
  <nd ref="640187297"/>
  <nd ref="640187300"/>
  <nd ref="640187301"/>
  <nd ref="640187303"/>
  <nd ref="640187365"/>
  <nd ref="640187319"/>
  <nd ref="640187366"/>
  <tag k="building" v="yes"/>
  <tag k="source" v="cuzk:km"/>
 </way>
 <relation id="238804" user="kubedan" uid="2169" visible="true" version="43" changeset="14634352" timestamp="2013-01-13T13:32:46Z">
  <member type="node" ref="653700097" role="forward_stop"/>
  <member type="node" ref="653700132" role="forward_stop"/>
  <member type="node" ref="653700465" role="forward_stop"/>
  <member type="node" ref="653700211" role="forward_stop"/>
  <member type="node" ref="653700205" role="forward_stop"/>
  <member type="node" ref="653700224" role="forward_stop"/>
  <member type="node" ref="653700261" role="forward_stop"/>
  <member type="node" ref="653700272" role="forward_stop"/>
  <member type="node" ref="653700294" role="forward_stop"/>
  <member type="node" ref="652841447" role="forward_stop"/>
  <member type="node" ref="652841451" role="forward_stop"/>
  <member type="node" ref="652841454" role="forward_stop"/>
  <member type="node" ref="653950120" role="forward_stop"/>
  <member type="node" ref="653700105" role="backward_stop"/>
  <member type="node" ref="653700113" role="backward_stop"/>
  <member type="node" ref="653700459" role="backward_stop"/>
  <member type="node" ref="653700189" role="backward_stop"/>
  <member type="node" ref="653700194" role="backward_stop"/>
  <member type="node" ref="653700241" role="backward_stop"/>
  <member type="node" ref="653700253" role="backward_stop"/>
  <member type="node" ref="653700269" role="backward_stop"/>
  <member type="node" ref="653700279" role="backward_stop"/>
  <member type="node" ref="652841443" role="backward_stop"/>
  <member type="node" ref="652841449" role="backward_stop"/>
  <member type="node" ref="652841452" role="backward_stop"/>
  <member type="node" ref="643267618" role="backward_stop"/>
  <member type="way" ref="26925960" role=""/>
  <member type="way" ref="26925959" role=""/>
  <member type="way" ref="40491348" role=""/>
  <member type="way" ref="48028132" role=""/>
  <member type="way" ref="52518804" role=""/>
  <member type="way" ref="186633610" role=""/>
  <member type="way" ref="186633608" role=""/>
  <member type="way" ref="51229682" role=""/>
  <member type="way" ref="186633601" role=""/>
  <member type="way" ref="117005819" role=""/>
  <member type="way" ref="186633602" role=""/>
  <member type="way" ref="186633603" role=""/>
  <member type="way" ref="4052223" role="forward"/>
  <member type="way" ref="51229683" role="forward"/>
  <member type="way" ref="39812454" role="forward"/>
  <member type="way" ref="39812453" role="forward"/>
  <member type="way" ref="25768991" role=""/>
  <member type="way" ref="40491353" role=""/>
  <member type="way" ref="39450437" role="backward"/>
  <member type="way" ref="6897192" role="forward"/>
  <member type="way" ref="31953537" role="forward"/>
  <member type="way" ref="8584948" role=""/>
  <member type="way" ref="8584947" role=""/>
  <member type="way" ref="4059755" role=""/>
  <member type="way" ref="4044029" role=""/>
  <member type="way" ref="30633061" role=""/>
  <member type="way" ref="4044028" role=""/>
  <member type="way" ref="35214841" role=""/>
  <member type="way" ref="157738127" role=""/>
  <member type="way" ref="157738125" role=""/>
  <member type="way" ref="15504097" role=""/>
  <member type="way" ref="40491357" role=""/>
  <member type="way" ref="36551067" role=""/>
  <member type="way" ref="16232964" role=""/>
  <member type="way" ref="4043707" role=""/>
  <member type="way" ref="140270457" role=""/>
  <member type="way" ref="35214840" role=""/>
  <member type="way" ref="15667939" role=""/>
  <member type="way" ref="84802832" role=""/>
  <member type="way" ref="84802836" role=""/>
  <member type="way" ref="30311292" role=""/>
  <member type="way" ref="39812465" role=""/>
  <member type="way" ref="48579040" role=""/>
  <member type="way" ref="48579052" role=""/>
  <member type="way" ref="9933612" role=""/>
  <member type="way" ref="32003579" role="backward"/>
  <member type="way" ref="32003582" role="forward"/>
  <member type="way" ref="83249044" role="forward"/>
  <member type="way" ref="4048579" role="forward"/>
  <member type="way" ref="51170916" role="forward"/>
  <member type="way" ref="39812463" role="forward"/>
  <member type="way" ref="39812462" role="forward"/>
  <member type="way" ref="4071426" role="forward"/>
  <member type="way" ref="9933632" role="forward"/>
  <member type="way" ref="40552440" role="forward"/>
  <member type="way" ref="48225772" role="forward"/>
  <member type="way" ref="9933623" role="forward"/>
  <member type="way" ref="4053527" role=""/>
  <member type="way" ref="4080362" role=""/>
  <member type="way" ref="48579022" role=""/>
  <member type="way" ref="51996653" role=""/>
  <member type="way" ref="48579062" role=""/>
  <member type="way" ref="124710118" role=""/>
  <member type="way" ref="124710117" role=""/>
  <member type="way" ref="4083948" role=""/>
  <member type="way" ref="109505673" role=""/>
  <member type="way" ref="168703988" role=""/>
  <member type="way" ref="40552441" role=""/>
  <member type="node" ref="492136292" role="stop"/>
  <member type="way" ref="4083949" role=""/>
  <member type="way" ref="113138321" role=""/>
  <member type="way" ref="113135604" role=""/>
  <member type="node" ref="492136297" role="stop"/>
  <member type="node" ref="492136298" role="stop"/>
  <member type="way" ref="14572177" role=""/>
  <member type="way" ref="200925710" role=""/>
  <member type="way" ref="50561635" role=""/>
  <member type="way" ref="200925712" role=""/>
  <member type="way" ref="200925708" role=""/>
  <member type="way" ref="16380841" role=""/>
  <member type="way" ref="77471002" role=""/>
  <member type="way" ref="113138323" role=""/>
  <member type="way" ref="27423578" role=""/>
  <member type="way" ref="77470996" role=""/>
  <member type="way" ref="40552443" role=""/>
  <member type="way" ref="40552444" role=""/>
  <member type="way" ref="40552445" role=""/>
  <member type="way" ref="22734737" role=""/>
  <member type="way" ref="200925718" role=""/>
  <member type="way" ref="4795690" role=""/>
  <member type="way" ref="200925714" role=""/>
  <member type="way" ref="10041265" role=""/>
  <member type="way" ref="200925751" role=""/>
  <member type="way" ref="22734736" role=""/>
  <member type="way" ref="186110760" role=""/>
  <member type="way" ref="172573061" role=""/>
  <member type="way" ref="40552447" role=""/>
  <member type="way" ref="200925745" role=""/>
  <member type="way" ref="196748485" role=""/>
  <member type="way" ref="200925746" role=""/>
  <member type="way" ref="22734734" role=""/>
  <member type="way" ref="4795963" role=""/>
  <member type="way" ref="186873049" role=""/>
  <member type="way" ref="37112585" role=""/>
  <member type="way" ref="22734738" role=""/>
  <member type="way" ref="22734735" role=""/>
  <member type="way" ref="4795961" role=""/>
  <member type="way" ref="4795962" role=""/>
  <member type="way" ref="186317878" role=""/>
  <member type="way" ref="4795853" role=""/>
  <member type="way" ref="48314459" role=""/>
  <member type="way" ref="48310606" role=""/>
  <member type="way" ref="81040454" role=""/>
  <member type="way" ref="40552449" role="forward"/>
  <member type="way" ref="177187382" role="forward"/>
  <member type="way" ref="81040403" role=""/>
  <member type="way" ref="33549675" role=""/>
  <member type="way" ref="52755295" role=""/>
  <member type="way" ref="94158444" role=""/>
  <member type="way" ref="74090219" role=""/>
  <member type="way" ref="178774030" role=""/>
  <member type="way" ref="40552453" role=""/>
  <member type="way" ref="27894652" role=""/>
  <member type="way" ref="48310908" role=""/>
  <member type="way" ref="94277003" role=""/>
  <member type="way" ref="26305870" role=""/>
  <member type="way" ref="26305704" role=""/>
  <member type="way" ref="26305700" role=""/>
  <member type="way" ref="26305871" role=""/>
  <member type="way" ref="94277068" role=""/>
  <member type="way" ref="26305872" role=""/>
  <member type="way" ref="26305868" role=""/>
  <member type="way" ref="25882748" role=""/>
  <member type="way" ref="48310912" role=""/>
  <member type="way" ref="32734901" role=""/>
  <tag k="network" v="IDS JMK"/>
  <tag k="note" v="chybi zastavky"/>
  <tag k="operator" v="cz:DPMB"/>
  <tag k="ref" v="25"/>
  <tag k="route" v="trolleybus"/>
  <tag k="source" v="survey"/>
  <tag k="type" v="route"/>
  <tag k="wheelchair" v="limited"/>
 </relation>
 <relation id="238805" user="kubedan" uid="2169" visible="true" version="37" changeset="14634352" timestamp="2013-01-13T13:32:48Z">
  <member type="node" ref="592156221" role="forward_stop"/>
  <member type="node" ref="595586222" role="forward_stop"/>
  <member type="node" ref="653700164" role="forward_stop"/>
  <member type="node" ref="653700205" role="forward_stop"/>
  <member type="node" ref="653700224" role="forward_stop"/>
  <member type="node" ref="653700261" role="forward_stop"/>
  <member type="node" ref="653700272" role="forward_stop"/>
  <member type="node" ref="653700294" role="forward_stop"/>
  <member type="node" ref="652841447" role="forward_stop"/>
  <member type="node" ref="652841451" role="forward_stop"/>
  <member type="node" ref="652841454" role="forward_stop"/>
  <member type="node" ref="653950120" role="forward_stop"/>
  <member type="node" ref="653700139" role="backward_stop"/>
  <member type="node" ref="595586234" role="backward_stop"/>
  <member type="node" ref="653700159" role="backward_stop"/>
  <member type="node" ref="653700167" role="backward_stop"/>
  <member type="node" ref="653700241" role="backward_stop"/>
  <member type="node" ref="653700253" role="backward_stop"/>
  <member type="node" ref="653700269" role="backward_stop"/>
  <member type="node" ref="653700279" role="backward_stop"/>
  <member type="node" ref="652841443" role="backward_stop"/>
  <member type="node" ref="652841449" role="backward_stop"/>
  <member type="node" ref="652841452" role="backward_stop"/>
  <member type="node" ref="643267618" role="backward_stop"/>
  <member type="way" ref="8584954" role=""/>
  <member type="way" ref="40491354" role=""/>
  <member type="way" ref="46343093" role=""/>
  <member type="way" ref="30676827" role="forward"/>
  <member type="way" ref="8585080" role="forward"/>
  <member type="way" ref="26984203" role="forward"/>
  <member type="way" ref="30676828" role="forward"/>
  <member type="way" ref="4044029" role=""/>
  <member type="way" ref="30633061" role=""/>
  <member type="way" ref="4044028" role=""/>
  <member type="way" ref="35214841" role=""/>
  <member type="way" ref="157738127" role=""/>
  <member type="way" ref="157738125" role=""/>
  <member type="way" ref="15504097" role=""/>
  <member type="way" ref="40491357" role=""/>
  <member type="way" ref="36551067" role=""/>
  <member type="way" ref="16232964" role=""/>
  <member type="way" ref="4043707" role=""/>
  <member type="way" ref="140270457" role=""/>
  <member type="way" ref="35214840" role=""/>
  <member type="way" ref="15667939" role=""/>
  <member type="way" ref="84802832" role=""/>
  <member type="way" ref="84802836" role=""/>
  <member type="way" ref="30311292" role=""/>
  <member type="way" ref="39812465" role=""/>
  <member type="way" ref="48579040" role=""/>
  <member type="way" ref="48579052" role=""/>
  <member type="way" ref="9933612" role=""/>
  <member type="way" ref="32003579" role="backward"/>
  <member type="way" ref="32003582" role="backward"/>
  <member type="way" ref="83249044" role="backward"/>
  <member type="way" ref="4048579" role="backward"/>
  <member type="way" ref="51170916" role="forward"/>
  <member type="way" ref="39812463" role="forward"/>
  <member type="way" ref="39812462" role="forward"/>
  <member type="way" ref="4071426" role="forward"/>
  <member type="way" ref="9933632" role="forward"/>
  <member type="way" ref="40552440" role="forward"/>
  <member type="way" ref="48225772" role="forward"/>
  <member type="way" ref="9933623" role="forward"/>
  <member type="way" ref="4053527" role=""/>
  <member type="way" ref="4080362" role=""/>
  <member type="way" ref="48579022" role=""/>
  <member type="way" ref="51996653" role=""/>
  <member type="way" ref="48579062" role=""/>
  <member type="way" ref="124710118" role=""/>
  <member type="way" ref="124710117" role=""/>
  <member type="way" ref="4083948" role=""/>
  <member type="way" ref="109505673" role=""/>
  <member type="way" ref="168703988" role=""/>
  <member type="way" ref="40552441" role=""/>
  <member type="node" ref="492136292" role="stop"/>
  <member type="way" ref="4083949" role=""/>
  <member type="way" ref="113138321" role=""/>
  <member type="way" ref="113135604" role=""/>
  <member type="node" ref="492136297" role="stop"/>
  <member type="node" ref="492136298" role="stop"/>
  <member type="way" ref="14572177" role=""/>
  <member type="way" ref="200925710" role=""/>
  <member type="way" ref="50561635" role=""/>
  <member type="way" ref="200925712" role=""/>
  <member type="way" ref="200925708" role=""/>
  <member type="way" ref="16380841" role=""/>
  <member type="way" ref="77471002" role=""/>
  <member type="way" ref="113138323" role=""/>
  <member type="way" ref="27423578" role=""/>
  <member type="way" ref="77470996" role=""/>
  <member type="way" ref="40552443" role=""/>
  <member type="way" ref="40552444" role=""/>
  <member type="way" ref="40552445" role=""/>
  <member type="way" ref="22734737" role=""/>
  <member type="way" ref="200925718" role=""/>
  <member type="way" ref="4795690" role=""/>
  <member type="way" ref="200925714" role=""/>
  <member type="way" ref="10041265" role=""/>
  <member type="way" ref="200925751" role=""/>
  <member type="way" ref="22734736" role=""/>
  <member type="way" ref="186110760" role=""/>
  <member type="way" ref="172573061" role=""/>
  <member type="way" ref="40552447" role=""/>
  <member type="way" ref="200925745" role=""/>
  <member type="way" ref="196748485" role=""/>
  <member type="way" ref="200925746" role=""/>
  <member type="way" ref="22734734" role=""/>
  <member type="way" ref="4795963" role=""/>
  <member type="way" ref="186873049" role=""/>
  <member type="way" ref="37112585" role=""/>
  <member type="way" ref="22734738" role=""/>
  <member type="way" ref="22734735" role=""/>
  <member type="way" ref="4795961" role=""/>
  <member type="way" ref="4795962" role=""/>
  <member type="way" ref="186317878" role=""/>
  <member type="way" ref="4795853" role=""/>
  <member type="way" ref="48314459" role=""/>
  <member type="way" ref="48310606" role=""/>
  <member type="way" ref="81040454" role=""/>
  <member type="way" ref="40552449" role="forward"/>
  <member type="way" ref="177187382" role="forward"/>
  <member type="way" ref="81040403" role=""/>
  <member type="way" ref="33549675" role=""/>
  <member type="way" ref="52755295" role=""/>
  <member type="way" ref="94158444" role=""/>
  <member type="way" ref="74090219" role=""/>
  <member type="way" ref="178774030" role=""/>
  <member type="way" ref="40552453" role=""/>
  <member type="way" ref="27894652" role=""/>
  <member type="way" ref="48310908" role=""/>
  <member type="way" ref="94277003" role=""/>
  <member type="way" ref="26305870" role=""/>
  <member type="way" ref="26305704" role=""/>
  <member type="way" ref="26305700" role=""/>
  <member type="way" ref="26305871" role=""/>
  <member type="way" ref="94277068" role=""/>
  <member type="way" ref="26305872" role=""/>
  <member type="way" ref="26305868" role=""/>
  <member type="way" ref="25882748" role=""/>
  <member type="way" ref="48310912" role=""/>
  <member type="way" ref="32734901" role=""/>
  <tag k="network" v="IDS JMK"/>
  <tag k="note" v="chybi zastavky"/>
  <tag k="operator" v="cz:DPMB"/>
  <tag k="ref" v="26"/>
  <tag k="route" v="trolleybus"/>
  <tag k="source" v="survey"/>
  <tag k="type" v="route"/>
  <tag k="wheelchair" v="limited"/>
 </relation>
 <relation id="1345701" user="Petr Dlouhý" uid="17615" visible="true" version="9" changeset="14889244" timestamp="2013-02-02T21:42:33Z">
  <member type="way" ref="25800135" role=""/>
  <member type="way" ref="92057262" role=""/>
  <member type="way" ref="25800126" role="forward"/>
  <member type="way" ref="8513482" role=""/>
  <member type="way" ref="141175946" role=""/>
  <member type="way" ref="141175947" role=""/>
  <member type="way" ref="35559180" role=""/>
  <member type="way" ref="17416336" role=""/>
  <member type="way" ref="85194597" role=""/>
  <member type="way" ref="85194609" role=""/>
  <member type="way" ref="92057320" role=""/>
  <member type="way" ref="27063372" role="forward"/>
  <member type="way" ref="74440685" role=""/>
  <member type="way" ref="201505403" role=""/>
  <member type="way" ref="201505402" role=""/>
  <member type="way" ref="201505399" role=""/>
  <member type="way" ref="201505401" role=""/>
  <member type="way" ref="92057323" role=""/>
  <member type="way" ref="8361835" role=""/>
  <member type="way" ref="92057292" role=""/>
  <member type="way" ref="8361834" role=""/>
  <member type="way" ref="8391653" role=""/>
  <member type="way" ref="10417535" role=""/>
  <member type="way" ref="8140003" role="forward"/>
  <member type="way" ref="4315188" role="forward"/>
  <member type="way" ref="4268522" role=""/>
  <member type="way" ref="4337092" role="backward"/>
  <member type="way" ref="4315190" role="forward"/>
  <member type="way" ref="8061797" role="forward"/>
  <member type="way" ref="92057298" role=""/>
  <member type="way" ref="27063767" role="forward"/>
  <member type="way" ref="27063768" role="forward"/>
  <member type="way" ref="48578320" role=""/>
  <member type="way" ref="83531063" role="forward"/>
  <member type="way" ref="8513483" role="forward"/>
  <tag k="complete" v="yes"/>
  <tag k="lcn:description" v="neoficiální doporučená trasa"/>
  <tag k="network" v="rcn"/>
  <tag k="operator" v="cz:BrnoNaKole"/>
  <tag k="ref" v="X128"/>
  <tag k="route" v="bicycle"/>
  <tag k="state" v="recommended"/>
  <tag k="type" v="route"/>
  <tag k="website" v="http://www.brnonakole.cz/"/>
 </relation>
</osm>
