<?xml version="1.0" encoding="UTF-8"?>
<osm version="0.6" generator="CGImap 0.1.0" copyright="OpenStreetMap and contributors" attribution="http://www.openstreetmap.org/copyright" license="http://opendatacommons.org/licenses/odbl/1-0/">
 <bounds minlat="49.2203400" minlon="17.6521600" maxlat="49.2208200" maxlon="17.6543000"/>
 <node id="1880754490" lat="49.2205763" lon="17.6530525" user="Datin" uid="115815" visible="true" version="1" changeset="12844502" timestamp="2012-08-24T12:49:22Z">
  <tag k="addr:conscriptionnumber" v="4379"/>
  <tag k="addr:country" v="CZ"/>
  <tag k="addr:housenumber" v="4379"/>
  <tag k="addr:street" v="Antonínova"/>
  <tag k="is_in" v="Zlín, Zlínský kraj, CZ"/>
  <tag k="source:addr" v="mvcr:adresa"/>
  <tag k="source:loc" v="cuzk:km"/>
 </node>
 <node id="447026405" lat="49.2207321" lon="17.6531842" user="Petr Stehlík" uid="135428" visible="true" version="1" changeset="1926068" timestamp="2009-07-24T15:45:14Z"/>
 <node id="459466001" lat="49.2207247" lon="17.6527874" user="zub" uid="29818" visible="true" version="1" changeset="2082134" timestamp="2009-08-09T08:41:31Z"/>
 <node id="459466006" lat="49.2207772" lon="17.6536400" user="zub" uid="29818" visible="true" version="1" changeset="2082134" timestamp="2009-08-09T08:41:31Z"/>
 <node id="702566510" lat="49.2204062" lon="17.6525842" user="Zubozrout" uid="123530" visible="true" version="1" changeset="4477856" timestamp="2010-04-20T14:54:00Z"/>
 <node id="702566512" lat="49.2203823" lon="17.6524044" user="Zubozrout" uid="123530" visible="true" version="1" changeset="4477856" timestamp="2010-04-20T14:54:00Z"/>
 <node id="702566514" lat="49.2204329" lon="17.6525759" user="Zubozrout" uid="123530" visible="true" version="1" changeset="4477856" timestamp="2010-04-20T14:54:00Z"/>
 <node id="702566520" lat="49.2205627" lon="17.6525338" user="Zubozrout" uid="123530" visible="true" version="1" changeset="4477856" timestamp="2010-04-20T14:54:00Z"/>
 <node id="702566521" lat="49.2205743" lon="17.6526208" user="Zubozrout" uid="123530" visible="true" version="1" changeset="4477856" timestamp="2010-04-20T14:54:00Z"/>
 <node id="702566522" lat="49.2205664" lon="17.6523469" user="Zubozrout" uid="123530" visible="true" version="1" changeset="4477856" timestamp="2010-04-20T14:54:00Z"/>
 <node id="702566523" lat="49.2205902" lon="17.6525253" user="Zubozrout" uid="123530" visible="true" version="1" changeset="4477856" timestamp="2010-04-20T14:54:00Z"/>
 <node id="702566524" lat="49.2205427" lon="17.6526307" user="Zubozrout" uid="123530" visible="true" version="1" changeset="4477856" timestamp="2010-04-20T14:54:00Z"/>
 <node id="702566525" lat="49.2206338" lon="17.6533183" user="Zubozrout" uid="123530" visible="true" version="1" changeset="4477856" timestamp="2010-04-20T14:54:00Z"/>
 <node id="702566526" lat="49.2206154" lon="17.6531760" user="Zubozrout" uid="123530" visible="true" version="1" changeset="4477856" timestamp="2010-04-20T14:54:00Z"/>
 <node id="702566527" lat="49.2206519" lon="17.6533126" user="Zubozrout" uid="123530" visible="true" version="1" changeset="4477856" timestamp="2010-04-20T14:54:00Z"/>
 <node id="702566529" lat="49.2206330" lon="17.6531705" user="Zubozrout" uid="123530" visible="true" version="1" changeset="4477856" timestamp="2010-04-20T14:54:00Z"/>
 <node id="702566559" lat="49.2206160" lon="17.6539502" user="Zubozrout" uid="123530" visible="true" version="1" changeset="4477856" timestamp="2010-04-20T14:54:01Z"/>
 <node id="702566569" lat="49.2207082" lon="17.6538766" user="Zubozrout" uid="123530" visible="true" version="1" changeset="4477856" timestamp="2010-04-20T14:54:01Z"/>
 <node id="702566571" lat="49.2207268" lon="17.6538918" user="Zubozrout" uid="123530" visible="true" version="1" changeset="4477856" timestamp="2010-04-20T14:54:01Z"/>
 <node id="702566573" lat="49.2207382" lon="17.6538596" user="Zubozrout" uid="123530" visible="true" version="1" changeset="4477856" timestamp="2010-04-20T14:54:01Z"/>
 <node id="702566576" lat="49.2207574" lon="17.6538804" user="Zubozrout" uid="123530" visible="true" version="1" changeset="4477856" timestamp="2010-04-20T14:54:01Z"/>
 <node id="702566579" lat="49.2207439" lon="17.6539093" user="Zubozrout" uid="123530" visible="true" version="1" changeset="4477856" timestamp="2010-04-20T14:54:01Z"/>
 <node id="702566581" lat="49.2207601" lon="17.6539046" user="Zubozrout" uid="123530" visible="true" version="1" changeset="4477856" timestamp="2010-04-20T14:54:01Z"/>
 <node id="702566583" lat="49.2207715" lon="17.6539435" user="Zubozrout" uid="123530" visible="true" version="1" changeset="4477856" timestamp="2010-04-20T14:54:01Z"/>
 <node id="702566585" lat="49.2207701" lon="17.6539958" user="Zubozrout" uid="123530" visible="true" version="1" changeset="4477856" timestamp="2010-04-20T14:54:01Z"/>
 <node id="702566587" lat="49.2207412" lon="17.6540045" user="Zubozrout" uid="123530" visible="true" version="1" changeset="4477856" timestamp="2010-04-20T14:54:01Z"/>
 <node id="702566589" lat="49.2207592" lon="17.6541346" user="Zubozrout" uid="123530" visible="true" version="1" changeset="4477856" timestamp="2010-04-20T14:54:01Z"/>
 <node id="702566591" lat="49.2206510" lon="17.6541674" user="Zubozrout" uid="123530" visible="true" version="1" changeset="4477856" timestamp="2010-04-20T14:54:01Z"/>
 <node id="702566593" lat="49.2205687" lon="17.6540467" user="Zubozrout" uid="123530" visible="true" version="1" changeset="4477856" timestamp="2010-04-20T14:54:01Z"/>
 <node id="702566596" lat="49.2205910" lon="17.6540668" user="Zubozrout" uid="123530" visible="true" version="1" changeset="4477856" timestamp="2010-04-20T14:54:01Z"/>
 <node id="702566598" lat="49.2206357" lon="17.6540621" user="Zubozrout" uid="123530" visible="true" version="1" changeset="4477856" timestamp="2010-04-20T14:54:01Z"/>
 <node id="1880756687" lat="49.2207013" lon="17.6540038" user="Datin" uid="115815" visible="true" version="1" changeset="12844502" timestamp="2012-08-24T12:51:42Z">
  <tag k="addr:conscriptionnumber" v="5174"/>
  <tag k="addr:country" v="CZ"/>
  <tag k="addr:housenumber" v="5174"/>
  <tag k="addr:street" v="Antonínova"/>
  <tag k="is_in" v="Zlín, Zlínský kraj, CZ"/>
  <tag k="source:addr" v="mvcr:adresa"/>
  <tag k="source:loc" v="cuzk:km"/>
 </node>
 <node id="736477649" lat="49.2207790" lon="17.6524360" user="Hansign" uid="208872" visible="true" version="1" changeset="4717251" timestamp="2010-05-16T13:45:10Z"/>
 <node id="736477658" lat="49.2207780" lon="17.6525400" user="Hansign" uid="208872" visible="true" version="1" changeset="4717251" timestamp="2010-05-16T13:45:11Z"/>
 <node id="736477737" lat="49.2207910" lon="17.6527730" user="Hansign" uid="208872" visible="true" version="1" changeset="4717251" timestamp="2010-05-16T13:45:12Z"/>
 <node id="736477761" lat="49.2207950" lon="17.6529940" user="Hansign" uid="208872" visible="true" version="1" changeset="4717251" timestamp="2010-05-16T13:45:12Z"/>
 <node id="736477765" lat="49.2207730" lon="17.6527750" user="Hansign" uid="208872" visible="true" version="1" changeset="4717251" timestamp="2010-05-16T13:45:12Z"/>
 <node id="736477823" lat="49.2207900" lon="17.6525540" user="Hansign" uid="208872" visible="true" version="1" changeset="4717251" timestamp="2010-05-16T13:45:13Z"/>
 <node id="736477862" lat="49.2208090" lon="17.6527500" user="Hansign" uid="208872" visible="true" version="1" changeset="4717251" timestamp="2010-05-16T13:45:14Z"/>
 <node id="736477890" lat="49.2208040" lon="17.6524780" user="Hansign" uid="208872" visible="true" version="1" changeset="4717251" timestamp="2010-05-16T13:45:14Z"/>
 <node id="736477904" lat="49.2207640" lon="17.6525400" user="Hansign" uid="208872" visible="true" version="1" changeset="4717251" timestamp="2010-05-16T13:45:15Z"/>
 <node id="830067383" lat="49.2207375" lon="17.6524570" user="Zubozrout" uid="123530" visible="true" version="1" changeset="5295058" timestamp="2010-07-23T11:59:11Z"/>
 <node id="830067408" lat="49.2207573" lon="17.6522360" user="Zubozrout" uid="123530" visible="true" version="1" changeset="5295058" timestamp="2010-07-23T11:59:11Z"/>
 <node id="830067421" lat="49.2203528" lon="17.6521724" user="Zubozrout" uid="123530" visible="true" version="1" changeset="5295058" timestamp="2010-07-23T11:59:12Z"/>
 <node id="830067472" lat="49.2205229" lon="17.6539804" user="Zubozrout" uid="123530" visible="true" version="1" changeset="5295058" timestamp="2010-07-23T11:59:13Z"/>
 <node id="830067481" lat="49.2207527" lon="17.6524714" user="Zubozrout" uid="123530" visible="true" version="1" changeset="5295058" timestamp="2010-07-23T11:59:13Z"/>
 <node id="866150171" lat="49.2204933" lon="17.6524728" user="alik" uid="134948" visible="true" version="1" changeset="5523885" timestamp="2010-08-18T07:10:37Z">
  <tag k="amenity" v="nightclub"/>
  <tag k="name" v="MUSIC LAND A"/>
  <tag k="source" v="knowledge"/>
 </node>
 <node id="903721732" lat="49.2206069" lon="17.6538816" user="alik" uid="134948" visible="true" version="1" changeset="5729896" timestamp="2010-09-09T06:19:59Z"/>
 <node id="903721736" lat="49.2205802" lon="17.6532678" user="alik" uid="134948" visible="true" version="1" changeset="5729896" timestamp="2010-09-09T06:19:59Z">
  <tag k="building" v="dormitory"/>
  <tag k="name" v="kolej Antonínova"/>
  <tag k="source" v="knowledge"/>
 </node>
 <node id="903721744" lat="49.2207050" lon="17.6538526" user="alik" uid="134948" visible="true" version="1" changeset="5729896" timestamp="2010-09-09T06:20:00Z"/>
 <node id="904803246" lat="49.2207342" lon="17.6539572" user="alik" uid="134948" visible="true" version="1" changeset="5738186" timestamp="2010-09-10T05:13:46Z">
  <tag k="amenity" v="restaurant"/>
  <tag k="name" v="Gebra"/>
  <tag k="source" v="survey"/>
 </node>
 <node id="1131129419" lat="49.2205111" lon="17.6522246" user="luke11" uid="400486" visible="true" version="2" changeset="7235533" timestamp="2011-02-09T12:24:05Z"/>
 <node id="830067505" lat="49.2205480" lon="17.6522824" user="luke11" uid="400486" visible="true" version="2" changeset="7235533" timestamp="2011-02-09T12:24:05Z"/>
 <node id="1504072121" lat="49.2207317" lon="17.6522417" user="flare" uid="367597" visible="true" version="1" changeset="9835973" timestamp="2011-11-15T16:06:01Z"/>
 <node id="446937860" lat="49.2208025" lon="17.6554340" user="Petr Stehlík" uid="135428" visible="true" version="2" changeset="1932519" timestamp="2009-07-25T10:51:43Z"/>
 <node id="446937862" lat="49.2207766" lon="17.6548733" user="Petr Stehlík" uid="135428" visible="true" version="1" changeset="1925155" timestamp="2009-07-24T13:57:08Z"/>
 <node id="446937864" lat="49.2208701" lon="17.6543986" user="Petr Stehlík" uid="135428" visible="true" version="1" changeset="1925155" timestamp="2009-07-24T13:57:08Z"/>
 <node id="446937865" lat="49.2208463" lon="17.6540895" user="Petr Stehlík" uid="135428" visible="true" version="1" changeset="1925155" timestamp="2009-07-24T13:57:08Z"/>
 <node id="459466002" lat="49.2208057" lon="17.6519196" user="zub" uid="29818" visible="true" version="1" changeset="2082134" timestamp="2009-08-09T08:41:31Z"/>
 <node id="736477745" lat="49.2208760" lon="17.6525150" user="Hansign" uid="208872" visible="true" version="1" changeset="4717251" timestamp="2010-05-16T13:45:12Z"/>
 <node id="736477810" lat="49.2209390" lon="17.6529490" user="Hansign" uid="208872" visible="true" version="1" changeset="4717251" timestamp="2010-05-16T13:45:13Z"/>
 <node id="830067451" lat="49.2197985" lon="17.6523444" user="Zubozrout" uid="123530" visible="true" version="1" changeset="5295058" timestamp="2010-07-23T11:59:12Z"/>
 <node id="830067463" lat="49.2208768" lon="17.6529109" user="Zubozrout" uid="123530" visible="true" version="1" changeset="5295058" timestamp="2010-07-23T11:59:13Z"/>
 <node id="830067488" lat="49.2208649" lon="17.6544251" user="Zubozrout" uid="123530" visible="true" version="1" changeset="5295058" timestamp="2010-07-23T11:59:13Z"/>
 <node id="830067495" lat="49.2202793" lon="17.6521909" user="Zubozrout" uid="123530" visible="true" version="1" changeset="5295058" timestamp="2010-07-23T11:59:14Z"/>
 <node id="830067532" lat="49.2208330" lon="17.6545867" user="Zubozrout" uid="123530" visible="true" version="1" changeset="5295058" timestamp="2010-07-23T11:59:14Z"/>
 <node id="830067536" lat="49.2208325" lon="17.6525505" user="Zubozrout" uid="123530" visible="true" version="1" changeset="5295058" timestamp="2010-07-23T11:59:15Z"/>
 <node id="830067550" lat="49.2207872" lon="17.6548197" user="Zubozrout" uid="123530" visible="true" version="1" changeset="5295058" timestamp="2010-07-23T11:59:15Z"/>
 <node id="830067558" lat="49.2200421" lon="17.6541339" user="Zubozrout" uid="123530" visible="true" version="1" changeset="5295058" timestamp="2010-07-23T11:59:15Z"/>
 <node id="1117681453" lat="49.2208487" lon="17.6541211" user="flare" uid="367597" visible="true" version="1" changeset="7067734" timestamp="2011-01-23T21:41:20Z"/>
 <node id="1131129406" lat="49.2205784" lon="17.6514338" user="luke11" uid="400486" visible="true" version="2" changeset="7235533" timestamp="2011-02-09T12:24:03Z"/>
 <node id="1131129415" lat="49.2205388" lon="17.6519791" user="luke11" uid="400486" visible="true" version="2" changeset="7235533" timestamp="2011-02-09T12:24:04Z"/>
 <node id="1131129423" lat="49.2205031" lon="17.6521216" user="luke11" uid="400486" visible="true" version="2" changeset="7235533" timestamp="2011-02-09T12:24:04Z"/>
 <node id="1131129444" lat="49.2204720" lon="17.6514684" user="luke11" uid="400486" visible="true" version="2" changeset="7235533" timestamp="2011-02-09T12:24:04Z"/>
 <node id="1436218267" lat="49.2208467" lon="17.6517501" user="Zubozrout" uid="123530" visible="true" version="1" changeset="9329816" timestamp="2011-09-18T07:47:42Z"/>
 <node id="1504072117" lat="49.2206393" lon="17.6518002" user="flare" uid="367597" visible="true" version="1" changeset="9835973" timestamp="2011-11-15T16:06:01Z"/>
 <way id="76701254" user="flare" uid="367597" visible="true" version="2" changeset="7416840" timestamp="2011-02-28T00:50:13Z">
  <nd ref="702566559"/>
  <nd ref="702566593"/>
  <nd ref="702566596"/>
  <nd ref="702566598"/>
  <nd ref="702566591"/>
  <nd ref="702566589"/>
  <nd ref="702566587"/>
  <nd ref="702566585"/>
  <nd ref="702566583"/>
  <nd ref="702566581"/>
  <nd ref="702566579"/>
  <nd ref="702566576"/>
  <nd ref="702566573"/>
  <nd ref="702566571"/>
  <nd ref="702566569"/>
  <nd ref="903721744"/>
  <nd ref="903721732"/>
  <nd ref="702566559"/>
  <tag k="building" v="yes"/>
  <tag k="building:levels" v="6"/>
 </way>
 <way id="38041280" user="Zubozrout" uid="123530" visible="true" version="10" changeset="9563960" timestamp="2011-10-15T14:33:04Z">
  <nd ref="446937860"/>
  <nd ref="446937862"/>
  <nd ref="830067550"/>
  <nd ref="830067532"/>
  <nd ref="830067488"/>
  <nd ref="446937864"/>
  <nd ref="1117681453"/>
  <nd ref="446937865"/>
  <nd ref="459466006"/>
  <nd ref="447026405"/>
  <nd ref="459466001"/>
  <nd ref="830067383"/>
  <nd ref="830067408"/>
  <nd ref="459466002"/>
  <nd ref="1436218267"/>
  <tag k="highway" v="residential"/>
  <tag k="lit" v="yes"/>
  <tag k="name" v="Antonínova"/>
 </way>
 <way id="69244381" user="Zubozrout" uid="123530" visible="true" version="1" changeset="5295058" timestamp="2010-07-23T11:59:16Z">
  <nd ref="830067495"/>
  <nd ref="830067451"/>
  <nd ref="830067558"/>
  <nd ref="830067472"/>
  <nd ref="830067495"/>
  <tag k="leisure" v="pitch"/>
  <tag k="sport" v="multi"/>
 </way>
 <way id="137120989" user="flare" uid="367597" visible="true" version="1" changeset="9835973" timestamp="2011-11-15T16:06:08Z">
  <nd ref="1131129406"/>
  <nd ref="1504072117"/>
  <nd ref="1504072121"/>
  <tag k="highway" v="path"/>
  <tag k="source" v="survey"/>
 </way>
 <way id="59384220" user="Zubozrout" uid="123530" visible="true" version="2" changeset="5295058" timestamp="2010-07-23T11:59:19Z">
  <nd ref="736477810"/>
  <nd ref="736477761"/>
  <nd ref="736477765"/>
  <nd ref="736477737"/>
  <nd ref="736477862"/>
  <nd ref="736477823"/>
  <nd ref="736477658"/>
  <nd ref="736477904"/>
  <nd ref="830067481"/>
  <nd ref="736477649"/>
  <nd ref="736477890"/>
  <nd ref="736477745"/>
  <nd ref="736477810"/>
  <tag k="amenity" v="parking"/>
  <tag k="parking" v="surface"/>
  <tag k="source" v="cuzk:km"/>
 </way>
 <way id="97704465" user="luke11" uid="400486" visible="true" version="1" changeset="7156349" timestamp="2011-02-01T16:34:21Z">
  <nd ref="1131129406"/>
  <nd ref="1131129444"/>
  <nd ref="1131129415"/>
  <nd ref="1131129423"/>
  <nd ref="1131129419"/>
  <nd ref="830067505"/>
  <tag k="highway" v="footway"/>
 </way>
 <way id="76701250" user="flare" uid="367597" visible="true" version="2" changeset="7416840" timestamp="2011-02-28T00:50:06Z">
  <nd ref="903721744"/>
  <nd ref="702566525"/>
  <nd ref="702566527"/>
  <nd ref="702566529"/>
  <nd ref="702566526"/>
  <nd ref="702566524"/>
  <nd ref="702566521"/>
  <nd ref="702566520"/>
  <nd ref="702566523"/>
  <nd ref="702566522"/>
  <nd ref="702566512"/>
  <nd ref="702566510"/>
  <nd ref="702566514"/>
  <nd ref="903721732"/>
  <nd ref="903721744"/>
  <tag k="building" v="yes"/>
  <tag k="building:levels" v="5"/>
 </way>
 <way id="69244399" user="Zubozrout" uid="123530" visible="true" version="1" changeset="5295058" timestamp="2010-07-23T11:59:18Z">
  <nd ref="830067383"/>
  <nd ref="830067481"/>
  <nd ref="830067536"/>
  <nd ref="830067463"/>
  <tag k="highway" v="service"/>
  <tag k="service" v="parking_aisle"/>
 </way>
 <way id="69244387" user="flare" uid="367597" visible="true" version="2" changeset="9835973" timestamp="2011-11-15T16:06:20Z">
  <nd ref="830067408"/>
  <nd ref="1504072121"/>
  <nd ref="830067505"/>
  <nd ref="830067421"/>
  <tag k="highway" v="service"/>
  <tag k="service" v="driveway"/>
 </way>
</osm>
