<?xml version="1.0" encoding="UTF-8"?>
<osm version="0.6" generator="CGImap 0.1.0" copyright="OpenStreetMap and contributors" attribution="http://www.openstreetmap.org/copyright" license="http://opendatacommons.org/licenses/odbl/1-0/">
 <bounds minlat="49.2125900" minlon="17.6173600" maxlat="49.2142100" maxlon="17.6212000"/>
 <node id="1880655885" lat="49.2137125" lon="17.6194550" user="Datin" uid="115815" visible="true" version="1" changeset="12843766" timestamp="2012-08-24T11:24:17Z">
  <tag k="addr:conscriptionnumber" v="299"/>
  <tag k="addr:country" v="CZ"/>
  <tag k="addr:housenumber" v="299"/>
  <tag k="addr:street" v="Třída Tomáše Bati"/>
  <tag k="is_in" v="Louky, Zlín, Zlínský kraj, CZ"/>
  <tag k="source:addr" v="mvcr:adresa"/>
  <tag k="source:loc" v="cuzk:km"/>
 </node>
 <node id="1880655888" lat="49.2140038" lon="17.6209600" user="Datin" uid="115815" visible="true" version="1" changeset="12843766" timestamp="2012-08-24T11:24:17Z">
  <tag k="addr:conscriptionnumber" v="300"/>
  <tag k="addr:country" v="CZ"/>
  <tag k="addr:housenumber" v="300"/>
  <tag k="addr:street" v="Šternberská"/>
  <tag k="is_in" v="Louky, Zlín, Zlínský kraj, CZ"/>
  <tag k="source:addr" v="mvcr:adresa"/>
  <tag k="source:loc" v="cuzk:km"/>
 </node>
 <node id="588834008" lat="49.2141238" lon="17.6196180" user="Hansign" uid="208872" visible="true" version="3" changeset="4717251" timestamp="2010-05-16T13:45:26Z"/>
 <node id="736477689" lat="49.2130290" lon="17.6177113" user="Hansign" uid="208872" visible="true" version="1" changeset="4717251" timestamp="2010-05-16T13:45:11Z"/>
 <node id="736477721" lat="49.2134613" lon="17.6177059" user="Hansign" uid="208872" visible="true" version="1" changeset="4717251" timestamp="2010-05-16T13:45:12Z"/>
 <node id="736477741" lat="49.2131318" lon="17.6176082" user="Hansign" uid="208872" visible="true" version="1" changeset="4717251" timestamp="2010-05-16T13:45:12Z"/>
 <node id="736477782" lat="49.2133231" lon="17.6183622" user="Hansign" uid="208872" visible="true" version="1" changeset="4717251" timestamp="2010-05-16T13:45:13Z"/>
 <node id="736477801" lat="49.2133763" lon="17.6177710" user="Hansign" uid="208872" visible="true" version="1" changeset="4717251" timestamp="2010-05-16T13:45:13Z"/>
 <node id="736477868" lat="49.2134471" lon="17.6182320" user="Hansign" uid="208872" visible="true" version="1" changeset="4717251" timestamp="2010-05-16T13:45:14Z"/>
 <node id="775539031" lat="49.2129230" lon="17.6191360" user="Hansign" uid="208872" visible="true" version="1" changeset="5014931" timestamp="2010-06-18T09:12:12Z"/>
 <node id="775539033" lat="49.2130600" lon="17.6186900" user="Hansign" uid="208872" visible="true" version="1" changeset="5014931" timestamp="2010-06-18T09:12:12Z"/>
 <node id="775539041" lat="49.2132928" lon="17.6210629" user="Hansign" uid="208872" visible="true" version="1" changeset="5014931" timestamp="2010-06-18T09:12:12Z"/>
 <node id="775539049" lat="49.2125990" lon="17.6179230" user="Hansign" uid="208872" visible="true" version="1" changeset="5014931" timestamp="2010-06-18T09:12:12Z"/>
 <node id="775539056" lat="49.2142030" lon="17.6199190" user="Hansign" uid="208872" visible="true" version="1" changeset="5014931" timestamp="2010-06-18T09:12:12Z"/>
 <node id="775539060" lat="49.2131160" lon="17.6207580" user="Hansign" uid="208872" visible="true" version="1" changeset="5014931" timestamp="2010-06-18T09:12:13Z"/>
 <node id="775539077" lat="49.2132390" lon="17.6185000" user="Hansign" uid="208872" visible="true" version="1" changeset="5014931" timestamp="2010-06-18T09:12:14Z"/>
 <node id="775539082" lat="49.2126600" lon="17.6188780" user="Hansign" uid="208872" visible="true" version="1" changeset="5014931" timestamp="2010-06-18T09:12:14Z"/>
 <node id="775539092" lat="49.2132530" lon="17.6182180" user="Hansign" uid="208872" visible="true" version="1" changeset="5014931" timestamp="2010-06-18T09:12:14Z"/>
 <node id="775539095" lat="49.2126810" lon="17.6202840" user="Hansign" uid="208872" visible="true" version="1" changeset="5014931" timestamp="2010-06-18T09:12:14Z"/>
 <node id="775539139" lat="49.2140640" lon="17.6200940" user="Hansign" uid="208872" visible="true" version="1" changeset="5014931" timestamp="2010-06-18T09:12:16Z"/>
 <node id="775539152" lat="49.2126040" lon="17.6191610" user="Hansign" uid="208872" visible="true" version="1" changeset="5014931" timestamp="2010-06-18T09:12:17Z"/>
 <node id="775539156" lat="49.2137360" lon="17.6202380" user="Hansign" uid="208872" visible="true" version="1" changeset="5014931" timestamp="2010-06-18T09:12:18Z"/>
 <node id="775539159" lat="49.2126260" lon="17.6178330" user="Hansign" uid="208872" visible="true" version="1" changeset="5014931" timestamp="2010-06-18T09:12:18Z"/>
 <node id="775539176" lat="49.2138510" lon="17.6202960" user="Hansign" uid="208872" visible="true" version="1" changeset="5014931" timestamp="2010-06-18T09:12:19Z"/>
 <node id="775539187" lat="49.2137590" lon="17.6201080" user="Hansign" uid="208872" visible="true" version="1" changeset="5014931" timestamp="2010-06-18T09:12:19Z"/>
 <node id="775539192" lat="49.2135640" lon="17.6206000" user="Hansign" uid="208872" visible="true" version="1" changeset="5014931" timestamp="2010-06-18T09:12:19Z"/>
 <node id="775539201" lat="49.2139800" lon="17.6201590" user="Hansign" uid="208872" visible="true" version="1" changeset="5014931" timestamp="2010-06-18T09:12:19Z"/>
 <node id="775539209" lat="49.2132890" lon="17.6193040" user="Hansign" uid="208872" visible="true" version="1" changeset="5014931" timestamp="2010-06-18T09:12:20Z"/>
 <node id="775539219" lat="49.2126950" lon="17.6190890" user="Hansign" uid="208872" visible="true" version="1" changeset="5014931" timestamp="2010-06-18T09:12:20Z"/>
 <node id="775539225" lat="49.2126360" lon="17.6209740" user="Hansign" uid="208872" visible="true" version="1" changeset="5014931" timestamp="2010-06-18T09:12:21Z"/>
 <node id="775539234" lat="49.2139760" lon="17.6201890" user="Hansign" uid="208872" visible="true" version="1" changeset="5014931" timestamp="2010-06-18T09:12:21Z"/>
 <node id="775539256" lat="49.2137224" lon="17.6206203" user="Hansign" uid="208872" visible="true" version="1" changeset="5014931" timestamp="2010-06-18T09:12:22Z"/>
 <node id="775539259" lat="49.2141060" lon="17.6200460" user="Hansign" uid="208872" visible="true" version="1" changeset="5014931" timestamp="2010-06-18T09:12:22Z"/>
 <node id="775539268" lat="49.2136080" lon="17.6198760" user="Hansign" uid="208872" visible="true" version="1" changeset="5014931" timestamp="2010-06-18T09:12:23Z"/>
 <node id="775539281" lat="49.2131040" lon="17.6187940" user="Hansign" uid="208872" visible="true" version="1" changeset="5014931" timestamp="2010-06-18T09:12:24Z"/>
 <node id="775539285" lat="49.2135790" lon="17.6204090" user="Hansign" uid="208872" visible="true" version="1" changeset="5014931" timestamp="2010-06-18T09:12:24Z"/>
 <node id="775539291" lat="49.2126290" lon="17.6179840" user="Hansign" uid="208872" visible="true" version="1" changeset="5014931" timestamp="2010-06-18T09:12:24Z"/>
 <node id="775539297" lat="49.2138910" lon="17.6202540" user="Hansign" uid="208872" visible="true" version="1" changeset="5014931" timestamp="2010-06-18T09:12:24Z"/>
 <node id="775539302" lat="49.2132200" lon="17.6209780" user="Hansign" uid="208872" visible="true" version="1" changeset="5014931" timestamp="2010-06-18T09:12:25Z"/>
 <node id="775539306" lat="49.2132175" lon="17.6182567" user="Hansign" uid="208872" visible="true" version="1" changeset="5014931" timestamp="2010-06-18T09:12:25Z"/>
 <node id="775539321" lat="49.2138350" lon="17.6197780" user="Hansign" uid="208872" visible="true" version="1" changeset="5014931" timestamp="2010-06-18T09:12:25Z"/>
 <node id="775539325" lat="49.2126400" lon="17.6189000" user="Hansign" uid="208872" visible="true" version="1" changeset="5014931" timestamp="2010-06-18T09:12:26Z"/>
 <node id="775539338" lat="49.2126140" lon="17.6203580" user="Hansign" uid="208872" visible="true" version="1" changeset="5014931" timestamp="2010-06-18T09:12:26Z"/>
 <node id="775539367" lat="49.2126990" lon="17.6196740" user="Hansign" uid="208872" visible="true" version="1" changeset="5014931" timestamp="2010-06-18T09:12:27Z"/>
 <node id="775539388" lat="49.2134490" lon="17.6183060" user="Hansign" uid="208872" visible="true" version="1" changeset="5014931" timestamp="2010-06-18T09:12:29Z"/>
 <node id="775539391" lat="49.2126110" lon="17.6187730" user="Hansign" uid="208872" visible="true" version="1" changeset="5014931" timestamp="2010-06-18T09:12:29Z"/>
 <node id="775539394" lat="49.2137100" lon="17.6201910" user="Hansign" uid="208872" visible="true" version="1" changeset="5014931" timestamp="2010-06-18T09:12:29Z"/>
 <node id="775539397" lat="49.2129390" lon="17.6180410" user="Hansign" uid="208872" visible="true" version="1" changeset="5014931" timestamp="2010-06-18T09:12:29Z"/>
 <node id="775539400" lat="49.2129860" lon="17.6193590" user="Hansign" uid="208872" visible="true" version="1" changeset="5014931" timestamp="2010-06-18T09:12:29Z"/>
 <node id="775539413" lat="49.2138880" lon="17.6202840" user="Hansign" uid="208872" visible="true" version="1" changeset="5014931" timestamp="2010-06-18T09:12:30Z"/>
 <node id="775539419" lat="49.2127050" lon="17.6180090" user="Hansign" uid="208872" visible="true" version="1" changeset="5014931" timestamp="2010-06-18T09:12:30Z"/>
 <node id="775539423" lat="49.2137650" lon="17.6201250" user="Hansign" uid="208872" visible="true" version="1" changeset="5014931" timestamp="2010-06-18T09:12:30Z"/>
 <node id="775539439" lat="49.2140190" lon="17.6201390" user="Hansign" uid="208872" visible="true" version="1" changeset="5014931" timestamp="2010-06-18T09:12:31Z"/>
 <node id="775539443" lat="49.2132730" lon="17.6193230" user="Hansign" uid="208872" visible="true" version="1" changeset="5014931" timestamp="2010-06-18T09:12:31Z"/>
 <node id="775539449" lat="49.2125950" lon="17.6189250" user="Hansign" uid="208872" visible="true" version="1" changeset="5014931" timestamp="2010-06-18T09:12:31Z"/>
 <node id="775539454" lat="49.2127130" lon="17.6191360" user="Hansign" uid="208872" visible="true" version="1" changeset="5014931" timestamp="2010-06-18T09:12:31Z"/>
 <node id="775539455" lat="49.2131030" lon="17.6175660" user="Hansign" uid="208872" visible="true" version="1" changeset="5014931" timestamp="2010-06-18T09:12:31Z"/>
 <node id="775539460" lat="49.2129980" lon="17.6209540" user="Hansign" uid="208872" visible="true" version="1" changeset="5014931" timestamp="2010-06-18T09:12:32Z"/>
 <node id="775539466" lat="49.2125902" lon="17.6174096" user="Hansign" uid="208872" visible="true" version="1" changeset="5014931" timestamp="2010-06-18T09:12:32Z"/>
 <node id="775539472" lat="49.2138060" lon="17.6203700" user="Hansign" uid="208872" visible="true" version="1" changeset="5014931" timestamp="2010-06-18T09:12:32Z"/>
 <node id="775539490" lat="49.2135420" lon="17.6202422" user="Hansign" uid="208872" visible="true" version="1" changeset="5014931" timestamp="2010-06-18T09:12:33Z"/>
 <node id="775539492" lat="49.2141100" lon="17.6200180" user="Hansign" uid="208872" visible="true" version="1" changeset="5014931" timestamp="2010-06-18T09:12:33Z"/>
 <node id="775539503" lat="49.2136550" lon="17.6199750" user="Hansign" uid="208872" visible="true" version="1" changeset="5014931" timestamp="2010-06-18T09:12:33Z"/>
 <node id="775539520" lat="49.2130710" lon="17.6188310" user="Hansign" uid="208872" visible="true" version="1" changeset="5014931" timestamp="2010-06-18T09:12:34Z"/>
 <node id="775539530" lat="49.2126710" lon="17.6179360" user="Hansign" uid="208872" visible="true" version="1" changeset="5014931" timestamp="2010-06-18T09:12:34Z"/>
 <node id="775539534" lat="49.2139340" lon="17.6202360" user="Hansign" uid="208872" visible="true" version="1" changeset="5014931" timestamp="2010-06-18T09:12:34Z"/>
 <node id="775539547" lat="49.2141560" lon="17.6199690" user="Hansign" uid="208872" visible="true" version="1" changeset="5014931" timestamp="2010-06-18T09:12:34Z"/>
 <node id="775539553" lat="49.2130285" lon="17.6191623" user="Hansign" uid="208872" visible="true" version="1" changeset="5014931" timestamp="2010-06-18T09:12:35Z"/>
 <node id="775539559" lat="49.2138250" lon="17.6197590" user="Hansign" uid="208872" visible="true" version="1" changeset="5014931" timestamp="2010-06-18T09:12:35Z"/>
 <node id="775539563" lat="49.2137891" lon="17.6207996" user="Hansign" uid="208872" visible="true" version="1" changeset="5014931" timestamp="2010-06-18T09:12:35Z"/>
 <node id="775539572" lat="49.2133530" lon="17.6194380" user="Hansign" uid="208872" visible="true" version="1" changeset="5014931" timestamp="2010-06-18T09:12:35Z"/>
 <node id="775539578" lat="49.2129330" lon="17.6210260" user="Hansign" uid="208872" visible="true" version="1" changeset="5014931" timestamp="2010-06-18T09:12:35Z"/>
 <node id="775539590" lat="49.2127180" lon="17.6193650" user="Hansign" uid="208872" visible="true" version="1" changeset="5014931" timestamp="2010-06-18T09:12:35Z"/>
 <node id="775539591" lat="49.2130890" lon="17.6178730" user="Hansign" uid="208872" visible="true" version="1" changeset="5014931" timestamp="2010-06-18T09:12:36Z"/>
 <node id="775539601" lat="49.2126430" lon="17.6178710" user="Hansign" uid="208872" visible="true" version="1" changeset="5014931" timestamp="2010-06-18T09:12:36Z"/>
 <node id="775539611" lat="49.2131700" lon="17.6206950" user="Hansign" uid="208872" visible="true" version="1" changeset="5014931" timestamp="2010-06-18T09:12:36Z"/>
 <node id="775539616" lat="49.2133062" lon="17.6184545" user="Hansign" uid="208872" visible="true" version="1" changeset="5014931" timestamp="2010-06-18T09:12:36Z"/>
 <node id="775539636" lat="49.2126160" lon="17.6187790" user="Hansign" uid="208872" visible="true" version="1" changeset="5014931" timestamp="2010-06-18T09:12:37Z"/>
 <node id="775539641" lat="49.2135550" lon="17.6203600" user="Hansign" uid="208872" visible="true" version="1" changeset="5014931" timestamp="2010-06-18T09:12:37Z"/>
 <node id="775539645" lat="49.2130990" lon="17.6183860" user="Hansign" uid="208872" visible="true" version="1" changeset="5014931" timestamp="2010-06-18T09:12:37Z"/>
 <node id="775539659" lat="49.2137385" lon="17.6189265" user="Hansign" uid="208872" visible="true" version="1" changeset="5014931" timestamp="2010-06-18T09:12:38Z"/>
 <node id="775539674" lat="49.2137150" lon="17.6201740" user="Hansign" uid="208872" visible="true" version="1" changeset="5014931" timestamp="2010-06-18T09:12:38Z"/>
 <node id="775539680" lat="49.2131582" lon="17.6183215" user="Hansign" uid="208872" visible="true" version="1" changeset="5014931" timestamp="2010-06-18T09:12:38Z"/>
 <node id="775539686" lat="49.2140260" lon="17.6201100" user="Hansign" uid="208872" visible="true" version="1" changeset="5014931" timestamp="2010-06-18T09:12:38Z"/>
 <node id="775539689" lat="49.2129637" lon="17.6177211" user="Hansign" uid="208872" visible="true" version="1" changeset="5014931" timestamp="2010-06-18T09:12:38Z"/>
 <node id="775539692" lat="49.2126831" lon="17.6174595" user="Hansign" uid="208872" visible="true" version="1" changeset="5014931" timestamp="2010-06-18T09:12:39Z"/>
 <node id="775539696" lat="49.2133360" lon="17.6194560" user="Hansign" uid="208872" visible="true" version="1" changeset="5014931" timestamp="2010-06-18T09:12:39Z"/>
 <node id="775539705" lat="49.2129043" lon="17.6177871" user="Hansign" uid="208872" visible="true" version="1" changeset="5014931" timestamp="2010-06-18T09:12:39Z"/>
 <node id="775539708" lat="49.2126450" lon="17.6192060" user="Hansign" uid="208872" visible="true" version="1" changeset="5014931" timestamp="2010-06-18T09:12:39Z"/>
 <node id="775539710" lat="49.2130250" lon="17.6173980" user="Hansign" uid="208872" visible="true" version="1" changeset="5014931" timestamp="2010-06-18T09:12:39Z"/>
 <node id="775539727" lat="49.2138590" lon="17.6203150" user="Hansign" uid="208872" visible="true" version="1" changeset="5014931" timestamp="2010-06-18T09:12:39Z"/>
 <node id="775539731" lat="49.2142006" lon="17.6175495" user="Hansign" uid="208872" visible="true" version="1" changeset="5014931" timestamp="2010-06-18T09:12:39Z"/>
 <node id="775539740" lat="49.2141100" lon="17.6197250" user="Hansign" uid="208872" visible="true" version="1" changeset="5014931" timestamp="2010-06-18T09:12:40Z"/>
 <node id="775539753" lat="49.2141540" lon="17.6199960" user="Hansign" uid="208872" visible="true" version="1" changeset="5014931" timestamp="2010-06-18T09:12:40Z"/>
 <node id="775539756" lat="49.2129998" lon="17.6179729" user="Hansign" uid="208872" visible="true" version="1" changeset="5014931" timestamp="2010-06-18T09:12:41Z"/>
 <node id="775539768" lat="49.2126130" lon="17.6184710" user="Hansign" uid="208872" visible="true" version="1" changeset="5014931" timestamp="2010-06-18T09:12:41Z"/>
 <node id="775539777" lat="49.2127160" lon="17.6190650" user="Hansign" uid="208872" visible="true" version="1" changeset="5014931" timestamp="2010-06-18T09:12:41Z"/>
 <node id="775539794" lat="49.2139350" lon="17.6202060" user="Hansign" uid="208872" visible="true" version="1" changeset="5014931" timestamp="2010-06-18T09:12:42Z"/>
 <node id="775539810" lat="49.2141990" lon="17.6199480" user="Hansign" uid="208872" visible="true" version="1" changeset="5014931" timestamp="2010-06-18T09:12:42Z"/>
 <node id="775539820" lat="49.2140250" lon="17.6195430" user="Hansign" uid="208872" visible="true" version="1" changeset="5014931" timestamp="2010-06-18T09:12:42Z"/>
 <node id="775539825" lat="49.2140710" lon="17.6200640" user="Hansign" uid="208872" visible="true" version="1" changeset="5014931" timestamp="2010-06-18T09:12:42Z"/>
 <node id="775539829" lat="49.2130537" lon="17.6179125" user="Hansign" uid="208872" visible="true" version="1" changeset="5014931" timestamp="2010-06-18T09:12:42Z"/>
 <node id="775539840" lat="49.2135760" lon="17.6199130" user="Hansign" uid="208872" visible="true" version="1" changeset="5014931" timestamp="2010-06-18T09:12:43Z"/>
 <node id="775539846" lat="49.2126710" lon="17.6190900" user="Hansign" uid="208872" visible="true" version="1" changeset="5014931" timestamp="2010-06-18T09:12:43Z"/>
 <node id="800414774" lat="49.2141608" lon="17.6210449" user="Zubozrout" uid="123530" visible="true" version="1" changeset="5132602" timestamp="2010-07-04T12:49:41Z"/>
 <node id="800414801" lat="49.2141703" lon="17.6210233" user="Zubozrout" uid="123530" visible="true" version="1" changeset="5132602" timestamp="2010-07-04T12:49:42Z"/>
 <node id="800414822" lat="49.2141053" lon="17.6208362" user="Zubozrout" uid="123530" visible="true" version="1" changeset="5132602" timestamp="2010-07-04T12:49:43Z"/>
 <node id="800414898" lat="49.2136702" lon="17.6210628" user="Zubozrout" uid="123530" visible="true" version="1" changeset="5132602" timestamp="2010-07-04T12:49:45Z"/>
 <node id="800414922" lat="49.2141018" lon="17.6207700" user="Zubozrout" uid="123530" visible="true" version="1" changeset="5132602" timestamp="2010-07-04T12:49:46Z"/>
 <node id="800415053" lat="49.2141114" lon="17.6207769" user="Zubozrout" uid="123530" visible="true" version="1" changeset="5132602" timestamp="2010-07-04T12:49:51Z"/>
 <node id="800415162" lat="49.2140959" lon="17.6207705" user="Zubozrout" uid="123530" visible="true" version="1" changeset="5132602" timestamp="2010-07-04T12:49:55Z"/>
 <node id="800415305" lat="49.2141071" lon="17.6207725" user="Zubozrout" uid="123530" visible="true" version="1" changeset="5132602" timestamp="2010-07-04T12:50:00Z"/>
 <node id="800415465" lat="49.2138656" lon="17.6211475" user="Zubozrout" uid="123530" visible="true" version="1" changeset="5132602" timestamp="2010-07-04T12:50:06Z"/>
 <node id="800415483" lat="49.2141602" lon="17.6209754" user="Zubozrout" uid="123530" visible="true" version="1" changeset="5132602" timestamp="2010-07-04T12:50:07Z"/>
 <node id="800415559" lat="49.2138133" lon="17.6209298" user="Zubozrout" uid="123530" visible="true" version="1" changeset="5132602" timestamp="2010-07-04T12:50:10Z"/>
 <node id="800415573" lat="49.2141696" lon="17.6210146" user="Zubozrout" uid="123530" visible="true" version="1" changeset="5132602" timestamp="2010-07-04T12:50:11Z"/>
 <node id="800415659" lat="49.2141149" lon="17.6207845" user="Zubozrout" uid="123530" visible="true" version="1" changeset="5132602" timestamp="2010-07-04T12:50:14Z"/>
 <node id="800415666" lat="49.2139802" lon="17.6211468" user="Zubozrout" uid="123530" visible="true" version="1" changeset="5132602" timestamp="2010-07-04T12:50:14Z"/>
 <node id="800415804" lat="49.2141247" lon="17.6208253" user="Zubozrout" uid="123530" visible="true" version="1" changeset="5132602" timestamp="2010-07-04T12:50:19Z"/>
 <node id="800415832" lat="49.2139667" lon="17.6210906" user="Zubozrout" uid="123530" visible="true" version="1" changeset="5132602" timestamp="2010-07-04T12:50:19Z"/>
 <node id="800415864" lat="49.2141413" lon="17.6209860" user="Zubozrout" uid="123530" visible="true" version="1" changeset="5132602" timestamp="2010-07-04T12:50:20Z"/>
 <node id="800415901" lat="49.2137275" lon="17.6210303" user="Zubozrout" uid="123530" visible="true" version="1" changeset="5132602" timestamp="2010-07-04T12:50:22Z"/>
 <node id="800415978" lat="49.2141687" lon="17.6210343" user="Zubozrout" uid="123530" visible="true" version="1" changeset="5132602" timestamp="2010-07-04T12:50:25Z"/>
 <node id="800416008" lat="49.2141654" lon="17.6210412" user="Zubozrout" uid="123530" visible="true" version="1" changeset="5132602" timestamp="2010-07-04T12:50:26Z"/>
 <node id="907890806" lat="49.2141335" lon="17.6204542" user="Zubozrout" uid="123530" visible="true" version="1" changeset="5756785" timestamp="2010-09-12T08:28:45Z"/>
 <node id="952937277" lat="49.2140934" lon="17.6175915" user="pavel" uid="1066" visible="true" version="1" changeset="6062166" timestamp="2010-10-16T23:17:13Z"/>
 <node id="1295170880" lat="49.2133228" lon="17.6178981" user="flare" uid="367597" visible="true" version="1" changeset="8208936" timestamp="2011-05-21T18:11:05Z"/>
 <node id="1295171441" lat="49.2134429" lon="17.6177771" user="flare" uid="367597" visible="true" version="1" changeset="8208936" timestamp="2011-05-21T18:11:24Z"/>
 <node id="1295172055" lat="49.2141028" lon="17.6195729" user="flare" uid="367597" visible="true" version="1" changeset="8208936" timestamp="2011-05-21T18:11:39Z"/>
 <node id="1332795717" lat="49.2140828" lon="17.6196625" user="flare" uid="367597" visible="true" version="1" changeset="8499581" timestamp="2011-06-20T21:43:47Z">
  <tag k="barrier" v="gate"/>
  <tag k="source" v="survey"/>
 </node>
 <node id="75068644" lat="49.2147005" lon="17.6198814" user="hanoj" uid="4788" visible="true" version="3" changeset="922089" timestamp="2009-04-24T02:04:10Z">
  <tag k="created_by" v="shpupload"/>
  <tag k="source" v="HELP SERVICE - REMOTE SENSING spol. s r.o. http://www.bnhelp.cz"/>
 </node>
 <node id="588833980" lat="49.2129726" lon="17.6171462" user="Hansign" uid="208872" visible="true" version="2" changeset="4717251" timestamp="2010-05-16T13:45:22Z"/>
 <node id="588862534" lat="49.2144014" lon="17.6201854" user="Hansign" uid="208872" visible="true" version="2" changeset="4717251" timestamp="2010-05-16T13:45:21Z"/>
 <node id="701018683" lat="49.2146553" lon="17.6174777" user="Hansign" uid="208872" visible="true" version="2" changeset="5014931" timestamp="2010-06-18T09:12:57Z"/>
 <node id="736477648" lat="49.2129794" lon="17.6172774" user="Hansign" uid="208872" visible="true" version="1" changeset="4717251" timestamp="2010-05-16T13:45:10Z"/>
 <node id="736477665" lat="49.2142515" lon="17.6199841" user="Hansign" uid="208872" visible="true" version="1" changeset="4717251" timestamp="2010-05-16T13:45:11Z"/>
 <node id="736477800" lat="49.2130999" lon="17.6171526" user="Hansign" uid="208872" visible="true" version="1" changeset="4717251" timestamp="2010-05-16T13:45:13Z"/>
 <node id="736477910" lat="49.2144180" lon="17.6197671" user="Hansign" uid="208872" visible="true" version="1" changeset="4717251" timestamp="2010-05-16T13:45:15Z"/>
 <node id="775539100" lat="49.2124860" lon="17.6166930" user="Hansign" uid="208872" visible="true" version="1" changeset="5014931" timestamp="2010-06-18T09:12:14Z"/>
 <node id="775539113" lat="49.2125380" lon="17.6210700" user="Hansign" uid="208872" visible="true" version="1" changeset="5014931" timestamp="2010-06-18T09:12:15Z"/>
 <node id="775539150" lat="49.2121394" lon="17.6180663" user="Hansign" uid="208872" visible="true" version="1" changeset="5014931" timestamp="2010-06-18T09:12:17Z"/>
 <node id="775539168" lat="49.2126350" lon="17.6165680" user="Hansign" uid="208872" visible="true" version="1" changeset="5014931" timestamp="2010-06-18T09:12:18Z"/>
 <node id="775539229" lat="49.2123680" lon="17.6169390" user="Hansign" uid="208872" visible="true" version="1" changeset="5014931" timestamp="2010-06-18T09:12:21Z"/>
 <node id="775539248" lat="49.2123452" lon="17.6185315" user="Hansign" uid="208872" visible="true" version="1" changeset="5014931" timestamp="2010-06-18T09:12:22Z"/>
 <node id="775539257" lat="49.2125210" lon="17.6187150" user="Hansign" uid="208872" visible="true" version="1" changeset="5014931" timestamp="2010-06-18T09:12:22Z"/>
 <node id="775539329" lat="49.2127670" lon="17.6171429" user="Hansign" uid="208872" visible="true" version="1" changeset="5014931" timestamp="2010-06-18T09:12:26Z"/>
 <node id="775539337" lat="49.2125887" lon="17.6174855" user="Hansign" uid="208872" visible="true" version="1" changeset="5014931" timestamp="2010-06-18T09:12:26Z"/>
 <node id="775539352" lat="49.2127174" lon="17.6214793" user="Hansign" uid="208872" visible="true" version="1" changeset="5014931" timestamp="2010-06-18T09:12:27Z"/>
 <node id="775539359" lat="49.2128562" lon="17.6170425" user="Hansign" uid="208872" visible="true" version="1" changeset="5014931" timestamp="2010-06-18T09:12:27Z"/>
 <node id="775539406" lat="49.2125480" lon="17.6166630" user="Hansign" uid="208872" visible="true" version="1" changeset="5014931" timestamp="2010-06-18T09:12:30Z"/>
 <node id="775539416" lat="49.2142336" lon="17.6175857" user="Hansign" uid="208872" visible="true" version="1" changeset="5014931" timestamp="2010-06-18T09:12:30Z"/>
 <node id="775539426" lat="49.2127609" lon="17.6172723" user="Hansign" uid="208872" visible="true" version="1" changeset="5014931" timestamp="2010-06-18T09:12:30Z"/>
 <node id="775539429" lat="49.2125359" lon="17.6196845" user="Hansign" uid="208872" visible="true" version="1" changeset="5014931" timestamp="2010-06-18T09:12:30Z"/>
 <node id="775539447" lat="49.2124509" lon="17.6179478" user="Hansign" uid="208872" visible="true" version="1" changeset="5014931" timestamp="2010-06-18T09:12:31Z"/>
 <node id="775539491" lat="49.2125700" lon="17.6188180" user="Hansign" uid="208872" visible="true" version="1" changeset="5014931" timestamp="2010-06-18T09:12:33Z"/>
 <node id="775539508" lat="49.2122508" lon="17.6169018" user="Hansign" uid="208872" visible="true" version="1" changeset="5014931" timestamp="2010-06-18T09:12:33Z"/>
 <node id="775539524" lat="49.2143153" lon="17.6200095" user="Hansign" uid="208872" visible="true" version="1" changeset="5014931" timestamp="2010-06-18T09:12:34Z"/>
 <node id="775539564" lat="49.2125190" lon="17.6185680" user="Hansign" uid="208872" visible="true" version="1" changeset="5014931" timestamp="2010-06-18T09:12:35Z"/>
 <node id="775539596" lat="49.2139977" lon="17.6171378" user="Hansign" uid="208872" visible="true" version="1" changeset="5014931" timestamp="2010-06-18T09:12:36Z"/>
 <node id="775539597" lat="49.2128099" lon="17.6213863" user="Hansign" uid="208872" visible="true" version="1" changeset="5014931" timestamp="2010-06-18T09:12:36Z"/>
 <node id="775539625" lat="49.2145049" lon="17.6174665" user="Hansign" uid="208872" visible="true" version="1" changeset="5014931" timestamp="2010-06-18T09:12:36Z"/>
 <node id="775539635" lat="49.2123226" lon="17.6178785" user="Hansign" uid="208872" visible="true" version="1" changeset="5014931" timestamp="2010-06-18T09:12:37Z"/>
 <node id="775539639" lat="49.2128032" lon="17.6172205" user="Hansign" uid="208872" visible="true" version="1" changeset="5014931" timestamp="2010-06-18T09:12:37Z"/>
 <node id="775539647" lat="49.2125302" lon="17.6175288" user="Hansign" uid="208872" visible="true" version="1" changeset="5014931" timestamp="2010-06-18T09:12:37Z"/>
 <node id="775539652" lat="49.2125350" lon="17.6166380" user="Hansign" uid="208872" visible="true" version="1" changeset="5014931" timestamp="2010-06-18T09:12:38Z"/>
 <node id="775539691" lat="49.2122584" lon="17.6197972" user="Hansign" uid="208872" visible="true" version="1" changeset="5014931" timestamp="2010-06-18T09:12:38Z"/>
 <node id="775539701" lat="49.2125280" lon="17.6189960" user="Hansign" uid="208872" visible="true" version="1" changeset="5014931" timestamp="2010-06-18T09:12:39Z"/>
 <node id="775539715" lat="49.2133577" lon="17.6212322" user="Hansign" uid="208872" visible="true" version="1" changeset="5014931" timestamp="2010-06-18T09:12:39Z"/>
 <node id="775539743" lat="49.2127466" lon="17.6172450" user="Hansign" uid="208872" visible="true" version="1" changeset="5014931" timestamp="2010-06-18T09:12:40Z"/>
 <node id="775539746" lat="49.2125755" lon="17.6204271" user="Hansign" uid="208872" visible="true" version="1" changeset="5014931" timestamp="2010-06-18T09:12:40Z"/>
 <node id="775539767" lat="49.2123754" lon="17.6178814" user="Hansign" uid="208872" visible="true" version="1" changeset="5014931" timestamp="2010-06-18T09:12:41Z"/>
 <node id="775539789" lat="49.2125240" lon="17.6167710" user="Hansign" uid="208872" visible="true" version="1" changeset="5014931" timestamp="2010-06-18T09:12:41Z"/>
 <node id="775539824" lat="49.2125630" lon="17.6186700" user="Hansign" uid="208872" visible="true" version="1" changeset="5014931" timestamp="2010-06-18T09:12:42Z"/>
 <node id="775539845" lat="49.2126669" lon="17.6164492" user="Hansign" uid="208872" visible="true" version="1" changeset="5014931" timestamp="2010-06-18T09:12:43Z"/>
 <node id="800414724" lat="49.2137666" lon="17.6212045" user="Zubozrout" uid="123530" visible="true" version="1" changeset="5132602" timestamp="2010-07-04T12:49:38Z"/>
 <node id="800415593" lat="49.2137089" lon="17.6212344" user="Zubozrout" uid="123530" visible="true" version="1" changeset="5132602" timestamp="2010-07-04T12:50:12Z"/>
 <node id="907890635" lat="49.2131525" lon="17.6214616" user="Zubozrout" uid="123530" visible="true" version="1" changeset="5756785" timestamp="2010-09-12T08:28:40Z"/>
 <node id="907890652" lat="49.2144513" lon="17.6216922" user="Zubozrout" uid="123530" visible="true" version="1" changeset="5756785" timestamp="2010-09-12T08:28:41Z"/>
 <node id="907890682" lat="49.2146397" lon="17.6215934" user="Zubozrout" uid="123530" visible="true" version="1" changeset="5756785" timestamp="2010-09-12T08:28:42Z"/>
 <node id="907890697" lat="49.2130789" lon="17.6215467" user="Zubozrout" uid="123530" visible="true" version="1" changeset="5756785" timestamp="2010-09-12T08:28:42Z"/>
 <node id="907890721" lat="49.2142981" lon="17.6210952" user="Zubozrout" uid="123530" visible="true" version="1" changeset="5756785" timestamp="2010-09-12T08:28:43Z"/>
 <node id="907890773" lat="49.2143062" lon="17.6202809" user="Zubozrout" uid="123530" visible="true" version="1" changeset="5756785" timestamp="2010-09-12T08:28:44Z"/>
 <node id="907890803" lat="49.2130466" lon="17.6216291" user="Zubozrout" uid="123530" visible="true" version="1" changeset="5756785" timestamp="2010-09-12T08:28:45Z"/>
 <node id="953280678" lat="49.2134858" lon="17.6160958" user="pavel" uid="1066" visible="true" version="1" changeset="6062986" timestamp="2010-10-17T02:07:39Z"/>
 <node id="953372747" lat="49.2134500" lon="17.6159059" user="pavel" uid="1066" visible="true" version="1" changeset="6063283" timestamp="2010-10-17T02:48:43Z"/>
 <node id="953667426" lat="49.2134525" lon="17.6155415" user="pavel" uid="1066" visible="true" version="1" changeset="6063620" timestamp="2010-10-17T06:12:25Z"/>
 <node id="954351352" lat="49.2144823" lon="17.6184159" user="pavel" uid="1066" visible="true" version="1" changeset="6065032" timestamp="2010-10-17T11:23:32Z"/>
 <node id="1295172301" lat="49.2144154" lon="17.6198888" user="flare" uid="367597" visible="true" version="1" changeset="8208936" timestamp="2011-05-21T18:11:46Z"/>
 <node id="1295172872" lat="49.2142157" lon="17.6194551" user="flare" uid="367597" visible="true" version="1" changeset="8208936" timestamp="2011-05-21T18:12:00Z"/>
 <node id="1332796416" lat="49.2130467" lon="17.6173087" user="flare" uid="367597" visible="true" version="1" changeset="8499581" timestamp="2011-06-20T21:44:06Z"/>
 <way id="62164505" user="Hansign" uid="208872" visible="true" version="1" changeset="5014931" timestamp="2010-06-18T09:12:45Z">
  <nd ref="701018683"/>
  <nd ref="775539625"/>
  <nd ref="775539416"/>
  <nd ref="775539731"/>
  <nd ref="775539596"/>
  <tag k="highway" v="service"/>
 </way>
 <way id="77099485" user="Zubozrout" uid="123530" visible="true" version="1" changeset="5756785" timestamp="2010-09-12T08:28:46Z">
  <nd ref="907890806"/>
  <nd ref="907890721"/>
  <nd ref="907890652"/>
  <nd ref="907890682"/>
  <tag k="highway" v="service"/>
  <tag k="service" v="driveway"/>
 </way>
 <way id="62164497" user="flare" uid="367597" visible="true" version="2" changeset="8692192" timestamp="2011-07-11T10:05:32Z">
  <nd ref="775539680"/>
  <nd ref="775539645"/>
  <nd ref="775539397"/>
  <nd ref="775539756"/>
  <nd ref="775539829"/>
  <nd ref="775539591"/>
  <nd ref="775539092"/>
  <nd ref="775539306"/>
  <nd ref="775539680"/>
  <tag k="building" v="yes"/>
  <tag k="building:levels" v="13"/>
  <tag k="source" v="cuzk:km"/>
 </way>
 <way id="114312539" user="flare" uid="367597" visible="true" version="1" changeset="8208936" timestamp="2011-05-21T18:12:42Z">
  <nd ref="1295172872"/>
  <nd ref="1295172055"/>
  <tag k="highway" v="footway"/>
  <tag k="source" v="survey"/>
 </way>
 <way id="118517114" user="flare" uid="367597" visible="true" version="1" changeset="8499581" timestamp="2011-06-20T21:44:38Z">
  <nd ref="1332796416"/>
  <nd ref="1295170880"/>
  <nd ref="1295172055"/>
  <nd ref="588834008"/>
  <nd ref="775539524"/>
  <nd ref="588862534"/>
  <tag k="highway" v="service"/>
  <tag k="service" v="parking_aisle"/>
 </way>
 <way id="62164551" user="Hansign" uid="208872" visible="true" version="1" changeset="5014931" timestamp="2010-06-18T09:12:50Z">
  <nd ref="775539285"/>
  <nd ref="775539641"/>
  <nd ref="775539394"/>
  <nd ref="775539156"/>
  <nd ref="775539285"/>
  <tag k="building" v="yes"/>
  <tag k="source" v="cuzk:km"/>
 </way>
 <way id="62164615" user="Hansign" uid="208872" visible="true" version="1" changeset="5014931" timestamp="2010-06-18T09:12:54Z">
  <nd ref="775539466"/>
  <nd ref="775539229"/>
  <nd ref="775539789"/>
  <nd ref="775539100"/>
  <nd ref="775539652"/>
  <nd ref="775539406"/>
  <nd ref="775539168"/>
  <nd ref="775539359"/>
  <nd ref="775539329"/>
  <nd ref="775539639"/>
  <nd ref="775539426"/>
  <nd ref="775539743"/>
  <nd ref="775539466"/>
  <tag k="building" v="yes"/>
  <tag k="source" v="cuzk:km"/>
 </way>
 <way id="62164507" user="Hansign" uid="208872" visible="true" version="1" changeset="5014931" timestamp="2010-06-18T09:12:45Z">
  <nd ref="775539597"/>
  <nd ref="775539352"/>
  <nd ref="775539113"/>
  <nd ref="775539225"/>
  <nd ref="775539597"/>
  <tag k="building" v="yes"/>
  <tag k="source" v="cuzk:km"/>
 </way>
 <way id="62164542" user="Hansign" uid="208872" visible="true" version="1" changeset="5014931" timestamp="2010-06-18T09:12:50Z">
  <nd ref="775539846"/>
  <nd ref="775539152"/>
  <nd ref="775539701"/>
  <nd ref="775539449"/>
  <nd ref="775539846"/>
  <tag k="building" v="yes"/>
  <tag k="source" v="cuzk:km"/>
 </way>
 <way id="62164610" user="Hansign" uid="208872" visible="true" version="1" changeset="5014931" timestamp="2010-06-18T09:12:54Z">
  <nd ref="775539192"/>
  <nd ref="775539302"/>
  <nd ref="775539060"/>
  <nd ref="775539611"/>
  <nd ref="775539367"/>
  <nd ref="775539400"/>
  <nd ref="775539192"/>
  <tag k="building" v="yes"/>
  <tag k="source" v="cuzk:km"/>
 </way>
 <way id="62164562" user="Hansign" uid="208872" visible="true" version="1" changeset="5014931" timestamp="2010-06-18T09:12:51Z">
  <nd ref="775539256"/>
  <nd ref="775539563"/>
  <tag k="highway" v="service"/>
 </way>
 <way id="62164515" user="Hansign" uid="208872" visible="true" version="1" changeset="5014931" timestamp="2010-06-18T09:12:46Z">
  <nd ref="775539031"/>
  <nd ref="775539590"/>
  <nd ref="775539708"/>
  <nd ref="775539454"/>
  <nd ref="775539219"/>
  <nd ref="775539777"/>
  <nd ref="775539325"/>
  <nd ref="775539082"/>
  <nd ref="775539636"/>
  <nd ref="775539391"/>
  <nd ref="775539491"/>
  <nd ref="775539257"/>
  <nd ref="775539824"/>
  <nd ref="775539564"/>
  <nd ref="775539768"/>
  <nd ref="775539031"/>
  <tag k="building" v="yes"/>
  <tag k="source" v="cuzk:km"/>
 </way>
 <way id="77099484" user="flare" uid="367597" visible="true" version="2" changeset="6420768" timestamp="2010-11-21T09:36:05Z">
  <nd ref="907890803"/>
  <nd ref="907890697"/>
  <nd ref="907890635"/>
  <nd ref="775539715"/>
  <nd ref="775539563"/>
  <nd ref="907890806"/>
  <nd ref="907890773"/>
  <nd ref="588862534"/>
  <nd ref="75068644"/>
  <tag k="highway" v="residential"/>
  <tag k="name" v="Šternberská"/>
  <tag k="source" v="uhul:ortofoto"/>
 </way>
 <way id="59384205" user="Hansign" uid="208872" visible="true" version="1" changeset="4717251" timestamp="2010-05-16T13:45:15Z">
  <nd ref="736477800"/>
  <nd ref="736477648"/>
  <nd ref="736477741"/>
  <nd ref="736477689"/>
  <nd ref="736477782"/>
  <nd ref="736477868"/>
  <nd ref="736477665"/>
  <nd ref="736477910"/>
  <nd ref="736477721"/>
  <nd ref="736477801"/>
  <nd ref="736477800"/>
  <tag k="amenity" v="parking"/>
  <tag k="parking" v="surface"/>
 </way>
 <way id="121215790" user="flare" uid="367597" visible="true" version="1" changeset="8692192" timestamp="2011-07-11T10:04:42Z">
  <nd ref="775539756"/>
  <nd ref="775539705"/>
  <nd ref="775539419"/>
  <nd ref="775539530"/>
  <nd ref="775539291"/>
  <nd ref="775539049"/>
  <nd ref="775539601"/>
  <nd ref="775539159"/>
  <nd ref="775539710"/>
  <nd ref="775539455"/>
  <nd ref="775539689"/>
  <nd ref="775539829"/>
  <nd ref="775539756"/>
  <tag k="building" v="yes"/>
  <tag k="source" v="cuzk:km"/>
 </way>
 <way id="62164523" user="Hansign" uid="208872" visible="true" version="1" changeset="5014931" timestamp="2010-06-18T09:12:47Z">
  <nd ref="775539460"/>
  <nd ref="775539578"/>
  <nd ref="775539338"/>
  <nd ref="775539095"/>
  <nd ref="775539460"/>
  <tag k="building" v="yes"/>
  <tag k="source" v="cuzk:km"/>
 </way>
 <way id="62164640" user="flare" uid="367597" visible="true" version="2" changeset="8499581" timestamp="2011-06-20T21:45:20Z">
  <nd ref="775539553"/>
  <nd ref="775539429"/>
  <nd ref="775539746"/>
  <nd ref="775539691"/>
  <tag k="access" v="no"/>
  <tag k="highway" v="service"/>
 </way>
 <way id="114312388" user="flare" uid="367597" visible="true" version="2" changeset="8499581" timestamp="2011-06-20T21:45:05Z">
  <nd ref="1295170880"/>
  <nd ref="1295171441"/>
  <nd ref="1295172872"/>
  <nd ref="1295172301"/>
  <nd ref="775539524"/>
  <tag k="highway" v="service"/>
  <tag k="service" v="parking_aisle"/>
 </way>
 <way id="46181290" user="flare" uid="367597" visible="true" version="4" changeset="8208936" timestamp="2011-05-21T18:13:17Z">
  <nd ref="775539845"/>
  <nd ref="775539508"/>
  <nd ref="775539647"/>
  <nd ref="775539337"/>
  <nd ref="775539692"/>
  <nd ref="588833980"/>
  <tag k="highway" v="service"/>
  <tag k="service" v="parking_aisle"/>
 </way>
 <way id="62164578" user="flare" uid="367597" visible="true" version="2" changeset="8499581" timestamp="2011-06-20T21:45:19Z">
  <nd ref="588834008"/>
  <nd ref="1332795717"/>
  <nd ref="775539490"/>
  <nd ref="775539553"/>
  <nd ref="775539447"/>
  <nd ref="775539767"/>
  <nd ref="775539635"/>
  <nd ref="775539150"/>
  <nd ref="775539248"/>
  <tag k="access" v="no"/>
  <tag k="highway" v="service"/>
 </way>
 <way id="121215807" user="flare" uid="367597" visible="true" version="1" changeset="8692192" timestamp="2011-07-11T10:04:44Z">
  <nd ref="775539680"/>
  <nd ref="775539306"/>
  <nd ref="775539616"/>
  <nd ref="775539388"/>
  <nd ref="775539659"/>
  <nd ref="775539820"/>
  <nd ref="775539559"/>
  <nd ref="775539321"/>
  <nd ref="775539503"/>
  <nd ref="775539268"/>
  <nd ref="775539840"/>
  <nd ref="775539572"/>
  <nd ref="775539696"/>
  <nd ref="775539443"/>
  <nd ref="775539209"/>
  <nd ref="775539520"/>
  <nd ref="775539281"/>
  <nd ref="775539033"/>
  <nd ref="775539077"/>
  <nd ref="775539680"/>
  <tag k="building" v="yes"/>
  <tag k="source" v="cuzk:km"/>
 </way>
 <way id="62164563" user="flare" uid="367597" visible="true" version="2" changeset="7970838" timestamp="2011-04-26T05:04:43Z">
  <nd ref="775539524"/>
  <nd ref="775539256"/>
  <tag k="highway" v="service"/>
 </way>
 <way id="81899600" user="pavel" uid="1066" visible="true" version="1" changeset="6066201" timestamp="2010-10-17T14:14:23Z">
  <nd ref="954351352"/>
  <nd ref="952937277"/>
  <nd ref="953280678"/>
  <nd ref="953372747"/>
  <nd ref="953667426"/>
  <tag k="dibavod:id" v="408350000300"/>
  <tag k="source" v="dibavod"/>
  <tag k="waterway" v="stream"/>
 </way>
 <way id="62164489" user="Hansign" uid="208872" visible="true" version="1" changeset="5014931" timestamp="2010-06-18T09:12:43Z">
  <nd ref="775539810"/>
  <nd ref="775539547"/>
  <nd ref="775539753"/>
  <nd ref="775539492"/>
  <nd ref="775539259"/>
  <nd ref="775539825"/>
  <nd ref="775539139"/>
  <nd ref="775539686"/>
  <nd ref="775539439"/>
  <nd ref="775539201"/>
  <nd ref="775539234"/>
  <nd ref="775539794"/>
  <nd ref="775539534"/>
  <nd ref="775539297"/>
  <nd ref="775539413"/>
  <nd ref="775539176"/>
  <nd ref="775539727"/>
  <nd ref="775539472"/>
  <nd ref="775539674"/>
  <nd ref="775539423"/>
  <nd ref="775539187"/>
  <nd ref="775539740"/>
  <nd ref="775539056"/>
  <nd ref="775539810"/>
  <tag k="building" v="yes"/>
  <tag k="source" v="cuzk:km"/>
 </way>
 <way id="110354474" user="flare" uid="367597" visible="true" version="2" changeset="8208936" timestamp="2011-05-21T18:13:42Z">
  <nd ref="775539256"/>
  <nd ref="775539041"/>
  <nd ref="775539715"/>
  <tag k="access" v="private"/>
  <tag k="highway" v="service"/>
 </way>
 <way id="65643991" user="Zubozrout" uid="123530" visible="true" version="1" changeset="5132602" timestamp="2010-07-04T12:50:36Z">
  <nd ref="800414822"/>
  <nd ref="800415804"/>
  <nd ref="800415659"/>
  <nd ref="800415053"/>
  <nd ref="800415305"/>
  <nd ref="800414922"/>
  <nd ref="800415162"/>
  <nd ref="800415559"/>
  <nd ref="800415465"/>
  <nd ref="800415832"/>
  <nd ref="800415666"/>
  <nd ref="800414774"/>
  <nd ref="800416008"/>
  <nd ref="800415978"/>
  <nd ref="800414801"/>
  <nd ref="800415573"/>
  <nd ref="800415483"/>
  <nd ref="800415864"/>
  <nd ref="800414822"/>
  <tag k="building" v="yes"/>
 </way>
 <way id="65643974" user="Zubozrout" uid="123530" visible="true" version="1" changeset="5132602" timestamp="2010-07-04T12:50:32Z">
  <nd ref="800414898"/>
  <nd ref="800415593"/>
  <nd ref="800414724"/>
  <nd ref="800415901"/>
  <nd ref="800414898"/>
  <tag k="building" v="yes"/>
 </way>
</osm>
