<?xml version="1.0" encoding="UTF-8"?>
<osm version="0.6" generator="CGImap 0.1.0" copyright="OpenStreetMap and contributors" attribution="http://www.openstreetmap.org/copyright" license="http://opendatacommons.org/licenses/odbl/1-0/">
 <bounds minlat="49.2239000" minlon="17.7261800" maxlat="49.2256000" maxlon="17.7316500"/>
 <node id="1880496231" lat="49.2247876" lon="17.7293563" user="Datin" uid="115815" visible="true" version="1" changeset="12842503" timestamp="2012-08-24T09:08:53Z">
  <tag k="addr:conscriptionnumber" v="241"/>
  <tag k="addr:country" v="CZ"/>
  <tag k="addr:housenumber" v="241"/>
  <tag k="is_in" v="Lužkovice, Zlín, Zlínský kraj, CZ"/>
  <tag k="source" v="cuzk:km"/>
 </node>
 <node id="1880496240" lat="49.2244588" lon="17.7268263" user="Datin" uid="115815" visible="true" version="1" changeset="12842503" timestamp="2012-08-24T09:08:53Z">
  <tag k="addr:conscriptionnumber" v="244"/>
  <tag k="addr:country" v="CZ"/>
  <tag k="addr:housenumber" v="244"/>
  <tag k="is_in" v="Lužkovice, Zlín, Zlínský kraj, CZ"/>
  <tag k="source" v="cuzk:km"/>
 </node>
 <node id="711926808" lat="49.2246900" lon="17.7272290" user="Hansign" uid="208872" visible="true" version="1" changeset="4557672" timestamp="2010-04-29T12:48:49Z"/>
 <node id="711926835" lat="49.2243200" lon="17.7263700" user="Hansign" uid="208872" visible="true" version="1" changeset="4557672" timestamp="2010-04-29T12:48:50Z"/>
 <node id="711926851" lat="49.2242580" lon="17.7272180" user="Hansign" uid="208872" visible="true" version="1" changeset="4557672" timestamp="2010-04-29T12:48:50Z"/>
 <node id="711926855" lat="49.2243200" lon="17.7264810" user="Hansign" uid="208872" visible="true" version="1" changeset="4557672" timestamp="2010-04-29T12:48:50Z"/>
 <node id="711927011" lat="49.2242590" lon="17.7269340" user="Hansign" uid="208872" visible="true" version="1" changeset="4557672" timestamp="2010-04-29T12:48:55Z"/>
 <node id="711927052" lat="49.2246990" lon="17.7264890" user="Hansign" uid="208872" visible="true" version="1" changeset="4557672" timestamp="2010-04-29T12:48:56Z"/>
 <node id="711927090" lat="49.2241380" lon="17.7269310" user="Hansign" uid="208872" visible="true" version="1" changeset="4557672" timestamp="2010-04-29T12:48:56Z"/>
 <node id="711927202" lat="49.2241440" lon="17.7263660" user="Hansign" uid="208872" visible="true" version="1" changeset="4557672" timestamp="2010-04-29T12:48:58Z"/>
 <node id="711994698" lat="49.2241690" lon="17.7282660" user="Hansign" uid="208872" visible="true" version="1" changeset="4557958" timestamp="2010-04-29T13:30:01Z"/>
 <node id="711994702" lat="49.2248750" lon="17.7284760" user="Hansign" uid="208872" visible="true" version="1" changeset="4557958" timestamp="2010-04-29T13:30:01Z"/>
 <node id="711994709" lat="49.2243610" lon="17.7283200" user="Hansign" uid="208872" visible="true" version="1" changeset="4557958" timestamp="2010-04-29T13:30:01Z"/>
 <node id="711994712" lat="49.2243300" lon="17.7290480" user="Hansign" uid="208872" visible="true" version="1" changeset="4557958" timestamp="2010-04-29T13:30:02Z"/>
 <node id="711994715" lat="49.2249910" lon="17.7284800" user="Hansign" uid="208872" visible="true" version="1" changeset="4557958" timestamp="2010-04-29T13:30:02Z"/>
 <node id="711994722" lat="49.2241140" lon="17.7290460" user="Hansign" uid="208872" visible="true" version="1" changeset="4557958" timestamp="2010-04-29T13:30:02Z"/>
 <node id="711994724" lat="49.2249310" lon="17.7314300" user="Hansign" uid="208872" visible="true" version="1" changeset="4557958" timestamp="2010-04-29T13:30:02Z"/>
 <node id="711994726" lat="49.2241940" lon="17.7282660" user="Hansign" uid="208872" visible="true" version="1" changeset="4557958" timestamp="2010-04-29T13:30:02Z"/>
 <node id="711994732" lat="49.2249890" lon="17.7286460" user="Hansign" uid="208872" visible="true" version="1" changeset="4557958" timestamp="2010-04-29T13:30:02Z"/>
 <node id="711994734" lat="49.2241990" lon="17.7283150" user="Hansign" uid="208872" visible="true" version="1" changeset="4557958" timestamp="2010-04-29T13:30:02Z"/>
 <node id="711994743" lat="49.2241190" lon="17.7286230" user="Hansign" uid="208872" visible="true" version="1" changeset="4557958" timestamp="2010-04-29T13:30:02Z"/>
 <node id="711994748" lat="49.2241950" lon="17.7282050" user="Hansign" uid="208872" visible="true" version="1" changeset="4557958" timestamp="2010-04-29T13:30:02Z"/>
 <node id="711994751" lat="49.2252960" lon="17.7301560" user="Hansign" uid="208872" visible="true" version="1" changeset="4557958" timestamp="2010-04-29T13:30:02Z"/>
 <node id="711994754" lat="49.2243060" lon="17.7314150" user="Hansign" uid="208872" visible="true" version="1" changeset="4557958" timestamp="2010-04-29T13:30:02Z"/>
 <node id="711994757" lat="49.2241960" lon="17.7283540" user="Hansign" uid="208872" visible="true" version="1" changeset="4557958" timestamp="2010-04-29T13:30:02Z"/>
 <node id="711994758" lat="49.2243610" lon="17.7282090" user="Hansign" uid="208872" visible="true" version="1" changeset="4557958" timestamp="2010-04-29T13:30:02Z"/>
 <node id="711994762" lat="49.2253130" lon="17.7286530" user="Hansign" uid="208872" visible="true" version="1" changeset="4557958" timestamp="2010-04-29T13:30:02Z"/>
 <node id="711994766" lat="49.2241680" lon="17.7283540" user="Hansign" uid="208872" visible="true" version="1" changeset="4557958" timestamp="2010-04-29T13:30:02Z"/>
 <node id="711994771" lat="49.2248730" lon="17.7286430" user="Hansign" uid="208872" visible="true" version="1" changeset="4557958" timestamp="2010-04-29T13:30:03Z"/>
 <node id="711994779" lat="49.2243195" lon="17.7301310" user="Hansign" uid="208872" visible="true" version="1" changeset="4557958" timestamp="2010-04-29T13:30:03Z"/>
 <node id="711994782" lat="49.2249450" lon="17.7301460" user="Hansign" uid="208872" visible="true" version="1" changeset="4557958" timestamp="2010-04-29T13:30:03Z"/>
 <node id="837201468" lat="49.2240256" lon="17.7274477" user="Hansign" uid="208872" visible="true" version="1" changeset="5344806" timestamp="2010-07-29T08:48:45Z"/>
 <node id="837201546" lat="49.2252892" lon="17.7280117" user="Hansign" uid="208872" visible="true" version="1" changeset="5344806" timestamp="2010-07-29T08:48:48Z"/>
 <node id="837201614" lat="49.2252377" lon="17.7279208" user="Hansign" uid="208872" visible="true" version="1" changeset="5344806" timestamp="2010-07-29T08:48:50Z"/>
 <node id="837201620" lat="49.2251783" lon="17.7271929" user="Hansign" uid="208872" visible="true" version="1" changeset="5344806" timestamp="2010-07-29T08:48:51Z"/>
 <node id="837201999" lat="49.2240375" lon="17.7280785" user="Hansign" uid="208872" visible="true" version="1" changeset="5344806" timestamp="2010-07-29T08:49:02Z"/>
 <node id="1901719329" lat="49.2254191" lon="17.7265574" user="czechreg" uid="787799" visible="true" version="1" changeset="13005209" timestamp="2012-09-06T05:19:06Z"/>
 <node id="718492419" lat="49.2261375" lon="17.7333592" user="Hansign" uid="208872" visible="true" version="1" changeset="4592861" timestamp="2010-05-03T08:57:26Z"/>
 <node id="718492462" lat="49.2258665" lon="17.7326370" user="Hansign" uid="208872" visible="true" version="1" changeset="4592861" timestamp="2010-05-03T08:57:27Z"/>
 <node id="718492495" lat="49.2262479" lon="17.7326729" user="Hansign" uid="208872" visible="true" version="1" changeset="4592861" timestamp="2010-05-03T08:57:28Z"/>
 <node id="718492515" lat="49.2262378" lon="17.7330775" user="Hansign" uid="208872" visible="true" version="1" changeset="4592861" timestamp="2010-05-03T08:57:29Z"/>
 <node id="837201444" lat="49.2237815" lon="17.7332369" user="Hansign" uid="208872" visible="true" version="1" changeset="5344806" timestamp="2010-07-29T08:48:45Z"/>
 <node id="837201472" lat="49.2243504" lon="17.7260891" user="Hansign" uid="208872" visible="true" version="1" changeset="5344806" timestamp="2010-07-29T08:48:46Z"/>
 <node id="837201485" lat="49.2228510" lon="17.7227320" user="Hansign" uid="208872" visible="true" version="1" changeset="5344806" timestamp="2010-07-29T08:48:46Z"/>
 <node id="837201491" lat="49.2226545" lon="17.7250950" user="Hansign" uid="208872" visible="true" version="1" changeset="5344806" timestamp="2010-07-29T08:48:47Z"/>
 <node id="837201545" lat="49.2259196" lon="17.7339765" user="Hansign" uid="208872" visible="true" version="1" changeset="5344806" timestamp="2010-07-29T08:48:48Z"/>
 <node id="837201549" lat="49.2243544" lon="17.7249852" user="Hansign" uid="208872" visible="true" version="1" changeset="5344806" timestamp="2010-07-29T08:48:48Z"/>
 <node id="837201562" lat="49.2226450" lon="17.7259732" user="Hansign" uid="208872" visible="true" version="1" changeset="5344806" timestamp="2010-07-29T08:48:49Z"/>
 <node id="837201575" lat="49.2262993" lon="17.7310080" user="Hansign" uid="208872" visible="true" version="1" changeset="5344806" timestamp="2010-07-29T08:48:49Z"/>
 <node id="837201633" lat="49.2235672" lon="17.7297433" user="Hansign" uid="208872" visible="true" version="1" changeset="5344806" timestamp="2010-07-29T08:48:51Z"/>
 <node id="837201657" lat="49.2260537" lon="17.7279390" user="Hansign" uid="208872" visible="true" version="1" changeset="5344806" timestamp="2010-07-29T08:48:52Z"/>
 <node id="837201684" lat="49.2257215" lon="17.7341281" user="Hansign" uid="208872" visible="true" version="1" changeset="5344806" timestamp="2010-07-29T08:48:53Z"/>
 <node id="837201715" lat="49.2251941" lon="17.7259011" user="Hansign" uid="208872" visible="true" version="1" changeset="5344806" timestamp="2010-07-29T08:48:53Z"/>
 <node id="837201737" lat="49.2238084" lon="17.7296975" user="Hansign" uid="208872" visible="true" version="1" changeset="5344806" timestamp="2010-07-29T08:48:54Z"/>
 <node id="837201740" lat="49.2238930" lon="17.7338890" user="Hansign" uid="208872" visible="true" version="1" changeset="5344806" timestamp="2010-07-29T08:48:54Z"/>
 <node id="837201764" lat="49.2257210" lon="17.7319905" user="Hansign" uid="208872" visible="true" version="1" changeset="5344806" timestamp="2010-07-29T08:48:55Z"/>
 <node id="837201789" lat="49.2227084" lon="17.7224699" user="Hansign" uid="208872" visible="true" version="1" changeset="5344806" timestamp="2010-07-29T08:48:56Z"/>
 <node id="837201852" lat="49.2225310" lon="17.7283847" user="Hansign" uid="208872" visible="true" version="1" changeset="5344806" timestamp="2010-07-29T08:48:58Z"/>
 <node id="837201856" lat="49.2243908" lon="17.7343082" user="Hansign" uid="208872" visible="true" version="1" changeset="5344806" timestamp="2010-07-29T08:48:58Z"/>
 <node id="837201872" lat="49.2262795" lon="17.7319723" user="Hansign" uid="208872" visible="true" version="1" changeset="5344806" timestamp="2010-07-29T08:48:58Z"/>
 <node id="837201888" lat="49.2224993" lon="17.7225670" user="Hansign" uid="208872" visible="true" version="1" changeset="5344806" timestamp="2010-07-29T08:48:58Z"/>
 <node id="837201913" lat="49.2237859" lon="17.7258762" user="Hansign" uid="208872" visible="true" version="1" changeset="5344806" timestamp="2010-07-29T08:48:59Z"/>
 <node id="837201976" lat="49.2225595" lon="17.7285982" user="Hansign" uid="208872" visible="true" version="1" changeset="5344806" timestamp="2010-07-29T08:49:01Z"/>
 <node id="837201980" lat="49.2237928" lon="17.7317027" user="Hansign" uid="208872" visible="true" version="1" changeset="5344806" timestamp="2010-07-29T08:49:01Z"/>
 <node id="837202013" lat="49.2237827" lon="17.7223923" user="Hansign" uid="208872" visible="true" version="1" changeset="5344806" timestamp="2010-07-29T08:49:02Z"/>
 <node id="837202027" lat="49.2237605" lon="17.7282974" user="Hansign" uid="208872" visible="true" version="1" changeset="5344806" timestamp="2010-07-29T08:49:02Z"/>
 <node id="837202048" lat="49.2237919" lon="17.7250155" user="Hansign" uid="208872" visible="true" version="1" changeset="5344806" timestamp="2010-07-29T08:49:03Z"/>
 <node id="1782472101" lat="49.2226483" lon="17.7249941" user="flare" uid="367597" visible="true" version="1" changeset="11853163" timestamp="2012-06-10T11:20:25Z"/>
 <node id="1901715535" lat="49.2223412" lon="17.7225271" user="czechreg" uid="787799" visible="true" version="1" changeset="13005177" timestamp="2012-09-06T05:11:45Z"/>
 <node id="1901717724" lat="49.2344549" lon="17.7259221" user="czechreg" uid="787799" visible="true" version="1" changeset="13005196" timestamp="2012-09-06T05:15:34Z"/>
 <node id="1901719271" lat="49.2308142" lon="17.7304400" user="czechreg" uid="787799" visible="true" version="1" changeset="13005209" timestamp="2012-09-06T05:19:04Z"/>
 <node id="1901719272" lat="49.2307465" lon="17.7308874" user="czechreg" uid="787799" visible="true" version="1" changeset="13005209" timestamp="2012-09-06T05:19:04Z"/>
 <node id="1901719273" lat="49.2308152" lon="17.7314417" user="czechreg" uid="787799" visible="true" version="1" changeset="13005209" timestamp="2012-09-06T05:19:04Z"/>
 <node id="1901719274" lat="49.2308365" lon="17.7317910" user="czechreg" uid="787799" visible="true" version="1" changeset="13005209" timestamp="2012-09-06T05:19:04Z"/>
 <node id="1901719275" lat="49.2308174" lon="17.7320210" user="czechreg" uid="787799" visible="true" version="1" changeset="13005209" timestamp="2012-09-06T05:19:04Z"/>
 <node id="1901719277" lat="49.2307561" lon="17.7322090" user="czechreg" uid="787799" visible="true" version="1" changeset="13005209" timestamp="2012-09-06T05:19:04Z"/>
 <node id="1901719278" lat="49.2306242" lon="17.7323803" user="czechreg" uid="787799" visible="true" version="1" changeset="13005209" timestamp="2012-09-06T05:19:04Z"/>
 <node id="1901719279" lat="49.2305215" lon="17.7324840" user="czechreg" uid="787799" visible="true" version="1" changeset="13005209" timestamp="2012-09-06T05:19:04Z"/>
 <node id="1901719280" lat="49.2303133" lon="17.7325753" user="czechreg" uid="787799" visible="true" version="1" changeset="13005209" timestamp="2012-09-06T05:19:04Z"/>
 <node id="1901719281" lat="49.2300689" lon="17.7326564" user="czechreg" uid="787799" visible="true" version="1" changeset="13005209" timestamp="2012-09-06T05:19:04Z"/>
 <node id="1901719282" lat="49.2298858" lon="17.7326678" user="czechreg" uid="787799" visible="true" version="1" changeset="13005209" timestamp="2012-09-06T05:19:04Z"/>
 <node id="1901719283" lat="49.2296848" lon="17.7326530" user="czechreg" uid="787799" visible="true" version="1" changeset="13005209" timestamp="2012-09-06T05:19:04Z"/>
 <node id="1901719284" lat="49.2296737" lon="17.7325862" user="czechreg" uid="787799" visible="true" version="1" changeset="13005209" timestamp="2012-09-06T05:19:04Z"/>
 <node id="1901719285" lat="49.2296335" lon="17.7323707" user="czechreg" uid="787799" visible="true" version="1" changeset="13005209" timestamp="2012-09-06T05:19:05Z"/>
 <node id="1901719286" lat="49.2296200" lon="17.7322286" user="czechreg" uid="787799" visible="true" version="1" changeset="13005209" timestamp="2012-09-06T05:19:05Z"/>
 <node id="1901719287" lat="49.2295306" lon="17.7320582" user="czechreg" uid="787799" visible="true" version="1" changeset="13005209" timestamp="2012-09-06T05:19:05Z"/>
 <node id="1901719288" lat="49.2294857" lon="17.7317808" user="czechreg" uid="787799" visible="true" version="1" changeset="13005209" timestamp="2012-09-06T05:19:05Z"/>
 <node id="1901719289" lat="49.2291808" lon="17.7312891" user="czechreg" uid="787799" visible="true" version="1" changeset="13005209" timestamp="2012-09-06T05:19:05Z"/>
 <node id="1901719290" lat="49.2289617" lon="17.7307973" user="czechreg" uid="787799" visible="true" version="1" changeset="13005209" timestamp="2012-09-06T05:19:05Z"/>
 <node id="1901719291" lat="49.2285487" lon="17.7305027" user="czechreg" uid="787799" visible="true" version="1" changeset="13005209" timestamp="2012-09-06T05:19:05Z"/>
 <node id="1901719292" lat="49.2282330" lon="17.7302997" user="czechreg" uid="787799" visible="true" version="1" changeset="13005209" timestamp="2012-09-06T05:19:05Z"/>
 <node id="1901719293" lat="49.2279010" lon="17.7299076" user="czechreg" uid="787799" visible="true" version="1" changeset="13005209" timestamp="2012-09-06T05:19:05Z"/>
 <node id="1901719294" lat="49.2278206" lon="17.7297601" user="czechreg" uid="787799" visible="true" version="1" changeset="13005209" timestamp="2012-09-06T05:19:05Z"/>
 <node id="1901719295" lat="49.2278631" lon="17.7296214" user="czechreg" uid="787799" visible="true" version="1" changeset="13005209" timestamp="2012-09-06T05:19:05Z"/>
 <node id="1901719296" lat="49.2278509" lon="17.7294613" user="czechreg" uid="787799" visible="true" version="1" changeset="13005209" timestamp="2012-09-06T05:19:05Z"/>
 <node id="1901719298" lat="49.2276527" lon="17.7292425" user="czechreg" uid="787799" visible="true" version="1" changeset="13005209" timestamp="2012-09-06T05:19:05Z"/>
 <node id="1901719300" lat="49.2275231" lon="17.7291742" user="czechreg" uid="787799" visible="true" version="1" changeset="13005209" timestamp="2012-09-06T05:19:05Z"/>
 <node id="1901719302" lat="49.2273559" lon="17.7287648" user="czechreg" uid="787799" visible="true" version="1" changeset="13005209" timestamp="2012-09-06T05:19:05Z"/>
 <node id="1901719304" lat="49.2273268" lon="17.7284437" user="czechreg" uid="787799" visible="true" version="1" changeset="13005209" timestamp="2012-09-06T05:19:05Z"/>
 <node id="1901719306" lat="49.2272937" lon="17.7281504" user="czechreg" uid="787799" visible="true" version="1" changeset="13005209" timestamp="2012-09-06T05:19:05Z"/>
 <node id="1901719308" lat="49.2271925" lon="17.7279691" user="czechreg" uid="787799" visible="true" version="1" changeset="13005209" timestamp="2012-09-06T05:19:05Z"/>
 <node id="1901719310" lat="49.2271604" lon="17.7278864" user="czechreg" uid="787799" visible="true" version="1" changeset="13005209" timestamp="2012-09-06T05:19:05Z"/>
 <node id="1901719317" lat="49.2269128" lon="17.7276524" user="czechreg" uid="787799" visible="true" version="1" changeset="13005209" timestamp="2012-09-06T05:19:05Z"/>
 <node id="1901719319" lat="49.2268703" lon="17.7275602" user="czechreg" uid="787799" visible="true" version="1" changeset="13005209" timestamp="2012-09-06T05:19:05Z"/>
 <node id="1901719321" lat="49.2268047" lon="17.7274810" user="czechreg" uid="787799" visible="true" version="1" changeset="13005209" timestamp="2012-09-06T05:19:05Z"/>
 <node id="1901719322" lat="49.2266907" lon="17.7273383" user="czechreg" uid="787799" visible="true" version="1" changeset="13005209" timestamp="2012-09-06T05:19:05Z"/>
 <node id="1901719323" lat="49.2266649" lon="17.7273003" user="czechreg" uid="787799" visible="true" version="1" changeset="13005209" timestamp="2012-09-06T05:19:05Z"/>
 <node id="1901719324" lat="49.2264955" lon="17.7271528" user="czechreg" uid="787799" visible="true" version="1" changeset="13005209" timestamp="2012-09-06T05:19:05Z"/>
 <node id="1901719325" lat="49.2264335" lon="17.7271048" user="czechreg" uid="787799" visible="true" version="1" changeset="13005209" timestamp="2012-09-06T05:19:05Z"/>
 <node id="1901719327" lat="49.2260124" lon="17.7267511" user="czechreg" uid="787799" visible="true" version="1" changeset="13005209" timestamp="2012-09-06T05:19:05Z"/>
 <node id="1901719330" lat="49.2255290" lon="17.7261699" user="czechreg" uid="787799" visible="true" version="1" changeset="13005209" timestamp="2012-09-06T05:19:06Z"/>
 <node id="1901719331" lat="49.2256265" lon="17.7256738" user="czechreg" uid="787799" visible="true" version="1" changeset="13005209" timestamp="2012-09-06T05:19:06Z"/>
 <node id="1901719332" lat="49.2256732" lon="17.7252805" user="czechreg" uid="787799" visible="true" version="1" changeset="13005209" timestamp="2012-09-06T05:19:06Z"/>
 <node id="1901719333" lat="49.2255336" lon="17.7247420" user="czechreg" uid="787799" visible="true" version="1" changeset="13005209" timestamp="2012-09-06T05:19:06Z"/>
 <node id="1901719335" lat="49.2253122" lon="17.7239874" user="czechreg" uid="787799" visible="true" version="1" changeset="13005209" timestamp="2012-09-06T05:19:06Z"/>
 <node id="1901719336" lat="49.2251145" lon="17.7233306" user="czechreg" uid="787799" visible="true" version="1" changeset="13005209" timestamp="2012-09-06T05:19:06Z"/>
 <node id="1901719337" lat="49.2250510" lon="17.7227494" user="czechreg" uid="787799" visible="true" version="1" changeset="13005209" timestamp="2012-09-06T05:19:06Z"/>
 <node id="1901719338" lat="49.2250613" lon="17.7227505" user="czechreg" uid="787799" visible="true" version="1" changeset="13005209" timestamp="2012-09-06T05:19:06Z"/>
 <node id="1901719339" lat="49.2251303" lon="17.7227246" user="czechreg" uid="787799" visible="true" version="1" changeset="13005209" timestamp="2012-09-06T05:19:06Z"/>
 <node id="1901719340" lat="49.2253020" lon="17.7226709" user="czechreg" uid="787799" visible="true" version="1" changeset="13005209" timestamp="2012-09-06T05:19:06Z"/>
 <node id="1901719341" lat="49.2253169" lon="17.7223577" user="czechreg" uid="787799" visible="true" version="1" changeset="13005209" timestamp="2012-09-06T05:19:06Z"/>
 <node id="1901719342" lat="49.2254676" lon="17.7223863" user="czechreg" uid="787799" visible="true" version="1" changeset="13005209" timestamp="2012-09-06T05:19:06Z"/>
 <node id="1901719343" lat="49.2253215" lon="17.7222081" user="czechreg" uid="787799" visible="true" version="1" changeset="13005209" timestamp="2012-09-06T05:19:06Z"/>
 <node id="1901719346" lat="49.2249890" lon="17.7215366" user="czechreg" uid="787799" visible="true" version="1" changeset="13005209" timestamp="2012-09-06T05:19:06Z"/>
 <node id="1901719347" lat="49.2248509" lon="17.7214815" user="czechreg" uid="787799" visible="true" version="1" changeset="13005209" timestamp="2012-09-06T05:19:06Z"/>
 <node id="1901719348" lat="49.2248524" lon="17.7214470" user="czechreg" uid="787799" visible="true" version="1" changeset="13005209" timestamp="2012-09-06T05:19:06Z"/>
 <node id="1901719349" lat="49.2237406" lon="17.7218066" user="czechreg" uid="787799" visible="true" version="1" changeset="13005209" timestamp="2012-09-06T05:19:07Z"/>
 <node id="1901719350" lat="49.2228942" lon="17.7220850" user="czechreg" uid="787799" visible="true" version="1" changeset="13005209" timestamp="2012-09-06T05:19:07Z"/>
 <node id="1901719352" lat="49.2227018" lon="17.7221178" user="czechreg" uid="787799" visible="true" version="1" changeset="13005209" timestamp="2012-09-06T05:19:07Z"/>
 <node id="1901719353" lat="49.2227030" lon="17.7221462" user="czechreg" uid="787799" visible="true" version="1" changeset="13005209" timestamp="2012-09-06T05:19:07Z"/>
 <node id="1901719356" lat="49.2224817" lon="17.7221897" user="czechreg" uid="787799" visible="true" version="1" changeset="13005209" timestamp="2012-09-06T05:19:07Z"/>
 <node id="1901719357" lat="49.2225148" lon="17.7223894" user="czechreg" uid="787799" visible="true" version="1" changeset="13005209" timestamp="2012-09-06T05:19:07Z"/>
 <node id="1901719358" lat="49.2223525" lon="17.7224141" user="czechreg" uid="787799" visible="true" version="1" changeset="13005209" timestamp="2012-09-06T05:19:07Z"/>
 <node id="1901719359" lat="49.2223689" lon="17.7225187" user="czechreg" uid="787799" visible="true" version="1" changeset="13005209" timestamp="2012-09-06T05:19:07Z"/>
 <node id="1901719497" lat="49.2343259" lon="17.7261728" user="czechreg" uid="787799" visible="true" version="1" changeset="13005209" timestamp="2012-09-06T05:19:11Z"/>
 <node id="1901719498" lat="49.2344199" lon="17.7266731" user="czechreg" uid="787799" visible="true" version="1" changeset="13005209" timestamp="2012-09-06T05:19:11Z"/>
 <node id="1901719499" lat="49.2345620" lon="17.7270814" user="czechreg" uid="787799" visible="true" version="1" changeset="13005209" timestamp="2012-09-06T05:19:12Z"/>
 <node id="1901719500" lat="49.2345222" lon="17.7273555" user="czechreg" uid="787799" visible="true" version="1" changeset="13005209" timestamp="2012-09-06T05:19:12Z"/>
 <node id="1901719501" lat="49.2349881" lon="17.7280916" user="czechreg" uid="787799" visible="true" version="1" changeset="13005209" timestamp="2012-09-06T05:19:12Z"/>
 <node id="1901719502" lat="49.2348156" lon="17.7288086" user="czechreg" uid="787799" visible="true" version="1" changeset="13005209" timestamp="2012-09-06T05:19:12Z"/>
 <node id="1901719503" lat="49.2347534" lon="17.7290969" user="czechreg" uid="787799" visible="true" version="1" changeset="13005209" timestamp="2012-09-06T05:19:12Z"/>
 <node id="1901719504" lat="49.2346437" lon="17.7295389" user="czechreg" uid="787799" visible="true" version="1" changeset="13005209" timestamp="2012-09-06T05:19:12Z"/>
 <node id="1901719505" lat="49.2344753" lon="17.7297837" user="czechreg" uid="787799" visible="true" version="1" changeset="13005209" timestamp="2012-09-06T05:19:12Z"/>
 <node id="1901719506" lat="49.2342303" lon="17.7299359" user="czechreg" uid="787799" visible="true" version="1" changeset="13005209" timestamp="2012-09-06T05:19:12Z"/>
 <node id="1901719508" lat="49.2339474" lon="17.7300557" user="czechreg" uid="787799" visible="true" version="1" changeset="13005209" timestamp="2012-09-06T05:19:12Z"/>
 <node id="1901719510" lat="49.2335229" lon="17.7298369" user="czechreg" uid="787799" visible="true" version="1" changeset="13005209" timestamp="2012-09-06T05:19:12Z"/>
 <node id="1901719511" lat="49.2332859" lon="17.7297506" user="czechreg" uid="787799" visible="true" version="1" changeset="13005209" timestamp="2012-09-06T05:19:12Z"/>
 <node id="1901719512" lat="49.2330480" lon="17.7295725" user="czechreg" uid="787799" visible="true" version="1" changeset="13005209" timestamp="2012-09-06T05:19:12Z"/>
 <node id="1901719513" lat="49.2329102" lon="17.7293933" user="czechreg" uid="787799" visible="true" version="1" changeset="13005209" timestamp="2012-09-06T05:19:12Z"/>
 <node id="1901719514" lat="49.2327293" lon="17.7291809" user="czechreg" uid="787799" visible="true" version="1" changeset="13005209" timestamp="2012-09-06T05:19:12Z"/>
 <node id="1901719515" lat="49.2326351" lon="17.7296207" user="czechreg" uid="787799" visible="true" version="1" changeset="13005209" timestamp="2012-09-06T05:19:12Z"/>
 <node id="1901719516" lat="49.2325412" lon="17.7299248" user="czechreg" uid="787799" visible="true" version="1" changeset="13005209" timestamp="2012-09-06T05:19:12Z"/>
 <node id="1901719517" lat="49.2323710" lon="17.7301994" user="czechreg" uid="787799" visible="true" version="1" changeset="13005209" timestamp="2012-09-06T05:19:12Z"/>
 <node id="1901719518" lat="49.2321466" lon="17.7303549" user="czechreg" uid="787799" visible="true" version="1" changeset="13005209" timestamp="2012-09-06T05:19:12Z"/>
 <node id="1901719519" lat="49.2319525" lon="17.7303326" user="czechreg" uid="787799" visible="true" version="1" changeset="13005209" timestamp="2012-09-06T05:19:12Z"/>
 <node id="1901719520" lat="49.2315480" lon="17.7299970" user="czechreg" uid="787799" visible="true" version="1" changeset="13005209" timestamp="2012-09-06T05:19:12Z"/>
 <node id="1901719521" lat="49.2313510" lon="17.7296819" user="czechreg" uid="787799" visible="true" version="1" changeset="13005209" timestamp="2012-09-06T05:19:12Z"/>
 <node id="1901719523" lat="49.2311302" lon="17.7295310" user="czechreg" uid="787799" visible="true" version="1" changeset="13005209" timestamp="2012-09-06T05:19:13Z"/>
 <node id="1901719524" lat="49.2309777" lon="17.7295055" user="czechreg" uid="787799" visible="true" version="1" changeset="13005209" timestamp="2012-09-06T05:19:13Z"/>
 <node id="1901719525" lat="49.2306903" lon="17.7298025" user="czechreg" uid="787799" visible="true" version="1" changeset="13005209" timestamp="2012-09-06T05:19:13Z"/>
 <node id="1901719526" lat="49.2306615" lon="17.7299137" user="czechreg" uid="787799" visible="true" version="1" changeset="13005209" timestamp="2012-09-06T05:19:13Z"/>
 <node id="1901719527" lat="49.2307704" lon="17.7301928" user="czechreg" uid="787799" visible="true" version="1" changeset="13005209" timestamp="2012-09-06T05:19:13Z"/>
 <way id="181812906" user="czechreg" uid="787799" visible="true" version="1" changeset="13172700" timestamp="2012-09-19T16:54:04Z">
  <nd ref="1901715535"/>
  <nd ref="1901719359"/>
  <nd ref="1901719358"/>
  <nd ref="1901719357"/>
  <nd ref="1901719356"/>
  <nd ref="1901719353"/>
  <nd ref="1901719352"/>
  <nd ref="1901719350"/>
  <nd ref="1901719349"/>
  <nd ref="1901719348"/>
  <nd ref="1901719347"/>
  <nd ref="1901719346"/>
  <nd ref="1901719343"/>
  <nd ref="1901719342"/>
  <nd ref="1901719341"/>
  <nd ref="1901719340"/>
  <nd ref="1901719339"/>
  <nd ref="1901719338"/>
  <nd ref="1901719337"/>
  <nd ref="1901719336"/>
  <nd ref="1901719335"/>
  <nd ref="1901719333"/>
  <nd ref="1901719332"/>
  <nd ref="1901719331"/>
  <nd ref="1901719330"/>
  <nd ref="1901719329"/>
  <nd ref="1901719327"/>
  <nd ref="1901719325"/>
  <nd ref="1901719324"/>
  <nd ref="1901719323"/>
  <nd ref="1901719322"/>
  <nd ref="1901719321"/>
  <nd ref="1901719319"/>
  <nd ref="1901719317"/>
  <nd ref="1901719310"/>
  <nd ref="1901719308"/>
  <nd ref="1901719306"/>
  <nd ref="1901719304"/>
  <nd ref="1901719302"/>
  <nd ref="1901719300"/>
  <nd ref="1901719298"/>
  <nd ref="1901719296"/>
  <nd ref="1901719295"/>
  <nd ref="1901719294"/>
  <nd ref="1901719293"/>
  <nd ref="1901719292"/>
  <nd ref="1901719291"/>
  <nd ref="1901719290"/>
  <nd ref="1901719289"/>
  <nd ref="1901719288"/>
  <nd ref="1901719287"/>
  <nd ref="1901719286"/>
  <nd ref="1901719285"/>
  <nd ref="1901719284"/>
  <nd ref="1901719283"/>
  <nd ref="1901719282"/>
  <nd ref="1901719281"/>
  <nd ref="1901719280"/>
  <nd ref="1901719279"/>
  <nd ref="1901719278"/>
  <nd ref="1901719277"/>
  <nd ref="1901719275"/>
  <nd ref="1901719274"/>
  <nd ref="1901719273"/>
  <nd ref="1901719272"/>
  <nd ref="1901719271"/>
  <nd ref="1901719527"/>
  <nd ref="1901719526"/>
  <nd ref="1901719525"/>
  <nd ref="1901719524"/>
  <nd ref="1901719523"/>
  <nd ref="1901719521"/>
  <nd ref="1901719520"/>
  <nd ref="1901719519"/>
  <nd ref="1901719518"/>
  <nd ref="1901719517"/>
  <nd ref="1901719516"/>
  <nd ref="1901719515"/>
  <nd ref="1901719514"/>
  <nd ref="1901719513"/>
  <nd ref="1901719512"/>
  <nd ref="1901719511"/>
  <nd ref="1901719510"/>
  <nd ref="1901719508"/>
  <nd ref="1901719506"/>
  <nd ref="1901719505"/>
  <nd ref="1901719504"/>
  <nd ref="1901719503"/>
  <nd ref="1901719502"/>
  <nd ref="1901719501"/>
  <nd ref="1901719500"/>
  <nd ref="1901719499"/>
  <nd ref="1901719498"/>
  <nd ref="1901719497"/>
  <nd ref="1901717724"/>
  <tag k="admin_level" v="10"/>
  <tag k="boundary" v="administrative"/>
  <tag k="source" v="cuzk:ruian"/>
 </way>
 <way id="57034920" user="Hansign" uid="208872" visible="true" version="1" changeset="4557958" timestamp="2010-04-29T13:30:03Z">
  <nd ref="711994751"/>
  <nd ref="711994782"/>
  <nd ref="711994724"/>
  <nd ref="711994754"/>
  <nd ref="711994779"/>
  <nd ref="711994712"/>
  <nd ref="711994722"/>
  <nd ref="711994743"/>
  <nd ref="711994771"/>
  <nd ref="711994702"/>
  <nd ref="711994715"/>
  <nd ref="711994732"/>
  <nd ref="711994762"/>
  <nd ref="711994751"/>
  <tag k="building" v="yes"/>
  <tag k="name" v="Tescoma s.r.o."/>
  <tag k="source" v="cuzk:km"/>
 </way>
 <way id="70086005" user="flare" uid="367597" visible="true" version="2" changeset="11853163" timestamp="2012-06-10T11:21:04Z">
  <nd ref="837201545"/>
  <nd ref="837201684"/>
  <nd ref="837201856"/>
  <nd ref="837201740"/>
  <nd ref="837201444"/>
  <nd ref="837201980"/>
  <nd ref="837201737"/>
  <nd ref="837201633"/>
  <nd ref="837201976"/>
  <nd ref="837201852"/>
  <nd ref="837202027"/>
  <nd ref="837201913"/>
  <nd ref="837201562"/>
  <nd ref="837201491"/>
  <nd ref="1782472101"/>
  <nd ref="837201888"/>
  <nd ref="837201789"/>
  <nd ref="837201485"/>
  <nd ref="837202013"/>
  <nd ref="837202048"/>
  <nd ref="837201549"/>
  <nd ref="837201472"/>
  <nd ref="837201715"/>
  <nd ref="837201620"/>
  <nd ref="837201468"/>
  <nd ref="837201999"/>
  <nd ref="837201614"/>
  <nd ref="837201546"/>
  <nd ref="837201657"/>
  <nd ref="837201575"/>
  <nd ref="837201872"/>
  <nd ref="837201764"/>
  <nd ref="718492462"/>
  <nd ref="718492495"/>
  <nd ref="718492515"/>
  <nd ref="718492419"/>
  <nd ref="837201545"/>
  <tag k="landuse" v="industrial"/>
  <tag k="name" v="Průmyslová zóna Příluky"/>
 </way>
 <way id="57031814" user="Hansign" uid="208872" visible="true" version="1" changeset="4557672" timestamp="2010-04-29T12:48:59Z">
  <nd ref="711926808"/>
  <nd ref="711926851"/>
  <nd ref="711927011"/>
  <nd ref="711927090"/>
  <nd ref="711927202"/>
  <nd ref="711926835"/>
  <nd ref="711926855"/>
  <nd ref="711927052"/>
  <nd ref="711926808"/>
  <tag k="building" v="yes"/>
  <tag k="source" v="cuzk:km"/>
 </way>
 <way id="57034918" user="Hansign" uid="208872" visible="true" version="1" changeset="4557958" timestamp="2010-04-29T13:30:03Z">
  <nd ref="711994709"/>
  <nd ref="711994734"/>
  <nd ref="711994757"/>
  <nd ref="711994766"/>
  <nd ref="711994698"/>
  <nd ref="711994726"/>
  <nd ref="711994748"/>
  <nd ref="711994758"/>
  <nd ref="711994709"/>
  <tag k="building" v="yes"/>
  <tag k="source" v="cuzk:km"/>
 </way>
 <relation id="429401" user="czechreg" uid="787799" visible="true" version="6" changeset="13172700" timestamp="2012-09-19T16:54:11Z">
  <member type="way" ref="179736299" role="outer"/>
  <member type="way" ref="181812916" role="outer"/>
  <member type="way" ref="181812911" role="outer"/>
  <member type="way" ref="181812908" role="outer"/>
  <member type="way" ref="181812906" role="outer"/>
  <member type="way" ref="181812901" role="outer"/>
  <member type="way" ref="181812900" role="outer"/>
  <tag k="admin_level" v="10"/>
  <tag k="boundary" v="administrative"/>
  <tag k="name" v="Příluky u Zlína"/>
  <tag k="ref" v="635812"/>
  <tag k="source" v="cuzk:km"/>
  <tag k="type" v="boundary"/>
 </relation>
 <relation id="431561" user="czechreg" uid="787799" visible="true" version="6" changeset="13172700" timestamp="2012-09-19T16:54:09Z">
  <member type="way" ref="179736227" role="outer"/>
  <member type="way" ref="179736239" role="outer"/>
  <member type="way" ref="179736298" role="outer"/>
  <member type="way" ref="179736339" role="outer"/>
  <member type="way" ref="181812906" role="outer"/>
  <tag k="admin_level" v="10"/>
  <tag k="boundary" v="administrative"/>
  <tag k="name" v="Lužkovice"/>
  <tag k="ref" v="795887"/>
  <tag k="source" v="cuzk:km"/>
  <tag k="type" v="boundary"/>
 </relation>
 <relation id="440910" user="xificurk" uid="229590" visible="true" version="36" changeset="13183529" timestamp="2012-09-20T13:00:08Z">
  <member type="way" ref="51641489" role="outer"/>
  <member type="way" ref="51646032" role="outer"/>
  <member type="way" ref="51646035" role="outer"/>
  <member type="node" ref="1598988152" role="admin_centre"/>
  <member type="relation" ref="430824" role="subarea"/>
  <member type="relation" ref="433654" role="subarea"/>
  <member type="relation" ref="431562" role="subarea"/>
  <member type="relation" ref="432973" role="subarea"/>
  <member type="relation" ref="428399" role="subarea"/>
  <member type="relation" ref="431449" role="subarea"/>
  <member type="relation" ref="428849" role="subarea"/>
  <member type="relation" ref="431194" role="subarea"/>
  <member type="relation" ref="429401" role="subarea"/>
  <member type="relation" ref="433351" role="subarea"/>
  <member type="relation" ref="428339" role="subarea"/>
  <member type="relation" ref="431008" role="subarea"/>
  <member type="relation" ref="431191" role="subarea"/>
  <member type="relation" ref="431193" role="subarea"/>
  <member type="relation" ref="431561" role="subarea"/>
  <member type="way" ref="179358311" role="outer"/>
  <member type="way" ref="179563820" role="outer"/>
  <member type="way" ref="179736042" role="outer"/>
  <member type="way" ref="179736227" role="outer"/>
  <member type="way" ref="179736240" role="outer"/>
  <member type="way" ref="179736239" role="outer"/>
  <member type="way" ref="179736300" role="outer"/>
  <member type="way" ref="179736299" role="outer"/>
  <member type="way" ref="179736298" role="outer"/>
  <member type="way" ref="179736331" role="outer"/>
  <member type="way" ref="179736562" role="outer"/>
  <member type="way" ref="179736561" role="outer"/>
  <member type="way" ref="179736829" role="outer"/>
  <member type="way" ref="181619505" role="outer"/>
  <member type="way" ref="181619861" role="outer"/>
  <member type="way" ref="181812908" role="outer"/>
  <member type="way" ref="181813473" role="outer"/>
  <member type="way" ref="181813466" role="outer"/>
  <member type="way" ref="181813459" role="outer"/>
  <member type="way" ref="181813836" role="outer"/>
  <member type="way" ref="181813831" role="outer"/>
  <member type="way" ref="181890112" role="outer"/>
  <member type="way" ref="181891088" role="outer"/>
  <member type="way" ref="181891376" role="outer"/>
  <member type="way" ref="181922995" role="outer"/>
  <member type="way" ref="181922994" role="outer"/>
  <member type="way" ref="181932694" role="outer"/>
  <member type="way" ref="181932949" role="outer"/>
  <member type="way" ref="181933282" role="outer"/>
  <member type="way" ref="181933279" role="outer"/>
  <member type="way" ref="181933276" role="outer"/>
  <member type="way" ref="181933812" role="outer"/>
  <member type="way" ref="181933786" role="outer"/>
  <member type="way" ref="181934600" role="outer"/>
  <member type="way" ref="181934598" role="outer"/>
  <member type="way" ref="182023820" role="outer"/>
  <tag k="admin_level" v="8"/>
  <tag k="boundary" v="administrative"/>
  <tag k="name" v="Zlín"/>
  <tag k="name:prefix" v="statutární město"/>
  <tag k="name:ru" v="Злин"/>
  <tag k="population" v="75660"/>
  <tag k="ref" v="CZ0724585068"/>
  <tag k="source" v="cuzk:km"/>
  <tag k="source:population" v="csu:uir-zsj"/>
  <tag k="type" v="boundary"/>
 </relation>
</osm>
