<?xml version="1.0" encoding="UTF-8"?>
<osm version="0.6" generator="CGImap 0.1.0" copyright="OpenStreetMap and contributors" attribution="http://www.openstreetmap.org/copyright" license="http://opendatacommons.org/licenses/odbl/1-0/">
 <bounds minlat="49.2267870" minlon="17.6614400" maxlat="49.2272460" maxlon="17.6623300"/>
 <node id="452067595" lat="49.2271036" lon="17.6614835" user="Pavel Stržínek" uid="146707" visible="true" version="1" changeset="1988219" timestamp="2009-07-30T20:16:34Z"/>
 <node id="452067620" lat="49.2270243" lon="17.6615862" user="Pavel Stržínek" uid="146707" visible="true" version="1" changeset="1988219" timestamp="2009-07-30T20:16:39Z"/>
 <node id="452067624" lat="49.2268248" lon="17.6618293" user="zub" uid="29818" visible="true" version="2" changeset="2074017" timestamp="2009-08-08T11:13:48Z"/>
 <node id="452067625" lat="49.2268476" lon="17.6616015" user="zub" uid="29818" visible="true" version="2" changeset="2074017" timestamp="2009-08-08T11:13:48Z"/>
 <node id="452067619" lat="49.2269668" lon="17.6614648" user="zub" uid="29818" visible="true" version="2" changeset="2074017" timestamp="2009-08-08T11:13:49Z"/>
 <node id="452067622" lat="49.2270664" lon="17.6622106" user="zub" uid="29818" visible="true" version="2" changeset="2074017" timestamp="2009-08-08T11:13:49Z"/>
 <node id="452067623" lat="49.2270053" lon="17.6622076" user="zub" uid="29818" visible="true" version="2" changeset="2074017" timestamp="2009-08-08T11:13:49Z"/>
 <node id="452067621" lat="49.2272262" lon="17.6620198" user="zub" uid="29818" visible="true" version="2" changeset="2074017" timestamp="2009-08-08T11:13:49Z"/>
 <node id="1880765170" lat="49.2270213" lon="17.6618525" user="Datin" uid="115815" visible="true" version="1" changeset="12844502" timestamp="2012-08-24T12:58:36Z">
  <tag k="addr:country" v="CZ"/>
  <tag k="addr:housenumber" v="ev.3552"/>
  <tag k="addr:provisionalnumber" v="3552"/>
  <tag k="is_in" v="Zlín, Zlínský kraj, CZ"/>
  <tag k="source" v="cuzk:km"/>
 </node>
 <node id="452067617" lat="49.2272312" lon="17.6615489" user="zub" uid="29818" visible="true" version="2" changeset="5132673" timestamp="2010-07-04T13:00:57Z"/>
 <node id="810006868" lat="49.2269040" lon="17.6614925" user="Zubozrout" uid="123530" visible="true" version="1" changeset="5182419" timestamp="2010-07-10T13:05:05Z"/>
 <node id="810006877" lat="49.2269585" lon="17.6614545" user="Zubozrout" uid="123530" visible="true" version="1" changeset="5182419" timestamp="2010-07-10T13:05:06Z"/>
 <node id="810006897" lat="49.2268513" lon="17.6615730" user="Zubozrout" uid="123530" visible="true" version="1" changeset="5182419" timestamp="2010-07-10T13:05:06Z"/>
 <node id="281122785" lat="49.2271911" lon="17.6627254" user="Zubozrout" uid="123530" visible="true" version="7" changeset="5182441" timestamp="2010-07-10T13:10:32Z"/>
 <node id="388276997" lat="49.2272853" lon="17.6625108" user="zub" uid="29818" visible="true" version="2" changeset="5132673" timestamp="2010-07-04T13:00:44Z"/>
 <node id="388276998" lat="49.2273681" lon="17.6622014" user="zub" uid="29818" visible="true" version="2" changeset="5132673" timestamp="2010-07-04T13:00:50Z"/>
 <node id="388276999" lat="49.2273199" lon="17.6619051" user="zub" uid="29818" visible="true" version="2" changeset="5132673" timestamp="2010-07-04T13:00:56Z"/>
 <node id="388277002" lat="49.2267702" lon="17.6608531" user="Zubozrout" uid="123530" visible="true" version="3" changeset="4477663" timestamp="2010-04-20T14:32:07Z"/>
 <node id="452067611" lat="49.2276791" lon="17.6618662" user="Hansign" uid="208872" visible="true" version="3" changeset="4547922" timestamp="2010-04-28T09:41:06Z">
  <tag k="crossing" v="uncontrolled"/>
  <tag k="crossing_ref" v="zebra"/>
  <tag k="highway" v="crossing"/>
 </node>
 <node id="452067612" lat="49.2275405" lon="17.6619702" user="zub" uid="29818" visible="true" version="3" changeset="5132673" timestamp="2010-07-04T13:01:17Z"/>
 <node id="452067616" lat="49.2273853" lon="17.6618892" user="zub" uid="29818" visible="true" version="2" changeset="2082134" timestamp="2009-08-09T08:42:05Z"/>
 <node id="452067618" lat="49.2270597" lon="17.6611946" user="BiIbo" uid="3516" visible="true" version="2" changeset="4004203" timestamp="2010-02-28T23:28:38Z"/>
 <node id="458755485" lat="49.2266226" lon="17.6610888" user="zub" uid="29818" visible="true" version="1" changeset="2074017" timestamp="2009-08-08T11:13:42Z"/>
 <node id="459466033" lat="49.2275818" lon="17.6619409" user="zub" uid="29818" visible="true" version="1" changeset="2082134" timestamp="2009-08-09T08:41:32Z">
  <tag k="railway" v="crossing"/>
 </node>
 <node id="656862808" lat="49.2269834" lon="17.6609026" user="zub" uid="29818" visible="true" version="2" changeset="5132673" timestamp="2010-07-04T13:01:23Z"/>
 <node id="702552684" lat="49.2268714" lon="17.6609716" user="zub" uid="29818" visible="true" version="2" changeset="5132673" timestamp="2010-07-04T13:00:56Z">
  <tag k="crossing" v="uncontrolled"/>
  <tag k="highway" v="crossing"/>
 </node>
 <node id="800430937" lat="49.2266997" lon="17.6610857" user="zub" uid="29818" visible="true" version="1" changeset="5132673" timestamp="2010-07-04T13:00:24Z"/>
 <node id="800430983" lat="49.2273560" lon="17.6620506" user="zub" uid="29818" visible="true" version="1" changeset="5132673" timestamp="2010-07-04T13:00:26Z"/>
 <node id="800431078" lat="49.2273452" lon="17.6623498" user="zub" uid="29818" visible="true" version="1" changeset="5132673" timestamp="2010-07-04T13:00:30Z"/>
 <node id="800431082" lat="49.2268232" lon="17.6608985" user="zub" uid="29818" visible="true" version="1" changeset="5132673" timestamp="2010-07-04T13:00:30Z"/>
 <node id="800431162" lat="49.2265209" lon="17.6611089" user="Zubozrout" uid="123530" visible="true" version="2" changeset="5182386" timestamp="2010-07-10T12:59:42Z"/>
 <node id="810004925" lat="49.2271412" lon="17.6613630" user="Zubozrout" uid="123530" visible="true" version="1" changeset="5182386" timestamp="2010-07-10T12:59:40Z"/>
 <node id="810004930" lat="49.2270828" lon="17.6614375" user="Zubozrout" uid="123530" visible="true" version="1" changeset="5182386" timestamp="2010-07-10T12:59:40Z"/>
 <node id="810004948" lat="49.2275497" lon="17.6619637" user="Zubozrout" uid="123530" visible="true" version="1" changeset="5182386" timestamp="2010-07-10T12:59:41Z"/>
 <node id="810004949" lat="49.2265307" lon="17.6611484" user="Zubozrout" uid="123530" visible="true" version="1" changeset="5182386" timestamp="2010-07-10T12:59:41Z"/>
 <node id="810006869" lat="49.2269840" lon="17.6612240" user="Zubozrout" uid="123530" visible="true" version="1" changeset="5182419" timestamp="2010-07-10T13:05:05Z"/>
 <node id="810006873" lat="49.2268835" lon="17.6613347" user="Zubozrout" uid="123530" visible="true" version="1" changeset="5182419" timestamp="2010-07-10T13:05:05Z"/>
 <node id="810006888" lat="49.2268646" lon="17.6612553" user="Zubozrout" uid="123530" visible="true" version="1" changeset="5182419" timestamp="2010-07-10T13:05:06Z"/>
 <node id="810006892" lat="49.2268481" lon="17.6613737" user="Zubozrout" uid="123530" visible="true" version="1" changeset="5182419" timestamp="2010-07-10T13:05:06Z"/>
 <node id="810006894" lat="49.2268957" lon="17.6613213" user="Zubozrout" uid="123530" visible="true" version="1" changeset="5182419" timestamp="2010-07-10T13:05:06Z"/>
 <node id="810006902" lat="49.2267773" lon="17.6614232" user="Zubozrout" uid="123530" visible="true" version="1" changeset="5182419" timestamp="2010-07-10T13:05:06Z"/>
 <node id="810006904" lat="49.2267352" lon="17.6613379" user="Zubozrout" uid="123530" visible="true" version="1" changeset="5182419" timestamp="2010-07-10T13:05:06Z"/>
 <node id="1003506116" lat="49.2267672" lon="17.6613175" user="alik" uid="134948" visible="true" version="1" changeset="6452755" timestamp="2010-11-25T08:42:34Z"/>
 <node id="1003506119" lat="49.2265892" lon="17.6611105" user="alik" uid="134948" visible="true" version="1" changeset="6452755" timestamp="2010-11-25T08:42:34Z"/>
 <way id="38303996" user="zub" uid="29818" visible="true" version="2" changeset="2074017" timestamp="2009-08-08T11:13:52Z">
  <nd ref="452067595"/>
  <nd ref="452067620"/>
  <tag k="highway" v="service"/>
  <tag k="service" v="driveway"/>
 </way>
 <way id="38303995" user="Hansign" uid="208872" visible="true" version="3" changeset="4412034" timestamp="2010-04-13T09:40:44Z">
  <nd ref="452067619"/>
  <nd ref="452067620"/>
  <nd ref="452067621"/>
  <nd ref="452067622"/>
  <nd ref="452067623"/>
  <nd ref="452067624"/>
  <nd ref="452067625"/>
  <nd ref="452067619"/>
  <tag k="amenity" v="parking"/>
  <tag k="building" v="yes"/>
  <tag k="fee" v="yes"/>
  <tag k="parking" v="multi-storey"/>
 </way>
 <way id="38196812" user="Zubozrout" uid="123530" visible="true" version="6" changeset="5182419" timestamp="2010-07-10T13:05:08Z">
  <nd ref="388277002"/>
  <nd ref="800431082"/>
  <nd ref="702552684"/>
  <nd ref="810006869"/>
  <nd ref="810004930"/>
  <nd ref="452067595"/>
  <nd ref="388276999"/>
  <nd ref="800430983"/>
  <nd ref="388276998"/>
  <nd ref="800431078"/>
  <nd ref="388276997"/>
  <nd ref="281122785"/>
  <tag k="highway" v="residential"/>
  <tag k="name" v="Trávník"/>
  <tag k="source" v="uhul:ortofoto;local knowledge"/>
 </way>
 <way id="67026070" user="alik" uid="134948" visible="true" version="2" changeset="6452755" timestamp="2010-11-25T08:42:35Z">
  <nd ref="810006904"/>
  <nd ref="810006902"/>
  <nd ref="810006897"/>
  <nd ref="810006877"/>
  <nd ref="810006894"/>
  <nd ref="810006888"/>
  <nd ref="1003506116"/>
  <nd ref="810006904"/>
  <tag k="amenity" v="parking"/>
 </way>
 <way id="38705966" user="alik" uid="134948" visible="true" version="6" changeset="6452755" timestamp="2010-11-25T08:42:35Z">
  <nd ref="452067611"/>
  <nd ref="459466033"/>
  <nd ref="810004948"/>
  <nd ref="452067612"/>
  <nd ref="452067616"/>
  <nd ref="452067617"/>
  <nd ref="810004925"/>
  <nd ref="452067618"/>
  <nd ref="656862808"/>
  <nd ref="702552684"/>
  <nd ref="800430937"/>
  <nd ref="458755485"/>
  <nd ref="1003506119"/>
  <nd ref="810004949"/>
  <nd ref="800431162"/>
  <tag k="highway" v="footway"/>
  <tag k="source" v="cuzk:km;survey"/>
 </way>
 <way id="67026071" user="Zubozrout" uid="123530" visible="true" version="1" changeset="5182419" timestamp="2010-07-10T13:05:07Z">
  <nd ref="810006869"/>
  <nd ref="810006894"/>
  <nd ref="810006873"/>
  <nd ref="810006892"/>
  <nd ref="810006868"/>
  <tag k="access" v="permissive"/>
  <tag k="highway" v="service"/>
  <tag k="service" v="driveway"/>
 </way>
 <relation id="967433" user="Kraken" uid="96001" visible="true" version="13" changeset="13401635" timestamp="2012-10-07T17:32:55Z">
  <member type="way" ref="37006977" role=""/>
  <member type="way" ref="62215291" role=""/>
  <member type="way" ref="37007000" role=""/>
  <member type="way" ref="37007001" role=""/>
  <member type="way" ref="37007009" role=""/>
  <member type="way" ref="37007007" role=""/>
  <member type="way" ref="37007006" role=""/>
  <member type="way" ref="37007016" role=""/>
  <member type="way" ref="110591719" role=""/>
  <member type="way" ref="110601937" role=""/>
  <member type="way" ref="110591716" role=""/>
  <member type="way" ref="110591727" role=""/>
  <member type="way" ref="110591722" role=""/>
  <member type="way" ref="110591723" role=""/>
  <member type="way" ref="110601920" role=""/>
  <member type="way" ref="27745013" role=""/>
  <member type="way" ref="110588082" role=""/>
  <member type="way" ref="110588090" role=""/>
  <member type="way" ref="110588152" role=""/>
  <member type="way" ref="96121028" role=""/>
  <member type="way" ref="110588133" role=""/>
  <member type="way" ref="110588084" role=""/>
  <member type="way" ref="110601929" role=""/>
  <member type="way" ref="110588083" role=""/>
  <member type="way" ref="110588097" role=""/>
  <member type="way" ref="110588098" role=""/>
  <member type="way" ref="110601917" role=""/>
  <member type="way" ref="110588130" role=""/>
  <member type="way" ref="110601939" role=""/>
  <member type="way" ref="107808237" role=""/>
  <member type="way" ref="110588124" role=""/>
  <member type="way" ref="110588092" role=""/>
  <member type="way" ref="184615833" role=""/>
  <member type="way" ref="110588101" role=""/>
  <member type="way" ref="110588146" role=""/>
  <member type="way" ref="96121293" role=""/>
  <member type="way" ref="107808241" role=""/>
  <member type="way" ref="61401561" role=""/>
  <member type="way" ref="61401483" role=""/>
  <member type="way" ref="111482573" role=""/>
  <member type="way" ref="111482463" role=""/>
  <member type="way" ref="110588081" role=""/>
  <member type="way" ref="110588100" role=""/>
  <member type="way" ref="110601942" role=""/>
  <member type="way" ref="110588105" role=""/>
  <member type="way" ref="110588093" role=""/>
  <member type="way" ref="110588080" role=""/>
  <member type="way" ref="110601935" role=""/>
  <member type="way" ref="111482360" role=""/>
  <member type="way" ref="162881860" role=""/>
  <member type="way" ref="41438267" role=""/>
  <member type="way" ref="111482584" role=""/>
  <member type="way" ref="111482421" role=""/>
  <member type="way" ref="96121094" role=""/>
  <member type="way" ref="26343028" role=""/>
  <member type="way" ref="65658001" role=""/>
  <member type="way" ref="65658005" role=""/>
  <member type="way" ref="33891029" role=""/>
  <member type="way" ref="52062220" role=""/>
  <member type="way" ref="25773556" role=""/>
  <member type="way" ref="65655703" role=""/>
  <member type="way" ref="65655698" role=""/>
  <member type="way" ref="65655732" role=""/>
  <member type="way" ref="65645013" role=""/>
  <member type="way" ref="37289435" role=""/>
  <member type="way" ref="65655727" role=""/>
  <member type="way" ref="65644985" role=""/>
  <member type="way" ref="65645008" role=""/>
  <member type="way" ref="38705966" role=""/>
  <member type="way" ref="38290954" role=""/>
  <member type="way" ref="33886567" role=""/>
  <member type="way" ref="33886569" role=""/>
  <member type="way" ref="55971355" role=""/>
  <member type="way" ref="65655692" role=""/>
  <member type="way" ref="55971353" role=""/>
  <member type="way" ref="77670485" role=""/>
  <member type="way" ref="77670486" role=""/>
  <member type="way" ref="100849814" role=""/>
  <member type="way" ref="56313183" role=""/>
  <member type="way" ref="59359795" role=""/>
  <member type="way" ref="46352131" role=""/>
  <member type="way" ref="100849844" role=""/>
  <member type="way" ref="58885583" role=""/>
  <member type="way" ref="100849801" role=""/>
  <member type="way" ref="46352137" role=""/>
  <member type="way" ref="109437334" role=""/>
  <member type="way" ref="56126835" role=""/>
  <member type="way" ref="69213269" role=""/>
  <member type="way" ref="109437491" role=""/>
  <member type="way" ref="69213198" role=""/>
  <member type="way" ref="69213174" role=""/>
  <member type="way" ref="69213265" role=""/>
  <member type="way" ref="69213249" role=""/>
  <member type="way" ref="78087212" role=""/>
  <member type="way" ref="78086888" role=""/>
  <member type="way" ref="109437467" role=""/>
  <member type="way" ref="34225435" role=""/>
  <member type="way" ref="34225428" role=""/>
  <member type="node" ref="776028389" role="guidepost"/>
  <member type="node" ref="1262586620" role="guidepost"/>
  <member type="node" ref="1262586593" role="guidepost"/>
  <member type="node" ref="1262586596" role="guidepost"/>
  <member type="node" ref="1262558788" role="guidepost"/>
  <member type="node" ref="1262558519" role="guidepost"/>
  <member type="node" ref="1262559243" role="guidepost"/>
  <member type="node" ref="1262558905" role="guidepost"/>
  <member type="node" ref="1262558577" role="guidepost"/>
  <member type="node" ref="1262558521" role="guidepost"/>
  <member type="node" ref="800476119" role="guidepost"/>
  <member type="node" ref="800476104" role="guidepost"/>
  <member type="node" ref="1357544321" role="guidepost"/>
  <member type="node" ref="304625820" role="guidepost"/>
  <member type="node" ref="670896522" role="guidepost"/>
  <tag k="complete" v="no"/>
  <tag k="destinations" v="Solné-Zlín"/>
  <tag k="kct_yellow" v="major"/>
  <tag k="note" v="solné;luhačovice;provodov;zlín"/>
  <tag k="operator" v="cz:KČT"/>
  <tag k="osmc:symbol" v="yellow:white:yellow_bar"/>
  <tag k="route" v="foot"/>
  <tag k="type" v="route"/>
 </relation>
 <relation id="530460" user="Kraken" uid="96001" visible="true" version="22" changeset="14781023" timestamp="2013-01-25T14:03:39Z">
  <member type="way" ref="202810803" role=""/>
  <member type="way" ref="109437404" role=""/>
  <member type="way" ref="202810792" role=""/>
  <member type="way" ref="171883765" role=""/>
  <member type="way" ref="24390380" role=""/>
  <member type="way" ref="171880422" role=""/>
  <member type="way" ref="109437333" role=""/>
  <member type="way" ref="38023187" role=""/>
  <member type="way" ref="109437490" role=""/>
  <member type="way" ref="114312384" role=""/>
  <member type="way" ref="117701806" role=""/>
  <member type="way" ref="87964145" role=""/>
  <member type="way" ref="87964108" role=""/>
  <member type="way" ref="72466252" role=""/>
  <member type="way" ref="72471132" role=""/>
  <member type="way" ref="72466239" role=""/>
  <member type="way" ref="38691707" role=""/>
  <member type="way" ref="84689468" role=""/>
  <member type="way" ref="38691708" role=""/>
  <member type="way" ref="116636100" role=""/>
  <member type="way" ref="116636001" role=""/>
  <member type="way" ref="97117980" role=""/>
  <member type="way" ref="96121288" role=""/>
  <member type="way" ref="96121295" role=""/>
  <member type="way" ref="40890503" role=""/>
  <member type="way" ref="96121128" role=""/>
  <member type="way" ref="25773547" role=""/>
  <member type="way" ref="40955579" role=""/>
  <member type="way" ref="36994954" role=""/>
  <member type="way" ref="74277187" role=""/>
  <member type="way" ref="36994925" role=""/>
  <member type="way" ref="38527768" role=""/>
  <member type="way" ref="65655700" role=""/>
  <member type="way" ref="65644990" role=""/>
  <member type="way" ref="65655712" role=""/>
  <member type="way" ref="37289435" role=""/>
  <member type="way" ref="65655727" role=""/>
  <member type="way" ref="65644985" role=""/>
  <member type="way" ref="65645008" role=""/>
  <member type="way" ref="38705966" role=""/>
  <member type="way" ref="38290954" role=""/>
  <member type="way" ref="33886567" role=""/>
  <member type="way" ref="33886569" role=""/>
  <member type="way" ref="55971425" role=""/>
  <member type="way" ref="65655704" role=""/>
  <member type="way" ref="65655696" role=""/>
  <member type="way" ref="65655721" role=""/>
  <member type="way" ref="38142173" role=""/>
  <member type="way" ref="38214352" role=""/>
  <member type="way" ref="38709045" role=""/>
  <member type="way" ref="65655678" role=""/>
  <member type="way" ref="65645001" role=""/>
  <member type="way" ref="65645006" role=""/>
  <member type="way" ref="65655718" role=""/>
  <member type="way" ref="65644996" role=""/>
  <member type="way" ref="65655720" role=""/>
  <member type="way" ref="37605522" role=""/>
  <member type="way" ref="38709059" role=""/>
  <member type="way" ref="58722834" role=""/>
  <member type="way" ref="65655688" role=""/>
  <member type="way" ref="34225424" role=""/>
  <member type="way" ref="34225423" role=""/>
  <member type="way" ref="34225425" role=""/>
  <member type="way" ref="34225421" role=""/>
  <member type="way" ref="100849836" role=""/>
  <member type="way" ref="34225429" role=""/>
  <member type="way" ref="111734675" role=""/>
  <member type="way" ref="111734631" role=""/>
  <member type="way" ref="111734698" role=""/>
  <member type="way" ref="111734706" role=""/>
  <member type="way" ref="111734621" role=""/>
  <member type="way" ref="111734691" role=""/>
  <member type="way" ref="111734630" role=""/>
  <member type="way" ref="111734609" role=""/>
  <member type="way" ref="38141539" role=""/>
  <member type="way" ref="38785672" role=""/>
  <member type="way" ref="38785673" role=""/>
  <member type="way" ref="111734654" role=""/>
  <member type="way" ref="38141541" role=""/>
  <member type="way" ref="52004181" role=""/>
  <member type="way" ref="161865184" role=""/>
  <member type="way" ref="78495113" role=""/>
  <member type="way" ref="38141529" role=""/>
  <member type="way" ref="111734703" role=""/>
  <member type="way" ref="111734660" role=""/>
  <member type="way" ref="111734637" role=""/>
  <member type="way" ref="111734597" role=""/>
  <member type="way" ref="114312672" role=""/>
  <member type="way" ref="114312651" role=""/>
  <member type="way" ref="114312588" role=""/>
  <member type="way" ref="114312544" role=""/>
  <member type="way" ref="111528728" role=""/>
  <member type="way" ref="114312467" role=""/>
  <member type="way" ref="114312360" role=""/>
  <member type="way" ref="164627423" role=""/>
  <member type="way" ref="171279677" role=""/>
  <member type="way" ref="171279737" role=""/>
  <member type="node" ref="1252756676" role="guidepost"/>
  <member type="node" ref="1113732712" role="guidepost"/>
  <member type="node" ref="860369143" role="guidepost"/>
  <member type="node" ref="860368588" role="guidepost"/>
  <member type="node" ref="800476104" role="guidepost"/>
  <member type="node" ref="800476119" role="guidepost"/>
  <member type="node" ref="860435749" role="guidepost"/>
  <member type="node" ref="670896498" role="guidepost"/>
  <member type="node" ref="670896522" role="guidepost"/>
  <member type="node" ref="1272283804" role="guidepost"/>
  <member type="node" ref="1272283997" role="guidepost"/>
  <member type="node" ref="1272283991" role="guidepost"/>
  <member type="node" ref="1272284020" role="guidepost"/>
  <member type="node" ref="1295170521" role="guidepost"/>
  <member type="node" ref="1823391419" role="guidepost"/>
  <tag k="complete" v="no"/>
  <tag k="destinations" v="Zlín-Hostýn-Pod Valy"/>
  <tag k="kct_blue" v="major"/>
  <tag k="note" v="zlín;fryšták;rusava;hostýn-pod valy"/>
  <tag k="operator" v="cz:KČT"/>
  <tag k="osmc:symbol" v="blue:white:blue_bar"/>
  <tag k="route" v="foot"/>
  <tag k="type" v="route"/>
 </relation>
 <relation id="562748" user="morson2" uid="1245436" visible="true" version="21" changeset="15394892" timestamp="2013-03-17T12:25:04Z">
  <member type="way" ref="65644985" role=""/>
  <member type="way" ref="65645008" role=""/>
  <member type="way" ref="38705966" role=""/>
  <member type="way" ref="38290954" role=""/>
  <member type="way" ref="33886567" role=""/>
  <member type="way" ref="33886569" role=""/>
  <member type="way" ref="55971425" role=""/>
  <member type="way" ref="65655704" role=""/>
  <member type="way" ref="65655696" role=""/>
  <member type="way" ref="38041018" role=""/>
  <member type="way" ref="66098530" role=""/>
  <member type="way" ref="72240458" role=""/>
  <member type="way" ref="51732364" role=""/>
  <member type="way" ref="38749303" role=""/>
  <member type="way" ref="38289822" role=""/>
  <member type="way" ref="38289821" role=""/>
  <member type="way" ref="66110543" role=""/>
  <member type="way" ref="57357896" role=""/>
  <member type="way" ref="66261161" role=""/>
  <member type="way" ref="66261183" role=""/>
  <member type="way" ref="66261154" role=""/>
  <member type="way" ref="66130124" role=""/>
  <member type="way" ref="66261194" role=""/>
  <member type="way" ref="66261178" role=""/>
  <member type="way" ref="66261204" role=""/>
  <member type="way" ref="110354465" role=""/>
  <member type="way" ref="110354461" role=""/>
  <member type="way" ref="110354437" role=""/>
  <member type="way" ref="110354427" role=""/>
  <member type="way" ref="110354448" role=""/>
  <member type="way" ref="110354501" role=""/>
  <member type="way" ref="110354499" role=""/>
  <member type="way" ref="42438067" role=""/>
  <member type="way" ref="110354460" role=""/>
  <member type="way" ref="42438061" role=""/>
  <member type="way" ref="110354503" role=""/>
  <member type="way" ref="38784264" role=""/>
  <member type="way" ref="38784265" role=""/>
  <member type="way" ref="9627412" role=""/>
  <member type="way" ref="38158910" role=""/>
  <member type="way" ref="110354490" role=""/>
  <member type="way" ref="58205744" role=""/>
  <member type="way" ref="111734657" role=""/>
  <member type="way" ref="166903216" role=""/>
  <member type="way" ref="58205728" role=""/>
  <member type="way" ref="111734615" role=""/>
  <member type="way" ref="9627041" role=""/>
  <member type="way" ref="111734633" role=""/>
  <member type="way" ref="32677465" role=""/>
  <member type="way" ref="58205740" role=""/>
  <member type="way" ref="166821954" role=""/>
  <member type="way" ref="166821946" role=""/>
  <member type="way" ref="166821957" role=""/>
  <member type="way" ref="96121212" role=""/>
  <member type="way" ref="114312538" role=""/>
  <member type="way" ref="96121014" role=""/>
  <member type="way" ref="166821948" role=""/>
  <member type="way" ref="166821952" role=""/>
  <member type="way" ref="166821955" role=""/>
  <member type="way" ref="166822351" role=""/>
  <member type="way" ref="166822353" role=""/>
  <member type="way" ref="166821949" role=""/>
  <member type="way" ref="166876479" role=""/>
  <member type="way" ref="166876481" role=""/>
  <member type="way" ref="174631020" role=""/>
  <member type="way" ref="174631186" role=""/>
  <member type="way" ref="174631073" role=""/>
  <member type="way" ref="174630991" role=""/>
  <member type="way" ref="174631091" role=""/>
  <member type="way" ref="71503144" role=""/>
  <member type="way" ref="174631074" role=""/>
  <member type="way" ref="174631184" role=""/>
  <member type="way" ref="174631182" role=""/>
  <member type="way" ref="165595692" role=""/>
  <member type="way" ref="165595694" role=""/>
  <member type="way" ref="67818044" role=""/>
  <member type="way" ref="67987685" role=""/>
  <member type="way" ref="174631183" role=""/>
  <member type="way" ref="174661235" role=""/>
  <member type="way" ref="174661250" role=""/>
  <member type="way" ref="174631070" role=""/>
  <member type="way" ref="174631043" role=""/>
  <member type="way" ref="174631056" role=""/>
  <member type="way" ref="55741324" role=""/>
  <member type="way" ref="55741328" role=""/>
  <member type="way" ref="55742679" role=""/>
  <member type="way" ref="36814212" role=""/>
  <member type="way" ref="36814210" role=""/>
  <member type="way" ref="55742682" role=""/>
  <member type="way" ref="36814209" role=""/>
  <member type="way" ref="55752184" role=""/>
  <member type="way" ref="55741317" role=""/>
  <member type="way" ref="55742677" role=""/>
  <member type="way" ref="128876709" role=""/>
  <member type="way" ref="128876688" role=""/>
  <member type="way" ref="128876722" role=""/>
  <member type="way" ref="27946036" role=""/>
  <member type="way" ref="81301485" role=""/>
  <member type="way" ref="27919613" role=""/>
  <member type="way" ref="128876716" role=""/>
  <member type="way" ref="128876674" role=""/>
  <member type="node" ref="800476104" role="guidepost"/>
  <member type="node" ref="802371633" role="guidepost"/>
  <member type="node" ref="803475731" role="guidepost"/>
  <member type="node" ref="1260428818" role="guidepost"/>
  <member type="node" ref="367703208" role="guidepost"/>
  <member type="node" ref="1272284070" role="guidepost"/>
  <member type="node" ref="1785197081" role="guidepost"/>
  <member type="node" ref="1852866309" role="guidepost"/>
  <member type="node" ref="1852866263" role="guidepost"/>
  <member type="node" ref="1852866287" role="guidepost"/>
  <member type="node" ref="1852866265" role="guidepost"/>
  <member type="node" ref="1852866286" role="guidepost"/>
  <member type="node" ref="1852866283" role="guidepost"/>
  <member type="node" ref="700297932" role="guidepost"/>
  <member type="node" ref="700298003" role="guidepost"/>
  <member type="node" ref="700298042" role="guidepost"/>
  <tag k="complete" v="no"/>
  <tag k="destinations" v="Zlín-Bystřička(přehrada)"/>
  <tag k="kct_red" v="major"/>
  <tag k="note" v="zlín;štípa;lukov;držková;tesák;rajnochovice;lázy;valašské meziříčí;bystřička"/>
  <tag k="operator" v="cz:KČT"/>
  <tag k="osmc:symbol" v="red:white:red_bar"/>
  <tag k="route" v="foot"/>
  <tag k="type" v="route"/>
 </relation>
</osm>
