<?xml version="1.0" encoding="UTF-8"?>
<osm version="0.6" generator="CGImap 0.1.0" copyright="OpenStreetMap and contributors" attribution="http://www.openstreetmap.org/copyright" license="http://opendatacommons.org/licenses/odbl/1-0/">
 <bounds minlat="49.2213400" minlon="17.6467000" maxlat="49.2221900" maxlon="17.6488700"/>
 <node id="702566372" lat="49.2214444" lon="17.6487816" user="Zubozrout" uid="123530" visible="true" version="1" changeset="4477856" timestamp="2010-04-20T14:53:58Z"/>
 <node id="702566374" lat="49.2213730" lon="17.6483765" user="Zubozrout" uid="123530" visible="true" version="1" changeset="4477856" timestamp="2010-04-20T14:53:58Z"/>
 <node id="702566377" lat="49.2213458" lon="17.6484692" user="Zubozrout" uid="123530" visible="true" version="1" changeset="4477856" timestamp="2010-04-20T14:53:58Z"/>
 <node id="702566382" lat="49.2214300" lon="17.6487876" user="Zubozrout" uid="123530" visible="true" version="1" changeset="4477856" timestamp="2010-04-20T14:53:58Z"/>
 <node id="702566384" lat="49.2213840" lon="17.6484567" user="Zubozrout" uid="123530" visible="true" version="1" changeset="4477856" timestamp="2010-04-20T14:53:58Z"/>
 <node id="706492238" lat="49.2219736" lon="17.6467219" user="Zubozrout" uid="123530" visible="true" version="1" changeset="4524506" timestamp="2010-04-25T18:04:50Z"/>
 <node id="706492243" lat="49.2220238" lon="17.6467485" user="Zubozrout" uid="123530" visible="true" version="1" changeset="4524506" timestamp="2010-04-25T18:04:50Z"/>
 <node id="706492443" lat="49.2220620" lon="17.6468992" user="Zubozrout" uid="123530" visible="true" version="1" changeset="4524506" timestamp="2010-04-25T18:04:54Z"/>
 <node id="706492445" lat="49.2219255" lon="17.6468371" user="Zubozrout" uid="123530" visible="true" version="1" changeset="4524506" timestamp="2010-04-25T18:04:54Z"/>
 <node id="706492447" lat="49.2218571" lon="17.6468805" user="Zubozrout" uid="123530" visible="true" version="1" changeset="4524506" timestamp="2010-04-25T18:04:54Z"/>
 <node id="706492449" lat="49.2220008" lon="17.6468224" user="Zubozrout" uid="123530" visible="true" version="1" changeset="4524506" timestamp="2010-04-25T18:04:54Z"/>
 <node id="706492450" lat="49.2219331" lon="17.6468653" user="Zubozrout" uid="123530" visible="true" version="1" changeset="4524506" timestamp="2010-04-25T18:04:54Z"/>
 <node id="1880756930" lat="49.2217813" lon="17.6479675" user="Datin" uid="115815" visible="true" version="1" changeset="12844502" timestamp="2012-08-24T12:51:59Z">
  <tag k="addr:conscriptionnumber" v="5266"/>
  <tag k="addr:country" v="CZ"/>
  <tag k="addr:housenumber" v="5266"/>
  <tag k="is_in" v="Zlín, Zlínský kraj, CZ"/>
  <tag k="source" v="cuzk:km"/>
 </node>
 <node id="808282390" lat="49.2213908" lon="17.6475696" user="Zubozrout" uid="123530" visible="true" version="1" changeset="5175683" timestamp="2010-07-09T17:57:45Z"/>
 <node id="808282391" lat="49.2217965" lon="17.6468665" user="Zubozrout" uid="123530" visible="true" version="1" changeset="5175683" timestamp="2010-07-09T17:57:45Z"/>
 <node id="808282393" lat="49.2220388" lon="17.6482912" user="Zubozrout" uid="123530" visible="true" version="1" changeset="5175683" timestamp="2010-07-09T17:57:45Z"/>
 <node id="808282405" lat="49.2220955" lon="17.6482288" user="Zubozrout" uid="123530" visible="true" version="1" changeset="5175683" timestamp="2010-07-09T17:57:46Z"/>
 <node id="808282406" lat="49.2216199" lon="17.6473993" user="Zubozrout" uid="123530" visible="true" version="1" changeset="5175683" timestamp="2010-07-09T17:57:46Z"/>
 <node id="808282411" lat="49.2213810" lon="17.6474972" user="Zubozrout" uid="123530" visible="true" version="1" changeset="5175683" timestamp="2010-07-09T17:57:46Z"/>
 <node id="808282418" lat="49.2220536" lon="17.6481088" user="Zubozrout" uid="123530" visible="true" version="1" changeset="5175683" timestamp="2010-07-09T17:57:46Z"/>
 <node id="808282419" lat="49.2219591" lon="17.6469106" user="Zubozrout" uid="123530" visible="true" version="1" changeset="5175683" timestamp="2010-07-09T17:57:46Z"/>
 <node id="808282427" lat="49.2214609" lon="17.6478740" user="Zubozrout" uid="123530" visible="true" version="1" changeset="5175683" timestamp="2010-07-09T17:57:47Z"/>
 <node id="808282431" lat="49.2215717" lon="17.6483179" user="Zubozrout" uid="123530" visible="true" version="1" changeset="5175683" timestamp="2010-07-09T17:57:47Z"/>
 <node id="808282446" lat="49.2216827" lon="17.6473301" user="Zubozrout" uid="123530" visible="true" version="1" changeset="5175683" timestamp="2010-07-09T17:57:47Z"/>
 <node id="706492440" lat="49.2214969" lon="17.6472910" user="Zubozrout" uid="123530" visible="true" version="2" changeset="5175683" timestamp="2010-07-09T17:57:49Z"/>
 <node id="706492148" lat="49.2213675" lon="17.6470155" user="Zubozrout" uid="123530" visible="true" version="2" changeset="5175683" timestamp="2010-07-09T17:57:49Z"/>
 <node id="706492559" lat="49.2218336" lon="17.6488431" user="Zubozrout" uid="123530" visible="true" version="2" changeset="5175683" timestamp="2010-07-09T17:57:49Z"/>
 <node id="706492561" lat="49.2217247" lon="17.6486111" user="Zubozrout" uid="123530" visible="true" version="2" changeset="5175683" timestamp="2010-07-09T17:57:49Z"/>
 <node id="706492557" lat="49.2217419" lon="17.6482555" user="Zubozrout" uid="123530" visible="true" version="2" changeset="5175683" timestamp="2010-07-09T17:57:50Z"/>
 <node id="800195560" lat="49.2216765" lon="17.6467662" user="Zubozrout" uid="123530" visible="true" version="2" changeset="5175683" timestamp="2010-07-09T17:57:50Z"/>
 <node id="706492232" lat="49.2214779" lon="17.6468940" user="Zubozrout" uid="123530" visible="true" version="2" changeset="5175683" timestamp="2010-07-09T17:57:50Z"/>
 <node id="706492151" lat="49.2214873" lon="17.6475413" user="Zubozrout" uid="123530" visible="true" version="2" changeset="5175683" timestamp="2010-07-09T17:57:51Z"/>
 <node id="706492554" lat="49.2216368" lon="17.6483712" user="Zubozrout" uid="123530" visible="true" version="2" changeset="5175683" timestamp="2010-07-09T17:57:51Z"/>
 <node id="288609373" lat="49.2215844" lon="17.6467241" user="Zubozrout" uid="123530" visible="true" version="3" changeset="5175683" timestamp="2010-07-09T17:57:51Z"/>
 <node id="706492551" lat="49.2217410" lon="17.6485932" user="Zubozrout" uid="123530" visible="true" version="2" changeset="5175683" timestamp="2010-07-09T17:57:51Z"/>
 <node id="706492149" lat="49.2214341" lon="17.6475999" user="Zubozrout" uid="123530" visible="true" version="2" changeset="5175683" timestamp="2010-07-09T17:57:52Z"/>
 <node id="706492146" lat="49.2214131" lon="17.6473832" user="Zubozrout" uid="123530" visible="true" version="2" changeset="5175683" timestamp="2010-07-09T17:57:52Z"/>
 <node id="590896471" lat="49.2218572" lon="17.6469538" user="Zubozrout" uid="123530" visible="true" version="3" changeset="5175683" timestamp="2010-07-09T17:57:52Z"/>
 <node id="288609379" lat="49.2196599" lon="17.6395435" user="Petr Dlouhý" uid="17615" visible="true" version="1" changeset="285903" timestamp="2008-08-17T00:34:49Z"/>
 <node id="288609381" lat="49.2185435" lon="17.6347370" user="Hansign" uid="208872" visible="true" version="2" changeset="5344806" timestamp="2010-07-29T08:49:10Z"/>
 <node id="288609383" lat="49.2182854" lon="17.6317411" user="Petr Dlouhý" uid="17615" visible="true" version="1" changeset="285903" timestamp="2008-08-17T00:34:50Z"/>
 <node id="288609385" lat="49.2180516" lon="17.6289924" user="Petr Dlouhý" uid="17615" visible="true" version="1" changeset="285903" timestamp="2008-08-17T00:34:50Z"/>
 <node id="288609386" lat="49.2173876" lon="17.6260576" user="Petr Dlouhý" uid="17615" visible="true" version="1" changeset="285903" timestamp="2008-08-17T00:34:50Z"/>
 <node id="288609388" lat="49.2157731" lon="17.6217645" user="zub" uid="29818" visible="true" version="2" changeset="2082788" timestamp="2009-08-09T09:52:49Z"/>
 <node id="288609390" lat="49.2134880" lon="17.6168093" user="Petr Dlouhý" uid="17615" visible="true" version="1" changeset="285903" timestamp="2008-08-17T00:34:51Z"/>
 <node id="288609409" lat="49.2128240" lon="17.6149625" user="zub" uid="29818" visible="true" version="2" changeset="2082788" timestamp="2009-08-09T09:52:49Z">
  <tag k="railway" v="level_crossing"/>
 </node>
 <node id="288609417" lat="49.2117485" lon="17.6113548" user="Petr Dlouhý" uid="17615" visible="true" version="1" changeset="285903" timestamp="2008-08-17T00:34:52Z"/>
 <node id="288609433" lat="49.2106797" lon="17.6076422" user="Zubozrout" uid="123530" visible="true" version="2" changeset="5143556" timestamp="2010-07-05T16:56:00Z"/>
 <node id="288609443" lat="49.2098967" lon="17.6024788" user="Zubozrout" uid="123530" visible="true" version="2" changeset="5143556" timestamp="2010-07-05T16:56:01Z"/>
 <node id="288609451" lat="49.2097845" lon="17.5965660" user="Petr Dlouhý" uid="17615" visible="true" version="1" changeset="285903" timestamp="2008-08-17T00:34:52Z"/>
 <node id="288609460" lat="49.2097246" lon="17.5952529" user="Zubozrout" uid="123530" visible="true" version="2" changeset="3375219" timestamp="2009-12-14T21:02:27Z"/>
 <node id="288609474" lat="49.2081103" lon="17.5871889" user="Petr Dlouhý" uid="17615" visible="true" version="1" changeset="285903" timestamp="2008-08-17T00:34:53Z"/>
 <node id="288609478" lat="49.2061820" lon="17.5772348" user="BiIbo" uid="3516" visible="true" version="2" changeset="2457887" timestamp="2009-09-12T15:25:04Z"/>
 <node id="288609480" lat="49.2052845" lon="17.5684744" user="BiIbo" uid="3516" visible="true" version="2" changeset="2457887" timestamp="2009-09-12T15:25:03Z"/>
 <node id="288609483" lat="49.2050424" lon="17.5664016" user="Petr Dlouhý" uid="17615" visible="true" version="1" changeset="285903" timestamp="2008-08-17T00:34:54Z"/>
 <node id="288609485" lat="49.2036168" lon="17.5570280" user="vrabcak" uid="8007" visible="true" version="3" changeset="6366035" timestamp="2010-11-14T12:09:20Z">
  <tag k="railway" v="level_crossing"/>
 </node>
 <node id="288610669" lat="49.2055391" lon="17.5738037" user="BiIbo" uid="3516" visible="true" version="3" changeset="2457887" timestamp="2009-09-12T15:25:04Z">
  <tag k="name" v="Zlín-Malenovice zastávka"/>
  <tag k="railway" v="halt"/>
 </node>
 <node id="288972296" lat="49.2067304" lon="17.5799478" user="vrabcak" uid="8007" visible="true" version="1" changeset="304083" timestamp="2008-08-18T00:01:33Z">
  <tag k="created_by" v="Merkaartor 0.12"/>
  <tag k="railway" v="level_crossing"/>
 </node>
 <node id="288972301" lat="49.2054847" lon="17.5733393" user="BiIbo" uid="3516" visible="true" version="2" changeset="2457887" timestamp="2009-09-12T15:25:04Z">
  <tag k="railway" v="level_crossing"/>
 </node>
 <node id="288972312" lat="49.2163155" lon="17.6231653" user="zub" uid="29818" visible="true" version="2" changeset="2082788" timestamp="2009-08-09T09:52:49Z">
  <tag k="railway" v="level_crossing"/>
 </node>
 <node id="304619316" lat="49.2092753" lon="17.5915379" user="Zubozrout" uid="123530" visible="true" version="2" changeset="3375219" timestamp="2009-12-14T21:02:27Z">
  <tag k="railway" v="level_crossing"/>
 </node>
 <node id="388436727" lat="49.2200700" lon="17.6411600" user="zub" uid="29818" visible="true" version="1" changeset="1043161" timestamp="2009-05-02T00:01:01Z">
  <tag k="railway" v="level_crossing"/>
 </node>
 <node id="388436728" lat="49.2178000" lon="17.6274711" user="zub" uid="29818" visible="true" version="1" changeset="1043161" timestamp="2009-05-02T00:01:01Z"/>
 <node id="459475768" lat="49.2183273" lon="17.6327039" user="Hansign" uid="208872" visible="true" version="3" changeset="5344806" timestamp="2010-07-29T08:49:14Z">
  <tag k="railway" v="level_crossing"/>
 </node>
 <node id="494219866" lat="49.2054212" lon="17.5717018" user="BiIbo" uid="3516" visible="true" version="1" changeset="2457887" timestamp="2009-09-12T15:25:03Z"/>
 <node id="590835083" lat="49.2083638" lon="17.5883893" user="Zubozrout" uid="123530" visible="true" version="1" changeset="3375219" timestamp="2009-12-14T21:02:23Z"/>
 <node id="590835094" lat="49.2089449" lon="17.5903953" user="Zubozrout" uid="123530" visible="true" version="1" changeset="3375219" timestamp="2009-12-14T21:02:23Z"/>
 <node id="590835096" lat="49.2086513" lon="17.5895437" user="Zubozrout" uid="123530" visible="true" version="1" changeset="3375219" timestamp="2009-12-14T21:02:23Z"/>
 <node id="590835111" lat="49.2091768" lon="17.5911476" user="Zubozrout" uid="123530" visible="true" version="1" changeset="3375219" timestamp="2009-12-14T21:02:24Z"/>
 <node id="590835120" lat="49.2095724" lon="17.5935748" user="Zubozrout" uid="123530" visible="true" version="1" changeset="3375219" timestamp="2009-12-14T21:02:24Z"/>
 <node id="590835121" lat="49.2093993" lon="17.5922311" user="Zubozrout" uid="123530" visible="true" version="1" changeset="3375219" timestamp="2009-12-14T21:02:24Z"/>
 <node id="590835132" lat="49.2097734" lon="17.5962574" user="Zubozrout" uid="123530" visible="true" version="1" changeset="3375219" timestamp="2009-12-14T21:02:24Z">
  <tag k="crossing" v="traffic_signals"/>
  <tag k="railway" v="crossing"/>
 </node>
 <node id="590896454" lat="49.2223799" lon="17.6466769" user="Zubozrout" uid="123530" visible="true" version="2" changeset="4524506" timestamp="2010-04-25T18:05:32Z"/>
 <node id="590896455" lat="49.2214885" lon="17.6457588" user="Zubozrout" uid="123530" visible="true" version="2" changeset="4524506" timestamp="2010-04-25T18:05:32Z"/>
 <node id="590896456" lat="49.2220432" lon="17.6453847" user="Zubozrout" uid="123530" visible="true" version="1" changeset="3375622" timestamp="2009-12-14T21:47:53Z"/>
 <node id="590896457" lat="49.2224554" lon="17.6466279" user="Zubozrout" uid="123530" visible="true" version="2" changeset="4524506" timestamp="2010-04-25T18:05:32Z">
  <tag k="railway" v="level_crossing"/>
 </node>
 <node id="590896459" lat="49.2235798" lon="17.6459550" user="flare" uid="367597" visible="true" version="3" changeset="7577024" timestamp="2011-03-16T16:06:26Z"/>
 <node id="590896461" lat="49.2235338" lon="17.6459823" user="flare" uid="367597" visible="true" version="3" changeset="7569393" timestamp="2011-03-15T19:27:40Z">
  <tag k="railway" v="level_crossing"/>
 </node>
 <node id="702566272" lat="49.2213315" lon="17.6480780" user="Zubozrout" uid="123530" visible="true" version="1" changeset="4477856" timestamp="2010-04-20T14:53:57Z"/>
 <node id="702566274" lat="49.2210732" lon="17.6477776" user="Zubozrout" uid="123530" visible="true" version="1" changeset="4477856" timestamp="2010-04-20T14:53:57Z"/>
 <node id="702566277" lat="49.2212885" lon="17.6480921" user="Zubozrout" uid="123530" visible="true" version="1" changeset="4477856" timestamp="2010-04-20T14:53:57Z"/>
 <node id="702566284" lat="49.2212023" lon="17.6477353" user="Zubozrout" uid="123530" visible="true" version="1" changeset="4477856" timestamp="2010-04-20T14:53:57Z"/>
 <node id="702566285" lat="49.2212371" lon="17.6477243" user="Zubozrout" uid="123530" visible="true" version="1" changeset="4477856" timestamp="2010-04-20T14:53:57Z"/>
 <node id="702566379" lat="49.2213346" lon="17.6483890" user="Zubozrout" uid="123530" visible="true" version="1" changeset="4477856" timestamp="2010-04-20T14:53:58Z"/>
 <node id="702566386" lat="49.2212230" lon="17.6488551" user="Zubozrout" uid="123530" visible="true" version="1" changeset="4477856" timestamp="2010-04-20T14:53:58Z"/>
 <node id="702566467" lat="49.2213701" lon="17.6498921" user="Zubozrout" uid="123530" visible="true" version="1" changeset="4477856" timestamp="2010-04-20T14:53:59Z"/>
 <node id="702566633" lat="49.2215396" lon="17.6498349" user="Zubozrout" uid="123530" visible="true" version="1" changeset="4477856" timestamp="2010-04-20T14:54:02Z"/>
 <node id="702566635" lat="49.2215816" lon="17.6497359" user="Zubozrout" uid="123530" visible="true" version="1" changeset="4477856" timestamp="2010-04-20T14:54:02Z"/>
 <node id="702566637" lat="49.2215279" lon="17.6497540" user="Zubozrout" uid="123530" visible="true" version="1" changeset="4477856" timestamp="2010-04-20T14:54:02Z"/>
 <node id="706492234" lat="49.2215675" lon="17.6458093" user="Zubozrout" uid="123530" visible="true" version="1" changeset="4524506" timestamp="2010-04-25T18:04:50Z"/>
 <node id="706492236" lat="49.2220103" lon="17.6466987" user="Zubozrout" uid="123530" visible="true" version="1" changeset="4524506" timestamp="2010-04-25T18:04:50Z"/>
 <node id="706492241" lat="49.2216373" lon="17.6457651" user="Zubozrout" uid="123530" visible="true" version="1" changeset="4524506" timestamp="2010-04-25T18:04:50Z"/>
 <node id="706492245" lat="49.2220926" lon="17.6459683" user="Zubozrout" uid="123530" visible="true" version="1" changeset="4524506" timestamp="2010-04-25T18:04:50Z"/>
 <node id="706492248" lat="49.2220592" lon="17.6459896" user="Zubozrout" uid="123530" visible="true" version="1" changeset="4524506" timestamp="2010-04-25T18:04:50Z"/>
 <node id="706492250" lat="49.2217258" lon="17.6456416" user="Zubozrout" uid="123530" visible="true" version="1" changeset="4524506" timestamp="2010-04-25T18:04:50Z"/>
 <node id="706492252" lat="49.2219636" lon="17.6454909" user="Zubozrout" uid="123530" visible="true" version="1" changeset="4524506" timestamp="2010-04-25T18:04:50Z"/>
 <node id="706492254" lat="49.2217270" lon="17.6458042" user="Zubozrout" uid="123530" visible="true" version="1" changeset="4524506" timestamp="2010-04-25T18:04:51Z"/>
 <node id="706492255" lat="49.2217635" lon="17.6457810" user="Zubozrout" uid="123530" visible="true" version="1" changeset="4524506" timestamp="2010-04-25T18:04:51Z"/>
 <node id="706492256" lat="49.2216297" lon="17.6457370" user="Zubozrout" uid="123530" visible="true" version="1" changeset="4524506" timestamp="2010-04-25T18:04:51Z"/>
 <node id="706492274" lat="49.2216973" lon="17.6456942" user="Zubozrout" uid="123530" visible="true" version="1" changeset="4524506" timestamp="2010-04-25T18:04:51Z"/>
 <node id="706492290" lat="49.2222291" lon="17.6466184" user="Zubozrout" uid="123530" visible="true" version="1" changeset="4524506" timestamp="2010-04-25T18:04:51Z"/>
 <node id="706492476" lat="49.2222165" lon="17.6468049" user="Zubozrout" uid="123530" visible="true" version="1" changeset="4524506" timestamp="2010-04-25T18:04:55Z"/>
 <node id="706492478" lat="49.2222389" lon="17.6468908" user="Zubozrout" uid="123530" visible="true" version="1" changeset="4524506" timestamp="2010-04-25T18:04:55Z"/>
 <node id="706492479" lat="49.2223054" lon="17.6468501" user="Zubozrout" uid="123530" visible="true" version="1" changeset="4524506" timestamp="2010-04-25T18:04:55Z"/>
 <node id="706492502" lat="49.2223716" lon="17.6480874" user="Zubozrout" uid="123530" visible="true" version="1" changeset="4524506" timestamp="2010-04-25T18:04:55Z"/>
 <node id="706492505" lat="49.2225212" lon="17.6479960" user="Zubozrout" uid="123530" visible="true" version="1" changeset="4524506" timestamp="2010-04-25T18:04:55Z"/>
 <node id="706492507" lat="49.2225425" lon="17.6480777" user="Zubozrout" uid="123530" visible="true" version="1" changeset="4524506" timestamp="2010-04-25T18:04:55Z"/>
 <node id="706492508" lat="49.2226139" lon="17.6480341" user="Zubozrout" uid="123530" visible="true" version="1" changeset="4524506" timestamp="2010-04-25T18:04:55Z"/>
 <node id="706492570" lat="49.2221964" lon="17.6484437" user="Zubozrout" uid="123530" visible="true" version="2" changeset="5175683" timestamp="2010-07-09T17:57:50Z"/>
 <node id="706502486" lat="49.2215976" lon="17.6456852" user="Zubozrout" uid="123530" visible="true" version="1" changeset="4524648" timestamp="2010-04-25T18:14:42Z"/>
 <node id="800190421" lat="49.2236293" lon="17.6511985" user="Zubozrout" uid="123530" visible="true" version="2" changeset="5131499" timestamp="2010-07-04T10:35:16Z"/>
 <node id="800195516" lat="49.2224099" lon="17.6485779" user="Zubozrout" uid="123530" visible="true" version="2" changeset="5175683" timestamp="2010-07-09T17:57:49Z"/>
 <node id="800195550" lat="49.2213971" lon="17.6462565" user="Zubozrout" uid="123530" visible="true" version="2" changeset="5175683" timestamp="2010-07-09T17:57:52Z"/>
 <node id="802337720" lat="49.2097891" lon="17.6008475" user="Zubozrout" uid="123530" visible="true" version="1" changeset="5143556" timestamp="2010-07-05T16:55:09Z"/>
 <node id="802337838" lat="49.2107674" lon="17.6080957" user="Zubozrout" uid="123530" visible="true" version="2" changeset="5144593" timestamp="2010-07-05T19:03:44Z"/>
 <node id="802338075" lat="49.2098082" lon="17.6016104" user="Zubozrout" uid="123530" visible="true" version="1" changeset="5143556" timestamp="2010-07-05T16:55:20Z"/>
 <node id="802338115" lat="49.2104672" lon="17.6062748" user="Zubozrout" uid="123530" visible="true" version="1" changeset="5143556" timestamp="2010-07-05T16:55:22Z"/>
 <node id="802338133" lat="49.2071126" lon="17.5819531" user="Zubozrout" uid="123530" visible="true" version="1" changeset="5143556" timestamp="2010-07-05T16:55:22Z"/>
 <node id="802338323" lat="49.2082672" lon="17.5879696" user="Zubozrout" uid="123530" visible="true" version="1" changeset="5143556" timestamp="2010-07-05T16:55:28Z"/>
 <node id="802338331" lat="49.2097846" lon="17.5965980" user="Zubozrout" uid="123530" visible="true" version="1" changeset="5143556" timestamp="2010-07-05T16:55:28Z"/>
 <node id="802338445" lat="49.2097867" lon="17.5972106" user="Zubozrout" uid="123530" visible="true" version="1" changeset="5143556" timestamp="2010-07-05T16:55:31Z"/>
 <node id="802338532" lat="49.2108772" lon="17.6084978" user="Zubozrout" uid="123530" visible="true" version="2" changeset="5144593" timestamp="2010-07-05T19:03:44Z"/>
 <node id="802338601" lat="49.2098463" lon="17.6020952" user="Zubozrout" uid="123530" visible="true" version="1" changeset="5143556" timestamp="2010-07-05T16:55:35Z"/>
 <node id="802338616" lat="49.2103330" lon="17.6053805" user="Zubozrout" uid="123530" visible="true" version="1" changeset="5143556" timestamp="2010-07-05T16:55:36Z"/>
 <node id="802531340" lat="49.2108207" lon="17.6083063" user="Zubozrout" uid="123530" visible="true" version="2" changeset="5144593" timestamp="2010-07-05T19:03:44Z"/>
 <node id="802531341" lat="49.2107167" lon="17.6078603" user="Zubozrout" uid="123530" visible="true" version="2" changeset="5144593" timestamp="2010-07-05T19:03:44Z"/>
 <node id="808282384" lat="49.2216091" lon="17.6491741" user="Zubozrout" uid="123530" visible="true" version="1" changeset="5175683" timestamp="2010-07-09T17:57:45Z"/>
 <node id="808282387" lat="49.2212650" lon="17.6458557" user="Zubozrout" uid="123530" visible="true" version="1" changeset="5175683" timestamp="2010-07-09T17:57:45Z"/>
 <node id="808282388" lat="49.2212057" lon="17.6461635" user="Zubozrout" uid="123530" visible="true" version="1" changeset="5175683" timestamp="2010-07-09T17:57:45Z"/>
 <node id="808282400" lat="49.2210150" lon="17.6444944" user="Zubozrout" uid="123530" visible="true" version="1" changeset="5175683" timestamp="2010-07-09T17:57:45Z"/>
 <node id="808282401" lat="49.2213191" lon="17.6469684" user="Zubozrout" uid="123530" visible="true" version="1" changeset="5175683" timestamp="2010-07-09T17:57:46Z"/>
 <node id="808282403" lat="49.2211661" lon="17.6455151" user="Zubozrout" uid="123530" visible="true" version="1" changeset="5175683" timestamp="2010-07-09T17:57:46Z"/>
 <node id="808282407" lat="49.2204996" lon="17.6436244" user="Zubozrout" uid="123530" visible="true" version="1" changeset="5175683" timestamp="2010-07-09T17:57:46Z"/>
 <node id="808282410" lat="49.2212643" lon="17.6465443" user="Zubozrout" uid="123530" visible="true" version="1" changeset="5175683" timestamp="2010-07-09T17:57:46Z"/>
 <node id="808282412" lat="49.2222696" lon="17.6467153" user="Zubozrout" uid="123530" visible="true" version="1" changeset="5175683" timestamp="2010-07-09T17:57:46Z"/>
 <node id="808282413" lat="49.2204753" lon="17.6432274" user="Zubozrout" uid="123530" visible="true" version="1" changeset="5175683" timestamp="2010-07-09T17:57:46Z"/>
 <node id="808282415" lat="49.2215781" lon="17.6465068" user="Zubozrout" uid="123530" visible="true" version="1" changeset="5175683" timestamp="2010-07-09T17:57:46Z"/>
 <node id="808282417" lat="49.2218784" lon="17.6491347" user="Zubozrout" uid="123530" visible="true" version="1" changeset="5175683" timestamp="2010-07-09T17:57:46Z"/>
 <node id="808282426" lat="49.2214351" lon="17.6460372" user="Zubozrout" uid="123530" visible="true" version="1" changeset="5175683" timestamp="2010-07-09T17:57:47Z"/>
 <node id="808282432" lat="49.2204146" lon="17.6429724" user="Zubozrout" uid="123530" visible="true" version="1" changeset="5175683" timestamp="2010-07-09T17:57:47Z"/>
 <node id="808282434" lat="49.2210690" lon="17.6457232" user="Zubozrout" uid="123530" visible="true" version="1" changeset="5175683" timestamp="2010-07-09T17:57:47Z"/>
 <node id="808282438" lat="49.2209550" lon="17.6454524" user="Zubozrout" uid="123530" visible="true" version="1" changeset="5175683" timestamp="2010-07-09T17:57:47Z"/>
 <node id="808282440" lat="49.2223732" lon="17.6483337" user="Zubozrout" uid="123530" visible="true" version="1" changeset="5175683" timestamp="2010-07-09T17:57:47Z"/>
 <node id="808282442" lat="49.2208823" lon="17.6452323" user="Zubozrout" uid="123530" visible="true" version="1" changeset="5175683" timestamp="2010-07-09T17:57:47Z"/>
 <node id="808282443" lat="49.2204558" lon="17.6433422" user="Zubozrout" uid="123530" visible="true" version="1" changeset="5175683" timestamp="2010-07-09T17:57:47Z"/>
 <node id="808282454" lat="49.2213423" lon="17.6464989" user="Zubozrout" uid="123530" visible="true" version="1" changeset="5175683" timestamp="2010-07-09T17:57:48Z"/>
 <node id="808282455" lat="49.2205885" lon="17.6439893" user="Zubozrout" uid="123530" visible="true" version="1" changeset="5175683" timestamp="2010-07-09T17:57:48Z"/>
 <node id="837201451" lat="49.2188860" lon="17.6364812" user="Hansign" uid="208872" visible="true" version="1" changeset="5344806" timestamp="2010-07-29T08:48:45Z"/>
 <node id="1197233040" lat="49.2227725" lon="17.6464382" user="flare" uid="367597" visible="true" version="2" changeset="7577024" timestamp="2011-03-16T16:06:27Z"/>
 <node id="1197233155" lat="49.2234626" lon="17.6460252" user="flare" uid="367597" visible="true" version="3" changeset="7577024" timestamp="2011-03-16T16:06:27Z"/>
 <node id="1209307229" lat="49.2234294" lon="17.6460450" user="flare" uid="367597" visible="true" version="1" changeset="7608552" timestamp="2011-03-19T18:54:39Z">
  <tag k="railway" v="level_crossing"/>
 </node>
 <node id="1254091634" lat="49.2046416" lon="17.5637663" user="Zubozrout" uid="123530" visible="true" version="1" changeset="7926622" timestamp="2011-04-21T15:59:17Z"/>
 <node id="1254091765" lat="49.2035878" lon="17.5568135" user="Zubozrout" uid="123530" visible="true" version="1" changeset="7926622" timestamp="2011-04-21T15:59:23Z"/>
 <node id="1279696455" lat="49.2058962" lon="17.5757094" user="Zubozrout" uid="123530" visible="true" version="1" changeset="8106903" timestamp="2011-05-10T21:11:01Z">
  <tag k="railway" v="level_crossing"/>
 </node>
 <node id="1795471788" lat="49.2127978" lon="17.6148783" user="flare" uid="367597" visible="true" version="1" changeset="11957149" timestamp="2012-06-20T10:43:32Z"/>
 <node id="1795471798" lat="49.2128647" lon="17.6150757" user="flare" uid="367597" visible="true" version="1" changeset="11957149" timestamp="2012-06-20T10:43:32Z"/>
 <way id="56313168" user="flare" uid="367597" visible="true" version="2" changeset="7273203" timestamp="2011-02-13T09:51:49Z">
  <nd ref="706492508"/>
  <nd ref="706492507"/>
  <nd ref="706492505"/>
  <nd ref="706492502"/>
  <nd ref="706492443"/>
  <nd ref="706492476"/>
  <nd ref="706492478"/>
  <nd ref="706492479"/>
  <nd ref="706492508"/>
  <tag k="building" v="yes"/>
  <tag k="building:levels" v="1"/>
 </way>
 <way id="66904327" user="Zubozrout" uid="123530" visible="true" version="1" changeset="5175683" timestamp="2010-07-09T17:57:48Z">
  <nd ref="808282418"/>
  <nd ref="808282454"/>
  <nd ref="808282388"/>
  <nd ref="808282434"/>
  <nd ref="808282438"/>
  <nd ref="808282442"/>
  <nd ref="808282455"/>
  <nd ref="808282407"/>
  <nd ref="808282443"/>
  <nd ref="808282432"/>
  <tag k="electrified" v="no"/>
  <tag k="railway" v="rail"/>
  <tag k="service" v="spur"/>
 </way>
 <way id="55972259" user="flare" uid="367597" visible="true" version="2" changeset="7273203" timestamp="2011-02-13T09:51:45Z">
  <nd ref="702566382"/>
  <nd ref="702566384"/>
  <nd ref="702566377"/>
  <nd ref="702566379"/>
  <nd ref="702566374"/>
  <nd ref="702566272"/>
  <nd ref="702566277"/>
  <nd ref="702566285"/>
  <nd ref="702566284"/>
  <nd ref="702566274"/>
  <nd ref="702566386"/>
  <nd ref="702566382"/>
  <tag k="building" v="yes"/>
  <tag k="building:levels" v="5"/>
 </way>
 <way id="56313169" user="flare" uid="367597" visible="true" version="2" changeset="7273203" timestamp="2011-02-13T09:51:23Z">
  <nd ref="706492234"/>
  <nd ref="706492447"/>
  <nd ref="706492445"/>
  <nd ref="706492450"/>
  <nd ref="706492449"/>
  <nd ref="706492238"/>
  <nd ref="706492236"/>
  <nd ref="706492243"/>
  <nd ref="706492290"/>
  <nd ref="706492248"/>
  <nd ref="706492245"/>
  <nd ref="706492252"/>
  <nd ref="706492250"/>
  <nd ref="706492255"/>
  <nd ref="706492254"/>
  <nd ref="706492274"/>
  <nd ref="706492256"/>
  <nd ref="706492241"/>
  <nd ref="706492234"/>
  <tag k="building" v="yes"/>
  <tag k="building:levels" v="7"/>
 </way>
 <way id="55972245" user="Zubozrout" uid="123530" visible="true" version="1" changeset="4477856" timestamp="2010-04-20T14:54:04Z">
  <nd ref="702566633"/>
  <nd ref="702566637"/>
  <nd ref="702566635"/>
  <nd ref="702566372"/>
  <nd ref="702566382"/>
  <nd ref="702566386"/>
  <nd ref="702566467"/>
  <nd ref="702566633"/>
  <tag k="building" v="yes"/>
 </way>
 <way id="46271915" user="flare" uid="367597" visible="true" version="16" changeset="11957149" timestamp="2012-06-20T10:43:52Z">
  <nd ref="800190421"/>
  <nd ref="800195516"/>
  <nd ref="288609373"/>
  <nd ref="800195550"/>
  <nd ref="808282387"/>
  <nd ref="808282403"/>
  <nd ref="388436727"/>
  <nd ref="288609379"/>
  <nd ref="837201451"/>
  <nd ref="288609381"/>
  <nd ref="459475768"/>
  <nd ref="288609383"/>
  <nd ref="288609385"/>
  <nd ref="388436728"/>
  <nd ref="288609386"/>
  <nd ref="288972312"/>
  <nd ref="288609388"/>
  <nd ref="288609390"/>
  <nd ref="1795471798"/>
  <nd ref="288609409"/>
  <nd ref="1795471788"/>
  <nd ref="288609417"/>
  <nd ref="802338532"/>
  <nd ref="802531340"/>
  <nd ref="802337838"/>
  <nd ref="802531341"/>
  <nd ref="288609433"/>
  <nd ref="802338115"/>
  <nd ref="802338616"/>
  <nd ref="288609443"/>
  <nd ref="802338601"/>
  <nd ref="802338075"/>
  <nd ref="802337720"/>
  <nd ref="802338445"/>
  <nd ref="802338331"/>
  <nd ref="288609451"/>
  <nd ref="590835132"/>
  <nd ref="288609460"/>
  <nd ref="590835120"/>
  <nd ref="590835121"/>
  <nd ref="304619316"/>
  <nd ref="590835111"/>
  <nd ref="590835094"/>
  <nd ref="590835096"/>
  <nd ref="590835083"/>
  <nd ref="802338323"/>
  <nd ref="288609474"/>
  <nd ref="802338133"/>
  <nd ref="288972296"/>
  <nd ref="288609478"/>
  <nd ref="1279696455"/>
  <nd ref="288610669"/>
  <nd ref="288972301"/>
  <nd ref="494219866"/>
  <nd ref="288609480"/>
  <nd ref="288609483"/>
  <nd ref="1254091634"/>
  <nd ref="288609485"/>
  <nd ref="1254091765"/>
  <tag k="electrified" v="no"/>
  <tag k="railway" v="rail"/>
  <tag k="ref" v="331"/>
  <tag k="source" v="uhul:ortofoto"/>
  <tag k="tracks" v="1"/>
 </way>
 <way id="66904333" user="Zubozrout" uid="123530" visible="true" version="1" changeset="5175683" timestamp="2010-07-09T17:57:49Z">
  <nd ref="808282413"/>
  <nd ref="808282434"/>
  <nd ref="808282410"/>
  <nd ref="808282401"/>
  <nd ref="808282411"/>
  <nd ref="808282390"/>
  <nd ref="808282384"/>
  <tag k="electrified" v="no"/>
  <tag k="railway" v="rail"/>
  <tag k="service" v="spur"/>
 </way>
 <way id="56313161" user="Zubozrout" uid="123530" visible="true" version="2" changeset="5175683" timestamp="2010-07-09T17:57:50Z">
  <nd ref="706492559"/>
  <nd ref="706492570"/>
  <nd ref="808282405"/>
  <nd ref="808282393"/>
  <nd ref="808282406"/>
  <nd ref="808282446"/>
  <nd ref="706492232"/>
  <nd ref="706492148"/>
  <nd ref="706492440"/>
  <nd ref="706492146"/>
  <nd ref="706492151"/>
  <nd ref="706492149"/>
  <nd ref="706492557"/>
  <nd ref="706492554"/>
  <nd ref="706492551"/>
  <nd ref="706492561"/>
  <nd ref="706492559"/>
  <tag k="building" v="yes"/>
 </way>
 <way id="46271933" user="flare" uid="367597" visible="true" version="9" changeset="12080836" timestamp="2012-07-01T20:30:21Z">
  <nd ref="590896459"/>
  <nd ref="590896461"/>
  <nd ref="1197233155"/>
  <nd ref="1209307229"/>
  <nd ref="1197233040"/>
  <nd ref="590896457"/>
  <nd ref="590896454"/>
  <nd ref="808282412"/>
  <nd ref="808282419"/>
  <nd ref="590896471"/>
  <nd ref="808282391"/>
  <nd ref="590896455"/>
  <nd ref="706502486"/>
  <nd ref="590896456"/>
  <tag k="highway" v="residential"/>
  <tag k="lit" v="yes"/>
 </way>
 <way id="66904329" user="Zubozrout" uid="123530" visible="true" version="1" changeset="5175683" timestamp="2010-07-09T17:57:48Z">
  <nd ref="808282440"/>
  <nd ref="800195560"/>
  <nd ref="808282415"/>
  <nd ref="808282426"/>
  <nd ref="808282400"/>
  <tag k="electrified" v="no"/>
  <tag k="railway" v="disused"/>
  <tag k="service" v="spur"/>
  <tag k="source" v="cuzk:km"/>
 </way>
 <way id="66904325" user="Zubozrout" uid="123530" visible="true" version="1" changeset="5175683" timestamp="2010-07-09T17:57:48Z">
  <nd ref="808282390"/>
  <nd ref="808282427"/>
  <nd ref="808282431"/>
  <nd ref="808282417"/>
  <tag k="electrified" v="no"/>
  <tag k="railway" v="rail"/>
  <tag k="service" v="spur"/>
 </way>
 <relation id="48780" user="Zubozrout" uid="123530" visible="true" version="10" changeset="7926622" timestamp="2011-04-21T15:59:37Z">
  <member type="way" ref="64321787" role=""/>
  <member type="way" ref="46271915" role=""/>
  <member type="way" ref="109584653" role=""/>
  <member type="way" ref="109584629" role=""/>
  <member type="way" ref="65619448" role=""/>
  <member type="way" ref="33888264" role=""/>
  <member type="way" ref="33888265" role=""/>
  <member type="way" ref="33903945" role=""/>
  <member type="way" ref="33903946" role=""/>
  <member type="way" ref="26343088" role=""/>
  <member type="way" ref="26377493" role=""/>
  <member type="way" ref="38749340" role=""/>
  <member type="way" ref="38749321" role=""/>
  <member type="way" ref="26377495" role=""/>
  <member type="way" ref="26377494" role=""/>
  <member type="way" ref="26377497" role=""/>
  <member type="way" ref="26377498" role=""/>
  <member type="way" ref="26377500" role=""/>
  <tag k="ref" v="331"/>
  <tag k="route" v="railway"/>
  <tag k="type" v="route"/>
 </relation>
 <relation id="2332889" user="Jezevec" uid="102554" visible="true" version="4" changeset="13992079" timestamp="2012-11-22T22:06:24Z">
  <member type="relation" ref="48517" role=""/>
  <member type="relation" ref="38576" role=""/>
  <member type="relation" ref="48613" role=""/>
  <member type="relation" ref="48614" role=""/>
  <member type="relation" ref="48616" role=""/>
  <member type="relation" ref="48617" role=""/>
  <member type="relation" ref="48620" role=""/>
  <member type="relation" ref="48619" role=""/>
  <member type="relation" ref="48646" role=""/>
  <member type="relation" ref="48621" role=""/>
  <member type="relation" ref="49017" role=""/>
  <member type="relation" ref="48733" role=""/>
  <member type="relation" ref="48523" role=""/>
  <member type="relation" ref="2147425" role=""/>
  <member type="relation" ref="49028" role=""/>
  <member type="relation" ref="49029" role=""/>
  <member type="relation" ref="49030" role=""/>
  <member type="relation" ref="38685" role=""/>
  <member type="relation" ref="49031" role=""/>
  <member type="relation" ref="49032" role=""/>
  <member type="relation" ref="49033" role=""/>
  <member type="relation" ref="49034" role=""/>
  <member type="relation" ref="49036" role=""/>
  <member type="relation" ref="49037" role=""/>
  <member type="relation" ref="49038" role=""/>
  <member type="relation" ref="49205" role=""/>
  <member type="relation" ref="49040" role=""/>
  <member type="relation" ref="38684" role=""/>
  <member type="relation" ref="49041" role=""/>
  <member type="relation" ref="38914" role=""/>
  <member type="relation" ref="49042" role=""/>
  <member type="relation" ref="49046" role=""/>
  <member type="relation" ref="49045" role=""/>
  <member type="relation" ref="49048" role=""/>
  <member type="relation" ref="49044" role=""/>
  <member type="relation" ref="49049" role=""/>
  <member type="relation" ref="49050" role=""/>
  <member type="relation" ref="49051" role=""/>
  <member type="relation" ref="49053" role=""/>
  <member type="relation" ref="38993" role=""/>
  <member type="relation" ref="48629" role=""/>
  <member type="relation" ref="49056" role=""/>
  <member type="relation" ref="49059" role=""/>
  <member type="relation" ref="49062" role=""/>
  <member type="relation" ref="48626" role=""/>
  <member type="relation" ref="49063" role=""/>
  <member type="relation" ref="49064" role=""/>
  <member type="relation" ref="48790" role=""/>
  <member type="relation" ref="48793" role=""/>
  <member type="relation" ref="48794" role=""/>
  <member type="relation" ref="48795" role=""/>
  <member type="relation" ref="48796" role=""/>
  <member type="relation" ref="48797" role=""/>
  <member type="relation" ref="48798" role=""/>
  <member type="relation" ref="48799" role=""/>
  <member type="relation" ref="48801" role=""/>
  <member type="relation" ref="48800" role=""/>
  <member type="relation" ref="48628" role=""/>
  <member type="relation" ref="48802" role=""/>
  <member type="relation" ref="48803" role=""/>
  <member type="relation" ref="48804" role=""/>
  <member type="relation" ref="48809" role=""/>
  <member type="relation" ref="9191" role=""/>
  <member type="relation" ref="1824656" role=""/>
  <member type="relation" ref="48811" role=""/>
  <member type="relation" ref="48812" role=""/>
  <member type="relation" ref="48813" role=""/>
  <member type="relation" ref="48814" role=""/>
  <member type="relation" ref="49179" role=""/>
  <member type="relation" ref="49186" role=""/>
  <member type="relation" ref="49189" role=""/>
  <member type="relation" ref="23288" role=""/>
  <member type="relation" ref="14035" role=""/>
  <member type="relation" ref="49180" role=""/>
  <member type="relation" ref="49191" role=""/>
  <member type="relation" ref="9190" role=""/>
  <member type="relation" ref="48823" role=""/>
  <member type="relation" ref="9298" role=""/>
  <member type="relation" ref="48824" role=""/>
  <member type="relation" ref="48825" role=""/>
  <member type="relation" ref="48826" role=""/>
  <member type="relation" ref="48821" role=""/>
  <member type="relation" ref="48827" role=""/>
  <member type="relation" ref="48839" role=""/>
  <member type="relation" ref="48838" role=""/>
  <member type="relation" ref="48836" role=""/>
  <member type="relation" ref="48835" role=""/>
  <member type="relation" ref="48830" role=""/>
  <member type="relation" ref="48829" role=""/>
  <member type="relation" ref="48828" role=""/>
  <member type="relation" ref="48840" role=""/>
  <member type="relation" ref="14037" role=""/>
  <member type="relation" ref="48841" role=""/>
  <member type="relation" ref="48843" role=""/>
  <member type="relation" ref="48979" role=""/>
  <member type="relation" ref="48844" role=""/>
  <member type="relation" ref="48845" role=""/>
  <member type="relation" ref="23190" role=""/>
  <member type="relation" ref="23188" role=""/>
  <member type="relation" ref="48846" role=""/>
  <member type="relation" ref="48847" role=""/>
  <member type="relation" ref="48848" role=""/>
  <member type="relation" ref="48849" role=""/>
  <member type="relation" ref="48850" role=""/>
  <member type="relation" ref="48851" role=""/>
  <member type="relation" ref="48852" role=""/>
  <member type="relation" ref="48854" role=""/>
  <member type="relation" ref="48855" role=""/>
  <member type="relation" ref="48856" role=""/>
  <member type="relation" ref="48857" role=""/>
  <member type="relation" ref="48861" role=""/>
  <member type="relation" ref="48858" role=""/>
  <member type="relation" ref="48859" role=""/>
  <member type="relation" ref="48867" role=""/>
  <member type="relation" ref="48870" role=""/>
  <member type="relation" ref="48869" role=""/>
  <member type="relation" ref="48868" role=""/>
  <member type="relation" ref="48815" role=""/>
  <member type="relation" ref="48872" role=""/>
  <member type="relation" ref="48871" role=""/>
  <member type="relation" ref="39077" role=""/>
  <member type="relation" ref="48873" role=""/>
  <member type="relation" ref="48874" role=""/>
  <member type="relation" ref="48876" role=""/>
  <member type="relation" ref="48877" role=""/>
  <member type="relation" ref="48878" role=""/>
  <member type="relation" ref="48879" role=""/>
  <member type="relation" ref="48880" role=""/>
  <member type="relation" ref="48882" role=""/>
  <member type="relation" ref="39019" role=""/>
  <member type="relation" ref="48888" role=""/>
  <member type="relation" ref="48883" role=""/>
  <member type="relation" ref="48890" role=""/>
  <member type="relation" ref="48891" role=""/>
  <member type="relation" ref="48893" role=""/>
  <member type="relation" ref="48896" role=""/>
  <member type="relation" ref="48875" role=""/>
  <member type="relation" ref="48898" role=""/>
  <member type="relation" ref="49104" role=""/>
  <member type="relation" ref="48899" role=""/>
  <member type="relation" ref="61113" role=""/>
  <member type="relation" ref="48623" role=""/>
  <member type="relation" ref="48624" role=""/>
  <member type="relation" ref="48625" role=""/>
  <member type="relation" ref="48901" role=""/>
  <member type="relation" ref="48902" role=""/>
  <member type="relation" ref="48904" role=""/>
  <member type="relation" ref="48756" role=""/>
  <member type="relation" ref="48905" role=""/>
  <member type="relation" ref="48907" role=""/>
  <member type="relation" ref="48909" role=""/>
  <member type="relation" ref="48910" role=""/>
  <member type="relation" ref="48912" role=""/>
  <member type="relation" ref="48913" role=""/>
  <member type="relation" ref="48914" role=""/>
  <member type="relation" ref="48915" role=""/>
  <member type="relation" ref="48916" role=""/>
  <member type="relation" ref="48918" role=""/>
  <member type="relation" ref="48919" role=""/>
  <member type="relation" ref="48921" role=""/>
  <member type="relation" ref="48927" role=""/>
  <member type="relation" ref="48928" role=""/>
  <member type="relation" ref="48930" role=""/>
  <member type="relation" ref="49931" role=""/>
  <member type="relation" ref="48932" role=""/>
  <member type="relation" ref="48758" role=""/>
  <member type="relation" ref="48757" role=""/>
  <member type="relation" ref="48759" role=""/>
  <member type="relation" ref="48766" role=""/>
  <member type="relation" ref="48760" role=""/>
  <member type="relation" ref="48767" role=""/>
  <member type="relation" ref="48936" role=""/>
  <member type="relation" ref="48937" role=""/>
  <member type="relation" ref="48939" role=""/>
  <member type="relation" ref="50830" role=""/>
  <member type="relation" ref="48940" role=""/>
  <member type="relation" ref="48946" role=""/>
  <member type="relation" ref="48948" role=""/>
  <member type="relation" ref="48949" role=""/>
  <member type="relation" ref="48950" role=""/>
  <member type="relation" ref="48953" role=""/>
  <member type="relation" ref="48955" role=""/>
  <member type="relation" ref="48980" role=""/>
  <member type="relation" ref="48982" role=""/>
  <member type="relation" ref="48985" role=""/>
  <member type="relation" ref="48983" role=""/>
  <member type="relation" ref="48986" role=""/>
  <member type="relation" ref="48988" role=""/>
  <member type="relation" ref="48989" role=""/>
  <member type="relation" ref="48994" role=""/>
  <member type="relation" ref="51238" role=""/>
  <member type="relation" ref="48997" role=""/>
  <member type="relation" ref="48998" role=""/>
  <member type="relation" ref="48999" role=""/>
  <member type="relation" ref="49000" role=""/>
  <member type="relation" ref="49365" role=""/>
  <member type="relation" ref="49002" role=""/>
  <member type="relation" ref="49003" role=""/>
  <member type="relation" ref="49004" role=""/>
  <member type="relation" ref="49006" role=""/>
  <member type="relation" ref="49008" role=""/>
  <member type="relation" ref="49009" role=""/>
  <member type="relation" ref="49010" role=""/>
  <member type="relation" ref="49012" role=""/>
  <member type="relation" ref="49015" role=""/>
  <member type="relation" ref="48769" role=""/>
  <member type="relation" ref="48770" role=""/>
  <member type="relation" ref="48771" role=""/>
  <member type="relation" ref="1711144" role=""/>
  <member type="relation" ref="48773" role=""/>
  <member type="relation" ref="48774" role=""/>
  <member type="relation" ref="48775" role=""/>
  <member type="relation" ref="48779" role=""/>
  <member type="relation" ref="48780" role=""/>
  <member type="relation" ref="48781" role=""/>
  <member type="relation" ref="48782" role=""/>
  <member type="relation" ref="48783" role=""/>
  <member type="relation" ref="48784" role=""/>
  <member type="relation" ref="48785" role=""/>
  <member type="relation" ref="48786" role=""/>
  <member type="relation" ref="48788" role=""/>
  <member type="relation" ref="48789" role=""/>
  <tag k="name" v="Železniční tratě v České republice"/>
  <tag k="name:cs" v="Železniční tratě v České republice"/>
  <tag k="name:en" v="Railways in Czech Republic"/>
  <tag k="network" v="railway"/>
  <tag k="note" v="chybí 145"/>
  <tag k="type" v="network"/>
  <tag k="wikipedia" v="cs:Seznam_železničních_tratí_v_Česku"/>
 </relation>
</osm>
