<?xml version="1.0" encoding="UTF-8"?>
<osm version="0.6" generator="CGImap 0.1.0" copyright="OpenStreetMap and contributors" attribution="http://www.openstreetmap.org/copyright" license="http://opendatacommons.org/licenses/odbl/1-0/">
 <bounds minlat="49.2088100" minlon="17.6105000" maxlat="49.2107800" maxlon="17.6126900"/>
 <node id="1880615324" lat="49.2106625" lon="17.6107900" user="Datin" uid="115815" visible="true" version="1" changeset="12843448" timestamp="2012-08-24T10:53:32Z">
  <tag k="addr:conscriptionnumber" v="1211"/>
  <tag k="addr:country" v="CZ"/>
  <tag k="addr:housenumber" v="1211"/>
  <tag k="is_in" v="Malenovice, Zlín, Zlínský kraj, CZ"/>
  <tag k="source" v="cuzk:km"/>
 </node>
 <node id="393881487" lat="49.2107592" lon="17.6106074" user="Zubozrout" uid="123530" visible="true" version="1" changeset="1154430" timestamp="2009-05-11T17:27:07Z"/>
 <node id="774770623" lat="49.2095600" lon="17.6110960" user="Hansign" uid="208872" visible="true" version="1" changeset="5008945" timestamp="2010-06-17T13:39:22Z"/>
 <node id="774770715" lat="49.2094750" lon="17.6110800" user="Hansign" uid="208872" visible="true" version="1" changeset="5008945" timestamp="2010-06-17T13:39:24Z"/>
 <node id="774770727" lat="49.2101339" lon="17.6112372" user="Hansign" uid="208872" visible="true" version="1" changeset="5008945" timestamp="2010-06-17T13:39:24Z"/>
 <node id="774770781" lat="49.2092860" lon="17.6120740" user="Hansign" uid="208872" visible="true" version="1" changeset="5008945" timestamp="2010-06-17T13:39:25Z"/>
 <node id="774770871" lat="49.2105060" lon="17.6107100" user="Hansign" uid="208872" visible="true" version="1" changeset="5008945" timestamp="2010-06-17T13:39:26Z"/>
 <node id="774770892" lat="49.2097800" lon="17.6124630" user="Hansign" uid="208872" visible="true" version="1" changeset="5008945" timestamp="2010-06-17T13:39:27Z"/>
 <node id="774771044" lat="49.2096190" lon="17.6110900" user="Hansign" uid="208872" visible="true" version="1" changeset="5008945" timestamp="2010-06-17T13:39:28Z"/>
 <node id="774771229" lat="49.2101815" lon="17.6111960" user="Hansign" uid="208872" visible="true" version="1" changeset="5008945" timestamp="2010-06-17T13:39:31Z"/>
 <node id="774771293" lat="49.2091660" lon="17.6120850" user="Hansign" uid="208872" visible="true" version="1" changeset="5008945" timestamp="2010-06-17T13:39:32Z"/>
 <node id="774771509" lat="49.2088700" lon="17.6106760" user="Hansign" uid="208872" visible="true" version="1" changeset="5008945" timestamp="2010-06-17T13:39:35Z"/>
 <node id="774771518" lat="49.2092750" lon="17.6110350" user="Hansign" uid="208872" visible="true" version="1" changeset="5008945" timestamp="2010-06-17T13:39:35Z"/>
 <node id="774771545" lat="49.2104740" lon="17.6124260" user="Hansign" uid="208872" visible="true" version="1" changeset="5008945" timestamp="2010-06-17T13:39:36Z"/>
 <node id="774771679" lat="49.2093180" lon="17.6120430" user="Hansign" uid="208872" visible="true" version="1" changeset="5008945" timestamp="2010-06-17T13:39:39Z"/>
 <node id="774771750" lat="49.2096750" lon="17.6117750" user="Hansign" uid="208872" visible="true" version="1" changeset="5008945" timestamp="2010-06-17T13:39:40Z"/>
 <node id="774771818" lat="49.2097000" lon="17.6110840" user="Hansign" uid="208872" visible="true" version="1" changeset="5008945" timestamp="2010-06-17T13:39:41Z"/>
 <node id="774771847" lat="49.2098880" lon="17.6117640" user="Hansign" uid="208872" visible="true" version="1" changeset="5008945" timestamp="2010-06-17T13:39:41Z"/>
 <node id="774771893" lat="49.2101500" lon="17.6112539" user="Hansign" uid="208872" visible="true" version="1" changeset="5008945" timestamp="2010-06-17T13:39:42Z"/>
 <node id="774771914" lat="49.2091950" lon="17.6106480" user="Hansign" uid="208872" visible="true" version="1" changeset="5008945" timestamp="2010-06-17T13:39:43Z"/>
 <node id="774771921" lat="49.2094280" lon="17.6110240" user="Hansign" uid="208872" visible="true" version="1" changeset="5008945" timestamp="2010-06-17T13:39:43Z"/>
 <node id="774771995" lat="49.2097700" lon="17.6121110" user="Hansign" uid="208872" visible="true" version="1" changeset="5008945" timestamp="2010-06-17T13:39:44Z"/>
 <node id="774772145" lat="49.2091400" lon="17.6112740" user="Hansign" uid="208872" visible="true" version="1" changeset="5008945" timestamp="2010-06-17T13:39:47Z"/>
 <node id="774772203" lat="49.2099100" lon="17.6113072" user="Hansign" uid="208872" visible="true" version="1" changeset="5008945" timestamp="2010-06-17T13:39:48Z"/>
 <node id="774772236" lat="49.2095360" lon="17.6110950" user="Hansign" uid="208872" visible="true" version="1" changeset="5008945" timestamp="2010-06-17T13:39:48Z"/>
 <node id="774772326" lat="49.2094790" lon="17.6111030" user="Hansign" uid="208872" visible="true" version="1" changeset="5008945" timestamp="2010-06-17T13:39:50Z"/>
 <node id="774772340" lat="49.2101302" lon="17.6112001" user="Hansign" uid="208872" visible="true" version="1" changeset="5008945" timestamp="2010-06-17T13:39:50Z"/>
 <node id="774772427" lat="49.2105980" lon="17.6105790" user="Hansign" uid="208872" visible="true" version="1" changeset="5008945" timestamp="2010-06-17T13:39:53Z"/>
 <node id="774772436" lat="49.2097690" lon="17.6121190" user="Hansign" uid="208872" visible="true" version="1" changeset="5008945" timestamp="2010-06-17T13:39:53Z"/>
 <node id="774772453" lat="49.2091392" lon="17.6111307" user="Hansign" uid="208872" visible="true" version="1" changeset="5008945" timestamp="2010-06-17T13:39:53Z"/>
 <node id="774772491" lat="49.2106250" lon="17.6112580" user="Hansign" uid="208872" visible="true" version="1" changeset="5008945" timestamp="2010-06-17T13:39:54Z"/>
 <node id="774772576" lat="49.2096200" lon="17.6110700" user="Hansign" uid="208872" visible="true" version="1" changeset="5008945" timestamp="2010-06-17T13:39:56Z"/>
 <node id="774772671" lat="49.2101355" lon="17.6111856" user="Hansign" uid="208872" visible="true" version="1" changeset="5008945" timestamp="2010-06-17T13:39:57Z"/>
 <node id="774772726" lat="49.2091610" lon="17.6119830" user="Hansign" uid="208872" visible="true" version="1" changeset="5008945" timestamp="2010-06-17T13:39:59Z"/>
 <node id="774772840" lat="49.2099710" lon="17.6121130" user="Hansign" uid="208872" visible="true" version="1" changeset="5008945" timestamp="2010-06-17T13:40:01Z"/>
 <node id="774772968" lat="49.2096400" lon="17.6110690" user="Hansign" uid="208872" visible="true" version="1" changeset="5008945" timestamp="2010-06-17T13:40:03Z"/>
 <node id="774772991" lat="49.2104790" lon="17.6125360" user="Hansign" uid="208872" visible="true" version="1" changeset="5008945" timestamp="2010-06-17T13:40:03Z"/>
 <node id="774773134" lat="49.2092690" lon="17.6119750" user="Hansign" uid="208872" visible="true" version="1" changeset="5008945" timestamp="2010-06-17T13:40:06Z"/>
 <node id="774773184" lat="49.2096780" lon="17.6118280" user="Hansign" uid="208872" visible="true" version="1" changeset="5008945" timestamp="2010-06-17T13:40:07Z"/>
 <node id="774773244" lat="49.2097000" lon="17.6110650" user="Hansign" uid="208872" visible="true" version="1" changeset="5008945" timestamp="2010-06-17T13:40:08Z"/>
 <node id="774773364" lat="49.2094310" lon="17.6111060" user="Hansign" uid="208872" visible="true" version="1" changeset="5008945" timestamp="2010-06-17T13:40:10Z"/>
 <node id="774773423" lat="49.2097730" lon="17.6122810" user="Hansign" uid="208872" visible="true" version="1" changeset="5008945" timestamp="2010-06-17T13:40:12Z"/>
 <node id="774773578" lat="49.2093950" lon="17.6118480" user="Hansign" uid="208872" visible="true" version="1" changeset="5008945" timestamp="2010-06-17T13:40:14Z"/>
 <node id="774773688" lat="49.2097200" lon="17.6110640" user="Hansign" uid="208872" visible="true" version="1" changeset="5008945" timestamp="2010-06-17T13:40:16Z"/>
 <node id="774773735" lat="49.2095360" lon="17.6110760" user="Hansign" uid="208872" visible="true" version="1" changeset="5008945" timestamp="2010-06-17T13:40:16Z"/>
 <node id="774773869" lat="49.2094590" lon="17.6111030" user="Hansign" uid="208872" visible="true" version="1" changeset="5008945" timestamp="2010-06-17T13:40:18Z"/>
 <node id="774774173" lat="49.2092300" lon="17.6111180" user="Hansign" uid="208872" visible="true" version="1" changeset="5008945" timestamp="2010-06-17T13:40:22Z"/>
 <node id="774774280" lat="49.2095560" lon="17.6110750" user="Hansign" uid="208872" visible="true" version="1" changeset="5008945" timestamp="2010-06-17T13:40:23Z"/>
 <node id="774774425" lat="49.2101541" lon="17.6111711" user="Hansign" uid="208872" visible="true" version="1" changeset="5008945" timestamp="2010-06-17T13:40:26Z"/>
 <node id="774774689" lat="49.2092030" lon="17.6108180" user="Hansign" uid="208872" visible="true" version="1" changeset="5008945" timestamp="2010-06-17T13:40:31Z"/>
 <node id="774774695" lat="49.2096440" lon="17.6110910" user="Hansign" uid="208872" visible="true" version="1" changeset="5008945" timestamp="2010-06-17T13:40:31Z"/>
 <node id="774774707" lat="49.2103790" lon="17.6125480" user="Hansign" uid="208872" visible="true" version="1" changeset="5008945" timestamp="2010-06-17T13:40:31Z"/>
 <node id="774774786" lat="49.2101680" lon="17.6111749" user="Hansign" uid="208872" visible="true" version="1" changeset="5008945" timestamp="2010-06-17T13:40:33Z"/>
 <node id="774774859" lat="49.2092740" lon="17.6120250" user="Hansign" uid="208872" visible="true" version="1" changeset="5008945" timestamp="2010-06-17T13:40:35Z"/>
 <node id="774775004" lat="49.2106360" lon="17.6116100" user="Hansign" uid="208872" visible="true" version="1" changeset="5008945" timestamp="2010-06-17T13:40:37Z"/>
 <node id="774775042" lat="49.2101816" lon="17.6112294" user="Hansign" uid="208872" visible="true" version="1" changeset="5008945" timestamp="2010-06-17T13:40:38Z"/>
 <node id="774775059" lat="49.2088790" lon="17.6108460" user="Hansign" uid="208872" visible="true" version="1" changeset="5008945" timestamp="2010-06-17T13:40:38Z"/>
 <node id="774775064" lat="49.2092780" lon="17.6111180" user="Hansign" uid="208872" visible="true" version="1" changeset="5008945" timestamp="2010-06-17T13:40:39Z"/>
 <node id="774775078" lat="49.2103730" lon="17.6124400" user="Hansign" uid="208872" visible="true" version="1" changeset="5008945" timestamp="2010-06-17T13:40:39Z"/>
 <node id="774775136" lat="49.2095540" lon="17.6122990" user="Hansign" uid="208872" visible="true" version="1" changeset="5008945" timestamp="2010-06-17T13:40:40Z"/>
 <node id="774775146" lat="49.2107040" lon="17.6110350" user="Hansign" uid="208872" visible="true" version="1" changeset="5008945" timestamp="2010-06-17T13:40:40Z"/>
 <node id="774775207" lat="49.2093160" lon="17.6120210" user="Hansign" uid="208872" visible="true" version="1" changeset="5008945" timestamp="2010-06-17T13:40:41Z"/>
 <node id="774775242" lat="49.2093850" lon="17.6115190" user="Hansign" uid="208872" visible="true" version="1" changeset="5008945" timestamp="2010-06-17T13:40:42Z"/>
 <node id="774775323" lat="49.2097240" lon="17.6110850" user="Hansign" uid="208872" visible="true" version="1" changeset="5008945" timestamp="2010-06-17T13:40:44Z"/>
 <node id="774775351" lat="49.2098840" lon="17.6116730" user="Hansign" uid="208872" visible="true" version="1" changeset="5008945" timestamp="2010-06-17T13:40:44Z"/>
 <node id="774775400" lat="49.2101685" lon="17.6112507" user="Hansign" uid="208872" visible="true" version="1" changeset="5008945" timestamp="2010-06-17T13:40:45Z"/>
 <node id="774775435" lat="49.2094580" lon="17.6110800" user="Hansign" uid="208872" visible="true" version="1" changeset="5008945" timestamp="2010-06-17T13:40:45Z"/>
 <node id="774775512" lat="49.2095480" lon="17.6121290" user="Hansign" uid="208872" visible="true" version="1" changeset="5008945" timestamp="2010-06-17T13:40:47Z"/>
 <node id="774775600" lat="49.2099800" lon="17.6124480" user="Hansign" uid="208872" visible="true" version="1" changeset="5008945" timestamp="2010-06-17T13:40:48Z"/>
 <node id="774775620" lat="49.2091480" lon="17.6115330" user="Hansign" uid="208872" visible="true" version="1" changeset="5008945" timestamp="2010-06-17T13:40:49Z"/>
 <node id="774775670" lat="49.2099020" lon="17.6110600" user="Hansign" uid="208872" visible="true" version="1" changeset="5008945" timestamp="2010-06-17T13:40:50Z"/>
 <node id="775539273" lat="49.2095968" lon="17.6120206" user="Hansign" uid="208872" visible="true" version="1" changeset="5014931" timestamp="2010-06-18T09:12:23Z"/>
 <node id="775539401" lat="49.2096223" lon="17.6120136" user="Hansign" uid="208872" visible="true" version="1" changeset="5014931" timestamp="2010-06-18T09:12:29Z"/>
 <node id="775539510" lat="49.2096138" lon="17.6120223" user="Hansign" uid="208872" visible="true" version="1" changeset="5014931" timestamp="2010-06-18T09:12:34Z"/>
 <node id="775539525" lat="49.2096227" lon="17.6119706" user="Hansign" uid="208872" visible="true" version="1" changeset="5014931" timestamp="2010-06-18T09:12:34Z"/>
 <node id="775539579" lat="49.2095928" lon="17.6119668" user="Hansign" uid="208872" visible="true" version="1" changeset="5014931" timestamp="2010-06-18T09:12:35Z"/>
 <node id="775539649" lat="49.2096276" lon="17.6119957" user="Hansign" uid="208872" visible="true" version="1" changeset="5014931" timestamp="2010-06-18T09:12:37Z"/>
 <node id="775539781" lat="49.2096047" lon="17.6119592" user="Hansign" uid="208872" visible="true" version="1" changeset="5014931" timestamp="2010-06-18T09:12:41Z"/>
 <node id="775539847" lat="49.2095854" lon="17.6119955" user="Hansign" uid="208872" visible="true" version="1" changeset="5014931" timestamp="2010-06-18T09:12:43Z"/>
 <node id="837202038" lat="49.2106404" lon="17.6105256" user="Hansign" uid="208872" visible="true" version="1" changeset="5344806" timestamp="2010-07-29T08:49:03Z"/>
 <node id="1922741084" lat="49.2107598" lon="17.6107314" user="czechreg" uid="787799" visible="true" version="1" changeset="13177123" timestamp="2012-09-19T23:16:43Z"/>
 <node id="1922741090" lat="49.2103119" lon="17.6117833" user="czechreg" uid="787799" visible="true" version="1" changeset="13177123" timestamp="2012-09-19T23:16:44Z"/>
 <node id="1922741091" lat="49.2101231" lon="17.6117948" user="czechreg" uid="787799" visible="true" version="1" changeset="13177123" timestamp="2012-09-19T23:16:44Z"/>
 <node id="1922741093" lat="49.2095710" lon="17.6118425" user="czechreg" uid="787799" visible="true" version="1" changeset="13177123" timestamp="2012-09-19T23:16:44Z"/>
 <node id="1922741094" lat="49.2090223" lon="17.6118661" user="czechreg" uid="787799" visible="true" version="1" changeset="13177123" timestamp="2012-09-19T23:16:44Z"/>
 <node id="393881467" lat="49.2097231" lon="17.6030940" user="Zubozrout" uid="123530" visible="true" version="1" changeset="1154430" timestamp="2009-05-11T17:27:06Z"/>
 <node id="393881468" lat="49.2095426" lon="17.6045615" user="Zubozrout" uid="123530" visible="true" version="1" changeset="1154430" timestamp="2009-05-11T17:27:06Z"/>
 <node id="393881469" lat="49.2094043" lon="17.6053042" user="Zubozrout" uid="123530" visible="true" version="1" changeset="1154430" timestamp="2009-05-11T17:27:06Z"/>
 <node id="393881470" lat="49.2092098" lon="17.6059824" user="Zubozrout" uid="123530" visible="true" version="1" changeset="1154430" timestamp="2009-05-11T17:27:06Z"/>
 <node id="393881471" lat="49.2089261" lon="17.6066677" user="Zubozrout" uid="123530" visible="true" version="1" changeset="1154430" timestamp="2009-05-11T17:27:06Z"/>
 <node id="393881472" lat="49.2089004" lon="17.6069583" user="Zubozrout" uid="123530" visible="true" version="1" changeset="1154430" timestamp="2009-05-11T17:27:06Z"/>
 <node id="393881473" lat="49.2090246" lon="17.6075360" user="Zubozrout" uid="123530" visible="true" version="1" changeset="1154430" timestamp="2009-05-11T17:27:06Z"/>
 <node id="393881474" lat="49.2092191" lon="17.6081388" user="Zubozrout" uid="123530" visible="true" version="1" changeset="1154430" timestamp="2009-05-11T17:27:06Z"/>
 <node id="393881475" lat="49.2095731" lon="17.6088169" user="Zubozrout" uid="123530" visible="true" version="1" changeset="1154430" timestamp="2009-05-11T17:27:06Z"/>
 <node id="393881476" lat="49.2100232" lon="17.6094700" user="Zubozrout" uid="123530" visible="true" version="1" changeset="1154430" timestamp="2009-05-11T17:27:06Z"/>
 <node id="393881477" lat="49.2106795" lon="17.6104746" user="Zubozrout" uid="123530" visible="true" version="1" changeset="1154430" timestamp="2009-05-11T17:27:06Z"/>
 <node id="393881478" lat="49.2110852" lon="17.6111973" user="flare" uid="367597" visible="true" version="2" changeset="8208936" timestamp="2011-05-21T18:13:27Z"/>
 <node id="393881479" lat="49.2113311" lon="17.6119350" user="Zubozrout" uid="123530" visible="true" version="1" changeset="1154430" timestamp="2009-05-11T17:27:06Z"/>
 <node id="393881480" lat="49.2116522" lon="17.6131119" user="Zubozrout" uid="123530" visible="true" version="1" changeset="1154430" timestamp="2009-05-11T17:27:06Z"/>
 <node id="393881481" lat="49.2121093" lon="17.6140914" user="Zubozrout" uid="123530" visible="true" version="1" changeset="1154430" timestamp="2009-05-11T17:27:06Z"/>
 <node id="393881482" lat="49.2123487" lon="17.6146032" user="Hansign" uid="208872" visible="true" version="3" changeset="4717251" timestamp="2010-05-16T13:45:28Z"/>
 <node id="393881486" lat="49.2112421" lon="17.6102163" user="Zubozrout" uid="123530" visible="true" version="2" changeset="8192749" timestamp="2011-05-19T19:31:56Z">
  <tag k="highway" v="traffic_signals"/>
 </node>
 <node id="588833973" lat="49.2123678" lon="17.6146773" user="Hansign" uid="208872" visible="true" version="2" changeset="4717251" timestamp="2010-05-16T13:45:21Z"/>
 <node id="588833976" lat="49.2123522" lon="17.6147516" user="flare" uid="367597" visible="true" version="3" changeset="8208936" timestamp="2011-05-21T18:13:14Z"/>
 <node id="774772814" lat="49.2107980" lon="17.6109040" user="Hansign" uid="208872" visible="true" version="1" changeset="5008945" timestamp="2010-06-17T13:40:00Z"/>
 <node id="837201450" lat="49.2053613" lon="17.6163559" user="Hansign" uid="208872" visible="true" version="1" changeset="5344806" timestamp="2010-07-29T08:48:45Z"/>
 <node id="837201500" lat="49.2054254" lon="17.6134627" user="Hansign" uid="208872" visible="true" version="1" changeset="5344806" timestamp="2010-07-29T08:48:47Z"/>
 <node id="837201565" lat="49.2111866" lon="17.6117356" user="Hansign" uid="208872" visible="true" version="1" changeset="5344806" timestamp="2010-07-29T08:48:49Z"/>
 <node id="837201569" lat="49.2100534" lon="17.6096530" user="Hansign" uid="208872" visible="true" version="1" changeset="5344806" timestamp="2010-07-29T08:48:49Z"/>
 <node id="837201648" lat="49.2085838" lon="17.6098133" user="Hansign" uid="208872" visible="true" version="1" changeset="5344806" timestamp="2010-07-29T08:48:52Z"/>
 <node id="837201750" lat="49.2070678" lon="17.6173068" user="Hansign" uid="208872" visible="true" version="1" changeset="5344806" timestamp="2010-07-29T08:48:54Z"/>
 <node id="837201864" lat="49.2094669" lon="17.6138170" user="Hansign" uid="208872" visible="true" version="1" changeset="5344806" timestamp="2010-07-29T08:48:58Z"/>
 <node id="837201918" lat="49.2110374" lon="17.6112163" user="Hansign" uid="208872" visible="true" version="1" changeset="5344806" timestamp="2010-07-29T08:48:59Z"/>
 <node id="837201931" lat="49.2111192" lon="17.6135807" user="Hansign" uid="208872" visible="true" version="1" changeset="5344806" timestamp="2010-07-29T08:49:00Z"/>
 <node id="837201987" lat="49.2055933" lon="17.6151387" user="Hansign" uid="208872" visible="true" version="1" changeset="5344806" timestamp="2010-07-29T08:49:01Z"/>
 <node id="837202039" lat="49.2078714" lon="17.6117533" user="Hansign" uid="208872" visible="true" version="1" changeset="5344806" timestamp="2010-07-29T08:49:03Z"/>
 <node id="1292033931" lat="49.2110959" lon="17.6112346" user="Zubozrout" uid="123530" visible="true" version="1" changeset="8192749" timestamp="2011-05-19T19:31:35Z"/>
 <node id="1292033955" lat="49.2110514" lon="17.6111316" user="Zubozrout" uid="123530" visible="true" version="1" changeset="8192749" timestamp="2011-05-19T19:31:36Z"/>
 <node id="1292034000" lat="49.2110939" lon="17.6103363" user="Zubozrout" uid="123530" visible="true" version="1" changeset="8192749" timestamp="2011-05-19T19:31:38Z">
  <tag k="crossing" v="traffic_signals"/>
  <tag k="crossing_ref" v="pelican"/>
  <tag k="highway" v="crossing"/>
 </node>
 <node id="1295170236" lat="49.2094694" lon="17.6049545" user="flare" uid="367597" visible="true" version="1" changeset="8208936" timestamp="2011-05-21T18:10:47Z"/>
 <node id="1295173269" lat="49.2101505" lon="17.6096648" user="flare" uid="367597" visible="true" version="1" changeset="8208936" timestamp="2011-05-21T18:12:12Z"/>
 <node id="1559372794" lat="49.2091025" lon="17.6062417" user="flare" uid="367597" visible="true" version="1" changeset="10187315" timestamp="2011-12-23T13:55:16Z"/>
 <node id="1795471765" lat="49.2123638" lon="17.6147149" user="flare" uid="367597" visible="true" version="1" changeset="11957149" timestamp="2012-06-20T10:43:32Z"/>
 <node id="1922741046" lat="49.2115124" lon="17.6018019" user="czechreg" uid="787799" visible="true" version="1" changeset="13177123" timestamp="2012-09-19T23:16:42Z"/>
 <node id="1922741047" lat="49.2114661" lon="17.6022277" user="czechreg" uid="787799" visible="true" version="1" changeset="13177123" timestamp="2012-09-19T23:16:42Z"/>
 <node id="1922741048" lat="49.2114704" lon="17.6023855" user="czechreg" uid="787799" visible="true" version="1" changeset="13177123" timestamp="2012-09-19T23:16:42Z"/>
 <node id="1922741049" lat="49.2114128" lon="17.6030140" user="czechreg" uid="787799" visible="true" version="1" changeset="13177123" timestamp="2012-09-19T23:16:42Z"/>
 <node id="1922741050" lat="49.2113944" lon="17.6034166" user="czechreg" uid="787799" visible="true" version="1" changeset="13177123" timestamp="2012-09-19T23:16:42Z"/>
 <node id="1922741052" lat="49.2113822" lon="17.6038231" user="czechreg" uid="787799" visible="true" version="1" changeset="13177123" timestamp="2012-09-19T23:16:42Z"/>
 <node id="1922741053" lat="49.2113793" lon="17.6042025" user="czechreg" uid="787799" visible="true" version="1" changeset="13177123" timestamp="2012-09-19T23:16:42Z"/>
 <node id="1922741055" lat="49.2113443" lon="17.6048379" user="czechreg" uid="787799" visible="true" version="1" changeset="13177123" timestamp="2012-09-19T23:16:42Z"/>
 <node id="1922741056" lat="49.2113447" lon="17.6053430" user="czechreg" uid="787799" visible="true" version="1" changeset="13177123" timestamp="2012-09-19T23:16:42Z"/>
 <node id="1922741057" lat="49.2113579" lon="17.6057370" user="czechreg" uid="787799" visible="true" version="1" changeset="13177123" timestamp="2012-09-19T23:16:43Z"/>
 <node id="1922741058" lat="49.2114557" lon="17.6062936" user="czechreg" uid="787799" visible="true" version="1" changeset="13177123" timestamp="2012-09-19T23:16:43Z"/>
 <node id="1922741059" lat="49.2114946" lon="17.6064334" user="czechreg" uid="787799" visible="true" version="1" changeset="13177123" timestamp="2012-09-19T23:16:43Z"/>
 <node id="1922741060" lat="49.2116175" lon="17.6068051" user="czechreg" uid="787799" visible="true" version="1" changeset="13177123" timestamp="2012-09-19T23:16:43Z"/>
 <node id="1922741061" lat="49.2116884" lon="17.6069576" user="czechreg" uid="787799" visible="true" version="1" changeset="13177123" timestamp="2012-09-19T23:16:43Z"/>
 <node id="1922741062" lat="49.2118988" lon="17.6073421" user="czechreg" uid="787799" visible="true" version="1" changeset="13177123" timestamp="2012-09-19T23:16:43Z"/>
 <node id="1922741063" lat="49.2120071" lon="17.6074940" user="czechreg" uid="787799" visible="true" version="1" changeset="13177123" timestamp="2012-09-19T23:16:43Z"/>
 <node id="1922741064" lat="49.2119360" lon="17.6079608" user="czechreg" uid="787799" visible="true" version="1" changeset="13177123" timestamp="2012-09-19T23:16:43Z"/>
 <node id="1922741065" lat="49.2119159" lon="17.6082828" user="czechreg" uid="787799" visible="true" version="1" changeset="13177123" timestamp="2012-09-19T23:16:43Z"/>
 <node id="1922741066" lat="49.2119346" lon="17.6084663" user="czechreg" uid="787799" visible="true" version="1" changeset="13177123" timestamp="2012-09-19T23:16:43Z"/>
 <node id="1922741067" lat="49.2119402" lon="17.6085797" user="czechreg" uid="787799" visible="true" version="1" changeset="13177123" timestamp="2012-09-19T23:16:43Z"/>
 <node id="1922741068" lat="49.2119184" lon="17.6086052" user="czechreg" uid="787799" visible="true" version="1" changeset="13177123" timestamp="2012-09-19T23:16:43Z"/>
 <node id="1922741069" lat="49.2120001" lon="17.6087627" user="czechreg" uid="787799" visible="true" version="1" changeset="13177123" timestamp="2012-09-19T23:16:43Z"/>
 <node id="1922741070" lat="49.2120274" lon="17.6089062" user="czechreg" uid="787799" visible="true" version="1" changeset="13177123" timestamp="2012-09-19T23:16:43Z"/>
 <node id="1922741071" lat="49.2121049" lon="17.6090775" user="czechreg" uid="787799" visible="true" version="1" changeset="13177123" timestamp="2012-09-19T23:16:43Z"/>
 <node id="1922741072" lat="49.2122166" lon="17.6093378" user="czechreg" uid="787799" visible="true" version="1" changeset="13177123" timestamp="2012-09-19T23:16:43Z"/>
 <node id="1922741074" lat="49.2123431" lon="17.6095517" user="czechreg" uid="787799" visible="true" version="1" changeset="13177123" timestamp="2012-09-19T23:16:43Z"/>
 <node id="1922741075" lat="49.2123776" lon="17.6096912" user="czechreg" uid="787799" visible="true" version="1" changeset="13177123" timestamp="2012-09-19T23:16:43Z"/>
 <node id="1922741077" lat="49.2123450" lon="17.6097062" user="czechreg" uid="787799" visible="true" version="1" changeset="13177123" timestamp="2012-09-19T23:16:43Z"/>
 <node id="1922741078" lat="49.2107151" lon="17.6103705" user="czechreg" uid="787799" visible="true" version="1" changeset="13177123" timestamp="2012-09-19T23:16:43Z"/>
 <node id="1922741079" lat="49.2107075" lon="17.6103594" user="czechreg" uid="787799" visible="true" version="1" changeset="13177123" timestamp="2012-09-19T23:16:43Z"/>
 <node id="1922741080" lat="49.2106951" lon="17.6103638" user="czechreg" uid="787799" visible="true" version="1" changeset="13177123" timestamp="2012-09-19T23:16:43Z"/>
 <node id="1922741082" lat="49.2106901" lon="17.6103559" user="czechreg" uid="787799" visible="true" version="1" changeset="13177123" timestamp="2012-09-19T23:16:43Z"/>
 <node id="1922741083" lat="49.2105967" lon="17.6104659" user="czechreg" uid="787799" visible="true" version="1" changeset="13177123" timestamp="2012-09-19T23:16:43Z"/>
 <node id="1922741085" lat="49.2109178" lon="17.6110073" user="czechreg" uid="787799" visible="true" version="1" changeset="13177123" timestamp="2012-09-19T23:16:43Z"/>
 <node id="1922741086" lat="49.2110219" lon="17.6112285" user="czechreg" uid="787799" visible="true" version="1" changeset="13177123" timestamp="2012-09-19T23:16:43Z"/>
 <node id="1922741087" lat="49.2111018" lon="17.6114625" user="czechreg" uid="787799" visible="true" version="1" changeset="13177123" timestamp="2012-09-19T23:16:44Z"/>
 <node id="1922741088" lat="49.2109176" lon="17.6115638" user="czechreg" uid="787799" visible="true" version="1" changeset="13177123" timestamp="2012-09-19T23:16:44Z"/>
 <node id="1922741089" lat="49.2109219" lon="17.6117528" user="czechreg" uid="787799" visible="true" version="1" changeset="13177123" timestamp="2012-09-19T23:16:44Z"/>
 <node id="1922741095" lat="49.2078037" lon="17.6119840" user="czechreg" uid="787799" visible="true" version="1" changeset="13177123" timestamp="2012-09-19T23:16:44Z"/>
 <node id="1922741096" lat="49.2077432" lon="17.6120145" user="czechreg" uid="787799" visible="true" version="1" changeset="13177123" timestamp="2012-09-19T23:16:44Z"/>
 <node id="1922741097" lat="49.2077125" lon="17.6129152" user="czechreg" uid="787799" visible="true" version="1" changeset="13177123" timestamp="2012-09-19T23:16:44Z"/>
 <node id="1922741099" lat="49.2076676" lon="17.6134549" user="czechreg" uid="787799" visible="true" version="1" changeset="13177123" timestamp="2012-09-19T23:16:44Z"/>
 <node id="1922741100" lat="49.2076120" lon="17.6138759" user="czechreg" uid="787799" visible="true" version="1" changeset="13177123" timestamp="2012-09-19T23:16:44Z"/>
 <node id="1922741102" lat="49.2075371" lon="17.6143699" user="czechreg" uid="787799" visible="true" version="1" changeset="13177123" timestamp="2012-09-19T23:16:44Z"/>
 <node id="1922741103" lat="49.2076588" lon="17.6148630" user="czechreg" uid="787799" visible="true" version="1" changeset="13177123" timestamp="2012-09-19T23:16:44Z"/>
 <node id="1922741104" lat="49.2077251" lon="17.6150433" user="czechreg" uid="787799" visible="true" version="1" changeset="13177123" timestamp="2012-09-19T23:16:44Z"/>
 <node id="1922741105" lat="49.2080070" lon="17.6154502" user="czechreg" uid="787799" visible="true" version="1" changeset="13177123" timestamp="2012-09-19T23:16:44Z"/>
 <node id="1922741106" lat="49.2083550" lon="17.6159612" user="czechreg" uid="787799" visible="true" version="1" changeset="13177123" timestamp="2012-09-19T23:16:44Z"/>
 <node id="1922741107" lat="49.2084997" lon="17.6156957" user="czechreg" uid="787799" visible="true" version="1" changeset="13177123" timestamp="2012-09-19T23:16:44Z"/>
 <node id="1922741108" lat="49.2087133" lon="17.6158796" user="czechreg" uid="787799" visible="true" version="1" changeset="13177123" timestamp="2012-09-19T23:16:44Z"/>
 <node id="1922741109" lat="49.2088258" lon="17.6160178" user="czechreg" uid="787799" visible="true" version="1" changeset="13177123" timestamp="2012-09-19T23:16:44Z"/>
 <node id="1922741110" lat="49.2089764" lon="17.6162839" user="czechreg" uid="787799" visible="true" version="1" changeset="13177123" timestamp="2012-09-19T23:16:44Z"/>
 <node id="1922741112" lat="49.2091061" lon="17.6165297" user="czechreg" uid="787799" visible="true" version="1" changeset="13177123" timestamp="2012-09-19T23:16:44Z"/>
 <node id="1922741113" lat="49.2091150" lon="17.6165541" user="czechreg" uid="787799" visible="true" version="1" changeset="13177123" timestamp="2012-09-19T23:16:44Z"/>
 <node id="1922741114" lat="49.2092171" lon="17.6164355" user="czechreg" uid="787799" visible="true" version="1" changeset="13177123" timestamp="2012-09-19T23:16:44Z"/>
 <node id="1922741115" lat="49.2093309" lon="17.6163256" user="czechreg" uid="787799" visible="true" version="1" changeset="13177123" timestamp="2012-09-19T23:16:44Z"/>
 <node id="1922741116" lat="49.2094777" lon="17.6162077" user="czechreg" uid="787799" visible="true" version="1" changeset="13177123" timestamp="2012-09-19T23:16:44Z"/>
 <node id="1922741117" lat="49.2094857" lon="17.6162326" user="czechreg" uid="787799" visible="true" version="1" changeset="13177123" timestamp="2012-09-19T23:16:44Z"/>
 <node id="1922741118" lat="49.2095826" lon="17.6164651" user="czechreg" uid="787799" visible="true" version="1" changeset="13177123" timestamp="2012-09-19T23:16:45Z"/>
 <node id="1922741119" lat="49.2096451" lon="17.6166350" user="czechreg" uid="787799" visible="true" version="1" changeset="13177123" timestamp="2012-09-19T23:16:45Z"/>
 <node id="1922741120" lat="49.2097853" lon="17.6168170" user="czechreg" uid="787799" visible="true" version="1" changeset="13177123" timestamp="2012-09-19T23:16:45Z"/>
 <node id="1922741123" lat="49.2099453" lon="17.6170961" user="czechreg" uid="787799" visible="true" version="1" changeset="13177123" timestamp="2012-09-19T23:16:45Z"/>
 <node id="1922741124" lat="49.2100467" lon="17.6173695" user="czechreg" uid="787799" visible="true" version="1" changeset="13177123" timestamp="2012-09-19T23:16:45Z"/>
 <node id="1922741125" lat="49.2101167" lon="17.6174981" user="czechreg" uid="787799" visible="true" version="1" changeset="13177123" timestamp="2012-09-19T23:16:45Z"/>
 <node id="1922741126" lat="49.2101841" lon="17.6176265" user="czechreg" uid="787799" visible="true" version="1" changeset="13177123" timestamp="2012-09-19T23:16:45Z"/>
 <node id="1922741127" lat="49.2103274" lon="17.6178025" user="czechreg" uid="787799" visible="true" version="1" changeset="13177123" timestamp="2012-09-19T23:16:45Z"/>
 <node id="1922741128" lat="49.2105171" lon="17.6180434" user="czechreg" uid="787799" visible="true" version="1" changeset="13177123" timestamp="2012-09-19T23:16:45Z"/>
 <node id="1922741129" lat="49.2105973" lon="17.6181217" user="czechreg" uid="787799" visible="true" version="1" changeset="13177123" timestamp="2012-09-19T23:16:45Z"/>
 <node id="1922741130" lat="49.2107703" lon="17.6183400" user="czechreg" uid="787799" visible="true" version="1" changeset="13177123" timestamp="2012-09-19T23:16:45Z"/>
 <node id="1922741131" lat="49.2109067" lon="17.6185518" user="czechreg" uid="787799" visible="true" version="1" changeset="13177123" timestamp="2012-09-19T23:16:45Z"/>
 <node id="1922741133" lat="49.2110366" lon="17.6187239" user="czechreg" uid="787799" visible="true" version="1" changeset="13177123" timestamp="2012-09-19T23:16:45Z"/>
 <node id="1922741134" lat="49.2111309" lon="17.6188957" user="czechreg" uid="787799" visible="true" version="1" changeset="13177123" timestamp="2012-09-19T23:16:45Z"/>
 <node id="1922741135" lat="49.2112162" lon="17.6190917" user="czechreg" uid="787799" visible="true" version="1" changeset="13177123" timestamp="2012-09-19T23:16:45Z"/>
 <node id="1922741136" lat="49.2113665" lon="17.6195017" user="czechreg" uid="787799" visible="true" version="1" changeset="13177123" timestamp="2012-09-19T23:16:45Z"/>
 <node id="1922741137" lat="49.2115013" lon="17.6197967" user="czechreg" uid="787799" visible="true" version="1" changeset="13177123" timestamp="2012-09-19T23:16:45Z"/>
 <node id="1922741138" lat="49.2115804" lon="17.6199646" user="czechreg" uid="787799" visible="true" version="1" changeset="13177123" timestamp="2012-09-19T23:16:45Z"/>
 <node id="1922741139" lat="49.2116408" lon="17.6201084" user="czechreg" uid="787799" visible="true" version="1" changeset="13177123" timestamp="2012-09-19T23:16:45Z"/>
 <node id="1922741140" lat="49.2117777" lon="17.6204676" user="czechreg" uid="787799" visible="true" version="1" changeset="13177123" timestamp="2012-09-19T23:16:45Z"/>
 <node id="1922741141" lat="49.2119225" lon="17.6207489" user="czechreg" uid="787799" visible="true" version="1" changeset="13177123" timestamp="2012-09-19T23:16:45Z"/>
 <node id="1922741142" lat="49.2119184" lon="17.6209554" user="czechreg" uid="787799" visible="true" version="1" changeset="13177123" timestamp="2012-09-19T23:16:45Z"/>
 <node id="1922741145" lat="49.2120093" lon="17.6212624" user="czechreg" uid="787799" visible="true" version="1" changeset="13177123" timestamp="2012-09-19T23:16:46Z"/>
 <node id="1922741146" lat="49.2120524" lon="17.6213798" user="czechreg" uid="787799" visible="true" version="1" changeset="13177123" timestamp="2012-09-19T23:16:46Z"/>
 <node id="1922741147" lat="49.2123090" lon="17.6217029" user="czechreg" uid="787799" visible="true" version="1" changeset="13177123" timestamp="2012-09-19T23:16:46Z"/>
 <node id="1922741148" lat="49.2123877" lon="17.6220574" user="czechreg" uid="787799" visible="true" version="1" changeset="13177123" timestamp="2012-09-19T23:16:46Z"/>
 <node id="1922741149" lat="49.2121130" lon="17.6222612" user="czechreg" uid="787799" visible="true" version="1" changeset="13177123" timestamp="2012-09-19T23:16:46Z"/>
 <node id="1922741150" lat="49.2121424" lon="17.6223949" user="czechreg" uid="787799" visible="true" version="1" changeset="13177123" timestamp="2012-09-19T23:16:46Z"/>
 <node id="1922741151" lat="49.2122013" lon="17.6226419" user="czechreg" uid="787799" visible="true" version="1" changeset="13177123" timestamp="2012-09-19T23:16:46Z"/>
 <node id="1922741152" lat="49.2122239" lon="17.6228193" user="czechreg" uid="787799" visible="true" version="1" changeset="13177123" timestamp="2012-09-19T23:16:46Z"/>
 <node id="1922741153" lat="49.2123898" lon="17.6231539" user="czechreg" uid="787799" visible="true" version="1" changeset="13177123" timestamp="2012-09-19T23:16:46Z"/>
 <node id="1922741154" lat="49.2124890" lon="17.6234479" user="czechreg" uid="787799" visible="true" version="1" changeset="13177123" timestamp="2012-09-19T23:16:46Z"/>
 <node id="1922741155" lat="49.2125650" lon="17.6237548" user="czechreg" uid="787799" visible="true" version="1" changeset="13177123" timestamp="2012-09-19T23:16:46Z"/>
 <node id="1922741156" lat="49.2126178" lon="17.6239134" user="czechreg" uid="787799" visible="true" version="1" changeset="13177123" timestamp="2012-09-19T23:16:46Z"/>
 <node id="1922741157" lat="49.2126614" lon="17.6240735" user="czechreg" uid="787799" visible="true" version="1" changeset="13177123" timestamp="2012-09-19T23:16:46Z"/>
 <node id="1922741158" lat="49.2127868" lon="17.6244742" user="czechreg" uid="787799" visible="true" version="1" changeset="13177123" timestamp="2012-09-19T23:16:46Z"/>
 <node id="1922741159" lat="49.2128742" lon="17.6246960" user="czechreg" uid="787799" visible="true" version="1" changeset="13177123" timestamp="2012-09-19T23:16:46Z"/>
 <node id="1922741160" lat="49.2129581" lon="17.6249315" user="czechreg" uid="787799" visible="true" version="1" changeset="13177123" timestamp="2012-09-19T23:16:46Z"/>
 <node id="1922741161" lat="49.2130361" lon="17.6251387" user="czechreg" uid="787799" visible="true" version="1" changeset="13177123" timestamp="2012-09-19T23:16:46Z"/>
 <node id="1922741162" lat="49.2130450" lon="17.6251662" user="czechreg" uid="787799" visible="true" version="1" changeset="13177123" timestamp="2012-09-19T23:16:46Z"/>
 <node id="1922741163" lat="49.2130986" lon="17.6253665" user="czechreg" uid="787799" visible="true" version="1" changeset="13177123" timestamp="2012-09-19T23:16:46Z"/>
 <node id="1922741164" lat="49.2126872" lon="17.6256317" user="czechreg" uid="787799" visible="true" version="1" changeset="13177123" timestamp="2012-09-19T23:16:46Z"/>
 <node id="1922741166" lat="49.2128045" lon="17.6260764" user="czechreg" uid="787799" visible="true" version="1" changeset="13177123" timestamp="2012-09-19T23:16:46Z"/>
 <node id="1922741167" lat="49.2128452" lon="17.6262408" user="czechreg" uid="787799" visible="true" version="1" changeset="13177123" timestamp="2012-09-19T23:16:46Z"/>
 <node id="1922741168" lat="49.2129193" lon="17.6267671" user="czechreg" uid="787799" visible="true" version="1" changeset="13177123" timestamp="2012-09-19T23:16:47Z"/>
 <node id="1922741169" lat="49.2130134" lon="17.6275302" user="czechreg" uid="787799" visible="true" version="1" changeset="13177123" timestamp="2012-09-19T23:16:47Z"/>
 <node id="1922741170" lat="49.2130639" lon="17.6276517" user="czechreg" uid="787799" visible="true" version="1" changeset="13177123" timestamp="2012-09-19T23:16:47Z"/>
 <node id="1922741171" lat="49.2132380" lon="17.6279773" user="czechreg" uid="787799" visible="true" version="1" changeset="13177123" timestamp="2012-09-19T23:16:47Z"/>
 <node id="1922741172" lat="49.2133701" lon="17.6285966" user="czechreg" uid="787799" visible="true" version="1" changeset="13177123" timestamp="2012-09-19T23:16:47Z"/>
 <node id="1922741173" lat="49.2133424" lon="17.6286789" user="czechreg" uid="787799" visible="true" version="1" changeset="13177123" timestamp="2012-09-19T23:16:47Z"/>
 <node id="1922741175" lat="49.2130789" lon="17.6291808" user="czechreg" uid="787799" visible="true" version="1" changeset="13177123" timestamp="2012-09-19T23:16:47Z"/>
 <node id="1922741176" lat="49.2129845" lon="17.6293950" user="czechreg" uid="787799" visible="true" version="1" changeset="13177123" timestamp="2012-09-19T23:16:47Z"/>
 <node id="1922741177" lat="49.2129321" lon="17.6295938" user="czechreg" uid="787799" visible="true" version="1" changeset="13177123" timestamp="2012-09-19T23:16:47Z"/>
 <node id="1922741178" lat="49.2128968" lon="17.6298178" user="czechreg" uid="787799" visible="true" version="1" changeset="13177123" timestamp="2012-09-19T23:16:47Z"/>
 <node id="1922741179" lat="49.2125684" lon="17.6302027" user="czechreg" uid="787799" visible="true" version="1" changeset="13177123" timestamp="2012-09-19T23:16:47Z"/>
 <node id="1922741180" lat="49.2124445" lon="17.6303510" user="czechreg" uid="787799" visible="true" version="1" changeset="13177123" timestamp="2012-09-19T23:16:47Z"/>
 <node id="1922741181" lat="49.2122941" lon="17.6305679" user="czechreg" uid="787799" visible="true" version="1" changeset="13177123" timestamp="2012-09-19T23:16:47Z"/>
 <node id="1922741182" lat="49.2120114" lon="17.6309161" user="czechreg" uid="787799" visible="true" version="1" changeset="13177123" timestamp="2012-09-19T23:16:47Z"/>
 <node id="1922741183" lat="49.2118723" lon="17.6310947" user="czechreg" uid="787799" visible="true" version="1" changeset="13177123" timestamp="2012-09-19T23:16:47Z"/>
 <node id="1922741184" lat="49.2115897" lon="17.6012568" user="czechreg" uid="787799" visible="true" version="1" changeset="13177123" timestamp="2012-09-19T23:16:47Z"/>
 <node id="1922741192" lat="49.2118616" lon="17.6311620" user="czechreg" uid="787799" visible="true" version="1" changeset="13177123" timestamp="2012-09-19T23:16:47Z"/>
 <way id="62118938" user="Hansign" uid="208872" visible="true" version="1" changeset="5008945" timestamp="2010-06-17T13:41:19Z">
  <nd ref="774772991"/>
  <nd ref="774774707"/>
  <nd ref="774775078"/>
  <nd ref="774771545"/>
  <nd ref="774772991"/>
  <tag k="building" v="yes"/>
  <tag k="source" v="cuzk:km"/>
 </way>
 <way id="59384217" user="flare" uid="367597" visible="true" version="4" changeset="11957149" timestamp="2012-06-20T10:43:39Z">
  <nd ref="393881487"/>
  <nd ref="1292033955"/>
  <nd ref="393881478"/>
  <nd ref="1292033931"/>
  <nd ref="393881479"/>
  <nd ref="393881480"/>
  <nd ref="393881481"/>
  <nd ref="393881482"/>
  <nd ref="588833973"/>
  <nd ref="1795471765"/>
  <nd ref="588833976"/>
  <tag k="highway" v="residential"/>
  <tag k="name" v="K Cihelně"/>
 </way>
 <way id="62118775" user="Hansign" uid="208872" visible="true" version="2" changeset="5014931" timestamp="2010-06-18T09:13:22Z">
  <nd ref="774775042"/>
  <nd ref="774775400"/>
  <nd ref="774771893"/>
  <nd ref="774770727"/>
  <nd ref="774772340"/>
  <nd ref="774772671"/>
  <nd ref="774774425"/>
  <nd ref="774774786"/>
  <nd ref="774771229"/>
  <nd ref="774775042"/>
  <tag k="building" v="yes"/>
  <tag k="man_made" v="chimney"/>
  <tag k="source" v="cuzk:km"/>
 </way>
 <way id="62164571" user="Hansign" uid="208872" visible="true" version="1" changeset="5014931" timestamp="2010-06-18T09:12:52Z">
  <nd ref="775539649"/>
  <nd ref="775539401"/>
  <nd ref="775539510"/>
  <nd ref="775539273"/>
  <nd ref="775539847"/>
  <nd ref="775539579"/>
  <nd ref="775539781"/>
  <nd ref="775539525"/>
  <nd ref="775539649"/>
  <tag k="building" v="yes"/>
  <tag k="man_made" v="chimney"/>
  <tag k="source" v="cuzk:km"/>
 </way>
 <way id="62118935" user="Hansign" uid="208872" visible="true" version="1" changeset="5008945" timestamp="2010-06-17T13:41:18Z">
  <nd ref="774773423"/>
  <nd ref="774775136"/>
  <nd ref="774775512"/>
  <nd ref="774771995"/>
  <nd ref="774772436"/>
  <nd ref="774773423"/>
  <tag k="building" v="yes"/>
  <tag k="source" v="cuzk:km"/>
 </way>
 <way id="62118785" user="Hansign" uid="208872" visible="true" version="1" changeset="5008945" timestamp="2010-06-17T13:41:05Z">
  <nd ref="774775004"/>
  <nd ref="774775351"/>
  <nd ref="774771847"/>
  <nd ref="774771750"/>
  <nd ref="774773184"/>
  <nd ref="774773578"/>
  <nd ref="774775242"/>
  <nd ref="774775620"/>
  <nd ref="774772145"/>
  <nd ref="774772453"/>
  <nd ref="774774173"/>
  <nd ref="774775064"/>
  <nd ref="774771518"/>
  <nd ref="774771921"/>
  <nd ref="774773364"/>
  <nd ref="774773869"/>
  <nd ref="774775435"/>
  <nd ref="774770715"/>
  <nd ref="774772326"/>
  <nd ref="774772236"/>
  <nd ref="774773735"/>
  <nd ref="774774280"/>
  <nd ref="774770623"/>
  <nd ref="774771044"/>
  <nd ref="774772576"/>
  <nd ref="774772968"/>
  <nd ref="774774695"/>
  <nd ref="774771818"/>
  <nd ref="774773244"/>
  <nd ref="774773688"/>
  <nd ref="774775323"/>
  <nd ref="774775670"/>
  <nd ref="774772203"/>
  <nd ref="774772491"/>
  <nd ref="774775004"/>
  <tag k="building" v="yes"/>
  <tag k="source" v="cuzk:km"/>
 </way>
 <way id="62118821" user="Hansign" uid="208872" visible="true" version="1" changeset="5008945" timestamp="2010-06-17T13:41:08Z">
  <nd ref="774775600"/>
  <nd ref="774770892"/>
  <nd ref="774773423"/>
  <nd ref="774772436"/>
  <nd ref="774772840"/>
  <nd ref="774775600"/>
  <tag k="building" v="yes"/>
  <tag k="source" v="cuzk:km"/>
 </way>
 <way id="62118735" user="Hansign" uid="208872" visible="true" version="1" changeset="5008945" timestamp="2010-06-17T13:41:00Z">
  <nd ref="774774689"/>
  <nd ref="774775059"/>
  <nd ref="774771509"/>
  <nd ref="774771914"/>
  <nd ref="774774689"/>
  <tag k="building" v="yes"/>
  <tag k="source" v="cuzk:km"/>
 </way>
 <way id="62118800" user="Hansign" uid="208872" visible="true" version="1" changeset="5008945" timestamp="2010-06-17T13:41:06Z">
  <nd ref="774775146"/>
  <nd ref="774770871"/>
  <nd ref="774772427"/>
  <nd ref="774772814"/>
  <nd ref="774775146"/>
  <tag k="building" v="yes"/>
  <tag k="source" v="cuzk:km"/>
 </way>
 <way id="34336460" user="Zubozrout" uid="123530" visible="true" version="2" changeset="8192749" timestamp="2011-05-19T19:31:49Z">
  <nd ref="393881486"/>
  <nd ref="1292034000"/>
  <nd ref="393881487"/>
  <tag k="highway" v="residential"/>
 </way>
 <way id="34336459" user="flare" uid="367597" visible="true" version="6" changeset="10187315" timestamp="2011-12-23T13:55:51Z">
  <nd ref="393881467"/>
  <nd ref="393881468"/>
  <nd ref="1295170236"/>
  <nd ref="393881469"/>
  <nd ref="393881470"/>
  <nd ref="1559372794"/>
  <nd ref="393881471"/>
  <nd ref="393881472"/>
  <nd ref="393881473"/>
  <nd ref="393881474"/>
  <nd ref="393881475"/>
  <nd ref="393881476"/>
  <nd ref="1295173269"/>
  <nd ref="393881477"/>
  <nd ref="393881487"/>
  <tag k="highway" v="residential"/>
  <tag k="name" v="Šrámkova"/>
 </way>
 <way id="181933286" user="czechreg" uid="787799" visible="true" version="1" changeset="13177123" timestamp="2012-09-19T23:16:48Z">
  <nd ref="1922741192"/>
  <nd ref="1922741183"/>
  <nd ref="1922741182"/>
  <nd ref="1922741181"/>
  <nd ref="1922741180"/>
  <nd ref="1922741179"/>
  <nd ref="1922741178"/>
  <nd ref="1922741177"/>
  <nd ref="1922741176"/>
  <nd ref="1922741175"/>
  <nd ref="1922741173"/>
  <nd ref="1922741172"/>
  <nd ref="1922741171"/>
  <nd ref="1922741170"/>
  <nd ref="1922741169"/>
  <nd ref="1922741168"/>
  <nd ref="1922741167"/>
  <nd ref="1922741166"/>
  <nd ref="1922741164"/>
  <nd ref="1922741163"/>
  <nd ref="1922741162"/>
  <nd ref="1922741161"/>
  <nd ref="1922741160"/>
  <nd ref="1922741159"/>
  <nd ref="1922741158"/>
  <nd ref="1922741157"/>
  <nd ref="1922741156"/>
  <nd ref="1922741155"/>
  <nd ref="1922741154"/>
  <nd ref="1922741153"/>
  <nd ref="1922741152"/>
  <nd ref="1922741151"/>
  <nd ref="1922741150"/>
  <nd ref="1922741149"/>
  <nd ref="1922741148"/>
  <nd ref="1922741147"/>
  <nd ref="1922741146"/>
  <nd ref="1922741145"/>
  <nd ref="1922741142"/>
  <nd ref="1922741141"/>
  <nd ref="1922741140"/>
  <nd ref="1922741139"/>
  <nd ref="1922741138"/>
  <nd ref="1922741137"/>
  <nd ref="1922741136"/>
  <nd ref="1922741135"/>
  <nd ref="1922741134"/>
  <nd ref="1922741133"/>
  <nd ref="1922741131"/>
  <nd ref="1922741130"/>
  <nd ref="1922741129"/>
  <nd ref="1922741128"/>
  <nd ref="1922741127"/>
  <nd ref="1922741126"/>
  <nd ref="1922741125"/>
  <nd ref="1922741124"/>
  <nd ref="1922741123"/>
  <nd ref="1922741120"/>
  <nd ref="1922741119"/>
  <nd ref="1922741118"/>
  <nd ref="1922741117"/>
  <nd ref="1922741116"/>
  <nd ref="1922741115"/>
  <nd ref="1922741114"/>
  <nd ref="1922741113"/>
  <nd ref="1922741112"/>
  <nd ref="1922741110"/>
  <nd ref="1922741109"/>
  <nd ref="1922741108"/>
  <nd ref="1922741107"/>
  <nd ref="1922741106"/>
  <nd ref="1922741105"/>
  <nd ref="1922741104"/>
  <nd ref="1922741103"/>
  <nd ref="1922741102"/>
  <nd ref="1922741100"/>
  <nd ref="1922741099"/>
  <nd ref="1922741097"/>
  <nd ref="1922741096"/>
  <nd ref="1922741095"/>
  <nd ref="1922741094"/>
  <nd ref="1922741093"/>
  <nd ref="1922741091"/>
  <nd ref="1922741090"/>
  <nd ref="1922741089"/>
  <nd ref="1922741088"/>
  <nd ref="1922741087"/>
  <nd ref="1922741086"/>
  <nd ref="1922741085"/>
  <nd ref="1922741084"/>
  <nd ref="1922741083"/>
  <nd ref="1922741082"/>
  <nd ref="1922741080"/>
  <nd ref="1922741079"/>
  <nd ref="1922741078"/>
  <nd ref="1922741077"/>
  <nd ref="1922741075"/>
  <nd ref="1922741074"/>
  <nd ref="1922741072"/>
  <nd ref="1922741071"/>
  <nd ref="1922741070"/>
  <nd ref="1922741069"/>
  <nd ref="1922741068"/>
  <nd ref="1922741067"/>
  <nd ref="1922741066"/>
  <nd ref="1922741065"/>
  <nd ref="1922741064"/>
  <nd ref="1922741063"/>
  <nd ref="1922741062"/>
  <nd ref="1922741061"/>
  <nd ref="1922741060"/>
  <nd ref="1922741059"/>
  <nd ref="1922741058"/>
  <nd ref="1922741057"/>
  <nd ref="1922741056"/>
  <nd ref="1922741055"/>
  <nd ref="1922741053"/>
  <nd ref="1922741052"/>
  <nd ref="1922741050"/>
  <nd ref="1922741049"/>
  <nd ref="1922741048"/>
  <nd ref="1922741047"/>
  <nd ref="1922741046"/>
  <nd ref="1922741184"/>
  <tag k="admin_level" v="10"/>
  <tag k="boundary" v="administrative"/>
  <tag k="source" v="cuzk:ruian"/>
 </way>
 <way id="62118852" user="Hansign" uid="208872" visible="true" version="1" changeset="5008945" timestamp="2010-06-17T13:41:11Z">
  <nd ref="774770781"/>
  <nd ref="774771293"/>
  <nd ref="774772726"/>
  <nd ref="774773134"/>
  <nd ref="774774859"/>
  <nd ref="774775207"/>
  <nd ref="774771679"/>
  <nd ref="774770781"/>
  <tag k="building" v="yes"/>
  <tag k="source" v="cuzk:km"/>
 </way>
 <way id="70085987" user="Hansign" uid="208872" visible="true" version="1" changeset="5344806" timestamp="2010-07-29T08:49:04Z">
  <nd ref="837201931"/>
  <nd ref="837201864"/>
  <nd ref="837201750"/>
  <nd ref="837201450"/>
  <nd ref="837201987"/>
  <nd ref="837201500"/>
  <nd ref="837202039"/>
  <nd ref="837201648"/>
  <nd ref="837201569"/>
  <nd ref="837202038"/>
  <nd ref="837201918"/>
  <nd ref="837201565"/>
  <nd ref="837201931"/>
  <tag k="landuse" v="industrial"/>
 </way>
 <relation id="431562" user="czechreg" uid="787799" visible="true" version="4" changeset="13177126" timestamp="2012-09-19T23:18:07Z">
  <member type="way" ref="51646031" role="outer"/>
  <member type="way" ref="51641489" role="outer"/>
  <member type="way" ref="181933286" role="outer"/>
  <member type="way" ref="181933559" role="outer"/>
  <member type="way" ref="181933795" role="outer"/>
  <tag k="admin_level" v="10"/>
  <tag k="boundary" v="administrative"/>
  <tag k="name" v="Louky nad Dřevnicí"/>
  <tag k="ref" v="636118"/>
  <tag k="source" v="cuzk:km"/>
  <tag k="type" v="boundary"/>
 </relation>
 <relation id="431008" user="czechreg" uid="787799" visible="true" version="9" changeset="13177123" timestamp="2012-09-19T23:16:52Z">
  <member type="way" ref="179736331" role="outer"/>
  <member type="way" ref="181813459" role="outer"/>
  <member type="way" ref="181813831" role="outer"/>
  <member type="way" ref="181922994" role="outer"/>
  <member type="way" ref="181932694" role="outer"/>
  <member type="way" ref="181933166" role="outer"/>
  <member type="way" ref="181933295" role="outer"/>
  <member type="way" ref="181933293" role="outer"/>
  <member type="way" ref="181933286" role="outer"/>
  <member type="way" ref="181933282" role="outer"/>
  <member type="way" ref="181933279" role="outer"/>
  <member type="way" ref="181933276" role="outer"/>
  <tag k="admin_level" v="10"/>
  <tag k="boundary" v="administrative"/>
  <tag k="name" v="Malenovice u Zlína"/>
  <tag k="ref" v="635987"/>
  <tag k="source" v="cuzk:km"/>
  <tag k="type" v="boundary"/>
 </relation>
 <relation id="440910" user="xificurk" uid="229590" visible="true" version="36" changeset="13183529" timestamp="2012-09-20T13:00:08Z">
  <member type="way" ref="51641489" role="outer"/>
  <member type="way" ref="51646032" role="outer"/>
  <member type="way" ref="51646035" role="outer"/>
  <member type="node" ref="1598988152" role="admin_centre"/>
  <member type="relation" ref="430824" role="subarea"/>
  <member type="relation" ref="433654" role="subarea"/>
  <member type="relation" ref="431562" role="subarea"/>
  <member type="relation" ref="432973" role="subarea"/>
  <member type="relation" ref="428399" role="subarea"/>
  <member type="relation" ref="431449" role="subarea"/>
  <member type="relation" ref="428849" role="subarea"/>
  <member type="relation" ref="431194" role="subarea"/>
  <member type="relation" ref="429401" role="subarea"/>
  <member type="relation" ref="433351" role="subarea"/>
  <member type="relation" ref="428339" role="subarea"/>
  <member type="relation" ref="431008" role="subarea"/>
  <member type="relation" ref="431191" role="subarea"/>
  <member type="relation" ref="431193" role="subarea"/>
  <member type="relation" ref="431561" role="subarea"/>
  <member type="way" ref="179358311" role="outer"/>
  <member type="way" ref="179563820" role="outer"/>
  <member type="way" ref="179736042" role="outer"/>
  <member type="way" ref="179736227" role="outer"/>
  <member type="way" ref="179736240" role="outer"/>
  <member type="way" ref="179736239" role="outer"/>
  <member type="way" ref="179736300" role="outer"/>
  <member type="way" ref="179736299" role="outer"/>
  <member type="way" ref="179736298" role="outer"/>
  <member type="way" ref="179736331" role="outer"/>
  <member type="way" ref="179736562" role="outer"/>
  <member type="way" ref="179736561" role="outer"/>
  <member type="way" ref="179736829" role="outer"/>
  <member type="way" ref="181619505" role="outer"/>
  <member type="way" ref="181619861" role="outer"/>
  <member type="way" ref="181812908" role="outer"/>
  <member type="way" ref="181813473" role="outer"/>
  <member type="way" ref="181813466" role="outer"/>
  <member type="way" ref="181813459" role="outer"/>
  <member type="way" ref="181813836" role="outer"/>
  <member type="way" ref="181813831" role="outer"/>
  <member type="way" ref="181890112" role="outer"/>
  <member type="way" ref="181891088" role="outer"/>
  <member type="way" ref="181891376" role="outer"/>
  <member type="way" ref="181922995" role="outer"/>
  <member type="way" ref="181922994" role="outer"/>
  <member type="way" ref="181932694" role="outer"/>
  <member type="way" ref="181932949" role="outer"/>
  <member type="way" ref="181933282" role="outer"/>
  <member type="way" ref="181933279" role="outer"/>
  <member type="way" ref="181933276" role="outer"/>
  <member type="way" ref="181933812" role="outer"/>
  <member type="way" ref="181933786" role="outer"/>
  <member type="way" ref="181934600" role="outer"/>
  <member type="way" ref="181934598" role="outer"/>
  <member type="way" ref="182023820" role="outer"/>
  <tag k="admin_level" v="8"/>
  <tag k="boundary" v="administrative"/>
  <tag k="name" v="Zlín"/>
  <tag k="name:prefix" v="statutární město"/>
  <tag k="name:ru" v="Злин"/>
  <tag k="population" v="75660"/>
  <tag k="ref" v="CZ0724585068"/>
  <tag k="source" v="cuzk:km"/>
  <tag k="source:population" v="csu:uir-zsj"/>
  <tag k="type" v="boundary"/>
 </relation>
</osm>
