<?xml version="1.0" encoding="UTF-8"?>
<osm version="0.6" generator="CGImap 0.1.0" copyright="OpenStreetMap and contributors" attribution="http://www.openstreetmap.org/copyright" license="http://opendatacommons.org/licenses/odbl/1-0/">
 <bounds minlat="49.2028300" minlon="17.5664200" maxlat="49.2047600" maxlon="17.5741300"/>
 <node id="311379412" lat="49.2039540" lon="17.5688923" user="Jandrs" uid="248441" visible="true" version="2" changeset="9121382" timestamp="2011-08-25T13:24:29Z"/>
 <node id="311379446" lat="49.2046160" lon="17.5721068" user="Jandrs" uid="248441" visible="true" version="3" changeset="9121382" timestamp="2011-08-25T13:24:29Z"/>
 <node id="311379461" lat="49.2046332" lon="17.5723948" user="Jandrs" uid="248441" visible="true" version="3" changeset="9121382" timestamp="2011-08-25T13:24:29Z"/>
 <node id="311379594" lat="49.2041343" lon="17.5730379" user="Jandrs" uid="248441" visible="true" version="2" changeset="9121422" timestamp="2011-08-25T13:32:05Z"/>
 <node id="311379600" lat="49.2042992" lon="17.5734969" user="Jandrs" uid="248441" visible="true" version="2" changeset="9121422" timestamp="2011-08-25T13:32:05Z"/>
 <node id="311379656" lat="49.2045678" lon="17.5720409" user="onovy" uid="27052" visible="true" version="1" changeset="734989" timestamp="2008-11-11T20:22:25Z"/>
 <node id="311379662" lat="49.2045299" lon="17.5714360" user="Jandrs" uid="248441" visible="true" version="2" changeset="9121422" timestamp="2011-08-25T13:32:05Z"/>
 <node id="1880615269" lat="49.2037251" lon="17.5724625" user="Datin" uid="115815" visible="true" version="1" changeset="12843448" timestamp="2012-08-24T10:53:23Z">
  <tag k="addr:conscriptionnumber" v="1170"/>
  <tag k="addr:country" v="CZ"/>
  <tag k="addr:housenumber" v="1170"/>
  <tag k="addr:street" v="třída 3. Května"/>
  <tag k="is_in" v="Malenovice, Zlín, Zlínský kraj, CZ"/>
  <tag k="source:addr" v="mvcr:adresa"/>
  <tag k="source:loc" v="cuzk:km"/>
 </node>
 <node id="1880615295" lat="49.2033101" lon="17.5712375" user="Datin" uid="115815" visible="true" version="1" changeset="12843448" timestamp="2012-08-24T10:53:26Z">
  <tag k="addr:conscriptionnumber" v="1189"/>
  <tag k="addr:country" v="CZ"/>
  <tag k="addr:housenumber" v="1189"/>
  <tag k="is_in" v="Malenovice, Zlín, Zlínský kraj, CZ"/>
  <tag k="source" v="cuzk:km"/>
 </node>
 <node id="1880615297" lat="49.2035863" lon="17.5734863" user="Datin" uid="115815" visible="true" version="1" changeset="12843448" timestamp="2012-08-24T10:53:26Z">
  <tag k="addr:conscriptionnumber" v="1190"/>
  <tag k="addr:country" v="CZ"/>
  <tag k="addr:housenumber" v="1190"/>
  <tag k="is_in" v="Malenovice, Zlín, Zlínský kraj, CZ"/>
  <tag k="source" v="cuzk:km"/>
 </node>
 <node id="1880615316" lat="49.2033163" lon="17.5678388" user="Datin" uid="115815" visible="true" version="1" changeset="12843448" timestamp="2012-08-24T10:53:31Z">
  <tag k="addr:conscriptionnumber" v="1205"/>
  <tag k="addr:country" v="CZ"/>
  <tag k="addr:housenumber" v="1205"/>
  <tag k="is_in" v="Malenovice, Zlín, Zlínský kraj, CZ"/>
  <tag k="source" v="cuzk:km"/>
 </node>
 <node id="393881604" lat="49.2037472" lon="17.5676846" user="Zubozrout" uid="123530" visible="true" version="1" changeset="1154430" timestamp="2009-05-11T17:27:11Z"/>
 <node id="393881605" lat="49.2036112" lon="17.5678102" user="Zubozrout" uid="123530" visible="true" version="1" changeset="1154430" timestamp="2009-05-11T17:27:11Z"/>
 <node id="393881606" lat="49.2035690" lon="17.5679644" user="Zubozrout" uid="123530" visible="true" version="1" changeset="1154430" timestamp="2009-05-11T17:27:11Z"/>
 <node id="393881607" lat="49.2035737" lon="17.5681151" user="Zubozrout" uid="123530" visible="true" version="1" changeset="1154430" timestamp="2009-05-11T17:27:11Z"/>
 <node id="393881608" lat="49.2036722" lon="17.5682766" user="Zubozrout" uid="123530" visible="true" version="1" changeset="1154430" timestamp="2009-05-11T17:27:11Z"/>
 <node id="393881609" lat="49.2037894" lon="17.5683017" user="Zubozrout" uid="123530" visible="true" version="1" changeset="1154430" timestamp="2009-05-11T17:27:11Z"/>
 <node id="393881613" lat="49.2029501" lon="17.5676236" user="Zubozrout" uid="123530" visible="true" version="1" changeset="1154430" timestamp="2009-05-11T17:27:11Z"/>
 <node id="393881616" lat="49.2036535" lon="17.5676961" user="Zubozrout" uid="123530" visible="true" version="1" changeset="1154430" timestamp="2009-05-11T17:27:11Z"/>
 <node id="393881617" lat="49.2036094" lon="17.5677436" user="Zubozrout" uid="123530" visible="true" version="1" changeset="1154430" timestamp="2009-05-11T17:27:11Z"/>
 <node id="393881618" lat="49.2035665" lon="17.5678147" user="Zubozrout" uid="123530" visible="true" version="1" changeset="1154430" timestamp="2009-05-11T17:27:11Z"/>
 <node id="393881619" lat="49.2035386" lon="17.5679080" user="Zubozrout" uid="123530" visible="true" version="1" changeset="1154430" timestamp="2009-05-11T17:27:11Z"/>
 <node id="393881620" lat="49.2035260" lon="17.5680079" user="Zubozrout" uid="123530" visible="true" version="1" changeset="1154430" timestamp="2009-05-11T17:27:11Z"/>
 <node id="393881621" lat="49.2035343" lon="17.5681066" user="Zubozrout" uid="123530" visible="true" version="1" changeset="1154430" timestamp="2009-05-11T17:27:11Z"/>
 <node id="393881622" lat="49.2035646" lon="17.5682035" user="Zubozrout" uid="123530" visible="true" version="1" changeset="1154430" timestamp="2009-05-11T17:27:11Z"/>
 <node id="393881623" lat="49.2036196" lon="17.5682986" user="Zubozrout" uid="123530" visible="true" version="1" changeset="1154430" timestamp="2009-05-11T17:27:11Z"/>
 <node id="393881624" lat="49.2036928" lon="17.5683552" user="Zubozrout" uid="123530" visible="true" version="1" changeset="1154430" timestamp="2009-05-11T17:27:11Z"/>
 <node id="393881625" lat="49.2037923" lon="17.5683631" user="Zubozrout" uid="123530" visible="true" version="1" changeset="1154430" timestamp="2009-05-11T17:27:11Z"/>
 <node id="393881626" lat="49.2038151" lon="17.5687218" user="Zubozrout" uid="123530" visible="true" version="1" changeset="1154430" timestamp="2009-05-11T17:27:11Z"/>
 <node id="393881627" lat="49.2029544" lon="17.5693508" user="Zubozrout" uid="123530" visible="true" version="1" changeset="1154430" timestamp="2009-05-11T17:27:11Z"/>
 <node id="393881628" lat="49.2028884" lon="17.5683643" user="Zubozrout" uid="123530" visible="true" version="1" changeset="1154430" timestamp="2009-05-11T17:27:11Z"/>
 <node id="393881629" lat="49.2029916" lon="17.5683477" user="Zubozrout" uid="123530" visible="true" version="1" changeset="1154430" timestamp="2009-05-11T17:27:11Z"/>
 <node id="393881630" lat="49.2038682" lon="17.5690957" user="Zubozrout" uid="123530" visible="true" version="1" changeset="1154430" timestamp="2009-05-11T17:27:11Z"/>
 <node id="393881632" lat="49.2031438" lon="17.5695478" user="Zubozrout" uid="123530" visible="true" version="1" changeset="1154430" timestamp="2009-05-11T17:27:11Z"/>
 <node id="393881639" lat="49.2029961" lon="17.5730283" user="Zubozrout" uid="123530" visible="true" version="1" changeset="1154430" timestamp="2009-05-11T17:27:12Z"/>
 <node id="393881648" lat="49.2040644" lon="17.5727035" user="Zubozrout" uid="123530" visible="true" version="1" changeset="1154430" timestamp="2009-05-11T17:27:12Z"/>
 <node id="393881649" lat="49.2040636" lon="17.5726765" user="Zubozrout" uid="123530" visible="true" version="1" changeset="1154430" timestamp="2009-05-11T17:27:12Z"/>
 <node id="393881650" lat="49.2040774" lon="17.5726765" user="Zubozrout" uid="123530" visible="true" version="1" changeset="1154430" timestamp="2009-05-11T17:27:12Z"/>
 <node id="393881651" lat="49.2040703" lon="17.5725597" user="Zubozrout" uid="123530" visible="true" version="1" changeset="1154430" timestamp="2009-05-11T17:27:12Z"/>
 <node id="393881652" lat="49.2040561" lon="17.5725627" user="Zubozrout" uid="123530" visible="true" version="1" changeset="1154430" timestamp="2009-05-11T17:27:12Z"/>
 <node id="393881653" lat="49.2040542" lon="17.5725374" user="Zubozrout" uid="123530" visible="true" version="1" changeset="1154430" timestamp="2009-05-11T17:27:12Z"/>
 <node id="393881654" lat="49.2040817" lon="17.5724862" user="Zubozrout" uid="123530" visible="true" version="1" changeset="1154430" timestamp="2009-05-11T17:27:12Z"/>
 <node id="393881655" lat="49.2039126" lon="17.5697972" user="Zubozrout" uid="123530" visible="true" version="1" changeset="1154430" timestamp="2009-05-11T17:27:12Z"/>
 <node id="393881656" lat="49.2038784" lon="17.5697532" user="Zubozrout" uid="123530" visible="true" version="1" changeset="1154430" timestamp="2009-05-11T17:27:12Z"/>
 <node id="393881657" lat="49.2038780" lon="17.5697310" user="Zubozrout" uid="123530" visible="true" version="1" changeset="1154430" timestamp="2009-05-11T17:27:12Z"/>
 <node id="393881658" lat="49.2038909" lon="17.5697292" user="Zubozrout" uid="123530" visible="true" version="1" changeset="1154430" timestamp="2009-05-11T17:27:12Z"/>
 <node id="393881659" lat="49.2038839" lon="17.5696124" user="Zubozrout" uid="123530" visible="true" version="1" changeset="1154430" timestamp="2009-05-11T17:27:12Z"/>
 <node id="393881660" lat="49.2038693" lon="17.5696142" user="Zubozrout" uid="123530" visible="true" version="1" changeset="1154430" timestamp="2009-05-11T17:27:12Z"/>
 <node id="393881661" lat="49.2038697" lon="17.5695895" user="Zubozrout" uid="123530" visible="true" version="1" changeset="1154430" timestamp="2009-05-11T17:27:12Z"/>
 <node id="393881662" lat="49.2038957" lon="17.5695414" user="Zubozrout" uid="123530" visible="true" version="1" changeset="1154430" timestamp="2009-05-11T17:27:12Z"/>
 <node id="393881631" lat="49.2037961" lon="17.5691023" user="zub" uid="29818" visible="true" version="2" changeset="2083144" timestamp="2009-08-09T10:28:47Z"/>
 <node id="393881634" lat="49.2028932" lon="17.5702294" user="zub" uid="29818" visible="true" version="2" changeset="2083144" timestamp="2009-08-09T10:28:47Z"/>
 <node id="393881633" lat="49.2031774" lon="17.5701894" user="zub" uid="29818" visible="true" version="2" changeset="2083144" timestamp="2009-08-09T10:28:47Z"/>
 <node id="459496045" lat="49.2029165" lon="17.5706165" user="zub" uid="29818" visible="true" version="1" changeset="2083144" timestamp="2009-08-09T10:28:44Z"/>
 <node id="459496046" lat="49.2030211" lon="17.5705986" user="zub" uid="29818" visible="true" version="1" changeset="2083144" timestamp="2009-08-09T10:28:44Z"/>
 <node id="459496047" lat="49.2030962" lon="17.5718090" user="zub" uid="29818" visible="true" version="1" changeset="2083144" timestamp="2009-08-09T10:28:44Z"/>
 <node id="459496049" lat="49.2029227" lon="17.5718343" user="zub" uid="29818" visible="true" version="1" changeset="2083144" timestamp="2009-08-09T10:28:44Z"/>
 <node id="459496071" lat="49.2038388" lon="17.5680116" user="Zubozrout" uid="123530" visible="true" version="2" changeset="9270625" timestamp="2011-09-11T12:32:17Z"/>
 <node id="459496090" lat="49.2043318" lon="17.5679208" user="Zubozrout" uid="123530" visible="true" version="2" changeset="9270625" timestamp="2011-09-11T12:32:18Z"/>
 <node id="393881640" lat="49.2031261" lon="17.5730109" user="zub" uid="29818" visible="true" version="2" changeset="2083144" timestamp="2009-08-09T10:28:47Z"/>
 <node id="311379587" lat="49.2038828" lon="17.5690493" user="Jandrs" uid="248441" visible="true" version="3" changeset="9121422" timestamp="2011-08-25T13:32:05Z"/>
 <node id="1430018616" lat="49.2040242" lon="17.5674160" user="Zubozrout" uid="123530" visible="true" version="1" changeset="9270625" timestamp="2011-09-11T12:32:17Z"/>
 <node id="1412141124" lat="49.2044423" lon="17.5694462" user="Zubozrout" uid="123530" visible="true" version="2" changeset="9270625" timestamp="2011-09-11T12:32:18Z"/>
 <node id="1412141136" lat="49.2045133" lon="17.5705128" user="Zubozrout" uid="123530" visible="true" version="2" changeset="9270625" timestamp="2011-09-11T12:32:18Z"/>
 <node id="459496085" lat="49.2042973" lon="17.5674819" user="Zubozrout" uid="123530" visible="true" version="2" changeset="9270625" timestamp="2011-09-11T12:32:18Z"/>
 <node id="1412141126" lat="49.2044585" lon="17.5696890" user="Zubozrout" uid="123530" visible="true" version="2" changeset="9270625" timestamp="2011-09-11T12:32:18Z"/>
 <node id="459496087" lat="49.2047427" lon="17.5676206" user="Zubozrout" uid="123530" visible="true" version="2" changeset="9270625" timestamp="2011-09-11T12:32:18Z"/>
 <node id="459496057" lat="49.2047598" lon="17.5680508" user="Zubozrout" uid="123530" visible="true" version="2" changeset="9270625" timestamp="2011-09-11T12:32:18Z"/>
 <node id="459496066" lat="49.2040675" lon="17.5681783" user="Zubozrout" uid="123530" visible="true" version="2" changeset="9270625" timestamp="2011-09-11T12:32:18Z"/>
 <node id="459496068" lat="49.2038214" lon="17.5677902" user="Zubozrout" uid="123530" visible="true" version="2" changeset="9270625" timestamp="2011-09-11T12:32:18Z"/>
 <node id="1412141112" lat="49.2044010" lon="17.5688258" user="Zubozrout" uid="123530" visible="true" version="2" changeset="9270625" timestamp="2011-09-11T12:32:19Z"/>
 <node id="1412141121" lat="49.2044288" lon="17.5692431" user="Zubozrout" uid="123530" visible="true" version="2" changeset="9270625" timestamp="2011-09-11T12:32:19Z"/>
 <node id="459496070" lat="49.2040513" lon="17.5679725" user="Zubozrout" uid="123530" visible="true" version="2" changeset="9270625" timestamp="2011-09-11T12:32:19Z"/>
 <node id="1412141128" lat="49.2044721" lon="17.5698936" user="Zubozrout" uid="123530" visible="true" version="2" changeset="9270625" timestamp="2011-09-11T12:32:19Z"/>
 <node id="1412141151" lat="49.2045676" lon="17.5713293" user="Zubozrout" uid="123530" visible="true" version="2" changeset="9270625" timestamp="2011-09-11T12:32:19Z"/>
 <node id="459496084" lat="49.2047256" lon="17.5674030" user="Zubozrout" uid="123530" visible="true" version="2" changeset="9270625" timestamp="2011-09-11T12:32:19Z"/>
 <node id="1412141130" lat="49.2044860" lon="17.5701037" user="Zubozrout" uid="123530" visible="true" version="2" changeset="9270625" timestamp="2011-09-11T12:32:19Z"/>
 <node id="1412141137" lat="49.2045268" lon="17.5707166" user="Zubozrout" uid="123530" visible="true" version="2" changeset="9270625" timestamp="2011-09-11T12:32:20Z"/>
 <node id="1412141132" lat="49.2044999" lon="17.5703103" user="Zubozrout" uid="123530" visible="true" version="2" changeset="9270625" timestamp="2011-09-11T12:32:20Z"/>
 <node id="1412141118" lat="49.2044149" lon="17.5690354" user="Zubozrout" uid="123530" visible="true" version="2" changeset="9270625" timestamp="2011-09-11T12:32:20Z"/>
 <node id="1412141139" lat="49.2045405" lon="17.5709218" user="Zubozrout" uid="123530" visible="true" version="2" changeset="9270625" timestamp="2011-09-11T12:32:20Z"/>
 <node id="393881598" lat="49.2043507" lon="17.5681613" user="Zubozrout" uid="123530" visible="true" version="2" changeset="9270625" timestamp="2011-09-11T12:32:20Z"/>
 <node id="311379532" lat="49.2043863" lon="17.5686056" user="Zubozrout" uid="123530" visible="true" version="5" changeset="9270625" timestamp="2011-09-11T12:32:20Z"/>
 <node id="1412141146" lat="49.2045538" lon="17.5711222" user="Zubozrout" uid="123530" visible="true" version="2" changeset="9270625" timestamp="2011-09-11T12:32:21Z"/>
 <node id="459496067" lat="49.2040339" lon="17.5677511" user="Zubozrout" uid="123530" visible="true" version="2" changeset="9270625" timestamp="2011-09-11T12:32:21Z"/>
 <node id="1412141193" lat="49.2046765" lon="17.5711040" user="Zubozrout" uid="123530" visible="true" version="2" changeset="9270625" timestamp="2011-09-11T12:32:21Z"/>
 <node id="459496069" lat="49.2038550" lon="17.5682175" user="Zubozrout" uid="123530" visible="true" version="2" changeset="9270625" timestamp="2011-09-11T12:32:21Z"/>
 <node id="459496055" lat="49.2043480" lon="17.5681267" user="Zubozrout" uid="123530" visible="true" version="2" changeset="9270625" timestamp="2011-09-11T12:32:21Z"/>
 <node id="459496088" lat="49.2043144" lon="17.5676994" user="Zubozrout" uid="123530" visible="true" version="2" changeset="9270625" timestamp="2011-09-11T12:32:21Z"/>
 <node id="805574072" lat="49.2028783" lon="17.5696202" user="Zubozrout" uid="123530" visible="true" version="1" changeset="5160840" timestamp="2010-07-07T18:53:25Z"/>
 <node id="806938684" lat="49.2044503" lon="17.5695672" user="Zubozrout" uid="123530" visible="true" version="4" changeset="9270625" timestamp="2011-09-11T12:32:19Z">
  <tag k="crossing" v="uncontrolled"/>
  <tag k="highway" v="crossing"/>
 </node>
 <node id="805573228" lat="49.2040937" lon="17.5726134" user="Zubozrout" uid="123530" visible="true" version="3" changeset="5168274" timestamp="2010-07-08T18:20:33Z"/>
 <node id="805573230" lat="49.2039009" lon="17.5696533" user="Zubozrout" uid="123530" visible="true" version="3" changeset="5168274" timestamp="2010-07-08T18:20:34Z"/>
 <node id="806935316" lat="49.2042503" lon="17.5735164" user="Zubozrout" uid="123530" visible="true" version="1" changeset="5168257" timestamp="2010-07-08T18:18:37Z"/>
 <node id="806935339" lat="49.2036718" lon="17.5729304" user="Zubozrout" uid="123530" visible="true" version="1" changeset="5168257" timestamp="2010-07-08T18:18:37Z"/>
 <node id="806935342" lat="49.2029752" lon="17.5735352" user="Zubozrout" uid="123530" visible="true" version="1" changeset="5168257" timestamp="2010-07-08T18:18:37Z"/>
 <node id="806935343" lat="49.2031217" lon="17.5732954" user="Zubozrout" uid="123530" visible="true" version="1" changeset="5168257" timestamp="2010-07-08T18:18:37Z"/>
 <node id="806935345" lat="49.2033542" lon="17.5741121" user="Zubozrout" uid="123530" visible="true" version="1" changeset="5168257" timestamp="2010-07-08T18:18:37Z"/>
 <node id="806935347" lat="49.2041046" lon="17.5728668" user="Zubozrout" uid="123530" visible="true" version="1" changeset="5168257" timestamp="2010-07-08T18:18:37Z"/>
 <node id="806935349" lat="49.2029460" lon="17.5734324" user="Zubozrout" uid="123530" visible="true" version="1" changeset="5168257" timestamp="2010-07-08T18:18:37Z"/>
 <node id="806935351" lat="49.2041157" lon="17.5730431" user="Zubozrout" uid="123530" visible="true" version="1" changeset="5168257" timestamp="2010-07-08T18:18:37Z"/>
 <node id="806935353" lat="49.2031436" lon="17.5732809" user="Zubozrout" uid="123530" visible="true" version="1" changeset="5168257" timestamp="2010-07-08T18:18:38Z"/>
 <node id="806935356" lat="49.2031563" lon="17.5734148" user="Zubozrout" uid="123530" visible="true" version="1" changeset="5168257" timestamp="2010-07-08T18:18:38Z"/>
 <node id="806935380" lat="49.2031265" lon="17.5733124" user="Zubozrout" uid="123530" visible="true" version="1" changeset="5168257" timestamp="2010-07-08T18:18:38Z"/>
 <node id="806939693" lat="49.2042405" lon="17.5696001" user="Zubozrout" uid="123530" visible="true" version="1" changeset="5168274" timestamp="2010-07-08T18:20:33Z"/>
 <node id="806939692" lat="49.2044366" lon="17.5725456" user="Jandrs" uid="248441" visible="true" version="2" changeset="9121382" timestamp="2011-08-25T13:24:31Z"/>
 <node id="393881647" lat="49.2040972" lon="17.5727494" user="Zubozrout" uid="123530" visible="true" version="2" changeset="5168257" timestamp="2010-07-08T18:18:38Z"/>
 <node id="807758819" lat="49.2039463" lon="17.5711304" user="wieland" uid="31075" visible="true" version="3" changeset="6771868" timestamp="2010-12-26T20:28:16Z">
  <tag k="amenity" v="fast_food"/>
  <tag k="cuisine" v="burger"/>
  <tag k="name" v="McDonald's"/>
 </node>
 <node id="848469651" lat="49.2043542" lon="17.5736268" user="Zubozrout" uid="123530" visible="true" version="1" changeset="5422827" timestamp="2010-08-07T08:50:50Z"/>
 <node id="848469886" lat="49.2028491" lon="17.5722374" user="Zubozrout" uid="123530" visible="true" version="1" changeset="5422827" timestamp="2010-08-07T08:51:02Z"/>
 <node id="848470060" lat="49.2028550" lon="17.5717712" user="Zubozrout" uid="123530" visible="true" version="1" changeset="5422827" timestamp="2010-08-07T08:51:11Z"/>
 <node id="954440331" lat="49.2044300" lon="17.5737957" user="pavel" uid="1066" visible="true" version="1" changeset="6065032" timestamp="2010-10-17T11:57:27Z"/>
 <node id="459496086" lat="49.2040168" lon="17.5675335" user="Zubozrout" uid="123530" visible="true" version="3" changeset="9270625" timestamp="2011-09-11T12:32:20Z"/>
 <node id="1253875323" lat="49.2046643" lon="17.5666236" user="Zubozrout" uid="123530" visible="true" version="2" changeset="9270625" timestamp="2011-09-11T12:32:20Z"/>
 <node id="459496062" lat="49.2046352" lon="17.5664957" user="Zubozrout" uid="123530" visible="true" version="3" changeset="9270625" timestamp="2011-09-11T12:32:21Z"/>
 <node id="1253875324" lat="49.2045803" lon="17.5664440" user="Zubozrout" uid="123530" visible="true" version="2" changeset="8192749" timestamp="2011-05-19T19:31:56Z"/>
 <node id="459496078" lat="49.2047019" lon="17.5671018" user="Zubozrout" uid="123530" visible="true" version="4" changeset="9270625" timestamp="2011-09-11T12:32:17Z"/>
 <node id="1292033989" lat="49.2046354" lon="17.5666433" user="Zubozrout" uid="123530" visible="true" version="2" changeset="9270625" timestamp="2011-09-11T12:32:19Z"/>
 <node id="1292033937" lat="49.2044646" lon="17.5664404" user="Zubozrout" uid="123530" visible="true" version="1" changeset="8192749" timestamp="2011-05-19T19:31:36Z"/>
 <node id="1292033976" lat="49.2039497" lon="17.5668184" user="Zubozrout" uid="123530" visible="true" version="1" changeset="8192749" timestamp="2011-05-19T19:31:37Z"/>
 <node id="1292034017" lat="49.2044716" lon="17.5665082" user="Zubozrout" uid="123530" visible="true" version="1" changeset="8192749" timestamp="2011-05-19T19:31:38Z"/>
 <node id="393881615" lat="49.2046694" lon="17.5673295" user="Zubozrout" uid="123530" visible="true" version="5" changeset="9270625" timestamp="2011-09-11T12:32:18Z"/>
 <node id="1412141143" lat="49.2045488" lon="17.5685162" user="Jandrs" uid="248441" visible="true" version="1" changeset="9121382" timestamp="2011-08-25T13:24:17Z"/>
 <node id="1412141153" lat="49.2045920" lon="17.5715860" user="Jandrs" uid="248441" visible="true" version="1" changeset="9121382" timestamp="2011-08-25T13:24:17Z"/>
 <node id="1412141172" lat="49.2046271" lon="17.5719853" user="Jandrs" uid="248441" visible="true" version="1" changeset="9121382" timestamp="2011-08-25T13:24:18Z"/>
 <node id="1412141190" lat="49.2046540" lon="17.5713087" user="Jandrs" uid="248441" visible="true" version="1" changeset="9121382" timestamp="2011-08-25T13:24:18Z"/>
 <node id="1412141194" lat="49.2046781" lon="17.5712546" user="Jandrs" uid="248441" visible="true" version="1" changeset="9121382" timestamp="2011-08-25T13:24:18Z"/>
 <node id="1412141196" lat="49.2047096" lon="17.5684527" user="Jandrs" uid="248441" visible="true" version="1" changeset="9121382" timestamp="2011-08-25T13:24:18Z"/>
 <node id="1412141198" lat="49.2047226" lon="17.5683232" user="Jandrs" uid="248441" visible="true" version="1" changeset="9121382" timestamp="2011-08-25T13:24:18Z"/>
 <node id="1412141204" lat="49.2047282" lon="17.5686703" user="Jandrs" uid="248441" visible="true" version="1" changeset="9121382" timestamp="2011-08-25T13:24:18Z"/>
 <node id="1412141206" lat="49.2047359" lon="17.5685701" user="Jandrs" uid="248441" visible="true" version="1" changeset="9121382" timestamp="2011-08-25T13:24:19Z"/>
 <node id="1412141208" lat="49.2047372" lon="17.5687371" user="Jandrs" uid="248441" visible="true" version="1" changeset="9121382" timestamp="2011-08-25T13:24:19Z"/>
 <node id="1412141211" lat="49.2047540" lon="17.5687740" user="Jandrs" uid="248441" visible="true" version="1" changeset="9121382" timestamp="2011-08-25T13:24:19Z"/>
 <node id="588805357" lat="49.2045780" lon="17.5714856" user="Zubozrout" uid="123530" visible="true" version="4" changeset="9270625" timestamp="2011-09-11T12:32:21Z"/>
 <node id="311379426" lat="49.2042068" lon="17.5730233" user="Jandrs" uid="248441" visible="true" version="2" changeset="9121382" timestamp="2011-08-25T13:24:29Z"/>
 <node id="311379479" lat="49.2043181" lon="17.5733463" user="Jandrs" uid="248441" visible="true" version="2" changeset="9121382" timestamp="2011-08-25T13:24:29Z"/>
 <node id="311379492" lat="49.2046760" lon="17.5731077" user="Jandrs" uid="248441" visible="true" version="3" changeset="9121382" timestamp="2011-08-25T13:24:29Z"/>
 <node id="588805363" lat="49.2047494" lon="17.5715300" user="Jandrs" uid="248441" visible="true" version="3" changeset="9121382" timestamp="2011-08-25T13:24:30Z"/>
 <node id="1412145276" lat="49.2040292" lon="17.5715360" user="Jandrs" uid="248441" visible="true" version="1" changeset="9121422" timestamp="2011-08-25T13:31:59Z"/>
 <node id="1412145282" lat="49.2045738" lon="17.5714222" user="Zubozrout" uid="123530" visible="true" version="2" changeset="9270625" timestamp="2011-09-11T12:32:18Z">
  <tag k="crossing" v="uncontrolled"/>
  <tag k="highway" v="crossing"/>
 </node>
 <node id="1412145278" lat="49.2041576" lon="17.5688719" user="Jandrs" uid="248441" visible="true" version="1" changeset="9121422" timestamp="2011-08-25T13:31:59Z"/>
 <node id="1412145279" lat="49.2041576" lon="17.5689643" user="Jandrs" uid="248441" visible="true" version="1" changeset="9121422" timestamp="2011-08-25T13:31:59Z"/>
 <node id="1412145280" lat="49.2042103" lon="17.5688169" user="Jandrs" uid="248441" visible="true" version="1" changeset="9121422" timestamp="2011-08-25T13:32:00Z"/>
 <node id="1412145281" lat="49.2044439" lon="17.5687109" user="Jandrs" uid="248441" visible="true" version="1" changeset="9121422" timestamp="2011-08-25T13:32:00Z"/>
 <node id="1412145283" lat="49.2046890" lon="17.5686991" user="Jandrs" uid="248441" visible="true" version="1" changeset="9121422" timestamp="2011-08-25T13:32:00Z"/>
 <node id="588805365" lat="49.2047469" lon="17.5714261" user="Jandrs" uid="248441" visible="true" version="4" changeset="9121422" timestamp="2011-08-25T13:32:05Z">
  <tag k="crossing" v="uncontrolled"/>
  <tag k="highway" v="crossing"/>
 </node>
 <node id="805573242" lat="49.2046390" lon="17.5725298" user="Jandrs" uid="248441" visible="true" version="5" changeset="9121422" timestamp="2011-08-25T13:32:06Z">
  <tag k="crossing" v="uncontrolled"/>
  <tag k="highway" v="crossing"/>
 </node>
 <node id="1412157285" lat="49.2039755" lon="17.5690927" user="Jandrs" uid="248441" visible="true" version="1" changeset="9121468" timestamp="2011-08-25T13:39:07Z"/>
 <node id="1412157286" lat="49.2039889" lon="17.5693059" user="Jandrs" uid="248441" visible="true" version="1" changeset="9121468" timestamp="2011-08-25T13:39:07Z"/>
 <node id="1412157287" lat="49.2040009" lon="17.5695135" user="Jandrs" uid="248441" visible="true" version="1" changeset="9121468" timestamp="2011-08-25T13:39:07Z"/>
 <node id="1412157310" lat="49.2041199" lon="17.5714030" user="Jandrs" uid="248441" visible="true" version="1" changeset="9121468" timestamp="2011-08-25T13:39:07Z"/>
 <node id="1412157311" lat="49.2041345" lon="17.5716456" user="Jandrs" uid="248441" visible="true" version="1" changeset="9121468" timestamp="2011-08-25T13:39:07Z"/>
 <node id="1412157313" lat="49.2041458" lon="17.5718428" user="Jandrs" uid="248441" visible="true" version="1" changeset="9121468" timestamp="2011-08-25T13:39:07Z"/>
 <node id="1412157315" lat="49.2041582" lon="17.5720610" user="Jandrs" uid="248441" visible="true" version="1" changeset="9121468" timestamp="2011-08-25T13:39:07Z"/>
 <node id="1412157316" lat="49.2041665" lon="17.5722599" user="Jandrs" uid="248441" visible="true" version="1" changeset="9121468" timestamp="2011-08-25T13:39:08Z"/>
 <node id="1412157318" lat="49.2041817" lon="17.5724704" user="Jandrs" uid="248441" visible="true" version="1" changeset="9121468" timestamp="2011-08-25T13:39:08Z"/>
 <node id="1412157320" lat="49.2041933" lon="17.5727049" user="Jandrs" uid="248441" visible="true" version="1" changeset="9121468" timestamp="2011-08-25T13:39:08Z"/>
 <node id="1412157322" lat="49.2042028" lon="17.5729274" user="Jandrs" uid="248441" visible="true" version="1" changeset="9121468" timestamp="2011-08-25T13:39:08Z"/>
 <node id="1412157323" lat="49.2042374" lon="17.5731120" user="Jandrs" uid="248441" visible="true" version="1" changeset="9121468" timestamp="2011-08-25T13:39:08Z"/>
 <node id="1412157325" lat="49.2042423" lon="17.5688673" user="Jandrs" uid="248441" visible="true" version="1" changeset="9121468" timestamp="2011-08-25T13:39:08Z"/>
 <node id="1412157327" lat="49.2042542" lon="17.5690555" user="Jandrs" uid="248441" visible="true" version="1" changeset="9121468" timestamp="2011-08-25T13:39:08Z"/>
 <node id="1412157329" lat="49.2044673" lon="17.5715946" user="Jandrs" uid="248441" visible="true" version="1" changeset="9121468" timestamp="2011-08-25T13:39:08Z"/>
 <node id="1412157330" lat="49.2044789" lon="17.5717935" user="Jandrs" uid="248441" visible="true" version="1" changeset="9121468" timestamp="2011-08-25T13:39:08Z"/>
 <node id="1412157338" lat="49.2044916" lon="17.5720099" user="Jandrs" uid="248441" visible="true" version="1" changeset="9121468" timestamp="2011-08-25T13:39:08Z"/>
 <node id="1412157340" lat="49.2045027" lon="17.5722106" user="Jandrs" uid="248441" visible="true" version="1" changeset="9121468" timestamp="2011-08-25T13:39:08Z"/>
 <node id="1412157341" lat="49.2045156" lon="17.5724194" user="Jandrs" uid="248441" visible="true" version="1" changeset="9121468" timestamp="2011-08-25T13:39:08Z"/>
 <node id="1412157342" lat="49.2046463" lon="17.5726430" user="Jandrs" uid="248441" visible="true" version="1" changeset="9121468" timestamp="2011-08-25T13:39:08Z"/>
 <node id="1412157343" lat="49.2046598" lon="17.5728543" user="Jandrs" uid="248441" visible="true" version="1" changeset="9121468" timestamp="2011-08-25T13:39:08Z"/>
 <node id="1412157344" lat="49.2046727" lon="17.5730559" user="Jandrs" uid="248441" visible="true" version="1" changeset="9121468" timestamp="2011-08-25T13:39:08Z"/>
 <node id="1412157345" lat="49.2047370" lon="17.5721644" user="Jandrs" uid="248441" visible="true" version="1" changeset="9121468" timestamp="2011-08-25T13:39:08Z"/>
 <node id="1412157350" lat="49.2047494" lon="17.5723777" user="Jandrs" uid="248441" visible="true" version="1" changeset="9121468" timestamp="2011-08-25T13:39:08Z"/>
 <node id="1412145277" lat="49.2041273" lon="17.5715197" user="Jandrs" uid="248441" visible="true" version="2" changeset="9121468" timestamp="2011-08-25T13:39:13Z">
  <tag k="crossing" v="uncontrolled"/>
  <tag k="highway" v="crossing"/>
 </node>
 <node id="805573231" lat="49.2041882" lon="17.5725842" user="Jandrs" uid="248441" visible="true" version="6" changeset="9121468" timestamp="2011-08-25T13:39:14Z">
  <tag k="crossing" v="uncontrolled"/>
  <tag k="highway" v="crossing"/>
 </node>
 <node id="805573241" lat="49.2040088" lon="17.5696328" user="Jandrs" uid="248441" visible="true" version="6" changeset="9121468" timestamp="2011-08-25T13:39:14Z">
  <tag k="crossing" v="uncontrolled"/>
  <tag k="highway" v="crossing"/>
 </node>
 <node id="1412157306" lat="49.2040941" lon="17.5709937" user="Zubozrout" uid="123530" visible="true" version="2" changeset="9270625" timestamp="2011-09-11T12:32:18Z"/>
 <node id="1412157308" lat="49.2041065" lon="17.5711886" user="Zubozrout" uid="123530" visible="true" version="2" changeset="9270625" timestamp="2011-09-11T12:32:18Z"/>
 <node id="1412157289" lat="49.2040146" lon="17.5697603" user="Zubozrout" uid="123530" visible="true" version="2" changeset="9270625" timestamp="2011-09-11T12:32:18Z"/>
 <node id="1412157291" lat="49.2040291" lon="17.5699654" user="Zubozrout" uid="123530" visible="true" version="2" changeset="9270625" timestamp="2011-09-11T12:32:19Z"/>
 <node id="1412157293" lat="49.2040433" lon="17.5701697" user="Zubozrout" uid="123530" visible="true" version="2" changeset="9270625" timestamp="2011-09-11T12:32:19Z"/>
 <node id="1412157295" lat="49.2040579" lon="17.5703733" user="Zubozrout" uid="123530" visible="true" version="2" changeset="9270625" timestamp="2011-09-11T12:32:20Z"/>
 <node id="1412157297" lat="49.2040705" lon="17.5705812" user="Zubozrout" uid="123530" visible="true" version="2" changeset="9270625" timestamp="2011-09-11T12:32:21Z"/>
 <node id="1412157304" lat="49.2040812" lon="17.5707879" user="Zubozrout" uid="123530" visible="true" version="2" changeset="9270625" timestamp="2011-09-11T12:32:21Z"/>
 <node id="1507653086" lat="49.2040345" lon="17.5674549" user="Zubozrout" uid="123530" visible="true" version="1" changeset="9866427" timestamp="2011-11-18T18:21:13Z"/>
 <node id="1937325975" lat="49.2047553" lon="17.5719116" user="Snowu" uid="668741" visible="true" version="1" changeset="13290250" timestamp="2012-09-28T21:04:05Z"/>
 <node id="1412141175" lat="49.2046443" lon="17.5716095" user="Snowu" uid="668741" visible="true" version="2" changeset="13290250" timestamp="2012-09-28T21:04:05Z"/>
 <node id="1412141177" lat="49.2046607" lon="17.5718954" user="Snowu" uid="668741" visible="true" version="2" changeset="13290250" timestamp="2012-09-28T21:04:05Z"/>
 <node id="1412141210" lat="49.2047527" lon="17.5715741" user="Snowu" uid="668741" visible="true" version="2" changeset="13290250" timestamp="2012-09-28T21:04:05Z"/>
 <node id="1412141164" lat="49.2046110" lon="17.5716835" user="Snowu" uid="668741" visible="true" version="2" changeset="13290250" timestamp="2012-09-28T21:04:05Z"/>
 <node id="1412141195" lat="49.2046844" lon="17.5715751" user="Snowu" uid="668741" visible="true" version="2" changeset="13290250" timestamp="2012-09-28T21:04:05Z"/>
 <node id="1412141160" lat="49.2046051" lon="17.5717656" user="Snowu" uid="668741" visible="true" version="2" changeset="13290250" timestamp="2012-09-28T21:04:05Z"/>
 <node id="1412141169" lat="49.2046232" lon="17.5716463" user="Snowu" uid="668741" visible="true" version="2" changeset="13290250" timestamp="2012-09-28T21:04:05Z"/>
 <node id="1412141166" lat="49.2046266" lon="17.5718481" user="Snowu" uid="668741" visible="true" version="2" changeset="13290250" timestamp="2012-09-28T21:04:05Z"/>
 <node id="1412141203" lat="49.2047274" lon="17.5715671" user="Snowu" uid="668741" visible="true" version="2" changeset="13290250" timestamp="2012-09-28T21:04:05Z"/>
 <node id="1412141197" lat="49.2047155" lon="17.5719201" user="Snowu" uid="668741" visible="true" version="2" changeset="13290250" timestamp="2012-09-28T21:04:05Z"/>
 <node id="265786078" lat="49.2021610" lon="17.5750696" user="pschonmann" uid="5748" visible="true" version="4" changeset="13684620" timestamp="2012-10-30T10:15:31Z"/>
 <node id="311379549" lat="49.2025626" lon="17.5698340" user="onovy" uid="27052" visible="true" version="1" changeset="734989" timestamp="2008-11-11T20:22:04Z"/>
 <node id="311379574" lat="49.2049502" lon="17.5690220" user="Jandrs" uid="248441" visible="true" version="3" changeset="9121422" timestamp="2011-08-25T13:32:05Z"/>
 <node id="311379613" lat="49.2050286" lon="17.5730126" user="Jandrs" uid="248441" visible="true" version="2" changeset="9121422" timestamp="2011-08-25T13:32:05Z"/>
 <node id="311379650" lat="49.2049672" lon="17.5720129" user="Jandrs" uid="248441" visible="true" version="2" changeset="9121422" timestamp="2011-08-25T13:32:05Z"/>
 <node id="311379668" lat="49.2049083" lon="17.5711458" user="Jandrs" uid="248441" visible="true" version="2" changeset="9121422" timestamp="2011-08-25T13:32:05Z"/>
 <node id="311379765" lat="49.2049615" lon="17.5698156" user="Jandrs" uid="248441" visible="true" version="2" changeset="9121422" timestamp="2011-08-25T13:32:05Z"/>
 <node id="393881602" lat="49.2047667" lon="17.5673532" user="Zubozrout" uid="123530" visible="true" version="5" changeset="9866427" timestamp="2011-11-18T18:21:14Z"/>
 <node id="393881610" lat="49.2047693" lon="17.5680721" user="Zubozrout" uid="123530" visible="true" version="1" changeset="1154430" timestamp="2009-05-11T17:27:11Z"/>
 <node id="393881611" lat="49.2048115" lon="17.5680075" user="Zubozrout" uid="123530" visible="true" version="1" changeset="1154430" timestamp="2009-05-11T17:27:11Z"/>
 <node id="393881612" lat="49.2048115" lon="17.5679321" user="Zubozrout" uid="123530" visible="true" version="1" changeset="1154430" timestamp="2009-05-11T17:27:11Z"/>
 <node id="459496058" lat="49.2047763" lon="17.5680015" user="Zubozrout" uid="123530" visible="true" version="2" changeset="9270625" timestamp="2011-09-11T12:32:21Z"/>
 <node id="459496089" lat="49.2047601" lon="17.5678419" user="Zubozrout" uid="123530" visible="true" version="2" changeset="9270625" timestamp="2011-09-11T12:32:19Z"/>
 <node id="588805323" lat="49.2048815" lon="17.5711152" user="Zubozrout" uid="123530" visible="true" version="2" changeset="3366388" timestamp="2009-12-13T19:55:48Z"/>
 <node id="588805331" lat="49.2049145" lon="17.5698724" user="Jandrs" uid="248441" visible="true" version="3" changeset="9121382" timestamp="2011-08-25T13:24:29Z"/>
 <node id="588805335" lat="49.2049028" lon="17.5693335" user="Jandrs" uid="248441" visible="true" version="3" changeset="9121382" timestamp="2011-08-25T13:24:30Z"/>
 <node id="588805353" lat="49.2048595" lon="17.5682351" user="Jandrs" uid="248441" visible="true" version="2" changeset="9121382" timestamp="2011-08-25T13:24:30Z"/>
 <node id="588805368" lat="49.2047959" lon="17.5712724" user="Jandrs" uid="248441" visible="true" version="3" changeset="9121382" timestamp="2011-08-25T13:24:30Z"/>
 <node id="588805380" lat="49.2050263" lon="17.5683243" user="Jandrs" uid="248441" visible="true" version="3" changeset="9121382" timestamp="2011-08-25T13:24:30Z">
  <tag k="highway" v="traffic_signals"/>
 </node>
 <node id="588859478" lat="49.2048495" lon="17.5711980" user="Jandrs" uid="248441" visible="true" version="2" changeset="9121382" timestamp="2011-08-25T13:24:30Z"/>
 <node id="588859484" lat="49.2049143" lon="17.5696643" user="Jandrs" uid="248441" visible="true" version="2" changeset="9121382" timestamp="2011-08-25T13:24:30Z"/>
 <node id="805573225" lat="49.2050985" lon="17.5724468" user="Jandrs" uid="248441" visible="true" version="4" changeset="9121422" timestamp="2011-08-25T13:32:05Z"/>
 <node id="805573229" lat="49.2047351" lon="17.5662691" user="Zubozrout" uid="123530" visible="true" version="1" changeset="5160823" timestamp="2010-07-07T18:50:21Z"/>
 <node id="805573235" lat="49.2043655" lon="17.5652986" user="Zubozrout" uid="123530" visible="true" version="1" changeset="5160823" timestamp="2010-07-07T18:50:22Z"/>
 <node id="805573237" lat="49.2045810" lon="17.5652931" user="Zubozrout" uid="123530" visible="true" version="1" changeset="5160823" timestamp="2010-07-07T18:50:22Z"/>
 <node id="805574074" lat="49.2027861" lon="17.5678085" user="Zubozrout" uid="123530" visible="true" version="1" changeset="5160840" timestamp="2010-07-07T18:53:25Z"/>
 <node id="806938695" lat="49.2049038" lon="17.5694935" user="Jandrs" uid="248441" visible="true" version="4" changeset="9121422" timestamp="2011-08-25T13:32:06Z">
  <tag k="crossing" v="uncontrolled"/>
  <tag k="highway" v="crossing"/>
 </node>
 <node id="848469567" lat="49.2051467" lon="17.5730456" user="Jandrs" uid="248441" visible="true" version="2" changeset="9121422" timestamp="2011-08-25T13:32:06Z"/>
 <node id="848469637" lat="49.2022605" lon="17.5750992" user="Zubozrout" uid="123530" visible="true" version="1" changeset="5422827" timestamp="2010-08-07T08:50:50Z">
  <tag k="barrier" v="bollard"/>
  <tag k="bicycle" v="yes"/>
  <tag k="foot" v="yes"/>
 </node>
 <node id="848469694" lat="49.2028016" lon="17.5727399" user="Zubozrout" uid="123530" visible="true" version="1" changeset="5422827" timestamp="2010-08-07T08:50:52Z"/>
 <node id="848469745" lat="49.2051459" lon="17.5729216" user="Jandrs" uid="248441" visible="true" version="2" changeset="9121422" timestamp="2011-08-25T13:32:06Z"/>
 <node id="848469752" lat="49.2025659" lon="17.5749370" user="Zubozrout" uid="123530" visible="true" version="1" changeset="5422827" timestamp="2010-08-07T08:50:55Z"/>
 <node id="848469799" lat="49.2023602" lon="17.5750895" user="Zubozrout" uid="123530" visible="true" version="1" changeset="5422827" timestamp="2010-08-07T08:50:57Z"/>
 <node id="848469820" lat="49.2028358" lon="17.5746289" user="Zubozrout" uid="123530" visible="true" version="1" changeset="5422827" timestamp="2010-08-07T08:50:58Z"/>
 <node id="848469837" lat="49.2052041" lon="17.5732111" user="Zubozrout" uid="123530" visible="true" version="1" changeset="5422827" timestamp="2010-08-07T08:50:59Z"/>
 <node id="848469846" lat="49.2024709" lon="17.5750266" user="Zubozrout" uid="123530" visible="true" version="1" changeset="5422827" timestamp="2010-08-07T08:50:59Z"/>
 <node id="848469965" lat="49.2026117" lon="17.5738054" user="Zubozrout" uid="123530" visible="true" version="1" changeset="5422827" timestamp="2010-08-07T08:51:07Z"/>
 <node id="848469982" lat="49.2050029" lon="17.5732000" user="Zubozrout" uid="123530" visible="true" version="1" changeset="5422827" timestamp="2010-08-07T08:51:08Z"/>
 <node id="848470079" lat="49.2026691" lon="17.5748165" user="Zubozrout" uid="123530" visible="true" version="1" changeset="5422827" timestamp="2010-08-07T08:51:12Z"/>
 <node id="848470128" lat="49.2027265" lon="17.5732727" user="Zubozrout" uid="123530" visible="true" version="1" changeset="5422827" timestamp="2010-08-07T08:51:15Z"/>
 <node id="848470138" lat="49.2051196" lon="17.5731153" user="Zubozrout" uid="123530" visible="true" version="1" changeset="5422827" timestamp="2010-08-07T08:51:16Z"/>
 <node id="848470169" lat="49.2027271" lon="17.5697226" user="Zubozrout" uid="123530" visible="true" version="1" changeset="5422827" timestamp="2010-08-07T08:51:18Z"/>
 <node id="952800417" lat="49.1863053" lon="17.5825508" user="pavel" uid="1066" visible="true" version="1" changeset="6062166" timestamp="2010-10-16T22:31:32Z"/>
 <node id="952853264" lat="49.1849539" lon="17.5824116" user="pavel" uid="1066" visible="true" version="1" changeset="6062166" timestamp="2010-10-16T22:49:09Z"/>
 <node id="952868876" lat="49.1899266" lon="17.5799566" user="pavel" uid="1066" visible="true" version="1" changeset="6062166" timestamp="2010-10-16T22:54:38Z"/>
 <node id="952897914" lat="49.1865580" lon="17.5824992" user="pavel" uid="1066" visible="true" version="1" changeset="6062166" timestamp="2010-10-16T23:03:31Z"/>
 <node id="952955010" lat="49.1942669" lon="17.5761606" user="pavel" uid="1066" visible="true" version="1" changeset="6062166" timestamp="2010-10-16T23:24:25Z"/>
 <node id="952980200" lat="49.1984436" lon="17.5763195" user="pavel" uid="1066" visible="true" version="1" changeset="6062166" timestamp="2010-10-16T23:34:58Z"/>
 <node id="953014826" lat="49.1955183" lon="17.5759861" user="pavel" uid="1066" visible="true" version="1" changeset="6062166" timestamp="2010-10-16T23:47:02Z"/>
 <node id="953023907" lat="49.2050822" lon="17.5732978" user="Zubozrout" uid="123530" visible="true" version="2" changeset="7926622" timestamp="2011-04-21T15:59:39Z"/>
 <node id="953045960" lat="49.1986535" lon="17.5763199" user="pavel" uid="1066" visible="true" version="1" changeset="6062986" timestamp="2010-10-17T00:02:06Z"/>
 <node id="953211540" lat="49.1850927" lon="17.5823724" user="pavel" uid="1066" visible="true" version="1" changeset="6062986" timestamp="2010-10-17T01:34:31Z"/>
 <node id="953238671" lat="49.1902358" lon="17.5796638" user="pavel" uid="1066" visible="true" version="1" changeset="6062986" timestamp="2010-10-17T01:51:47Z"/>
 <node id="953245719" lat="49.1913553" lon="17.5788470" user="pavel" uid="1066" visible="true" version="1" changeset="6062986" timestamp="2010-10-17T01:54:08Z"/>
 <node id="953253596" lat="49.1868002" lon="17.5824145" user="pavel" uid="1066" visible="true" version="1" changeset="6062986" timestamp="2010-10-17T01:56:32Z"/>
 <node id="953279606" lat="49.1914535" lon="17.5788048" user="pavel" uid="1066" visible="true" version="1" changeset="6062986" timestamp="2010-10-17T02:07:13Z"/>
 <node id="953299047" lat="49.1944513" lon="17.5759908" user="pavel" uid="1066" visible="true" version="1" changeset="6062986" timestamp="2010-10-17T02:14:58Z"/>
 <node id="953329223" lat="49.1920526" lon="17.5779740" user="pavel" uid="1066" visible="true" version="1" changeset="6063283" timestamp="2010-10-17T02:28:59Z"/>
 <node id="953364628" lat="49.1957381" lon="17.5758960" user="pavel" uid="1066" visible="true" version="1" changeset="6063283" timestamp="2010-10-17T02:46:28Z"/>
 <node id="953401324" lat="49.1997149" lon="17.5761831" user="pavel" uid="1066" visible="true" version="1" changeset="6063283" timestamp="2010-10-17T03:09:07Z"/>
 <node id="953560197" lat="49.1852802" lon="17.5823719" user="pavel" uid="1066" visible="true" version="1" changeset="6063283" timestamp="2010-10-17T04:53:16Z"/>
 <node id="953595057" lat="49.1882883" lon="17.5816246" user="pavel" uid="1066" visible="true" version="1" changeset="6063620" timestamp="2010-10-17T05:19:11Z"/>
 <node id="953605577" lat="49.1916887" lon="17.5785909" user="pavel" uid="1066" visible="true" version="1" changeset="6063620" timestamp="2010-10-17T05:22:46Z"/>
 <node id="953624238" lat="49.1947077" lon="17.5758388" user="pavel" uid="1066" visible="true" version="1" changeset="6063620" timestamp="2010-10-17T05:39:38Z"/>
 <node id="953629749" lat="49.1905580" lon="17.5792184" user="pavel" uid="1066" visible="true" version="1" changeset="6063620" timestamp="2010-10-17T05:41:51Z"/>
 <node id="953643454" lat="49.1925433" lon="17.5775438" user="pavel" uid="1066" visible="true" version="1" changeset="6063620" timestamp="2010-10-17T05:55:49Z"/>
 <node id="953664683" lat="49.1960592" lon="17.5758175" user="pavel" uid="1066" visible="true" version="1" changeset="6063620" timestamp="2010-10-17T06:10:06Z"/>
 <node id="953689653" lat="49.1914209" lon="17.5788262" user="pavel" uid="1066" visible="true" version="1" changeset="6063620" timestamp="2010-10-17T06:22:57Z"/>
 <node id="953692214" lat="49.2011016" lon="17.5758272" user="pavel" uid="1066" visible="true" version="1" changeset="6063620" timestamp="2010-10-17T06:24:57Z"/>
 <node id="953846512" lat="49.1856209" lon="17.5824235" user="pavel" uid="1066" visible="true" version="1" changeset="6064070" timestamp="2010-10-17T07:47:08Z"/>
 <node id="953905399" lat="49.1888120" lon="17.5812034" user="pavel" uid="1066" visible="true" version="1" changeset="6064070" timestamp="2010-10-17T08:10:49Z"/>
 <node id="953919969" lat="49.1917608" lon="17.5784832" user="pavel" uid="1066" visible="true" version="1" changeset="6064070" timestamp="2010-10-17T08:15:11Z"/>
 <node id="953958999" lat="49.1909271" lon="17.5790047" user="pavel" uid="1066" visible="true" version="1" changeset="6064070" timestamp="2010-10-17T08:29:01Z"/>
 <node id="953985378" lat="49.1931050" lon="17.5771718" user="pavel" uid="1066" visible="true" version="1" changeset="6064070" timestamp="2010-10-17T08:40:03Z"/>
 <node id="954012701" lat="49.1964058" lon="17.5758069" user="pavel" uid="1066" visible="true" version="1" changeset="6064070" timestamp="2010-10-17T08:49:08Z"/>
 <node id="954048995" lat="49.1948595" lon="17.5758814" user="pavel" uid="1066" visible="true" version="1" changeset="6064070" timestamp="2010-10-17T09:00:02Z"/>
 <node id="954081295" lat="49.2021803" lon="17.5754458" user="pavel" uid="1066" visible="true" version="1" changeset="6064070" timestamp="2010-10-17T09:11:47Z"/>
 <node id="954259199" lat="49.1858049" lon="17.5824884" user="pavel" uid="1066" visible="true" version="1" changeset="6065032" timestamp="2010-10-17T10:29:12Z"/>
 <node id="954269696" lat="49.1904169" lon="17.5794010" user="pavel" uid="1066" visible="true" version="1" changeset="6065032" timestamp="2010-10-17T10:31:34Z"/>
 <node id="954304754" lat="49.1892193" lon="17.5808010" user="pavel" uid="1066" visible="true" version="1" changeset="6065032" timestamp="2010-10-17T10:58:55Z"/>
 <node id="954325949" lat="49.1918945" lon="17.5781433" user="pavel" uid="1066" visible="true" version="1" changeset="6065032" timestamp="2010-10-17T11:13:15Z"/>
 <node id="954356260" lat="49.1937999" lon="17.5764897" user="pavel" uid="1066" visible="true" version="1" changeset="6065032" timestamp="2010-10-17T11:25:18Z"/>
 <node id="954379974" lat="49.1978669" lon="17.5761987" user="pavel" uid="1066" visible="true" version="1" changeset="6065032" timestamp="2010-10-17T11:36:53Z"/>
 <node id="954387117" lat="49.1947902" lon="17.5758330" user="pavel" uid="1066" visible="true" version="1" changeset="6065032" timestamp="2010-10-17T11:39:55Z"/>
 <node id="954406912" lat="49.1952794" lon="17.5759639" user="pavel" uid="1066" visible="true" version="1" changeset="6065032" timestamp="2010-10-17T11:47:10Z"/>
 <node id="1292034111" lat="49.2045251" lon="17.5664155" user="Zubozrout" uid="123530" visible="true" version="1" changeset="8192749" timestamp="2011-05-19T19:31:42Z"/>
 <node id="1412141213" lat="49.2047641" lon="17.5687960" user="Jandrs" uid="248441" visible="true" version="1" changeset="9121382" timestamp="2011-08-25T13:24:19Z"/>
 <node id="1412141215" lat="49.2047667" lon="17.5684876" user="Jandrs" uid="248441" visible="true" version="1" changeset="9121382" timestamp="2011-08-25T13:24:19Z"/>
 <node id="1412141218" lat="49.2047785" lon="17.5718955" user="Snowu" uid="668741" visible="true" version="2" changeset="13290250" timestamp="2012-09-28T21:04:05Z"/>
 <node id="1412141219" lat="49.2047895" lon="17.5716027" user="Snowu" uid="668741" visible="true" version="2" changeset="13290250" timestamp="2012-09-28T21:04:05Z"/>
 <node id="1412141222" lat="49.2048017" lon="17.5718678" user="Snowu" uid="668741" visible="true" version="2" changeset="13290250" timestamp="2012-09-28T21:04:05Z"/>
 <node id="1412141224" lat="49.2048206" lon="17.5716576" user="Snowu" uid="668741" visible="true" version="2" changeset="13290250" timestamp="2012-09-28T21:04:05Z"/>
 <node id="1412141226" lat="49.2048306" lon="17.5717922" user="Snowu" uid="668741" visible="true" version="2" changeset="13290250" timestamp="2012-09-28T21:04:05Z"/>
 <node id="1412141228" lat="49.2048351" lon="17.5717402" user="Snowu" uid="668741" visible="true" version="2" changeset="13290250" timestamp="2012-09-28T21:04:05Z"/>
 <node id="1412141230" lat="49.2048257" lon="17.5689021" user="Jandrs" uid="248441" visible="true" version="1" changeset="9121382" timestamp="2011-08-25T13:24:19Z"/>
 <node id="1412141237" lat="49.2048270" lon="17.5684444" user="Jandrs" uid="248441" visible="true" version="1" changeset="9121382" timestamp="2011-08-25T13:24:19Z"/>
 <node id="1412141239" lat="49.2048648" lon="17.5689688" user="Jandrs" uid="248441" visible="true" version="1" changeset="9121382" timestamp="2011-08-25T13:24:19Z"/>
 <node id="1412141243" lat="49.2048809" lon="17.5689964" user="Jandrs" uid="248441" visible="true" version="1" changeset="9121382" timestamp="2011-08-25T13:24:19Z"/>
 <node id="1412141253" lat="49.2048825" lon="17.5710735" user="Zubozrout" uid="123530" visible="true" version="2" changeset="9270625" timestamp="2011-09-11T12:32:18Z"/>
 <node id="1412141255" lat="49.2048880" lon="17.5708658" user="Zubozrout" uid="123530" visible="true" version="2" changeset="9270625" timestamp="2011-09-11T12:32:19Z"/>
 <node id="1412141257" lat="49.2048924" lon="17.5683870" user="Jandrs" uid="248441" visible="true" version="1" changeset="9121382" timestamp="2011-08-25T13:24:20Z"/>
 <node id="1412141258" lat="49.2048934" lon="17.5706580" user="Zubozrout" uid="123530" visible="true" version="2" changeset="9270625" timestamp="2011-09-11T12:32:18Z"/>
 <node id="1412141259" lat="49.2048938" lon="17.5691359" user="Jandrs" uid="248441" visible="true" version="1" changeset="9121382" timestamp="2011-08-25T13:24:20Z"/>
 <node id="1412141260" lat="49.2048954" lon="17.5691709" user="Jandrs" uid="248441" visible="true" version="1" changeset="9121382" timestamp="2011-08-25T13:24:20Z"/>
 <node id="1412141262" lat="49.2048992" lon="17.5704531" user="Zubozrout" uid="123530" visible="true" version="2" changeset="9270625" timestamp="2011-09-11T12:32:19Z"/>
 <node id="1412141269" lat="49.2049031" lon="17.5693773" user="Jandrs" uid="248441" visible="true" version="1" changeset="9121382" timestamp="2011-08-25T13:24:20Z"/>
 <node id="1412141271" lat="49.2049048" lon="17.5702527" user="Zubozrout" uid="123530" visible="true" version="2" changeset="9270625" timestamp="2011-09-11T12:32:20Z"/>
 <node id="1412141275" lat="49.2049066" lon="17.5684483" user="Jandrs" uid="248441" visible="true" version="1" changeset="9121382" timestamp="2011-08-25T13:24:20Z"/>
 <node id="1412141277" lat="49.2049099" lon="17.5700405" user="Zubozrout" uid="123530" visible="true" version="2" changeset="9270625" timestamp="2011-09-11T12:32:18Z"/>
 <node id="1412141279" lat="49.2049113" lon="17.5696162" user="Zubozrout" uid="123530" visible="true" version="2" changeset="9270625" timestamp="2011-09-11T12:32:18Z"/>
 <node id="1412141280" lat="49.2049141" lon="17.5698221" user="Zubozrout" uid="123530" visible="true" version="2" changeset="9270625" timestamp="2011-09-11T12:32:18Z"/>
 <node id="1412141290" lat="49.2049759" lon="17.5684876" user="Jandrs" uid="248441" visible="true" version="1" changeset="9121382" timestamp="2011-08-25T13:24:21Z"/>
 <node id="1412141292" lat="49.2049943" lon="17.5683682" user="Jandrs" uid="248441" visible="true" version="1" changeset="9121382" timestamp="2011-08-25T13:24:21Z"/>
 <node id="1412141300" lat="49.2050441" lon="17.5686092" user="Jandrs" uid="248441" visible="true" version="1" changeset="9121382" timestamp="2011-08-25T13:24:21Z"/>
 <node id="1412145284" lat="49.2047948" lon="17.5714190" user="Jandrs" uid="248441" visible="true" version="1" changeset="9121422" timestamp="2011-08-25T13:32:00Z"/>
 <node id="1412145285" lat="49.2047956" lon="17.5713886" user="Jandrs" uid="248441" visible="true" version="1" changeset="9121422" timestamp="2011-08-25T13:32:00Z"/>
 <node id="1412145286" lat="49.2048392" lon="17.5687344" user="Jandrs" uid="248441" visible="true" version="1" changeset="9121422" timestamp="2011-08-25T13:32:00Z"/>
 <node id="1412145287" lat="49.2049130" lon="17.5713778" user="Jandrs" uid="248441" visible="true" version="1" changeset="9121422" timestamp="2011-08-25T13:32:00Z"/>
 <node id="1412145288" lat="49.2049137" lon="17.5688444" user="Jandrs" uid="248441" visible="true" version="1" changeset="9121422" timestamp="2011-08-25T13:32:00Z"/>
 <node id="1412145291" lat="49.2049342" lon="17.5694613" user="Jandrs" uid="248441" visible="true" version="1" changeset="9121422" timestamp="2011-08-25T13:32:00Z"/>
 <node id="1412145296" lat="49.2049727" lon="17.5694535" user="Jandrs" uid="248441" visible="true" version="1" changeset="9121422" timestamp="2011-08-25T13:32:00Z"/>
 <node id="1412157352" lat="49.2049027" lon="17.5721359" user="Jandrs" uid="248441" visible="true" version="1" changeset="9121468" timestamp="2011-08-25T13:39:08Z"/>
 <node id="1412157354" lat="49.2049151" lon="17.5723436" user="Jandrs" uid="248441" visible="true" version="1" changeset="9121468" timestamp="2011-08-25T13:39:09Z"/>
 <node id="1412157356" lat="49.2049296" lon="17.5725883" user="Jandrs" uid="248441" visible="true" version="1" changeset="9121468" timestamp="2011-08-25T13:39:09Z"/>
 <node id="1412157357" lat="49.2049423" lon="17.5727999" user="Jandrs" uid="248441" visible="true" version="1" changeset="9121468" timestamp="2011-08-25T13:39:09Z"/>
 <node id="1412157359" lat="49.2049507" lon="17.5729417" user="Jandrs" uid="248441" visible="true" version="1" changeset="9121468" timestamp="2011-08-25T13:39:09Z"/>
 <node id="1611718971" lat="49.2049226" lon="17.5724778" user="flare" uid="367597" visible="true" version="1" changeset="10539126" timestamp="2012-01-30T12:03:13Z"/>
 <way id="127630705" user="Jandrs" uid="248441" visible="true" version="2" changeset="9121468" timestamp="2011-08-25T13:39:11Z">
  <nd ref="1412157291"/>
  <nd ref="1412141128"/>
  <nd ref="1412141280"/>
  <tag k="highway" v="service"/>
  <tag k="service" v="parking_aisle"/>
 </way>
 <way id="127631791" user="Jandrs" uid="248441" visible="true" version="1" changeset="9121468" timestamp="2011-08-25T13:39:09Z">
  <nd ref="1412157338"/>
  <nd ref="1412157315"/>
  <tag k="highway" v="service"/>
  <tag k="service" v="parking_aisle"/>
 </way>
 <way id="34336477" user="hanoj" uid="4788" visible="true" version="8" changeset="14953761" timestamp="2013-02-08T09:29:00Z">
  <nd ref="393881602"/>
  <nd ref="1507653086"/>
  <nd ref="393881604"/>
  <nd ref="393881605"/>
  <nd ref="393881606"/>
  <nd ref="393881607"/>
  <nd ref="393881608"/>
  <nd ref="393881609"/>
  <nd ref="393881610"/>
  <nd ref="393881611"/>
  <nd ref="393881612"/>
  <nd ref="393881602"/>
  <tag k="amenity" v="parking"/>
  <tag k="capacity" v="420"/>
  <tag k="parking" v="surface"/>
  <tag k="wheelchair" v="yes"/>
 </way>
 <way id="127630697" user="andrewsh" uid="71631" visible="true" version="5" changeset="15873492" timestamp="2013-04-26T15:38:53Z">
  <nd ref="1412141222"/>
  <nd ref="1412141226"/>
  <nd ref="1412141228"/>
  <nd ref="1412141224"/>
  <nd ref="1412141219"/>
  <nd ref="1412141210"/>
  <nd ref="1412141203"/>
  <nd ref="1412141195"/>
  <nd ref="1412141175"/>
  <nd ref="1412141169"/>
  <nd ref="1412141164"/>
  <nd ref="1412141160"/>
  <nd ref="1412141166"/>
  <nd ref="1412141177"/>
  <nd ref="1412141197"/>
  <nd ref="1937325975"/>
  <nd ref="1412141218"/>
  <nd ref="1412141222"/>
  <tag k="highway" v="residential"/>
  <tag k="junction" v="roundabout"/>
 </way>
 <way id="127630713" user="Jandrs" uid="248441" visible="true" version="2" changeset="9121468" timestamp="2011-08-25T13:39:10Z">
  <nd ref="588805353"/>
  <nd ref="1412141198"/>
  <nd ref="1412141143"/>
  <tag k="highway" v="residential"/>
  <tag k="oneway" v="yes"/>
  <tag k="source" v="survey;cuzk:km"/>
 </way>
 <way id="28351905" user="Jandrs" uid="248441" visible="true" version="4" changeset="9121468" timestamp="2011-08-25T13:39:13Z">
  <nd ref="311379549"/>
  <nd ref="848470169"/>
  <nd ref="805574072"/>
  <nd ref="311379412"/>
  <nd ref="311379532"/>
  <nd ref="1412141143"/>
  <tag k="highway" v="residential"/>
  <tag k="source" v="gps;survey;cuzk:km"/>
 </way>
 <way id="66551053" user="flare" uid="367597" visible="true" version="5" changeset="10539126" timestamp="2012-01-30T12:03:37Z">
  <nd ref="805573228"/>
  <nd ref="805573231"/>
  <nd ref="806939692"/>
  <nd ref="805573242"/>
  <nd ref="1611718971"/>
  <nd ref="805573225"/>
  <tag k="highway" v="footway"/>
 </way>
 <way id="129650719" user="Zubozrout" uid="123530" visible="true" version="1" changeset="9270625" timestamp="2011-09-11T12:32:17Z">
  <nd ref="1253875323"/>
  <nd ref="459496062"/>
  <nd ref="1253875324"/>
  <nd ref="1292034111"/>
  <nd ref="1292033937"/>
  <nd ref="1292033976"/>
  <tag k="highway" v="service"/>
  <tag k="service" v="parking_aisle"/>
  <tag k="source" v="cuzk:km"/>
 </way>
 <way id="38752836" user="zub" uid="29818" visible="true" version="1" changeset="2083144" timestamp="2009-08-09T10:28:46Z">
  <nd ref="459496084"/>
  <nd ref="459496085"/>
  <nd ref="459496086"/>
  <tag k="highway" v="service"/>
  <tag k="service" v="parking_aisle"/>
  <tag k="source" v="cuzk:km"/>
 </way>
 <way id="127630700" user="Jandrs" uid="248441" visible="true" version="2" changeset="9121468" timestamp="2011-08-25T13:39:11Z">
  <nd ref="1412157295"/>
  <nd ref="1412141132"/>
  <nd ref="1412141271"/>
  <tag k="highway" v="service"/>
  <tag k="service" v="parking_aisle"/>
 </way>
 <way id="127630949" user="Jandrs" uid="248441" visible="true" version="1" changeset="9121422" timestamp="2011-08-25T13:32:02Z">
  <nd ref="1412145287"/>
  <nd ref="1412145284"/>
  <nd ref="588805365"/>
  <nd ref="1412145282"/>
  <nd ref="1412145277"/>
  <nd ref="1412145276"/>
  <tag k="highway" v="footway"/>
 </way>
 <way id="127630717" user="Jandrs" uid="248441" visible="true" version="2" changeset="9121468" timestamp="2011-08-25T13:39:12Z">
  <nd ref="1412141196"/>
  <nd ref="1412141257"/>
  <nd ref="1412141292"/>
  <nd ref="588805380"/>
  <tag k="highway" v="residential"/>
  <tag k="oneway" v="yes"/>
 </way>
 <way id="127630720" user="Jandrs" uid="248441" visible="true" version="2" changeset="9121468" timestamp="2011-08-25T13:39:13Z">
  <nd ref="1412141143"/>
  <nd ref="1412141196"/>
  <nd ref="1412141237"/>
  <nd ref="1412141275"/>
  <nd ref="1412141290"/>
  <nd ref="1412141300"/>
  <tag k="highway" v="residential"/>
  <tag k="oneway" v="yes"/>
 </way>
 <way id="71289180" user="Zubozrout" uid="123530" visible="true" version="1" changeset="5422827" timestamp="2010-08-07T08:51:23Z">
  <nd ref="848470169"/>
  <nd ref="848470060"/>
  <nd ref="848469886"/>
  <nd ref="848469694"/>
  <nd ref="848470128"/>
  <nd ref="848469965"/>
  <nd ref="848469820"/>
  <tag k="highway" v="service"/>
  <tag k="service" v="driveway"/>
 </way>
 <way id="127630710" user="Zubozrout" uid="123530" visible="true" version="3" changeset="9270625" timestamp="2011-09-11T12:32:20Z">
  <nd ref="1412141169"/>
  <nd ref="1412141153"/>
  <nd ref="588805357"/>
  <tag k="highway" v="service"/>
  <tag k="source" v="gps"/>
 </way>
 <way id="127630701" user="Jandrs" uid="248441" visible="true" version="2" changeset="9121468" timestamp="2011-08-25T13:39:12Z">
  <nd ref="1412141211"/>
  <nd ref="1412141112"/>
  <nd ref="1412157325"/>
  <nd ref="1412157327"/>
  <tag k="highway" v="service"/>
  <tag k="service" v="parking_aisle"/>
 </way>
 <way id="127630698" user="Jandrs" uid="248441" visible="true" version="2" changeset="9121468" timestamp="2011-08-25T13:39:10Z">
  <nd ref="1412157293"/>
  <nd ref="1412141130"/>
  <nd ref="1412141277"/>
  <tag k="highway" v="service"/>
  <tag k="service" v="parking_aisle"/>
 </way>
 <way id="127631790" user="Jandrs" uid="248441" visible="true" version="1" changeset="9121468" timestamp="2011-08-25T13:39:09Z">
  <nd ref="1412157340"/>
  <nd ref="1412157316"/>
  <tag k="highway" v="service"/>
  <tag k="service" v="parking_aisle"/>
 </way>
 <way id="38752831" user="zub" uid="29818" visible="true" version="1" changeset="2083144" timestamp="2009-08-09T10:28:45Z">
  <nd ref="459496089"/>
  <nd ref="459496090"/>
  <nd ref="459496070"/>
  <nd ref="459496071"/>
  <tag k="highway" v="service"/>
  <tag k="service" v="parking_aisle"/>
  <tag k="source" v="cuzk:km"/>
 </way>
 <way id="34336478" user="wheelmap_visitor" uid="290680" visible="true" version="5" changeset="11912708" timestamp="2012-06-16T15:32:52Z">
  <nd ref="393881613"/>
  <nd ref="1292034017"/>
  <nd ref="1292033989"/>
  <nd ref="393881615"/>
  <nd ref="1430018616"/>
  <nd ref="393881616"/>
  <nd ref="393881617"/>
  <nd ref="393881618"/>
  <nd ref="393881619"/>
  <nd ref="393881620"/>
  <nd ref="393881621"/>
  <nd ref="393881622"/>
  <nd ref="393881623"/>
  <nd ref="393881624"/>
  <nd ref="393881625"/>
  <nd ref="393881626"/>
  <nd ref="393881627"/>
  <nd ref="393881628"/>
  <nd ref="393881629"/>
  <nd ref="393881613"/>
  <tag k="building" v="yes"/>
  <tag k="shop" v="supermarket"/>
  <tag k="wheelchair" v="yes"/>
 </way>
 <way id="66732214" user="wheelmap_visitor" uid="290680" visible="true" version="2" changeset="11912708" timestamp="2012-06-16T15:32:50Z">
  <nd ref="806935353"/>
  <nd ref="806935343"/>
  <nd ref="806935380"/>
  <nd ref="806935349"/>
  <nd ref="806935342"/>
  <nd ref="806935356"/>
  <nd ref="806935345"/>
  <nd ref="806935316"/>
  <nd ref="806935351"/>
  <nd ref="806935347"/>
  <nd ref="806935339"/>
  <nd ref="806935353"/>
  <tag k="building" v="yes"/>
  <tag k="name" v="bauMax"/>
  <tag k="shop" v="garden_centre"/>
  <tag k="wheelchair" v="yes"/>
 </way>
 <way id="127630719" user="Jandrs" uid="248441" visible="true" version="1" changeset="9121382" timestamp="2011-08-25T13:24:25Z">
  <nd ref="1412141211"/>
  <nd ref="1412141208"/>
  <nd ref="1412141204"/>
  <nd ref="1412141206"/>
  <nd ref="1412141215"/>
  <nd ref="1412141237"/>
  <tag k="highway" v="service"/>
  <tag k="oneway" v="yes"/>
  <tag k="trolley_wire" v="yes"/>
 </way>
 <way id="127630711" user="Jandrs" uid="248441" visible="true" version="1" changeset="9121382" timestamp="2011-08-25T13:24:24Z">
  <nd ref="1412141210"/>
  <nd ref="588805363"/>
  <nd ref="588805365"/>
  <nd ref="588805368"/>
  <nd ref="588859478"/>
  <nd ref="588805323"/>
  <nd ref="1412141253"/>
  <nd ref="1412141255"/>
  <nd ref="1412141258"/>
  <nd ref="1412141262"/>
  <nd ref="1412141271"/>
  <nd ref="1412141277"/>
  <nd ref="588805331"/>
  <nd ref="1412141280"/>
  <nd ref="588859484"/>
  <nd ref="1412141279"/>
  <nd ref="806938695"/>
  <nd ref="1412141269"/>
  <nd ref="588805335"/>
  <nd ref="1412141260"/>
  <nd ref="1412141259"/>
  <nd ref="1412141243"/>
  <nd ref="1412141239"/>
  <nd ref="1412141230"/>
  <nd ref="1412141213"/>
  <nd ref="1412141211"/>
  <tag k="highway" v="service"/>
  <tag k="trolley_wire" v="yes"/>
 </way>
 <way id="66551055" user="Zubozrout" uid="123530" visible="true" version="2" changeset="8192749" timestamp="2011-05-19T19:31:58Z">
  <nd ref="805573235"/>
  <nd ref="805573237"/>
  <nd ref="805573229"/>
  <nd ref="459496062"/>
  <tag k="highway" v="footway"/>
 </way>
 <way id="127630716" user="Jandrs" uid="248441" visible="true" version="2" changeset="9121468" timestamp="2011-08-25T13:39:13Z">
  <nd ref="1412157310"/>
  <nd ref="1412141151"/>
  <nd ref="1412141190"/>
  <nd ref="1412141194"/>
  <nd ref="1412141193"/>
  <tag k="highway" v="service"/>
  <tag k="service" v="parking_aisle"/>
 </way>
 <way id="127631797" user="flare" uid="367597" visible="true" version="2" changeset="10539126" timestamp="2012-01-30T12:03:39Z">
  <nd ref="311379492"/>
  <nd ref="1412157359"/>
  <nd ref="1412157357"/>
  <nd ref="1412157356"/>
  <nd ref="1611718971"/>
  <nd ref="1412157354"/>
  <nd ref="1412157352"/>
  <nd ref="1412157345"/>
  <nd ref="1412157350"/>
  <tag k="highway" v="service"/>
  <tag k="service" v="parking_aisle"/>
 </way>
 <way id="38752830" user="zub" uid="29818" visible="true" version="1" changeset="2083144" timestamp="2009-08-09T10:28:45Z">
  <nd ref="459496087"/>
  <nd ref="459496088"/>
  <nd ref="459496067"/>
  <nd ref="459496068"/>
  <nd ref="459496071"/>
  <nd ref="459496069"/>
  <nd ref="459496066"/>
  <tag k="highway" v="service"/>
  <tag k="service" v="parking_aisle"/>
  <tag k="source" v="cuzk:km"/>
 </way>
 <way id="127630699" user="Jandrs" uid="248441" visible="true" version="2" changeset="9121468" timestamp="2011-08-25T13:39:11Z">
  <nd ref="1412157304"/>
  <nd ref="1412141137"/>
  <nd ref="1412141258"/>
  <tag k="highway" v="service"/>
  <tag k="service" v="parking_aisle"/>
 </way>
 <way id="127630709" user="Jandrs" uid="248441" visible="true" version="2" changeset="9121468" timestamp="2011-08-25T13:39:11Z">
  <nd ref="1412157297"/>
  <nd ref="1412141136"/>
  <nd ref="1412141262"/>
  <tag k="highway" v="service"/>
  <tag k="service" v="parking_aisle"/>
 </way>
 <way id="127630696" user="Jandrs" uid="248441" visible="true" version="3" changeset="9121468" timestamp="2011-08-25T13:39:11Z">
  <nd ref="1412141177"/>
  <nd ref="1412141172"/>
  <nd ref="311379446"/>
  <nd ref="311379461"/>
  <nd ref="805573242"/>
  <nd ref="1412157342"/>
  <nd ref="1412157343"/>
  <nd ref="1412157344"/>
  <nd ref="311379492"/>
  <nd ref="311379479"/>
  <nd ref="1412157323"/>
  <nd ref="311379426"/>
  <nd ref="1412157322"/>
  <nd ref="1412157320"/>
  <nd ref="805573231"/>
  <nd ref="1412157318"/>
  <nd ref="1412157316"/>
  <nd ref="1412157315"/>
  <nd ref="1412157313"/>
  <nd ref="1412157311"/>
  <nd ref="1412145277"/>
  <nd ref="1412157310"/>
  <nd ref="1412157308"/>
  <nd ref="1412157306"/>
  <nd ref="1412157304"/>
  <nd ref="1412157297"/>
  <nd ref="1412157295"/>
  <nd ref="1412157293"/>
  <nd ref="1412157291"/>
  <nd ref="1412157289"/>
  <nd ref="805573241"/>
  <nd ref="1412157287"/>
  <nd ref="1412157286"/>
  <nd ref="1412157285"/>
  <nd ref="311379412"/>
  <tag k="highway" v="service"/>
  <tag k="source" v="survey;cuzk:km"/>
 </way>
 <way id="127630708" user="Jandrs" uid="248441" visible="true" version="2" changeset="9121468" timestamp="2011-08-25T13:39:10Z">
  <nd ref="1412157287"/>
  <nd ref="1412141124"/>
  <nd ref="1412141269"/>
  <tag k="highway" v="service"/>
  <tag k="service" v="parking_aisle"/>
 </way>
 <way id="127631794" user="Jandrs" uid="248441" visible="true" version="1" changeset="9121468" timestamp="2011-08-25T13:39:09Z">
  <nd ref="1412157357"/>
  <nd ref="1412157343"/>
  <nd ref="1412157322"/>
  <tag k="highway" v="service"/>
  <tag k="service" v="parking_aisle"/>
 </way>
 <way id="129650720" user="Zubozrout" uid="123530" visible="true" version="1" changeset="9270625" timestamp="2011-09-11T12:32:17Z">
  <nd ref="588805357"/>
  <nd ref="1412145282"/>
  <nd ref="1412141151"/>
  <nd ref="1412141146"/>
  <nd ref="1412141139"/>
  <nd ref="1412141137"/>
  <nd ref="1412141136"/>
  <nd ref="1412141132"/>
  <nd ref="1412141130"/>
  <nd ref="1412141128"/>
  <nd ref="1412141126"/>
  <nd ref="806938684"/>
  <nd ref="1412141124"/>
  <nd ref="1412141121"/>
  <nd ref="1412141118"/>
  <nd ref="1412141112"/>
  <nd ref="311379532"/>
  <tag k="highway" v="service"/>
  <tag k="source" v="gps"/>
 </way>
 <way id="127631796" user="Jandrs" uid="248441" visible="true" version="1" changeset="9121468" timestamp="2011-08-25T13:39:10Z">
  <nd ref="1412157311"/>
  <nd ref="1412157329"/>
  <nd ref="1412157330"/>
  <nd ref="1412157338"/>
  <nd ref="1412157340"/>
  <nd ref="1412157341"/>
  <nd ref="1412157318"/>
  <tag k="highway" v="service"/>
  <tag k="service" v="parking_aisle"/>
 </way>
 <way id="127631789" user="Jandrs" uid="248441" visible="true" version="1" changeset="9121468" timestamp="2011-08-25T13:39:09Z">
  <nd ref="1412157330"/>
  <nd ref="1412157313"/>
  <tag k="highway" v="service"/>
  <tag k="service" v="parking_aisle"/>
 </way>
 <way id="127631793" user="Jandrs" uid="248441" visible="true" version="1" changeset="9121468" timestamp="2011-08-25T13:39:09Z">
  <nd ref="1412157356"/>
  <nd ref="1412157342"/>
  <nd ref="1412157320"/>
  <tag k="highway" v="service"/>
  <tag k="service" v="parking_aisle"/>
 </way>
 <way id="127631792" user="Jandrs" uid="248441" visible="true" version="1" changeset="9121468" timestamp="2011-08-25T13:39:09Z">
  <nd ref="1412157344"/>
  <nd ref="1412157323"/>
  <tag k="highway" v="service"/>
  <tag k="service" v="parking_aisle"/>
 </way>
 <way id="34336479" user="wheelmap_visitor" uid="290680" visible="true" version="6" changeset="11912708" timestamp="2012-06-16T15:32:51Z">
  <nd ref="393881630"/>
  <nd ref="393881631"/>
  <nd ref="393881632"/>
  <nd ref="393881633"/>
  <nd ref="393881634"/>
  <nd ref="459496045"/>
  <nd ref="459496046"/>
  <nd ref="459496047"/>
  <nd ref="459496049"/>
  <nd ref="393881639"/>
  <nd ref="393881640"/>
  <nd ref="806935353"/>
  <nd ref="806935339"/>
  <nd ref="806935347"/>
  <nd ref="393881647"/>
  <nd ref="393881648"/>
  <nd ref="393881649"/>
  <nd ref="393881650"/>
  <nd ref="393881651"/>
  <nd ref="393881652"/>
  <nd ref="393881653"/>
  <nd ref="393881654"/>
  <nd ref="393881655"/>
  <nd ref="393881656"/>
  <nd ref="393881657"/>
  <nd ref="393881658"/>
  <nd ref="393881659"/>
  <nd ref="393881660"/>
  <nd ref="393881661"/>
  <nd ref="393881662"/>
  <nd ref="393881630"/>
  <tag k="building" v="yes"/>
  <tag k="name" v="Tesco"/>
  <tag k="shop" v="supermarket"/>
  <tag k="wheelchair" v="yes"/>
 </way>
 <way id="81900284" user="Zubozrout" uid="123530" visible="true" version="2" changeset="7926622" timestamp="2011-04-21T15:59:39Z">
  <nd ref="952853264"/>
  <nd ref="953211540"/>
  <nd ref="953560197"/>
  <nd ref="953846512"/>
  <nd ref="954259199"/>
  <nd ref="952800417"/>
  <nd ref="952897914"/>
  <nd ref="953253596"/>
  <nd ref="953595057"/>
  <nd ref="953905399"/>
  <nd ref="954304754"/>
  <nd ref="952868876"/>
  <nd ref="953238671"/>
  <nd ref="954269696"/>
  <nd ref="953629749"/>
  <nd ref="953958999"/>
  <nd ref="953245719"/>
  <nd ref="953689653"/>
  <nd ref="953279606"/>
  <nd ref="953605577"/>
  <nd ref="953919969"/>
  <nd ref="954325949"/>
  <nd ref="953329223"/>
  <nd ref="953643454"/>
  <nd ref="953985378"/>
  <nd ref="954356260"/>
  <nd ref="952955010"/>
  <nd ref="953299047"/>
  <nd ref="953624238"/>
  <nd ref="954387117"/>
  <nd ref="954048995"/>
  <nd ref="954406912"/>
  <nd ref="953014826"/>
  <nd ref="953364628"/>
  <nd ref="953664683"/>
  <nd ref="954012701"/>
  <nd ref="954379974"/>
  <nd ref="952980200"/>
  <nd ref="953045960"/>
  <nd ref="953401324"/>
  <nd ref="953692214"/>
  <nd ref="954081295"/>
  <nd ref="954440331"/>
  <nd ref="953023907"/>
  <nd ref="848469837"/>
  <tag k="dibavod:id" v="408370000600"/>
  <tag k="name" v="Hledínovský potok"/>
  <tag k="source" v="dibavod"/>
  <tag k="waterway" v="stream"/>
 </way>
 <way id="38752829" user="Zubozrout" uid="123530" visible="true" version="4" changeset="9270625" timestamp="2011-09-11T12:32:19Z">
  <nd ref="459496086"/>
  <nd ref="459496067"/>
  <nd ref="459496070"/>
  <nd ref="459496066"/>
  <nd ref="459496055"/>
  <nd ref="459496057"/>
  <nd ref="459496058"/>
  <nd ref="459496089"/>
  <nd ref="459496087"/>
  <nd ref="459496084"/>
  <nd ref="459496078"/>
  <nd ref="1253875323"/>
  <tag k="highway" v="service"/>
  <tag k="service" v="parking_aisle"/>
  <tag k="source" v="cuzk:km"/>
 </way>
 <way id="71289213" user="zub" uid="29818" visible="true" version="2" changeset="5492950" timestamp="2010-08-14T17:52:29Z">
  <nd ref="311379479"/>
  <nd ref="848469651"/>
  <tag k="highway" v="service"/>
  <tag k="service" v="driveway"/>
 </way>
 <way id="127630706" user="Jandrs" uid="248441" visible="true" version="2" changeset="9121468" timestamp="2011-08-25T13:39:11Z">
  <nd ref="1412157289"/>
  <nd ref="1412141126"/>
  <nd ref="1412141279"/>
  <tag k="highway" v="service"/>
  <tag k="service" v="parking_aisle"/>
 </way>
 <way id="127630707" user="Jandrs" uid="248441" visible="true" version="2" changeset="9121468" timestamp="2011-08-25T13:39:11Z">
  <nd ref="1412157286"/>
  <nd ref="1412141121"/>
  <nd ref="1412141260"/>
  <tag k="highway" v="service"/>
  <tag k="service" v="parking_aisle"/>
 </way>
 <way id="127631795" user="Jandrs" uid="248441" visible="true" version="1" changeset="9121468" timestamp="2011-08-25T13:39:09Z">
  <nd ref="1412157354"/>
  <nd ref="1412157350"/>
  <nd ref="311379461"/>
  <tag k="highway" v="service"/>
  <tag k="service" v="parking_aisle"/>
 </way>
 <way id="129650718" user="Zubozrout" uid="123530" visible="true" version="1" changeset="9270625" timestamp="2011-09-11T12:32:17Z">
  <nd ref="311379532"/>
  <nd ref="393881598"/>
  <nd ref="459496055"/>
  <nd ref="459496090"/>
  <nd ref="459496088"/>
  <nd ref="459496085"/>
  <tag k="highway" v="service"/>
  <tag k="source" v="gps"/>
 </way>
 <way id="72466227" user="pschonmann" uid="5748" visible="true" version="2" changeset="13684620" timestamp="2012-10-30T10:15:09Z">
  <nd ref="848469651"/>
  <nd ref="848469820"/>
  <nd ref="848470079"/>
  <nd ref="848469752"/>
  <nd ref="848469846"/>
  <nd ref="848469799"/>
  <nd ref="848469637"/>
  <nd ref="265786078"/>
  <tag k="highway" v="service"/>
  <tag k="service" v="driveway"/>
  <tag k="surface" v="asphalt"/>
  <tag k="vehicle" v="no"/>
 </way>
 <way id="127630702" user="Jandrs" uid="248441" visible="true" version="2" changeset="9121468" timestamp="2011-08-25T13:39:12Z">
  <nd ref="1412157285"/>
  <nd ref="1412157327"/>
  <nd ref="1412141118"/>
  <nd ref="1412141239"/>
  <tag k="highway" v="service"/>
  <tag k="service" v="parking_aisle"/>
 </way>
 <way id="66552787" user="Zubozrout" uid="123530" visible="true" version="1" changeset="5160840" timestamp="2010-07-07T18:53:25Z">
  <nd ref="805574072"/>
  <nd ref="805574074"/>
  <tag k="access" v="private"/>
  <tag k="highway" v="service"/>
  <tag k="service" v="driveway"/>
 </way>
 <way id="127630704" user="Jandrs" uid="248441" visible="true" version="2" changeset="9121468" timestamp="2011-08-25T13:39:10Z">
  <nd ref="1412157306"/>
  <nd ref="1412141139"/>
  <nd ref="1412141255"/>
  <tag k="highway" v="service"/>
  <tag k="service" v="parking_aisle"/>
 </way>
 <way id="28351908" user="hanoj" uid="4788" visible="true" version="4" changeset="14953761" timestamp="2013-02-08T09:29:00Z">
  <nd ref="311379574"/>
  <nd ref="1412145288"/>
  <nd ref="1412145286"/>
  <nd ref="1412145283"/>
  <nd ref="1412145281"/>
  <nd ref="1412145280"/>
  <nd ref="1412145278"/>
  <nd ref="1412145279"/>
  <nd ref="311379587"/>
  <nd ref="311379594"/>
  <nd ref="311379600"/>
  <nd ref="311379613"/>
  <nd ref="311379650"/>
  <nd ref="311379656"/>
  <nd ref="311379662"/>
  <nd ref="1412145285"/>
  <nd ref="311379668"/>
  <nd ref="311379765"/>
  <nd ref="1412145291"/>
  <nd ref="1412145296"/>
  <nd ref="311379574"/>
  <tag k="amenity" v="parking"/>
  <tag k="capacity" v="1250"/>
  <tag k="wheelchair" v="no"/>
 </way>
 <way id="127630712" user="Jandrs" uid="248441" visible="true" version="2" changeset="9121468" timestamp="2011-08-25T13:39:12Z">
  <nd ref="1412157308"/>
  <nd ref="1412141146"/>
  <nd ref="1412141193"/>
  <nd ref="1412141253"/>
  <tag k="highway" v="service"/>
  <tag k="service" v="parking_aisle"/>
 </way>
 <way id="66551048" user="Zubozrout" uid="123530" visible="true" version="3" changeset="5168274" timestamp="2010-07-08T18:20:33Z">
  <nd ref="805573230"/>
  <nd ref="805573241"/>
  <nd ref="806939693"/>
  <nd ref="806938684"/>
  <nd ref="806938695"/>
  <tag k="highway" v="footway"/>
 </way>
 <way id="72471138" user="zub" uid="29818" visible="true" version="1" changeset="5493205" timestamp="2010-08-14T18:21:56Z">
  <nd ref="848469745"/>
  <nd ref="848469567"/>
  <nd ref="848470138"/>
  <nd ref="848469982"/>
  <nd ref="848469651"/>
  <tag k="highway" v="footway"/>
  <tag k="surface" v="paving_stones"/>
 </way>
 <relation id="1026510" user="flare" uid="367597" visible="true" version="10" changeset="12853996" timestamp="2012-08-25T11:07:24Z">
  <member type="way" ref="65655727" role=""/>
  <member type="way" ref="37289435" role=""/>
  <member type="way" ref="65655712" role=""/>
  <member type="way" ref="65644990" role=""/>
  <member type="way" ref="65655700" role=""/>
  <member type="way" ref="38527768" role=""/>
  <member type="way" ref="72471137" role=""/>
  <member type="way" ref="71285608" role=""/>
  <member type="way" ref="25773555" role=""/>
  <member type="way" ref="70654572" role=""/>
  <member type="way" ref="70654590" role=""/>
  <member type="way" ref="72471142" role=""/>
  <member type="way" ref="70654583" role=""/>
  <member type="way" ref="177811589" role=""/>
  <member type="way" ref="72466234" role=""/>
  <member type="way" ref="72466259" role=""/>
  <member type="way" ref="72466251" role=""/>
  <member type="way" ref="112843739" role=""/>
  <member type="way" ref="72471124" role=""/>
  <member type="way" ref="72466255" role=""/>
  <member type="way" ref="72466256" role=""/>
  <member type="way" ref="72466257" role=""/>
  <member type="way" ref="72466242" role=""/>
  <member type="way" ref="72471140" role=""/>
  <member type="way" ref="37299291" role=""/>
  <member type="way" ref="72471123" role=""/>
  <member type="way" ref="162881858" role=""/>
  <member type="way" ref="35998721" role=""/>
  <member type="way" ref="38023192" role=""/>
  <member type="way" ref="38021597" role=""/>
  <member type="way" ref="72466244" role=""/>
  <member type="way" ref="72471132" role=""/>
  <member type="way" ref="72466262" role=""/>
  <member type="way" ref="72466232" role=""/>
  <member type="way" ref="117701729" role=""/>
  <member type="way" ref="72466230" role=""/>
  <member type="way" ref="117701802" role=""/>
  <member type="way" ref="72471141" role=""/>
  <member type="way" ref="72466222" role=""/>
  <member type="way" ref="72466261" role=""/>
  <member type="way" ref="72466247" role=""/>
  <member type="way" ref="118517150" role=""/>
  <member type="way" ref="118517064" role=""/>
  <member type="way" ref="118517215" role=""/>
  <member type="way" ref="72466240" role=""/>
  <member type="way" ref="71289207" role=""/>
  <member type="way" ref="72471134" role=""/>
  <member type="way" ref="122226213" role=""/>
  <member type="way" ref="72471133" role=""/>
  <member type="way" ref="71289170" role=""/>
  <member type="way" ref="71289184" role=""/>
  <member type="way" ref="71289203" role=""/>
  <member type="way" ref="72471135" role=""/>
  <member type="way" ref="72466227" role=""/>
  <member type="way" ref="72471138" role=""/>
  <member type="node" ref="800476119" role="guidepost"/>
  <member type="node" ref="860368225" role="guidepost"/>
  <member type="node" ref="860368588" role="guidepost"/>
  <member type="node" ref="860369143" role="guidepost"/>
  <member type="node" ref="860368708" role="guidepost"/>
  <member type="node" ref="860368045" role="guidepost"/>
  <member type="node" ref="860368005" role="guidepost"/>
  <member type="node" ref="860435744" role="guidepost"/>
  <member type="node" ref="860410519" role="guidepost"/>
  <tag k="complete" v="yes"/>
  <tag k="destinations" v="Zlín-Malenovice"/>
  <tag k="kct_green" v="major"/>
  <tag k="note" v="zlín;lesní hřbitov;svatá voda;malenovice"/>
  <tag k="operator" v="cz:KČT"/>
  <tag k="osmc:symbol" v="green:white:green_bar"/>
  <tag k="route" v="foot"/>
  <tag k="type" v="route"/>
 </relation>
</osm>
