<?xml version="1.0" encoding="UTF-8"?>
<osm version="0.6" generator="CGImap 0.0.2">
 <bounds minlat="49.4724400" minlon="17.9629100" maxlat="49.4734000" maxlon="17.9640900"/>
 <node id="721097254" lat="49.4732150" lon="17.9629110" user="Petr1868" uid="72020" visible="true" version="1" changeset="4605503" timestamp="2010-05-04T16:20:33Z"/>
 <node id="721097114" lat="49.4728020" lon="17.9631160" user="Petr1868" uid="72020" visible="true" version="1" changeset="4605503" timestamp="2010-05-04T16:20:29Z"/>
 <node id="721097805" lat="49.4733910" lon="17.9635535" user="Petr1868" uid="72020" visible="true" version="1" changeset="4605503" timestamp="2010-05-04T16:20:49Z"/>
 <node id="721098355" lat="49.4728560" lon="17.9642230" user="Petr1868" uid="72020" visible="true" version="1" changeset="4605503" timestamp="2010-05-04T16:21:06Z"/>
 <node id="721095583" lat="49.4725220" lon="17.9633450" user="Petr1868" uid="72020" visible="true" version="1" changeset="4605503" timestamp="2010-05-04T16:19:48Z"/>
 <node id="721097345" lat="49.4724340" lon="17.9633980" user="Petr1868" uid="72020" visible="true" version="1" changeset="4605503" timestamp="2010-05-04T16:20:36Z"/>
 <node id="721095914" lat="49.4725505" lon="17.9638390" user="Petr1868" uid="72020" visible="true" version="1" changeset="4605503" timestamp="2010-05-04T16:19:57Z"/>
 <node id="721096311" lat="49.4732500" lon="17.9638060" user="Petr1868" uid="72020" visible="true" version="1" changeset="4605503" timestamp="2010-05-04T16:20:06Z"/>
 <node id="721098460" lat="49.4729200" lon="17.9632000" user="Petr1868" uid="72020" visible="true" version="1" changeset="4605503" timestamp="2010-05-04T16:21:09Z"/>
 <node id="721097679" lat="49.4731820" lon="17.9631810" user="Petr1868" uid="72020" visible="true" version="1" changeset="4605503" timestamp="2010-05-04T16:20:46Z"/>
 <node id="721096116" lat="49.4727590" lon="17.9642260" user="Petr1868" uid="72020" visible="true" version="1" changeset="4605503" timestamp="2010-05-04T16:20:01Z"/>
 <node id="721096140" lat="49.4730025" lon="17.9641310" user="Petr1868" uid="72020" visible="true" version="1" changeset="4605503" timestamp="2010-05-04T16:20:02Z"/>
 <node id="721097913" lat="49.4729150" lon="17.9632030" user="Petr1868" uid="72020" visible="true" version="1" changeset="4605503" timestamp="2010-05-04T16:20:53Z"/>
 <node id="721096631" lat="49.4727790" lon="17.9632870" user="Petr1868" uid="72020" visible="true" version="1" changeset="4605503" timestamp="2010-05-04T16:20:16Z"/>
 <node id="721096027" lat="49.4733010" lon="17.9636130" user="Petr1868" uid="72020" visible="true" version="1" changeset="4605503" timestamp="2010-05-04T16:19:59Z"/>
 <node id="721097353" lat="49.4733610" lon="17.9638280" user="Petr1868" uid="72020" visible="true" version="1" changeset="4605503" timestamp="2010-05-04T16:20:36Z"/>
 <node id="721096602" lat="49.4726020" lon="17.9632420" user="Petr1868" uid="72020" visible="true" version="1" changeset="4605503" timestamp="2010-05-04T16:20:15Z"/>
 <node id="721096021" lat="49.4724915" lon="17.9636180" user="Petr1868" uid="72020" visible="true" version="1" changeset="4605503" timestamp="2010-05-04T16:19:59Z"/>
 <node id="721097881" lat="49.4726690" lon="17.9642830" user="Petr1868" uid="72020" visible="true" version="1" changeset="4605503" timestamp="2010-05-04T16:20:52Z"/>
 <node id="721096119" lat="49.4727740" lon="17.9632910" user="Petr1868" uid="72020" visible="true" version="1" changeset="4605503" timestamp="2010-05-04T16:20:02Z"/>
 <node id="721098458" lat="49.4726110" lon="17.9640620" user="Petr1868" uid="72020" visible="true" version="1" changeset="4605503" timestamp="2010-05-04T16:21:09Z"/>
 <node id="721098359" lat="49.4727440" lon="17.9631520" user="Petr1868" uid="72020" visible="true" version="1" changeset="4605503" timestamp="2010-05-04T16:21:06Z"/>
 <node id="721096025" lat="49.4731850" lon="17.9631850" user="Petr1868" uid="72020" visible="true" version="1" changeset="4605503" timestamp="2010-05-04T16:19:59Z"/>
 <node id="721096998" lat="49.4727390" lon="17.9631530" user="Petr1868" uid="72020" visible="true" version="1" changeset="4605503" timestamp="2010-05-04T16:20:26Z"/>
 <node id="721095787" lat="49.4728110" lon="17.9631050" user="Petr1868" uid="72020" visible="true" version="1" changeset="4605503" timestamp="2010-05-04T16:19:53Z"/>
 <node id="1498544649" lat="49.4732913" lon="17.9633275" user="Tomas Pajonk" uid="305367" visible="true" version="1" changeset="9795740" timestamp="2011-11-11T11:54:07Z">
  <tag k="addr:conscriptionnumber" v="650"/>
  <tag k="addr:country" v="CZ"/>
  <tag k="addr:housenumber" v="650/27"/>
  <tag k="addr:street" v="Švabinského"/>
  <tag k="addr:streetnumber" v="27"/>
  <tag k="is_in" v="Krásno nad Bečvou, Valašské Meziříčí, Zlínský kraj, CZ"/>
  <tag k="source:addr" v="mvcr:adresa"/>
  <tag k="source:loc" v="cuzk:km"/>
 </node>
 <node id="721098481" lat="49.4725800" lon="17.9635630" user="Petr1868" uid="72020" visible="true" version="1" changeset="4605503" timestamp="2010-05-04T16:21:10Z"/>
 <node id="721096627" lat="49.4728190" lon="17.9640820" user="Petr1868" uid="72020" visible="true" version="1" changeset="4605503" timestamp="2010-05-04T16:20:16Z"/>
 <node id="721097321" lat="49.4731450" lon="17.9640405" user="Petr1868" uid="72020" visible="true" version="1" changeset="4605503" timestamp="2010-05-04T16:20:35Z"/>
 <node id="721096867" lat="49.4725790" lon="17.9635580" user="Petr1868" uid="72020" visible="true" version="1" changeset="4605503" timestamp="2010-05-04T16:20:23Z"/>
 <node id="721097227" lat="49.4728830" lon="17.9630635" user="Petr1868" uid="72020" visible="true" version="1" changeset="4605503" timestamp="2010-05-04T16:20:32Z"/>
 <node id="721095999" lat="49.4731035" lon="17.9639000" user="Petr1868" uid="72020" visible="true" version="1" changeset="4605503" timestamp="2010-05-04T16:19:59Z"/>
 <node id="721097909" lat="49.4729635" lon="17.9639900" user="Petr1868" uid="72020" visible="true" version="1" changeset="4605503" timestamp="2010-05-04T16:20:53Z"/>
 <node id="721095923" lat="49.4732420" lon="17.9633950" user="Petr1868" uid="72020" visible="true" version="1" changeset="4605503" timestamp="2010-05-04T16:19:57Z"/>
 <node id="721097259" lat="49.4733315" lon="17.9633385" user="Petr1868" uid="72020" visible="true" version="1" changeset="4605503" timestamp="2010-05-04T16:20:33Z"/>
 <node id="721097224" lat="49.4727000" lon="17.9640065" user="Petr1868" uid="72020" visible="true" version="1" changeset="4605503" timestamp="2010-05-04T16:20:32Z"/>
 <node id="721097885" lat="49.4726370" lon="17.9633770" user="Petr1868" uid="72020" visible="true" version="1" changeset="4605503" timestamp="2010-05-04T16:20:52Z"/>
 <node id="721095890" lat="49.4730210" lon="17.9629750" user="Petr1868" uid="72020" visible="true" version="1" changeset="4605503" timestamp="2010-05-04T16:19:56Z"/>
 <node id="721097675" lat="49.4726395" lon="17.9637850" user="Petr1868" uid="72020" visible="true" version="1" changeset="4605503" timestamp="2010-05-04T16:20:46Z"/>
 <node id="1498544675" lat="49.4729801" lon="17.9630975" user="Tomas Pajonk" uid="305367" visible="true" version="1" changeset="9795740" timestamp="2011-11-11T11:54:08Z">
  <tag k="addr:conscriptionnumber" v="653"/>
  <tag k="addr:country" v="CZ"/>
  <tag k="addr:housenumber" v="653/2"/>
  <tag k="addr:street" v="Janáčkova"/>
  <tag k="addr:streetnumber" v="2"/>
  <tag k="is_in" v="Krásno nad Bečvou, Valašské Meziříčí, Zlínský kraj, CZ"/>
  <tag k="source:addr" v="mvcr:adresa"/>
  <tag k="source:loc" v="cuzk:km"/>
 </node>
 <node id="721096733" lat="49.4730590" lon="17.9631130" user="Petr1868" uid="72020" visible="true" version="1" changeset="4605503" timestamp="2010-05-04T16:20:19Z"/>
 <node id="721095918" lat="49.4731260" lon="17.9629650" user="Petr1868" uid="72020" visible="true" version="1" changeset="4605503" timestamp="2010-05-04T16:19:57Z"/>
 <node id="721097349" lat="49.4732745" lon="17.9631250" user="Petr1868" uid="72020" visible="true" version="1" changeset="4605503" timestamp="2010-05-04T16:20:36Z"/>
 <node id="721097597" lat="49.4732870" lon="17.9639480" user="Petr1868" uid="72020" visible="true" version="1" changeset="4605503" timestamp="2010-05-04T16:20:43Z"/>
 <node id="721095589" lat="49.4734500" lon="17.9637700" user="Petr1868" uid="72020" visible="true" version="1" changeset="4605503" timestamp="2010-05-04T16:19:48Z"/>
 <way id="58109430" user="Petr1868" uid="72020" visible="true" version="1" changeset="4605503" timestamp="2010-05-04T16:21:23Z">
  <nd ref="721096998"/>
  <nd ref="721096602"/>
  <nd ref="721097885"/>
  <nd ref="721096119"/>
  <nd ref="721096998"/>
  <tag k="building" v="yes"/>
  <tag k="source" v="cuzk:km"/>
 </way>
 <way id="58109714" user="Petr1868" uid="72020" visible="true" version="1" changeset="4605503" timestamp="2010-05-04T16:21:49Z">
  <nd ref="721097679"/>
  <nd ref="721095918"/>
  <nd ref="721097254"/>
  <nd ref="721097349"/>
  <nd ref="721096025"/>
  <nd ref="721097679"/>
  <tag k="building" v="yes"/>
  <tag k="source" v="cuzk:km"/>
 </way>
 <way id="58109656" user="Petr1868" uid="72020" visible="true" version="1" changeset="4605503" timestamp="2010-05-04T16:21:44Z">
  <nd ref="721096021"/>
  <nd ref="721097345"/>
  <nd ref="721095583"/>
  <nd ref="721096867"/>
  <nd ref="721098481"/>
  <nd ref="721096021"/>
  <tag k="building" v="yes"/>
  <tag k="source" v="cuzk:km"/>
 </way>
 <way id="58109538" user="Petr1868" uid="72020" visible="true" version="1" changeset="4605503" timestamp="2010-05-04T16:21:32Z">
  <nd ref="721097224"/>
  <nd ref="721098458"/>
  <nd ref="721095914"/>
  <nd ref="721097675"/>
  <nd ref="721097224"/>
  <tag k="building" v="yes"/>
  <tag k="source" v="cuzk:km"/>
 </way>
 <way id="58109636" user="Petr1868" uid="72020" visible="true" version="1" changeset="4605503" timestamp="2010-05-04T16:21:42Z">
  <nd ref="721097805"/>
  <nd ref="721096027"/>
  <nd ref="721097353"/>
  <nd ref="721095589"/>
  <nd ref="721097805"/>
  <tag k="building" v="yes"/>
  <tag k="source" v="cuzk:km"/>
 </way>
 <way id="58109436" user="Petr1868" uid="72020" visible="true" version="1" changeset="4605503" timestamp="2010-05-04T16:21:23Z">
  <nd ref="721097259"/>
  <nd ref="721095923"/>
  <nd ref="721096025"/>
  <nd ref="721097349"/>
  <nd ref="721097259"/>
  <tag k="building" v="yes"/>
  <tag k="source" v="cuzk:km"/>
 </way>
 <way id="58109527" user="Petr1868" uid="72020" visible="true" version="1" changeset="4605503" timestamp="2010-05-04T16:21:32Z">
  <nd ref="721096140"/>
  <nd ref="721097909"/>
  <nd ref="721095999"/>
  <nd ref="721097321"/>
  <nd ref="721096140"/>
  <tag k="building" v="yes"/>
  <tag k="source" v="cuzk:km"/>
 </way>
 <way id="58109710" user="Petr1868" uid="72020" visible="true" version="1" changeset="4605503" timestamp="2010-05-04T16:21:49Z">
  <nd ref="721097675"/>
  <nd ref="721095914"/>
  <nd ref="721096021"/>
  <nd ref="721098481"/>
  <nd ref="721097675"/>
  <tag k="building" v="yes"/>
  <tag k="source" v="cuzk:km"/>
 </way>
 <way id="58109520" user="Petr1868" uid="72020" visible="true" version="1" changeset="4605503" timestamp="2010-05-04T16:21:31Z">
  <nd ref="721097805"/>
  <nd ref="721096027"/>
  <nd ref="721095923"/>
  <nd ref="721097259"/>
  <nd ref="721097805"/>
  <tag k="building" v="yes"/>
  <tag k="source" v="cuzk:km"/>
 </way>
 <way id="58109408" user="Petr1868" uid="72020" visible="true" version="1" changeset="4605503" timestamp="2010-05-04T16:21:21Z">
  <nd ref="721097227"/>
  <nd ref="721095787"/>
  <nd ref="721097114"/>
  <nd ref="721098359"/>
  <nd ref="721096631"/>
  <nd ref="721097913"/>
  <nd ref="721097227"/>
  <tag k="building" v="yes"/>
  <tag k="source" v="cuzk:km"/>
 </way>
 <way id="58109806" user="Petr1868" uid="72020" visible="true" version="1" changeset="4605503" timestamp="2010-05-04T16:21:57Z">
  <nd ref="721098355"/>
  <nd ref="721096627"/>
  <nd ref="721097909"/>
  <nd ref="721096140"/>
  <nd ref="721098355"/>
  <tag k="building" v="yes"/>
  <tag k="source" v="cuzk:km"/>
 </way>
 <way id="58109519" user="Petr1868" uid="72020" visible="true" version="1" changeset="4605503" timestamp="2010-05-04T16:21:31Z">
  <nd ref="721095890"/>
  <nd ref="721097227"/>
  <nd ref="721098460"/>
  <nd ref="721096733"/>
  <nd ref="721095890"/>
  <tag k="building" v="yes"/>
  <tag k="source" v="cuzk:km"/>
 </way>
 <way id="58109709" user="Petr1868" uid="72020" visible="true" version="1" changeset="4605503" timestamp="2010-05-04T16:21:48Z">
  <nd ref="721097224"/>
  <nd ref="721098458"/>
  <nd ref="721097881"/>
  <nd ref="721096116"/>
  <nd ref="721097224"/>
  <tag k="building" v="yes"/>
  <tag k="source" v="cuzk:km"/>
 </way>
 <way id="58109797" user="Petr1868" uid="72020" visible="true" version="1" changeset="4605503" timestamp="2010-05-04T16:21:57Z">
  <nd ref="721097321"/>
  <nd ref="721095999"/>
  <nd ref="721096311"/>
  <nd ref="721097597"/>
  <nd ref="721097321"/>
  <tag k="building" v="yes"/>
  <tag k="source" v="cuzk:km"/>
 </way>
</osm>
