<?xml version="1.0" encoding="UTF-8"?>
<osm version="0.6" generator="CGImap 0.1.0" copyright="OpenStreetMap and contributors" attribution="http://www.openstreetmap.org/copyright" license="http://opendatacommons.org/licenses/odbl/1-0/">
 <bounds minlat="49.1656300" minlon="16.5763500" maxlat="49.1667700" maxlon="16.5791500"/>
 <node id="21540733" lat="49.1658403" lon="16.5790312" user="Petr Dlouhý" uid="17615" visible="true" version="2" changeset="675404" timestamp="2008-11-04T10:46:46Z">
  <tag k="created_by" v="JOSM"/>
 </node>
 <node id="21540734" lat="49.1657321" lon="16.5783939" user="hanoj" uid="4788" visible="true" version="3" changeset="2390531" timestamp="2009-09-06T13:39:52Z"/>
 <node id="1389965235" lat="49.1656677" lon="16.5775960" user="hanoj" uid="4788" visible="true" version="2" changeset="15698935" timestamp="2013-04-12T09:44:16Z"/>
 <node id="645084906" lat="49.1657026" lon="16.5766354" user="hanoj" uid="4788" visible="true" version="2" changeset="15698935" timestamp="2013-04-12T09:44:17Z"/>
 <node id="645084918" lat="49.1656938" lon="16.5763817" user="hanoj" uid="4788" visible="true" version="2" changeset="15698935" timestamp="2013-04-12T09:44:17Z"/>
 <node id="645084920" lat="49.1656952" lon="16.5764337" user="hanoj" uid="4788" visible="true" version="2" changeset="15698935" timestamp="2013-04-12T09:44:17Z"/>
 <node id="645084923" lat="49.1657601" lon="16.5766316" user="hanoj" uid="4788" visible="true" version="2" changeset="15698935" timestamp="2013-04-12T09:44:17Z"/>
 <node id="645084925" lat="49.1658212" lon="16.5764254" user="hanoj" uid="4788" visible="true" version="2" changeset="15698935" timestamp="2013-04-12T09:44:17Z"/>
 <node id="645084928" lat="49.1657034" lon="16.5766655" user="hanoj" uid="4788" visible="true" version="2" changeset="15698935" timestamp="2013-04-12T09:44:17Z"/>
 <node id="645084933" lat="49.1658291" lon="16.5767085" user="hanoj" uid="4788" visible="true" version="2" changeset="15698935" timestamp="2013-04-12T09:44:17Z"/>
 <node id="645084936" lat="49.1657624" lon="16.5767129" user="hanoj" uid="4788" visible="true" version="2" changeset="15698935" timestamp="2013-04-12T09:44:17Z"/>
 <node id="645084939" lat="49.1658698" lon="16.5769773" user="hanoj" uid="4788" visible="true" version="2" changeset="15698935" timestamp="2013-04-12T09:44:17Z"/>
 <node id="645084940" lat="49.1658702" lon="16.5769916" user="hanoj" uid="4788" visible="true" version="2" changeset="15698935" timestamp="2013-04-12T09:44:17Z"/>
 <node id="645084943" lat="49.1657686" lon="16.5769339" user="hanoj" uid="4788" visible="true" version="2" changeset="15698935" timestamp="2013-04-12T09:44:17Z"/>
 <node id="645084946" lat="49.1657336" lon="16.5769362" user="hanoj" uid="4788" visible="true" version="2" changeset="15698935" timestamp="2013-04-12T09:44:17Z"/>
 <node id="645084949" lat="49.1658315" lon="16.5767940" user="hanoj" uid="4788" visible="true" version="2" changeset="15698935" timestamp="2013-04-12T09:44:17Z"/>
 <node id="645084951" lat="49.1660080" lon="16.5765363" user="hanoj" uid="4788" visible="true" version="2" changeset="15698935" timestamp="2013-04-12T09:44:17Z"/>
 <node id="645084954" lat="49.1660802" lon="16.5765823" user="hanoj" uid="4788" visible="true" version="2" changeset="15698935" timestamp="2013-04-12T09:44:17Z"/>
 <node id="645084956" lat="49.1662084" lon="16.5765739" user="hanoj" uid="4788" visible="true" version="2" changeset="15698935" timestamp="2013-04-12T09:44:17Z"/>
 <node id="645084959" lat="49.1660788" lon="16.5765316" user="hanoj" uid="4788" visible="true" version="2" changeset="15698935" timestamp="2013-04-12T09:44:17Z"/>
 <node id="645084961" lat="49.1659911" lon="16.5767197" user="hanoj" uid="4788" visible="true" version="2" changeset="15698935" timestamp="2013-04-12T09:44:18Z"/>
 <node id="645084963" lat="49.1660131" lon="16.5767182" user="hanoj" uid="4788" visible="true" version="2" changeset="15698935" timestamp="2013-04-12T09:44:18Z"/>
 <node id="645084965" lat="49.1659939" lon="16.5768165" user="hanoj" uid="4788" visible="true" version="2" changeset="15698935" timestamp="2013-04-12T09:44:18Z"/>
 <node id="645084966" lat="49.1659948" lon="16.5768515" user="hanoj" uid="4788" visible="true" version="2" changeset="15698935" timestamp="2013-04-12T09:44:18Z"/>
 <node id="645084968" lat="49.1659627" lon="16.5768536" user="hanoj" uid="4788" visible="true" version="2" changeset="15698935" timestamp="2013-04-12T09:44:18Z"/>
 <node id="645084970" lat="49.1658958" lon="16.5769756" user="hanoj" uid="4788" visible="true" version="2" changeset="15698935" timestamp="2013-04-12T09:44:18Z"/>
 <node id="645084972" lat="49.1658915" lon="16.5767900" user="hanoj" uid="4788" visible="true" version="2" changeset="15698935" timestamp="2013-04-12T09:44:18Z"/>
 <node id="645084974" lat="49.1659921" lon="16.5767532" user="hanoj" uid="4788" visible="true" version="2" changeset="15698935" timestamp="2013-04-12T09:44:18Z"/>
 <node id="645084977" lat="49.1658907" lon="16.5767598" user="hanoj" uid="4788" visible="true" version="2" changeset="15698935" timestamp="2013-04-12T09:44:18Z"/>
 <node id="645084979" lat="49.1661426" lon="16.5767769" user="hanoj" uid="4788" visible="true" version="2" changeset="15698935" timestamp="2013-04-12T09:44:18Z"/>
 <node id="645084981" lat="49.1660831" lon="16.5767809" user="hanoj" uid="4788" visible="true" version="2" changeset="15698935" timestamp="2013-04-12T09:44:18Z"/>
 <node id="645084984" lat="49.1662163" lon="16.5768559" user="hanoj" uid="4788" visible="true" version="2" changeset="15698935" timestamp="2013-04-12T09:44:18Z"/>
 <node id="645084987" lat="49.1661450" lon="16.5768606" user="hanoj" uid="4788" visible="true" version="2" changeset="15698935" timestamp="2013-04-12T09:44:18Z"/>
 <node id="645084989" lat="49.1660839" lon="16.5768106" user="hanoj" uid="4788" visible="true" version="2" changeset="15698935" timestamp="2013-04-12T09:44:18Z"/>
 <node id="645085084" lat="49.1663482" lon="16.5770036" user="hanoj" uid="4788" visible="true" version="2" changeset="15698935" timestamp="2013-04-12T09:44:19Z"/>
 <node id="645085087" lat="49.1662552" lon="16.5771395" user="hanoj" uid="4788" visible="true" version="2" changeset="15698935" timestamp="2013-04-12T09:44:19Z"/>
 <node id="645085090" lat="49.1662548" lon="16.5771228" user="hanoj" uid="4788" visible="true" version="2" changeset="15698935" timestamp="2013-04-12T09:44:19Z"/>
 <node id="645085174" lat="49.1667123" lon="16.5765001" user="hanoj" uid="4788" visible="true" version="2" changeset="15698935" timestamp="2013-04-12T09:44:19Z"/>
 <node id="645085177" lat="49.1666420" lon="16.5765048" user="hanoj" uid="4788" visible="true" version="2" changeset="15698935" timestamp="2013-04-12T09:44:19Z"/>
 <node id="645085180" lat="49.1667137" lon="16.5765517" user="hanoj" uid="4788" visible="true" version="2" changeset="15698935" timestamp="2013-04-12T09:44:19Z"/>
 <node id="645085185" lat="49.1666299" lon="16.5768195" user="hanoj" uid="4788" visible="true" version="2" changeset="15698935" timestamp="2013-04-12T09:44:19Z"/>
 <node id="645085188" lat="49.1666271" lon="16.5767202" user="hanoj" uid="4788" visible="true" version="2" changeset="15698935" timestamp="2013-04-12T09:44:19Z"/>
 <node id="645085190" lat="49.1666470" lon="16.5766858" user="hanoj" uid="4788" visible="true" version="2" changeset="15698935" timestamp="2013-04-12T09:44:19Z"/>
 <node id="645085193" lat="49.1666261" lon="16.5766872" user="hanoj" uid="4788" visible="true" version="2" changeset="15698935" timestamp="2013-04-12T09:44:19Z"/>
 <node id="645085195" lat="49.1666289" lon="16.5767865" user="hanoj" uid="4788" visible="true" version="2" changeset="15698935" timestamp="2013-04-12T09:44:19Z"/>
 <node id="645085198" lat="49.1667204" lon="16.5767805" user="hanoj" uid="4788" visible="true" version="2" changeset="15698935" timestamp="2013-04-12T09:44:19Z"/>
 <node id="645085201" lat="49.1667196" lon="16.5767498" user="hanoj" uid="4788" visible="true" version="2" changeset="15698935" timestamp="2013-04-12T09:44:19Z"/>
 <node id="645085204" lat="49.1665977" lon="16.5768216" user="hanoj" uid="4788" visible="true" version="2" changeset="15698935" timestamp="2013-04-12T09:44:19Z"/>
 <node id="645085206" lat="49.1666023" lon="16.5769871" user="hanoj" uid="4788" visible="true" version="2" changeset="15698935" timestamp="2013-04-12T09:44:19Z"/>
 <node id="645085359" lat="49.1667636" lon="16.5770086" user="hanoj" uid="4788" visible="true" version="2" changeset="15698935" timestamp="2013-04-12T09:44:21Z"/>
 <node id="645085361" lat="49.1667665" lon="16.5771141" user="hanoj" uid="4788" visible="true" version="2" changeset="15698935" timestamp="2013-04-12T09:44:21Z"/>
 <node id="296476381" lat="49.1657177" lon="16.5765557" user="hanoj" uid="4788" visible="true" version="3" changeset="15698935" timestamp="2013-04-12T09:44:11Z">
  <tag k="addr:conscriptionnumber" v="670"/>
  <tag k="addr:housenumber" v="670/2"/>
  <tag k="addr:postcode" v="62500"/>
  <tag k="addr:street" v="Spodní"/>
  <tag k="addr:streetnumber" v="2"/>
  <tag k="source:addr" v="uir_adr"/>
  <tag k="source:loc" v="cuzk:km"/>
  <tag k="uir_adr:ADRESA_KOD" v="19217455"/>
 </node>
 <node id="296508731" lat="49.1667548" lon="16.5766454" user="hanoj" uid="4788" visible="true" version="3" changeset="15698935" timestamp="2013-04-12T09:44:12Z">
  <tag k="addr:conscriptionnumber" v="675"/>
  <tag k="addr:housenumber" v="675/12"/>
  <tag k="addr:postcode" v="62500"/>
  <tag k="addr:street" v="Spodní"/>
  <tag k="addr:streetnumber" v="12"/>
  <tag k="source:addr" v="uir_adr"/>
  <tag k="source:loc" v="cuzk:km"/>
  <tag k="uir_adr:ADRESA_KOD" v="19217501"/>
 </node>
 <node id="296580461" lat="49.1664009" lon="16.5784024" user="kekulik" uid="327066" visible="true" version="3" changeset="5426613" timestamp="2010-08-07T18:06:50Z">
  <tag k="addr:conscriptionnumber" v="659"/>
  <tag k="addr:housenumber" v="659/3"/>
  <tag k="addr:postcode" v="62500"/>
  <tag k="addr:street" v="Rolnická"/>
  <tag k="addr:streetnumber" v="3"/>
  <tag k="source:addr" v="uir_adr"/>
  <tag k="uir_adr:ADRESA_KOD" v="19217340"/>
 </node>
 <node id="296605874" lat="49.1656370" lon="16.5786347" user="Radomír Černoch" uid="51295" visible="true" version="2" changeset="1966265" timestamp="2009-07-28T18:23:17Z">
  <tag k="addr:conscriptionnumber" v="690"/>
  <tag k="addr:housenumber" v="690/6"/>
  <tag k="addr:postcode" v="62500"/>
  <tag k="addr:street" v="Lány"/>
  <tag k="addr:streetnumber" v="6"/>
  <tag k="source:addr" v="uir_adr"/>
  <tag k="uir_adr:ADRESA_KOD" v="19217668"/>
 </node>
 <node id="296607556" lat="49.1662623" lon="16.5770294" user="hanoj" uid="4788" visible="true" version="3" changeset="15698935" timestamp="2013-04-12T09:44:12Z">
  <tag k="addr:conscriptionnumber" v="673"/>
  <tag k="addr:housenumber" v="673/8"/>
  <tag k="addr:postcode" v="62500"/>
  <tag k="addr:street" v="Spodní"/>
  <tag k="addr:streetnumber" v="8"/>
  <tag k="source:addr" v="uir_adr"/>
  <tag k="source:loc" v="cuzk:km"/>
  <tag k="uir_adr:ADRESA_KOD" v="19217480"/>
 </node>
 <node id="296612326" lat="49.1659098" lon="16.5787350" user="kekulik" uid="327066" visible="true" version="3" changeset="5426613" timestamp="2010-08-07T18:06:49Z">
  <tag k="addr:conscriptionnumber" v="85"/>
  <tag k="addr:housenumber" v="85/3"/>
  <tag k="addr:postcode" v="62500"/>
  <tag k="addr:street" v="Lány"/>
  <tag k="addr:streetnumber" v="3"/>
  <tag k="note" v="fixme"/>
  <tag k="source:addr" v="uir_adr"/>
  <tag k="uir_adr:ADRESA_KOD" v="19211490"/>
 </node>
 <node id="296627774" lat="49.1658724" lon="16.5768915" user="hanoj" uid="4788" visible="true" version="3" changeset="15698935" timestamp="2013-04-12T09:44:12Z">
  <tag k="addr:conscriptionnumber" v="671"/>
  <tag k="addr:housenumber" v="671/4"/>
  <tag k="addr:postcode" v="62500"/>
  <tag k="addr:street" v="Spodní"/>
  <tag k="addr:streetnumber" v="4"/>
  <tag k="source:addr" v="uir_adr"/>
  <tag k="source:loc" v="cuzk:km"/>
  <tag k="uir_adr:ADRESA_KOD" v="19217463"/>
 </node>
 <node id="296641024" lat="49.1664975" lon="16.5768459" user="hanoj" uid="4788" visible="true" version="3" changeset="15698935" timestamp="2013-04-12T09:44:12Z">
  <tag k="addr:conscriptionnumber" v="674"/>
  <tag k="addr:housenumber" v="674/10"/>
  <tag k="addr:postcode" v="62500"/>
  <tag k="addr:street" v="Spodní"/>
  <tag k="addr:streetnumber" v="10"/>
  <tag k="source:addr" v="uir_adr"/>
  <tag k="source:loc" v="cuzk:km"/>
  <tag k="uir_adr:ADRESA_KOD" v="19217498"/>
 </node>
 <node id="296674593" lat="49.1661113" lon="16.5766894" user="hanoj" uid="4788" visible="true" version="3" changeset="15698935" timestamp="2013-04-12T09:44:12Z">
  <tag k="addr:conscriptionnumber" v="672"/>
  <tag k="addr:housenumber" v="672/6"/>
  <tag k="addr:postcode" v="62500"/>
  <tag k="addr:street" v="Spodní"/>
  <tag k="addr:streetnumber" v="6"/>
  <tag k="source:addr" v="uir_adr"/>
  <tag k="source:loc" v="cuzk:km"/>
  <tag k="uir_adr:ADRESA_KOD" v="19217471"/>
 </node>
 <node id="309851809" lat="49.1663303" lon="16.5789384" user="Petr Dlouhý" uid="17615" visible="true" version="1" changeset="675404" timestamp="2008-11-04T10:46:03Z"/>
 <node id="309851810" lat="49.1664499" lon="16.5790070" user="Petr Dlouhý" uid="17615" visible="true" version="1" changeset="675404" timestamp="2008-11-04T10:46:03Z"/>
 <node id="309851819" lat="49.1666856" lon="16.5783998" user="Petr Dlouhý" uid="17615" visible="true" version="1" changeset="675404" timestamp="2008-11-04T10:46:05Z"/>
 <node id="485923032" lat="49.1656625" lon="16.5780932" user="hanoj" uid="4788" visible="true" version="1" changeset="2390531" timestamp="2009-09-06T13:39:48Z"/>
 <node id="485923033" lat="49.1657491" lon="16.5786387" user="hanoj" uid="4788" visible="true" version="1" changeset="2390531" timestamp="2009-09-06T13:39:48Z"/>
 <node id="645068141" lat="49.1658587" lon="16.5777516" user="honny" uid="54223" visible="true" version="1" changeset="3910541" timestamp="2010-02-18T17:11:12Z"/>
 <node id="645068145" lat="49.1658010" lon="16.5782518" user="honny" uid="54223" visible="true" version="1" changeset="3910541" timestamp="2010-02-18T17:11:12Z"/>
 <node id="645068148" lat="49.1660083" lon="16.5779183" user="honny" uid="54223" visible="true" version="1" changeset="3910541" timestamp="2010-02-18T17:11:12Z"/>
 <node id="645068151" lat="49.1661045" lon="16.5779706" user="honny" uid="54223" visible="true" version="1" changeset="3910541" timestamp="2010-02-18T17:11:12Z"/>
 <node id="645068154" lat="49.1662114" lon="16.5779673" user="honny" uid="54223" visible="true" version="1" changeset="3910541" timestamp="2010-02-18T17:11:13Z"/>
 <node id="645068155" lat="49.1665149" lon="16.5777745" user="honny" uid="54223" visible="true" version="1" changeset="3910541" timestamp="2010-02-18T17:11:13Z"/>
 <node id="645084991" lat="49.1662187" lon="16.5769408" user="hanoj" uid="4788" visible="true" version="2" changeset="15698935" timestamp="2013-04-12T09:44:18Z"/>
 <node id="645084994" lat="49.1662764" lon="16.5769065" user="hanoj" uid="4788" visible="true" version="2" changeset="15698935" timestamp="2013-04-12T09:44:18Z"/>
 <node id="645084996" lat="49.1662766" lon="16.5769168" user="hanoj" uid="4788" visible="true" version="2" changeset="15698935" timestamp="2013-04-12T09:44:18Z"/>
 <node id="645084997" lat="49.1662562" lon="16.5769181" user="hanoj" uid="4788" visible="true" version="2" changeset="15698935" timestamp="2013-04-12T09:44:18Z"/>
 <node id="645084999" lat="49.1662568" lon="16.5769383" user="hanoj" uid="4788" visible="true" version="2" changeset="15698935" timestamp="2013-04-12T09:44:18Z"/>
 <node id="645085001" lat="49.1663776" lon="16.5768672" user="hanoj" uid="4788" visible="true" version="2" changeset="15698935" timestamp="2013-04-12T09:44:18Z"/>
 <node id="645085003" lat="49.1663785" lon="16.5768998" user="hanoj" uid="4788" visible="true" version="2" changeset="15698935" timestamp="2013-04-12T09:44:18Z"/>
 <node id="645085004" lat="49.1663804" lon="16.5769676" user="hanoj" uid="4788" visible="true" version="2" changeset="15698935" timestamp="2013-04-12T09:44:18Z"/>
 <node id="645085006" lat="49.1665038" lon="16.5767386" user="hanoj" uid="4788" visible="true" version="2" changeset="15698935" timestamp="2013-04-12T09:44:18Z"/>
 <node id="645085008" lat="49.1665264" lon="16.5767371" user="hanoj" uid="4788" visible="true" version="2" changeset="15698935" timestamp="2013-04-12T09:44:18Z"/>
 <node id="645085009" lat="49.1664666" lon="16.5767608" user="hanoj" uid="4788" visible="true" version="2" changeset="15698935" timestamp="2013-04-12T09:44:18Z"/>
 <node id="645085011" lat="49.1665043" lon="16.5767583" user="hanoj" uid="4788" visible="true" version="2" changeset="15698935" timestamp="2013-04-12T09:44:18Z"/>
 <node id="645085013" lat="49.1663954" lon="16.5766842" user="hanoj" uid="4788" visible="true" version="2" changeset="15698935" timestamp="2013-04-12T09:44:18Z"/>
 <node id="645085015" lat="49.1664643" lon="16.5766796" user="hanoj" uid="4788" visible="true" version="2" changeset="15698935" timestamp="2013-04-12T09:44:18Z"/>
 <node id="645085033" lat="49.1664005" lon="16.5768657" user="hanoj" uid="4788" visible="true" version="2" changeset="15698935" timestamp="2013-04-12T09:44:18Z"/>
 <node id="645085036" lat="49.1665261" lon="16.5767268" user="hanoj" uid="4788" visible="true" version="2" changeset="15698935" timestamp="2013-04-12T09:44:18Z"/>
 <node id="645085039" lat="49.1665042" lon="16.5769423" user="hanoj" uid="4788" visible="true" version="2" changeset="15698935" timestamp="2013-04-12T09:44:18Z"/>
 <node id="645085042" lat="49.1665298" lon="16.5769406" user="hanoj" uid="4788" visible="true" version="2" changeset="15698935" timestamp="2013-04-12T09:44:18Z"/>
 <node id="645085045" lat="49.1665047" lon="16.5769594" user="hanoj" uid="4788" visible="true" version="2" changeset="15698935" timestamp="2013-04-12T09:44:18Z"/>
 <node id="645085048" lat="49.1665312" lon="16.5769918" user="hanoj" uid="4788" visible="true" version="2" changeset="15698935" timestamp="2013-04-12T09:44:18Z"/>
 <node id="645085050" lat="49.1657354" lon="16.5770004" user="hanoj" uid="4788" visible="true" version="2" changeset="15698935" timestamp="2013-04-12T09:44:18Z"/>
 <node id="645085058" lat="49.1661280" lon="16.5770422" user="hanoj" uid="4788" visible="true" version="2" changeset="15698935" timestamp="2013-04-12T09:44:18Z"/>
 <node id="645085060" lat="49.1661310" lon="16.5771476" user="hanoj" uid="4788" visible="true" version="2" changeset="15698935" timestamp="2013-04-12T09:44:18Z"/>
 <node id="645085062" lat="49.1661500" lon="16.5770407" user="hanoj" uid="4788" visible="true" version="2" changeset="15698935" timestamp="2013-04-12T09:44:19Z"/>
 <node id="645085063" lat="49.1659674" lon="16.5770192" user="hanoj" uid="4788" visible="true" version="2" changeset="15698935" timestamp="2013-04-12T09:44:19Z"/>
 <node id="645085066" lat="49.1658972" lon="16.5770238" user="hanoj" uid="4788" visible="true" version="2" changeset="15698935" timestamp="2013-04-12T09:44:19Z"/>
 <node id="645085074" lat="49.1663814" lon="16.5770014" user="hanoj" uid="4788" visible="true" version="2" changeset="15698935" timestamp="2013-04-12T09:44:19Z"/>
 <node id="645085076" lat="49.1662813" lon="16.5771211" user="hanoj" uid="4788" visible="true" version="2" changeset="15698935" timestamp="2013-04-12T09:44:19Z"/>
 <node id="645085079" lat="49.1662827" lon="16.5771723" user="hanoj" uid="4788" visible="true" version="2" changeset="15698935" timestamp="2013-04-12T09:44:19Z"/>
 <node id="645085082" lat="49.1663528" lon="16.5771677" user="hanoj" uid="4788" visible="true" version="2" changeset="15698935" timestamp="2013-04-12T09:44:19Z"/>
 <node id="645085052" lat="49.1657256" lon="16.5774934" user="honny" uid="54223" visible="true" version="1" changeset="3910541" timestamp="2010-02-18T17:18:34Z"/>
 <node id="645085069" lat="49.1658908" lon="16.5771388" user="honny" uid="54223" visible="true" version="1" changeset="3910541" timestamp="2010-02-18T17:18:34Z"/>
 <node id="645085072" lat="49.1661952" lon="16.5772591" user="honny" uid="54223" visible="true" version="1" changeset="3910541" timestamp="2010-02-18T17:18:34Z"/>
 <node id="645085092" lat="49.1663422" lon="16.5772486" user="honny" uid="54223" visible="true" version="1" changeset="3910541" timestamp="2010-02-18T17:18:35Z"/>
 <node id="645085094" lat="49.1660135" lon="16.5780565" user="honny" uid="54223" visible="true" version="1" changeset="3910541" timestamp="2010-02-18T17:18:35Z"/>
 <node id="645085097" lat="49.1658805" lon="16.5780555" user="honny" uid="54223" visible="true" version="1" changeset="3910541" timestamp="2010-02-18T17:18:35Z"/>
 <node id="645085100" lat="49.1661821" lon="16.5781368" user="honny" uid="54223" visible="true" version="1" changeset="3910541" timestamp="2010-02-18T17:18:35Z"/>
 <node id="645085102" lat="49.1660523" lon="16.5782736" user="honny" uid="54223" visible="true" version="1" changeset="3910541" timestamp="2010-02-18T17:18:35Z"/>
 <node id="645085104" lat="49.1660308" lon="16.5782734" user="honny" uid="54223" visible="true" version="1" changeset="3910541" timestamp="2010-02-18T17:18:35Z"/>
 <node id="645085107" lat="49.1660312" lon="16.5781686" user="honny" uid="54223" visible="true" version="1" changeset="3910541" timestamp="2010-02-18T17:18:35Z"/>
 <node id="645085110" lat="49.1661560" lon="16.5781694" user="honny" uid="54223" visible="true" version="1" changeset="3910541" timestamp="2010-02-18T17:18:35Z"/>
 <node id="645085113" lat="49.1661560" lon="16.5781874" user="honny" uid="54223" visible="true" version="1" changeset="3910541" timestamp="2010-02-18T17:18:35Z"/>
 <node id="645085115" lat="49.1661819" lon="16.5781876" user="honny" uid="54223" visible="true" version="1" changeset="3910541" timestamp="2010-02-18T17:18:35Z"/>
 <node id="645085117" lat="49.1665380" lon="16.5779669" user="honny" uid="54223" visible="true" version="1" changeset="3910541" timestamp="2010-02-18T17:18:35Z"/>
 <node id="645085120" lat="49.1664137" lon="16.5779661" user="honny" uid="54223" visible="true" version="1" changeset="3910541" timestamp="2010-02-18T17:18:35Z"/>
 <node id="645085123" lat="49.1665639" lon="16.5779851" user="honny" uid="54223" visible="true" version="1" changeset="3910541" timestamp="2010-02-18T17:18:35Z"/>
 <node id="645085125" lat="49.1665380" lon="16.5779849" user="honny" uid="54223" visible="true" version="1" changeset="3910541" timestamp="2010-02-18T17:18:35Z"/>
 <node id="645085128" lat="49.1665641" lon="16.5779337" user="honny" uid="54223" visible="true" version="1" changeset="3910541" timestamp="2010-02-18T17:18:35Z"/>
 <node id="645085130" lat="49.1663750" lon="16.5783023" user="honny" uid="54223" visible="true" version="1" changeset="3910541" timestamp="2010-02-18T17:18:35Z"/>
 <node id="645085133" lat="49.1663750" lon="16.5783323" user="honny" uid="54223" visible="true" version="1" changeset="3910541" timestamp="2010-02-18T17:18:35Z"/>
 <node id="645085135" lat="49.1662527" lon="16.5781373" user="honny" uid="54223" visible="true" version="1" changeset="3910541" timestamp="2010-02-18T17:18:35Z"/>
 <node id="645085138" lat="49.1662523" lon="16.5783015" user="honny" uid="54223" visible="true" version="1" changeset="3910541" timestamp="2010-02-18T17:18:35Z"/>
 <node id="645085141" lat="49.1662842" lon="16.5783017" user="honny" uid="54223" visible="true" version="1" changeset="3910541" timestamp="2010-02-18T17:18:35Z"/>
 <node id="645085143" lat="49.1664133" lon="16.5780694" user="honny" uid="54223" visible="true" version="1" changeset="3910541" timestamp="2010-02-18T17:18:35Z"/>
 <node id="645085145" lat="49.1664356" lon="16.5780696" user="honny" uid="54223" visible="true" version="1" changeset="3910541" timestamp="2010-02-18T17:18:35Z"/>
 <node id="645085148" lat="49.1665043" lon="16.5781688" user="honny" uid="54223" visible="true" version="1" changeset="3910541" timestamp="2010-02-18T17:18:35Z"/>
 <node id="645085151" lat="49.1665611" lon="16.5781692" user="honny" uid="54223" visible="true" version="1" changeset="3910541" timestamp="2010-02-18T17:18:35Z"/>
 <node id="645085154" lat="49.1665040" lon="16.5782522" user="honny" uid="54223" visible="true" version="1" changeset="3910541" timestamp="2010-02-18T17:18:35Z"/>
 <node id="645085157" lat="49.1664351" lon="16.5782518" user="honny" uid="54223" visible="true" version="1" changeset="3910541" timestamp="2010-02-18T17:18:35Z"/>
 <node id="645085158" lat="49.1665610" lon="16.5782021" user="honny" uid="54223" visible="true" version="1" changeset="3910541" timestamp="2010-02-18T17:18:35Z"/>
 <node id="645085171" lat="49.1664348" lon="16.5783327" user="honny" uid="54223" visible="true" version="1" changeset="3910541" timestamp="2010-02-18T17:18:36Z"/>
 <node id="645085368" lat="49.1666689" lon="16.5771728" user="honny" uid="54223" visible="true" version="1" changeset="3910541" timestamp="2010-02-18T17:18:39Z"/>
 <node id="645085384" lat="49.1666662" lon="16.5780996" user="honny" uid="54223" visible="true" version="1" changeset="3910541" timestamp="2010-02-18T17:18:39Z"/>
 <node id="645085387" lat="49.1666348" lon="16.5780994" user="honny" uid="54223" visible="true" version="1" changeset="3910541" timestamp="2010-02-18T17:18:39Z"/>
 <node id="645085390" lat="49.1666353" lon="16.5779342" user="honny" uid="54223" visible="true" version="1" changeset="3910541" timestamp="2010-02-18T17:18:39Z"/>
 <node id="645085392" lat="49.1666658" lon="16.5782029" user="honny" uid="54223" visible="true" version="1" changeset="3910541" timestamp="2010-02-18T17:18:39Z"/>
 <node id="645085521" lat="49.1658568" lon="16.5788837" user="honny" uid="54223" visible="true" version="1" changeset="3910541" timestamp="2010-02-18T17:18:41Z"/>
 <node id="645085524" lat="49.1658455" lon="16.5784342" user="honny" uid="54223" visible="true" version="1" changeset="3910541" timestamp="2010-02-18T17:18:41Z"/>
 <node id="645085527" lat="49.1658582" lon="16.5787437" user="honny" uid="54223" visible="true" version="1" changeset="3910541" timestamp="2010-02-18T17:18:41Z"/>
 <node id="645085529" lat="49.1658425" lon="16.5787433" user="honny" uid="54223" visible="true" version="1" changeset="3910541" timestamp="2010-02-18T17:18:42Z"/>
 <node id="645085532" lat="49.1659809" lon="16.5785457" user="honny" uid="54223" visible="true" version="1" changeset="3910541" timestamp="2010-02-18T17:18:42Z"/>
 <node id="645085535" lat="49.1659607" lon="16.5785453" user="honny" uid="54223" visible="true" version="1" changeset="3910541" timestamp="2010-02-18T17:18:42Z"/>
 <node id="645085537" lat="49.1659613" lon="16.5784925" user="honny" uid="54223" visible="true" version="1" changeset="3910541" timestamp="2010-02-18T17:18:42Z"/>
 <node id="645085539" lat="49.1659212" lon="16.5784916" user="honny" uid="54223" visible="true" version="1" changeset="3910541" timestamp="2010-02-18T17:18:42Z"/>
 <node id="645085541" lat="49.1659218" lon="16.5784359" user="honny" uid="54223" visible="true" version="1" changeset="3910541" timestamp="2010-02-18T17:18:42Z"/>
 <node id="645085542" lat="49.1659801" lon="16.5786207" user="honny" uid="54223" visible="true" version="1" changeset="3910541" timestamp="2010-02-18T17:18:42Z"/>
 <node id="645085544" lat="49.1659631" lon="16.5786203" user="honny" uid="54223" visible="true" version="1" changeset="3910541" timestamp="2010-02-18T17:18:42Z"/>
 <node id="645085546" lat="49.1658795" lon="16.5784075" user="honny" uid="54223" visible="true" version="1" changeset="3910541" timestamp="2010-02-18T17:18:42Z"/>
 <node id="645085549" lat="49.1660125" lon="16.5784085" user="honny" uid="54223" visible="true" version="1" changeset="3910541" timestamp="2010-02-18T17:18:42Z"/>
 <node id="645085551" lat="49.1661231" lon="16.5783723" user="honny" uid="54223" visible="true" version="1" changeset="3910541" timestamp="2010-02-18T17:18:42Z"/>
 <node id="645085554" lat="49.1661795" lon="16.5783727" user="honny" uid="54223" visible="true" version="1" changeset="3910541" timestamp="2010-02-18T17:18:42Z"/>
 <node id="645085556" lat="49.1661795" lon="16.5784016" user="honny" uid="54223" visible="true" version="1" changeset="3910541" timestamp="2010-02-18T17:18:42Z"/>
 <node id="645085559" lat="49.1661229" lon="16.5784543" user="honny" uid="54223" visible="true" version="1" changeset="3910541" timestamp="2010-02-18T17:18:42Z"/>
 <node id="645085562" lat="49.1660517" lon="16.5784538" user="honny" uid="54223" visible="true" version="1" changeset="3910541" timestamp="2010-02-18T17:18:42Z"/>
 <node id="645085565" lat="49.1659259" lon="16.5788852" user="honny" uid="54223" visible="true" version="1" changeset="3910541" timestamp="2010-02-18T17:18:42Z"/>
 <node id="645085568" lat="49.1659598" lon="16.5788744" user="honny" uid="54223" visible="true" version="1" changeset="3910541" timestamp="2010-02-18T17:18:42Z"/>
 <node id="645085570" lat="49.1659261" lon="16.5788736" user="honny" uid="54223" visible="true" version="1" changeset="3910541" timestamp="2010-02-18T17:18:42Z"/>
 <node id="645085573" lat="49.1659761" lon="16.5788287" user="honny" uid="54223" visible="true" version="1" changeset="3910541" timestamp="2010-02-18T17:18:42Z"/>
 <node id="645085584" lat="49.1659602" lon="16.5788284" user="honny" uid="54223" visible="true" version="1" changeset="3910541" timestamp="2010-02-18T17:18:42Z"/>
 <node id="645085586" lat="49.1659619" lon="16.5787518" user="honny" uid="54223" visible="true" version="1" changeset="3910541" timestamp="2010-02-18T17:18:43Z"/>
 <node id="645085588" lat="49.1659769" lon="16.5787521" user="honny" uid="54223" visible="true" version="1" changeset="3910541" timestamp="2010-02-18T17:18:43Z"/>
 <node id="645085590" lat="49.1662838" lon="16.5784024" user="honny" uid="54223" visible="true" version="1" changeset="3910541" timestamp="2010-02-18T17:18:43Z"/>
 <node id="645085592" lat="49.1663037" lon="16.5785838" user="honny" uid="54223" visible="true" version="1" changeset="3910541" timestamp="2010-02-18T17:18:43Z"/>
 <node id="645085594" lat="49.1663754" lon="16.5785843" user="honny" uid="54223" visible="true" version="1" changeset="3910541" timestamp="2010-02-18T17:18:43Z"/>
 <node id="645085596" lat="49.1663043" lon="16.5784025" user="honny" uid="54223" visible="true" version="1" changeset="3910541" timestamp="2010-02-18T17:18:43Z"/>
 <node id="645085598" lat="49.1665032" lon="16.5785369" user="honny" uid="54223" visible="true" version="1" changeset="3910541" timestamp="2010-02-18T17:18:43Z"/>
 <node id="645085600" lat="49.1663756" lon="16.5785361" user="honny" uid="54223" visible="true" version="1" changeset="3910541" timestamp="2010-02-18T17:18:43Z"/>
 <node id="645085602" lat="49.1665560" lon="16.5790280" user="honny" uid="54223" visible="true" version="1" changeset="3910541" timestamp="2010-02-18T17:18:43Z"/>
 <node id="645085604" lat="49.1665540" lon="16.5787700" user="honny" uid="54223" visible="true" version="1" changeset="3910541" timestamp="2010-02-18T17:18:43Z"/>
 <node id="645085605" lat="49.1667110" lon="16.5787670" user="honny" uid="54223" visible="true" version="1" changeset="3910541" timestamp="2010-02-18T17:18:43Z"/>
 <node id="645085614" lat="49.1667140" lon="16.5790780" user="honny" uid="54223" visible="true" version="1" changeset="3910541" timestamp="2010-02-18T17:18:43Z"/>
 <node id="645085616" lat="49.1665950" lon="16.5790730" user="honny" uid="54223" visible="true" version="1" changeset="3910541" timestamp="2010-02-18T17:18:43Z"/>
 <node id="449724267" lat="49.1666535" lon="16.5788530" user="kekulik" uid="327066" visible="true" version="2" changeset="5426613" timestamp="2010-08-07T18:06:48Z">
  <tag k="addr:conscriptionnumber" v="737"/>
  <tag k="addr:housenumber" v="737/4"/>
  <tag k="addr:postcode" v="62500"/>
  <tag k="addr:street" v="Rolnická"/>
  <tag k="addr:streetnumber" v="4"/>
  <tag k="source:addr" v="uir_adr"/>
  <tag k="uir_adr:ADRESA_KOD" v="25054619"/>
 </node>
 <node id="296719471" lat="49.1661273" lon="16.5782522" user="kekulik" uid="327066" visible="true" version="3" changeset="5426613" timestamp="2010-08-07T18:06:51Z">
  <tag k="addr:conscriptionnumber" v="715"/>
  <tag k="addr:housenumber" v="715/1a"/>
  <tag k="addr:postcode" v="62500"/>
  <tag k="addr:street" v="Rolnická"/>
  <tag k="addr:streetnumber" v="1a"/>
  <tag k="source:addr" v="uir_adr"/>
  <tag k="uir_adr:ADRESA_KOD" v="25054601"/>
 </node>
 <node id="296694158" lat="49.1659449" lon="16.5782200" user="kekulik" uid="327066" visible="true" version="3" changeset="5426613" timestamp="2010-08-07T18:06:51Z">
  <tag k="addr:conscriptionnumber" v="693"/>
  <tag k="addr:housenumber" v="693/1"/>
  <tag k="addr:postcode" v="62500"/>
  <tag k="addr:street" v="Rolnická"/>
  <tag k="addr:streetnumber" v="1"/>
  <tag k="source:addr" v="uir_adr"/>
  <tag k="uir_adr:ADRESA_KOD" v="19217692"/>
 </node>
 <node id="296597823" lat="49.1665202" lon="16.5780590" user="kekulik" uid="327066" visible="true" version="3" changeset="5426613" timestamp="2010-08-07T18:06:49Z">
  <tag k="addr:conscriptionnumber" v="660"/>
  <tag k="addr:housenumber" v="660/5"/>
  <tag k="addr:postcode" v="62500"/>
  <tag k="addr:street" v="Rolnická"/>
  <tag k="addr:streetnumber" v="5"/>
  <tag k="source:addr" v="uir_adr"/>
  <tag k="uir_adr:ADRESA_KOD" v="19217358"/>
 </node>
 <node id="296611213" lat="49.1659660" lon="16.5790675" user="kekulik" uid="327066" visible="true" version="3" changeset="5426613" timestamp="2010-08-07T18:07:13Z">
  <tag k="addr:conscriptionnumber" v="607"/>
  <tag k="addr:housenumber" v="607/3a"/>
  <tag k="addr:postcode" v="62500"/>
  <tag k="addr:street" v="Lány"/>
  <tag k="addr:streetnumber" v="3a"/>
  <tag k="source:addr" v="uir_adr"/>
  <tag k="uir_adr:ADRESA_KOD" v="19216891"/>
 </node>
 <node id="296669970" lat="49.1659940" lon="16.5787350" user="kekulik" uid="327066" visible="true" version="3" changeset="5426613" timestamp="2010-08-07T18:07:14Z">
  <tag k="addr:conscriptionnumber" v="85"/>
  <tag k="addr:housenumber" v="85/48"/>
  <tag k="addr:postcode" v="62500"/>
  <tag k="addr:street" v="Bohuňova"/>
  <tag k="addr:streetnumber" v="48"/>
  <tag k="note" v="fixme"/>
  <tag k="source:addr" v="uir_adr"/>
  <tag k="uir_adr:ADRESA_KOD" v="25059459"/>
 </node>
 <node id="21540731" lat="49.1661647" lon="16.5810692" user="hanoj" uid="4788" visible="true" version="2" changeset="2390531" timestamp="2009-09-06T13:39:52Z"/>
 <node id="281257429" lat="49.1655249" lon="16.5777086" user="hanoj" uid="4788" visible="true" version="5" changeset="15698935" timestamp="2013-04-12T09:44:16Z"/>
 <node id="309851811" lat="49.1665695" lon="16.5791842" user="Petr Dlouhý" uid="17615" visible="true" version="1" changeset="675404" timestamp="2008-11-04T10:46:03Z"/>
 <node id="309851812" lat="49.1667264" lon="16.5792528" user="Petr Dlouhý" uid="17615" visible="true" version="1" changeset="675404" timestamp="2008-11-04T10:46:03Z"/>
 <node id="309851813" lat="49.1672235" lon="16.5791785" user="Petr Dlouhý" uid="17615" visible="true" version="1" changeset="675404" timestamp="2008-11-04T10:46:04Z"/>
 <node id="309851814" lat="49.1687035" lon="16.5791442" user="Petr Dlouhý" uid="17615" visible="true" version="1" changeset="675404" timestamp="2008-11-04T10:46:04Z"/>
 <node id="309851815" lat="49.1691221" lon="16.5791956" user="Petr Dlouhý" uid="17615" visible="true" version="1" changeset="675404" timestamp="2008-11-04T10:46:04Z"/>
 <node id="309851816" lat="49.1693427" lon="16.5791971" user="BiIbo" uid="3516" visible="true" version="2" changeset="3958640" timestamp="2010-02-23T21:45:46Z"/>
 <node id="309851817" lat="49.1697290" lon="16.5790699" user="BiIbo" uid="3516" visible="true" version="2" changeset="3958640" timestamp="2010-02-23T21:45:46Z"/>
 <node id="309851820" lat="49.1668363" lon="16.5782681" user="Petr Dlouhý" uid="17615" visible="true" version="1" changeset="675404" timestamp="2008-11-04T10:46:05Z"/>
 <node id="309851901" lat="49.1681143" lon="16.5791529" user="Petr Dlouhý" uid="17615" visible="true" version="1" changeset="675404" timestamp="2008-11-04T10:46:18Z"/>
 <node id="309851921" lat="49.1661902" lon="16.5840953" user="hanoj" uid="4788" visible="true" version="2" changeset="2390531" timestamp="2009-09-06T13:39:52Z"/>
 <node id="485923035" lat="49.1661208" lon="16.5807234" user="hanoj" uid="4788" visible="true" version="1" changeset="2390531" timestamp="2009-09-06T13:39:48Z"/>
 <node id="530711378" lat="49.1661760" lon="16.5824140" user="Petr Dlouhý" uid="17615" visible="true" version="1" changeset="2846058" timestamp="2009-10-14T15:07:17Z"/>
 <node id="645068163" lat="49.1668441" lon="16.5774802" user="honny" uid="54223" visible="true" version="1" changeset="3910541" timestamp="2010-02-18T17:11:13Z"/>
 <node id="645068213" lat="49.1673583" lon="16.5782622" user="hanoj" uid="4788" visible="true" version="2" changeset="6991199" timestamp="2011-01-16T17:57:42Z"/>
 <node id="645084887" lat="49.1653237" lon="16.5769002" user="honny" uid="54223" visible="true" version="1" changeset="3910541" timestamp="2010-02-18T17:18:31Z"/>
 <node id="645084888" lat="49.1654754" lon="16.5767765" user="honny" uid="54223" visible="true" version="1" changeset="3910541" timestamp="2010-02-18T17:18:31Z"/>
 <node id="645084909" lat="49.1656086" lon="16.5765685" user="hanoj" uid="4788" visible="true" version="2" changeset="15698935" timestamp="2013-04-12T09:44:17Z"/>
 <node id="645084912" lat="49.1656285" lon="16.5765672" user="hanoj" uid="4788" visible="true" version="2" changeset="15698935" timestamp="2013-04-12T09:44:17Z"/>
 <node id="645084915" lat="49.1656235" lon="16.5763863" user="hanoj" uid="4788" visible="true" version="2" changeset="15698935" timestamp="2013-04-12T09:44:17Z"/>
 <node id="645084930" lat="49.1656114" lon="16.5766716" user="hanoj" uid="4788" visible="true" version="2" changeset="15698935" timestamp="2013-04-12T09:44:17Z"/>
 <node id="645085054" lat="49.1655739" lon="16.5776172" user="honny" uid="54223" visible="true" version="1" changeset="3910541" timestamp="2010-02-18T17:18:34Z"/>
 <node id="645085056" lat="49.1656097" lon="16.5770255" user="hanoj" uid="4788" visible="true" version="2" changeset="15698935" timestamp="2013-04-12T09:44:18Z"/>
 <node id="645085182" lat="49.1668414" lon="16.5765433" user="hanoj" uid="4788" visible="true" version="2" changeset="15698935" timestamp="2013-04-12T09:44:19Z"/>
 <node id="645085208" lat="49.1668892" lon="16.5768877" user="hanoj" uid="4788" visible="true" version="2" changeset="15698935" timestamp="2013-04-12T09:44:19Z"/>
 <node id="645085211" lat="49.1668898" lon="16.5769082" user="hanoj" uid="4788" visible="true" version="2" changeset="15698935" timestamp="2013-04-12T09:44:19Z"/>
 <node id="645085214" lat="49.1668517" lon="16.5769107" user="hanoj" uid="4788" visible="true" version="2" changeset="15698935" timestamp="2013-04-12T09:44:19Z"/>
 <node id="645085217" lat="49.1668493" lon="16.5768255" user="hanoj" uid="4788" visible="true" version="2" changeset="15698935" timestamp="2013-04-12T09:44:19Z"/>
 <node id="645085219" lat="49.1667788" lon="16.5768301" user="hanoj" uid="4788" visible="true" version="2" changeset="15698935" timestamp="2013-04-12T09:44:20Z"/>
 <node id="645085222" lat="49.1667764" lon="16.5767461" user="hanoj" uid="4788" visible="true" version="2" changeset="15698935" timestamp="2013-04-12T09:44:20Z"/>
 <node id="645085230" lat="49.1670137" lon="16.5769350" user="hanoj" uid="4788" visible="true" version="2" changeset="15698935" timestamp="2013-04-12T09:44:20Z"/>
 <node id="645085234" lat="49.1670117" lon="16.5768666" user="hanoj" uid="4788" visible="true" version="2" changeset="15698935" timestamp="2013-04-12T09:44:20Z"/>
 <node id="645085235" lat="49.1669098" lon="16.5768733" user="hanoj" uid="4788" visible="true" version="2" changeset="15698935" timestamp="2013-04-12T09:44:20Z"/>
 <node id="645085237" lat="49.1669102" lon="16.5768864" user="hanoj" uid="4788" visible="true" version="2" changeset="15698935" timestamp="2013-04-12T09:44:20Z"/>
 <node id="645085239" lat="49.1669827" lon="16.5769736" user="hanoj" uid="4788" visible="true" version="2" changeset="15698935" timestamp="2013-04-12T09:44:20Z"/>
 <node id="645085241" lat="49.1670147" lon="16.5769715" user="hanoj" uid="4788" visible="true" version="2" changeset="15698935" timestamp="2013-04-12T09:44:20Z"/>
 <node id="645085357" lat="49.1667838" lon="16.5770073" user="hanoj" uid="4788" visible="true" version="2" changeset="15698935" timestamp="2013-04-12T09:44:21Z"/>
 <node id="645085363" lat="49.1668916" lon="16.5771059" user="hanoj" uid="4788" visible="true" version="2" changeset="15698935" timestamp="2013-04-12T09:44:21Z"/>
 <node id="645085365" lat="49.1668913" lon="16.5770958" user="hanoj" uid="4788" visible="true" version="2" changeset="15698935" timestamp="2013-04-12T09:44:21Z"/>
 <node id="645085371" lat="49.1669143" lon="16.5770943" user="hanoj" uid="4788" visible="true" version="2" changeset="15698935" timestamp="2013-04-12T09:44:21Z"/>
 <node id="645085374" lat="49.1669157" lon="16.5771418" user="hanoj" uid="4788" visible="true" version="2" changeset="15698935" timestamp="2013-04-12T09:44:21Z"/>
 <node id="645085377" lat="49.1669873" lon="16.5771371" user="hanoj" uid="4788" visible="true" version="2" changeset="15698935" timestamp="2013-04-12T09:44:21Z"/>
 <node id="645085379" lat="49.1669117" lon="16.5772016" user="honny" uid="54223" visible="true" version="1" changeset="3910541" timestamp="2010-02-18T17:18:39Z"/>
 <node id="645085381" lat="49.1671479" lon="16.5771811" user="honny" uid="54223" visible="true" version="1" changeset="3910541" timestamp="2010-02-18T17:18:39Z"/>
 <node id="1099549260" lat="49.1661693" lon="16.5816153" user="hanoj" uid="4788" visible="true" version="1" changeset="6945498" timestamp="2011-01-12T10:26:27Z"/>
 <node id="1198965650" lat="49.1700081" lon="16.5790313" user="kekulik" uid="327066" visible="true" version="1" changeset="7537134" timestamp="2011-03-12T19:21:06Z"/>
 <node id="1198965672" lat="49.1700151" lon="16.5792244" user="kekulik" uid="327066" visible="true" version="1" changeset="7537134" timestamp="2011-03-12T19:21:06Z">
  <tag k="noexit" v="yes"/>
 </node>
 <node id="1389965224" lat="49.1655020" lon="16.5770952" user="hanoj" uid="4788" visible="true" version="1" changeset="8950034" timestamp="2011-08-07T17:57:48Z"/>
 <way id="128887091" user="hanoj" uid="4788" visible="true" version="1" changeset="9209418" timestamp="2011-09-04T14:25:26Z">
  <nd ref="645085056"/>
  <nd ref="645085069"/>
  <nd ref="645085072"/>
  <nd ref="645085092"/>
  <nd ref="645085368"/>
  <nd ref="645085379"/>
  <nd ref="645085381"/>
  <tag k="highway" v="footway"/>
  <tag k="source" v="uhul:ortofoto"/>
 </way>
 <way id="50659327" user="honny" uid="54223" visible="true" version="1" changeset="3910541" timestamp="2010-02-18T17:18:43Z">
  <nd ref="645085590"/>
  <nd ref="645085556"/>
  <nd ref="645085554"/>
  <nd ref="645085551"/>
  <nd ref="645085559"/>
  <nd ref="645085562"/>
  <nd ref="645085102"/>
  <nd ref="645085104"/>
  <nd ref="645085107"/>
  <nd ref="645085110"/>
  <nd ref="645085113"/>
  <nd ref="645085115"/>
  <nd ref="645085100"/>
  <nd ref="645085135"/>
  <nd ref="645085138"/>
  <nd ref="645085141"/>
  <nd ref="645085590"/>
  <tag k="building" v="yes"/>
  <tag k="source" v="cuzk:km"/>
 </way>
 <way id="125067365" user="hanoj" uid="4788" visible="true" version="2" changeset="9209418" timestamp="2011-09-04T14:25:37Z">
  <nd ref="281257429"/>
  <nd ref="1389965235"/>
  <nd ref="1389965224"/>
  <tag k="highway" v="service"/>
  <tag k="service" v="parking_aisle"/>
 </way>
 <way id="28210602" user="hanoj" uid="4788" visible="true" version="3" changeset="6991199" timestamp="2011-01-16T17:57:37Z">
  <nd ref="309851809"/>
  <nd ref="309851819"/>
  <nd ref="309851820"/>
  <nd ref="645068213"/>
  <tag k="highway" v="residential"/>
  <tag k="name" v="Rolnická"/>
  <tag k="source" v="uhul:ortofoto"/>
  <tag k="source:name" v="uir_adr"/>
 </way>
 <way id="50659333" user="honny" uid="54223" visible="true" version="1" changeset="3910541" timestamp="2010-02-18T17:18:44Z">
  <nd ref="645084984"/>
  <nd ref="645084987"/>
  <nd ref="645084979"/>
  <nd ref="645084981"/>
  <nd ref="645084989"/>
  <nd ref="645084965"/>
  <nd ref="645084974"/>
  <nd ref="645084961"/>
  <nd ref="645084963"/>
  <nd ref="645084951"/>
  <nd ref="645084959"/>
  <nd ref="645084954"/>
  <nd ref="645084956"/>
  <nd ref="645084984"/>
  <tag k="building" v="yes"/>
  <tag k="source" v="cuzk:km"/>
 </way>
 <way id="50658467" user="hanoj" uid="4788" visible="true" version="3" changeset="9209418" timestamp="2011-09-04T14:25:37Z">
  <nd ref="21540734"/>
  <nd ref="645068145"/>
  <nd ref="645068141"/>
  <tag k="highway" v="footway"/>
  <tag k="source" v="uhul:ortofoto"/>
 </way>
 <way id="50659346" user="honny" uid="54223" visible="true" version="1" changeset="3910541" timestamp="2010-02-18T17:18:46Z">
  <nd ref="645085217"/>
  <nd ref="645085219"/>
  <nd ref="645085222"/>
  <nd ref="645085201"/>
  <nd ref="645085198"/>
  <nd ref="645085195"/>
  <nd ref="645085188"/>
  <nd ref="645085193"/>
  <nd ref="645085190"/>
  <nd ref="645085177"/>
  <nd ref="645085174"/>
  <nd ref="645085180"/>
  <nd ref="645085182"/>
  <nd ref="645085217"/>
  <tag k="building" v="yes"/>
  <tag k="source" v="cuzk:km"/>
 </way>
 <way id="50659334" user="honny" uid="54223" visible="true" version="1" changeset="3910541" timestamp="2010-02-18T17:18:44Z">
  <nd ref="645084966"/>
  <nd ref="645084968"/>
  <nd ref="645085063"/>
  <nd ref="645085066"/>
  <nd ref="645084970"/>
  <nd ref="645084939"/>
  <nd ref="645084940"/>
  <nd ref="645085050"/>
  <nd ref="645084946"/>
  <nd ref="645084943"/>
  <nd ref="645084936"/>
  <nd ref="645084933"/>
  <nd ref="645084949"/>
  <nd ref="645084972"/>
  <nd ref="645084977"/>
  <nd ref="645084974"/>
  <nd ref="645084965"/>
  <nd ref="645084966"/>
  <tag k="building" v="yes"/>
  <tag k="source" v="cuzk:km"/>
 </way>
 <way id="50659331" user="honny" uid="54223" visible="true" version="1" changeset="3910541" timestamp="2010-02-18T17:18:44Z">
  <nd ref="645085392"/>
  <nd ref="645085158"/>
  <nd ref="645085151"/>
  <nd ref="645085148"/>
  <nd ref="645085154"/>
  <nd ref="645085157"/>
  <nd ref="645085145"/>
  <nd ref="645085143"/>
  <nd ref="645085120"/>
  <nd ref="645085117"/>
  <nd ref="645085125"/>
  <nd ref="645085123"/>
  <nd ref="645085128"/>
  <nd ref="645085390"/>
  <nd ref="645085387"/>
  <nd ref="645085384"/>
  <nd ref="645085392"/>
  <tag k="building" v="yes"/>
  <tag k="source" v="cuzk:km"/>
 </way>
 <way id="50659326" user="honny" uid="54223" visible="true" version="1" changeset="3910541" timestamp="2010-02-18T17:18:43Z">
  <nd ref="645085598"/>
  <nd ref="645085600"/>
  <nd ref="645085594"/>
  <nd ref="645085592"/>
  <nd ref="645085596"/>
  <nd ref="645085590"/>
  <nd ref="645085141"/>
  <nd ref="645085130"/>
  <nd ref="645085133"/>
  <nd ref="645085171"/>
  <nd ref="645085157"/>
  <nd ref="645085154"/>
  <nd ref="645085598"/>
  <tag k="building" v="yes"/>
  <tag k="source" v="cuzk:km"/>
 </way>
 <way id="50659335" user="honny" uid="54223" visible="true" version="1" changeset="3910541" timestamp="2010-02-18T17:18:44Z">
  <nd ref="645085074"/>
  <nd ref="645085084"/>
  <nd ref="645085082"/>
  <nd ref="645085079"/>
  <nd ref="645085076"/>
  <nd ref="645085090"/>
  <nd ref="645085087"/>
  <nd ref="645085060"/>
  <nd ref="645085058"/>
  <nd ref="645085062"/>
  <nd ref="645084987"/>
  <nd ref="645084984"/>
  <nd ref="645084991"/>
  <nd ref="645084999"/>
  <nd ref="645084997"/>
  <nd ref="645084996"/>
  <nd ref="645084994"/>
  <nd ref="645085003"/>
  <nd ref="645085004"/>
  <nd ref="645085074"/>
  <tag k="building" v="yes"/>
  <tag k="source" v="cuzk:km"/>
 </way>
 <way id="50659352" user="honny" uid="54223" visible="true" version="1" changeset="3910541" timestamp="2010-02-18T17:18:46Z">
  <nd ref="645085614"/>
  <nd ref="645085616"/>
  <nd ref="645085602"/>
  <nd ref="645085604"/>
  <nd ref="645085605"/>
  <nd ref="645085614"/>
  <tag k="building" v="yes"/>
  <tag k="source" v="cuzk:km"/>
 </way>
 <way id="128887085" user="hanoj" uid="4788" visible="true" version="1" changeset="9209418" timestamp="2011-09-04T14:25:26Z">
  <nd ref="645068141"/>
  <nd ref="645085056"/>
  <tag k="highway" v="footway"/>
  <tag k="source" v="uhul:ortofoto"/>
 </way>
 <way id="50659325" user="honny" uid="54223" visible="true" version="1" changeset="3910541" timestamp="2010-02-18T17:18:43Z">
  <nd ref="645085549"/>
  <nd ref="645085546"/>
  <nd ref="645085097"/>
  <nd ref="645085094"/>
  <nd ref="645085549"/>
  <tag k="building" v="yes"/>
  <tag k="source" v="cuzk:km"/>
 </way>
 <way id="50659329" user="honny" uid="54223" visible="true" version="1" changeset="3910541" timestamp="2010-02-18T17:18:44Z">
  <nd ref="645085204"/>
  <nd ref="645085206"/>
  <nd ref="645085048"/>
  <nd ref="645085042"/>
  <nd ref="645085039"/>
  <nd ref="645085045"/>
  <nd ref="645085004"/>
  <nd ref="645085003"/>
  <nd ref="645085001"/>
  <nd ref="645085033"/>
  <nd ref="645085013"/>
  <nd ref="645085015"/>
  <nd ref="645085009"/>
  <nd ref="645085011"/>
  <nd ref="645085006"/>
  <nd ref="645085008"/>
  <nd ref="645085036"/>
  <nd ref="645085188"/>
  <nd ref="645085195"/>
  <nd ref="645085185"/>
  <nd ref="645085204"/>
  <tag k="building" v="yes"/>
  <tag k="source" v="cuzk:km"/>
 </way>
 <way id="50659332" user="honny" uid="54223" visible="true" version="1" changeset="3910541" timestamp="2010-02-18T17:18:44Z">
  <nd ref="645084933"/>
  <nd ref="645084936"/>
  <nd ref="645084923"/>
  <nd ref="645084906"/>
  <nd ref="645084928"/>
  <nd ref="645084930"/>
  <nd ref="645084909"/>
  <nd ref="645084912"/>
  <nd ref="645084915"/>
  <nd ref="645084918"/>
  <nd ref="645084920"/>
  <nd ref="645084925"/>
  <nd ref="645084933"/>
  <tag k="building" v="yes"/>
  <tag k="source" v="cuzk:km"/>
 </way>
 <way id="50659345" user="honny" uid="54223" visible="true" version="1" changeset="3910541" timestamp="2010-02-18T17:18:46Z">
  <nd ref="645085241"/>
  <nd ref="645085239"/>
  <nd ref="645085377"/>
  <nd ref="645085374"/>
  <nd ref="645085371"/>
  <nd ref="645085365"/>
  <nd ref="645085363"/>
  <nd ref="645085361"/>
  <nd ref="645085359"/>
  <nd ref="645085357"/>
  <nd ref="645085219"/>
  <nd ref="645085217"/>
  <nd ref="645085214"/>
  <nd ref="645085211"/>
  <nd ref="645085208"/>
  <nd ref="645085237"/>
  <nd ref="645085235"/>
  <nd ref="645085234"/>
  <nd ref="645085230"/>
  <nd ref="645085241"/>
  <tag k="building" v="yes"/>
  <tag k="source" v="cuzk:km"/>
 </way>
 <way id="50658469" user="honny" uid="54223" visible="true" version="1" changeset="3910541" timestamp="2010-02-18T17:11:14Z">
  <nd ref="645068141"/>
  <nd ref="645068148"/>
  <nd ref="645068151"/>
  <nd ref="645068154"/>
  <nd ref="645068155"/>
  <nd ref="645068163"/>
  <tag k="highway" v="footway"/>
  <tag k="source" v="uhul:ortofoto"/>
 </way>
 <way id="28210601" user="kekulik" uid="327066" visible="true" version="2" changeset="7537134" timestamp="2011-03-12T19:21:07Z">
  <nd ref="21540733"/>
  <nd ref="309851809"/>
  <nd ref="309851810"/>
  <nd ref="309851811"/>
  <nd ref="309851812"/>
  <nd ref="309851813"/>
  <nd ref="309851901"/>
  <nd ref="309851814"/>
  <nd ref="309851815"/>
  <nd ref="309851816"/>
  <nd ref="309851817"/>
  <nd ref="1198965650"/>
  <nd ref="1198965672"/>
  <tag k="highway" v="residential"/>
  <tag k="name" v="Bohuňova"/>
  <tag k="source" v="uhul:ortofoto"/>
  <tag k="source:name" v="uir_adr"/>
 </way>
 <way id="50659336" user="honny" uid="54223" visible="true" version="1" changeset="3910541" timestamp="2010-02-18T17:18:44Z">
  <nd ref="645085052"/>
  <nd ref="645085054"/>
  <nd ref="645084887"/>
  <nd ref="645084888"/>
  <nd ref="645085052"/>
  <tag k="amenity" v="parking"/>
  <tag k="building" v="yes"/>
  <tag k="source" v="cuzk:km"/>
 </way>
 <way id="207147154" user="Bohdan Kotouček" uid="343107" visible="true" version="1" changeset="15157957" timestamp="2013-02-25T07:50:35Z">
  <nd ref="309851921"/>
  <nd ref="530711378"/>
  <nd ref="1099549260"/>
  <nd ref="21540731"/>
  <nd ref="485923035"/>
  <nd ref="21540733"/>
  <nd ref="485923033"/>
  <nd ref="21540734"/>
  <nd ref="485923032"/>
  <nd ref="281257429"/>
  <tag k="highway" v="tertiary"/>
  <tag k="maxspeed" v="50"/>
  <tag k="name" v="Lány"/>
  <tag k="source" v="gps;uhul:ortofoto"/>
  <tag k="veh_ban_until" v="30.6.2013"/>
 </way>
 <way id="50659351" user="honny" uid="54223" visible="true" version="1" changeset="3910541" timestamp="2010-02-18T17:18:46Z">
  <nd ref="645085542"/>
  <nd ref="645085544"/>
  <nd ref="645085586"/>
  <nd ref="645085588"/>
  <nd ref="645085573"/>
  <nd ref="645085584"/>
  <nd ref="645085568"/>
  <nd ref="645085570"/>
  <nd ref="645085565"/>
  <nd ref="645085521"/>
  <nd ref="645085527"/>
  <nd ref="645085529"/>
  <nd ref="645085524"/>
  <nd ref="645085541"/>
  <nd ref="645085539"/>
  <nd ref="645085537"/>
  <nd ref="645085535"/>
  <nd ref="645085532"/>
  <nd ref="645085542"/>
  <tag k="building" v="yes"/>
  <tag k="source" v="cuzk:km"/>
 </way>
 <relation id="1368478" user="Petr Dlouhý" uid="17615" visible="true" version="8" changeset="14889244" timestamp="2013-02-02T21:42:43Z">
  <member type="way" ref="35856247" role=""/>
  <member type="way" ref="125067357" role=""/>
  <member type="way" ref="163689907" role=""/>
  <member type="way" ref="40280243" role=""/>
  <member type="way" ref="40280242" role=""/>
  <member type="way" ref="125067365" role=""/>
  <member type="way" ref="50659330" role=""/>
  <member type="way" ref="128887085" role=""/>
  <member type="way" ref="50658469" role=""/>
  <member type="way" ref="50658475" role=""/>
  <member type="way" ref="28210600" role=""/>
  <member type="way" ref="128979273" role="forward"/>
  <member type="way" ref="28210603" role=""/>
  <member type="way" ref="46339725" role=""/>
  <member type="way" ref="128887089" role=""/>
  <tag k="complete" v="yes"/>
  <tag k="lcn:description" v="neoficiální doporučená trasa"/>
  <tag k="network" v="rcn"/>
  <tag k="operator" v="cz:BrnoNaKole"/>
  <tag k="ref" v="X141"/>
  <tag k="route" v="bicycle"/>
  <tag k="state" v="recommended"/>
  <tag k="type" v="route"/>
  <tag k="website" v="http://www.brnonakole.cz/"/>
 </relation>
 <relation id="380686" user="Bohdan Kotouček" uid="343107" visible="true" version="25" changeset="15157957" timestamp="2013-02-25T07:50:36Z">
  <member type="way" ref="28020578" role=""/>
  <member type="way" ref="26338662" role=""/>
  <member type="way" ref="133626148" role=""/>
  <member type="way" ref="133626147" role=""/>
  <member type="way" ref="4767286" role=""/>
  <member type="way" ref="23615062" role=""/>
  <member type="way" ref="42425308" role=""/>
  <member type="way" ref="40277139" role=""/>
  <member type="way" ref="52518806" role=""/>
  <member type="way" ref="56129770" role="forward"/>
  <member type="way" ref="52518805" role=""/>
  <member type="way" ref="4117777" role=""/>
  <member type="way" ref="8332911" role=""/>
  <member type="way" ref="52518803" role=""/>
  <member type="way" ref="207147154" role=""/>
  <member type="way" ref="16136482" role=""/>
  <member type="way" ref="8319794" role=""/>
  <member type="way" ref="8315203" role=""/>
  <member type="way" ref="48024745" role=""/>
  <member type="way" ref="40549311" role=""/>
  <member type="way" ref="26228266" role=""/>
  <member type="way" ref="40491348" role=""/>
  <member type="way" ref="26228271" role=""/>
  <member type="way" ref="48028132" role=""/>
  <member type="way" ref="52518804" role=""/>
  <member type="way" ref="186633610" role=""/>
  <member type="way" ref="186633608" role=""/>
  <member type="way" ref="39812453" role=""/>
  <member type="way" ref="39812454" role=""/>
  <member type="way" ref="4052223" role=""/>
  <member type="way" ref="25768991" role=""/>
  <member type="way" ref="6897192" role=""/>
  <member type="way" ref="40491353" role=""/>
  <member type="way" ref="39450437" role=""/>
  <member type="way" ref="31953537" role=""/>
  <member type="way" ref="8584948" role=""/>
  <member type="way" ref="8584947" role=""/>
  <member type="way" ref="4059755" role=""/>
  <member type="way" ref="30676828" role=""/>
  <member type="way" ref="8585080" role=""/>
  <member type="way" ref="30676827" role=""/>
  <member type="way" ref="26984203" role=""/>
  <member type="way" ref="46343093" role=""/>
  <member type="way" ref="40491354" role=""/>
  <member type="way" ref="4073051" role=""/>
  <member type="way" ref="46344117" role=""/>
  <member type="way" ref="4071893" role=""/>
  <member type="way" ref="33277871" role=""/>
  <member type="way" ref="85210394" role=""/>
  <member type="way" ref="48024751" role=""/>
  <member type="way" ref="48024750" role=""/>
  <member type="way" ref="85210318" role=""/>
  <member type="way" ref="85210316" role=""/>
  <member type="way" ref="4725839" role=""/>
  <member type="way" ref="4725838" role=""/>
  <member type="way" ref="52609484" role=""/>
  <member type="way" ref="39362442" role=""/>
  <member type="way" ref="35559188" role=""/>
  <member type="way" ref="35559189" role=""/>
  <member type="way" ref="36951918" role=""/>
  <member type="way" ref="36951919" role=""/>
  <member type="way" ref="36951917" role=""/>
  <member type="way" ref="32255369" role=""/>
  <member type="way" ref="36951920" role=""/>
  <member type="way" ref="32255366" role=""/>
  <member type="way" ref="32255370" role=""/>
  <member type="way" ref="32255371" role=""/>
  <member type="way" ref="60750012" role=""/>
  <member type="way" ref="35559187" role=""/>
  <member type="way" ref="60750013" role=""/>
  <member type="way" ref="160558760" role=""/>
  <member type="way" ref="26627026" role=""/>
  <member type="way" ref="38058785" role=""/>
  <member type="way" ref="4059640" role=""/>
  <member type="way" ref="8315214" role=""/>
  <member type="way" ref="4066853" role=""/>
  <member type="way" ref="49331648" role=""/>
  <member type="way" ref="31958848" role=""/>
  <member type="way" ref="31958845" role=""/>
  <member type="way" ref="37089633" role=""/>
  <member type="way" ref="50563191" role=""/>
  <member type="way" ref="48028986" role=""/>
  <member type="way" ref="8330638" role=""/>
  <member type="way" ref="37115928" role=""/>
  <member type="node" ref="653700089" role="backward_stop"/>
  <member type="way" ref="56129909" role="forward"/>
  <member type="node" ref="595586222" role=""/>
  <member type="node" ref="595586234" role=""/>
  <member type="node" ref="653700159" role=""/>
  <member type="node" ref="653700164" role=""/>
  <member type="node" ref="653700139" role=""/>
  <member type="node" ref="592156221" role=""/>
  <member type="node" ref="653700167" role=""/>
  <member type="node" ref="653700194" role=""/>
  <member type="node" ref="653700189" role=""/>
  <member type="node" ref="653700465" role=""/>
  <member type="node" ref="653700459" role=""/>
  <member type="node" ref="653700211" role=""/>
  <member type="node" ref="653700132" role=""/>
  <member type="node" ref="653700113" role=""/>
  <member type="node" ref="653758880" role=""/>
  <member type="node" ref="653758876" role=""/>
  <tag k="name" v="50"/>
  <tag k="network" v="IDS JMK"/>
  <tag k="operator" v="cz:DPMB"/>
  <tag k="ref" v="50"/>
  <tag k="route" v="bus"/>
  <tag k="type" v="route"/>
 </relation>
</osm>
