<?xml version="1.0" encoding="UTF-8"?>
<osm version="0.6" generator="CGImap 0.0.2">
 <bounds minlat="49.4576800" minlon="17.9868500" maxlat="49.4597500" maxlon="17.9904800"/>
 <node id="719163875" lat="49.4581550" lon="17.9874730" user="Petr1868" uid="72020" visible="true" version="1" changeset="4597683" timestamp="2010-05-03T18:42:33Z"/>
 <node id="719164028" lat="49.4595120" lon="17.9883520" user="Petr1868" uid="72020" visible="true" version="1" changeset="4597683" timestamp="2010-05-03T18:42:37Z"/>
 <node id="719172140" lat="49.4592890" lon="17.9887060" user="Petr1868" uid="72020" visible="true" version="1" changeset="4597683" timestamp="2010-05-03T18:45:31Z"/>
 <node id="719168517" lat="49.4581570" lon="17.9874920" user="Petr1868" uid="72020" visible="true" version="1" changeset="4597683" timestamp="2010-05-03T18:44:13Z"/>
 <node id="719161011" lat="49.4583820" lon="17.9899380" user="Petr1868" uid="72020" visible="true" version="1" changeset="4597683" timestamp="2010-05-03T18:41:34Z"/>
 <node id="719169794" lat="49.4578210" lon="17.9893600" user="Petr1868" uid="72020" visible="true" version="1" changeset="4597683" timestamp="2010-05-03T18:44:41Z"/>
 <node id="719160537" lat="49.4590390" lon="17.9895500" user="Petr1868" uid="72020" visible="true" version="1" changeset="4597683" timestamp="2010-05-03T18:41:26Z"/>
 <node id="719165497" lat="49.4585460" lon="17.9894730" user="Petr1868" uid="72020" visible="true" version="1" changeset="4597683" timestamp="2010-05-03T18:43:07Z"/>
 <node id="1330367653" lat="49.4566605" lon="17.9910635" user="Tomas Pajonk" uid="305367" visible="true" version="1" changeset="8479851" timestamp="2011-06-19T04:10:37Z"/>
 <node id="719169697" lat="49.4595750" lon="17.9875050" user="Petr1868" uid="72020" visible="true" version="1" changeset="4597683" timestamp="2010-05-03T18:44:39Z"/>
 <node id="1498537129" lat="49.4595325" lon="17.9882338" user="Tomas Pajonk" uid="305367" visible="true" version="1" changeset="9795740" timestamp="2011-11-11T11:47:15Z">
  <tag k="addr:conscriptionnumber" v="1300"/>
  <tag k="addr:country" v="CZ"/>
  <tag k="addr:housenumber" v="1300"/>
  <tag k="addr:street" v="Štěpánov"/>
  <tag k="is_in" v="Valašské Meziříčí, Zlínský kraj, CZ"/>
  <tag k="source:addr" v="mvcr:adresa"/>
  <tag k="source:loc" v="cuzk:km"/>
 </node>
 <node id="719161996" lat="49.4584370" lon="17.9899120" user="Petr1868" uid="72020" visible="true" version="1" changeset="4597683" timestamp="2010-05-03T18:41:54Z"/>
 <node id="428270758" lat="49.4590128" lon="17.9891831" user="Petr Dlouhý" uid="17615" visible="true" version="1" changeset="1600136" timestamp="2009-06-23T09:31:07Z"/>
 <node id="719164976" lat="49.4576040" lon="17.9886920" user="Petr1868" uid="72020" visible="true" version="1" changeset="4597683" timestamp="2010-05-03T18:42:56Z"/>
 <node id="1330367658" lat="49.4584776" lon="17.9900768" user="Tomas Pajonk" uid="305367" visible="true" version="1" changeset="8479851" timestamp="2011-06-19T04:10:38Z"/>
 <node id="719165691" lat="49.4579390" lon="17.9899580" user="Petr1868" uid="72020" visible="true" version="1" changeset="4597683" timestamp="2010-05-03T18:43:12Z"/>
 <node id="719161883" lat="49.4577950" lon="17.9892450" user="Petr1868" uid="72020" visible="true" version="1" changeset="4597683" timestamp="2010-05-03T18:41:51Z"/>
 <node id="719168397" lat="49.4590370" lon="17.9895370" user="Petr1868" uid="72020" visible="true" version="1" changeset="4597683" timestamp="2010-05-03T18:44:10Z"/>
 <node id="1498536670" lat="49.4579938" lon="17.9887038" user="Tomas Pajonk" uid="305367" visible="true" version="1" changeset="9795740" timestamp="2011-11-11T11:47:01Z">
  <tag k="addr:conscriptionnumber" v="1257"/>
  <tag k="addr:country" v="CZ"/>
  <tag k="addr:housenumber" v="1257"/>
  <tag k="addr:street" v="Štěpánov"/>
  <tag k="is_in" v="Valašské Meziříčí, Zlínský kraj, CZ"/>
  <tag k="source:addr" v="mvcr:adresa"/>
  <tag k="source:loc" v="cuzk:km"/>
 </node>
 <node id="719166134" lat="49.4577510" lon="17.9892700" user="Petr1868" uid="72020" visible="true" version="1" changeset="4597683" timestamp="2010-05-03T18:43:18Z"/>
 <node id="1498535897" lat="49.4595338" lon="17.9878050" user="Tomas Pajonk" uid="305367" visible="true" version="1" changeset="9795740" timestamp="2011-11-11T11:46:46Z">
  <tag k="addr:conscriptionnumber" v="120"/>
  <tag k="addr:country" v="CZ"/>
  <tag k="addr:housenumber" v="120"/>
  <tag k="addr:street" v="Štěpánov"/>
  <tag k="is_in" v="Valašské Meziříčí, Zlínský kraj, CZ"/>
  <tag k="source:addr" v="mvcr:adresa"/>
  <tag k="source:loc" v="cuzk:km"/>
 </node>
 <node id="719162081" lat="49.4577790" lon="17.9875880" user="Petr1868" uid="72020" visible="true" version="1" changeset="4597683" timestamp="2010-05-03T18:41:56Z"/>
 <node id="719165758" lat="49.4577150" lon="17.9902200" user="Petr1868" uid="72020" visible="true" version="1" changeset="4597683" timestamp="2010-05-03T18:43:14Z"/>
 <node id="719161518" lat="49.4582310" lon="17.9875380" user="Petr1868" uid="72020" visible="true" version="1" changeset="4597683" timestamp="2010-05-03T18:41:46Z"/>
 <node id="719162180" lat="49.4579220" lon="17.9886610" user="Petr1868" uid="72020" visible="true" version="1" changeset="4597683" timestamp="2010-05-03T18:41:58Z"/>
 <node id="719166849" lat="49.4578850" lon="17.9875430" user="Petr1868" uid="72020" visible="true" version="1" changeset="4597683" timestamp="2010-05-03T18:43:33Z"/>
 <node id="719160322" lat="49.4577660" lon="17.9888670" user="Petr1868" uid="72020" visible="true" version="1" changeset="4597683" timestamp="2010-05-03T18:41:22Z"/>
 <node id="719171123" lat="49.4576900" lon="17.9901180" user="Petr1868" uid="72020" visible="true" version="1" changeset="4597683" timestamp="2010-05-03T18:45:12Z"/>
 <node id="719162684" lat="49.4596260" lon="17.9873620" user="Petr1868" uid="72020" visible="true" version="1" changeset="4597683" timestamp="2010-05-03T18:42:08Z"/>
 <node id="719169991" lat="49.4581590" lon="17.9873850" user="Petr1868" uid="72020" visible="true" version="1" changeset="4597683" timestamp="2010-05-03T18:44:45Z"/>
 <node id="719165070" lat="49.4592700" lon="17.9887410" user="Petr1868" uid="72020" visible="true" version="1" changeset="4597683" timestamp="2010-05-03T18:42:58Z"/>
 <node id="719171038" lat="49.4579310" lon="17.9899400" user="Petr1868" uid="72020" visible="true" version="1" changeset="4597683" timestamp="2010-05-03T18:45:09Z"/>
 <node id="719165464" lat="49.4594700" lon="17.9882420" user="Petr1868" uid="72020" visible="true" version="1" changeset="4597683" timestamp="2010-05-03T18:43:07Z"/>
 <node id="719160563" lat="49.4582670" lon="17.9883360" user="Petr1868" uid="72020" visible="true" version="1" changeset="4597683" timestamp="2010-05-03T18:41:26Z"/>
 <node id="428270737" lat="49.4632453" lon="17.9841304" user="Petr Dlouhý" uid="17615" visible="true" version="1" changeset="1600136" timestamp="2009-06-23T09:31:07Z"/>
 <node id="719170781" lat="49.4595160" lon="17.9881200" user="Petr1868" uid="72020" visible="true" version="1" changeset="4597683" timestamp="2010-05-03T18:45:02Z"/>
 <node id="1330367652" lat="49.4559290" lon="17.9906085" user="Tomas Pajonk" uid="305367" visible="true" version="1" changeset="8479851" timestamp="2011-06-19T04:10:37Z"/>
 <node id="428270741" lat="49.4623540" lon="17.9860224" user="Petr Dlouhý" uid="17615" visible="true" version="1" changeset="1600136" timestamp="2009-06-23T09:31:07Z"/>
 <node id="428270749" lat="49.4604522" lon="17.9866751" user="Petr Dlouhý" uid="17615" visible="true" version="1" changeset="1600136" timestamp="2009-06-23T09:31:07Z"/>
 <node id="719167360" lat="49.4577960" lon="17.9900380" user="Petr1868" uid="72020" visible="true" version="1" changeset="4597683" timestamp="2010-05-03T18:43:45Z"/>
 <node id="1498536637" lat="49.4583325" lon="17.9868988" user="Tomas Pajonk" uid="305367" visible="true" version="1" changeset="9795740" timestamp="2011-11-11T11:47:00Z">
  <tag k="addr:conscriptionnumber" v="1254"/>
  <tag k="addr:country" v="CZ"/>
  <tag k="addr:housenumber" v="1254"/>
  <tag k="addr:street" v="V Zahrádkách"/>
  <tag k="is_in" v="Valašské Meziříčí, Zlínský kraj, CZ"/>
  <tag k="source:addr" v="mvcr:adresa"/>
  <tag k="source:loc" v="cuzk:km"/>
 </node>
 <node id="719164889" lat="49.4579200" lon="17.9874060" user="Petr1868" uid="72020" visible="true" version="1" changeset="4597683" timestamp="2010-05-03T18:42:54Z"/>
 <node id="428270747" lat="49.4612816" lon="17.9858391" user="Petr Dlouhý" uid="17615" visible="true" version="1" changeset="1600136" timestamp="2009-06-23T09:31:07Z"/>
 <node id="1330367650" lat="49.4564681" lon="17.9912016" user="Tomas Pajonk" uid="305367" visible="true" version="1" changeset="8479851" timestamp="2011-06-19T04:10:37Z"/>
 <node id="719162593" lat="49.4581040" lon="17.9887950" user="Petr1868" uid="72020" visible="true" version="1" changeset="4597683" timestamp="2010-05-03T18:42:06Z"/>
 <node id="719170181" lat="49.4575720" lon="17.9885820" user="Petr1868" uid="72020" visible="true" version="1" changeset="4597683" timestamp="2010-05-03T18:44:49Z"/>
 <node id="428270755" lat="49.4594227" lon="17.9886331" user="Petr Dlouhý" uid="17615" visible="true" version="1" changeset="1600136" timestamp="2009-06-23T09:31:07Z"/>
 <node id="719168725" lat="49.4597800" lon="17.9885260" user="Petr1868" uid="72020" visible="true" version="1" changeset="4597683" timestamp="2010-05-03T18:44:17Z"/>
 <node id="719160804" lat="49.4581370" lon="17.9886810" user="Petr1868" uid="72020" visible="true" version="1" changeset="4597683" timestamp="2010-05-03T18:41:30Z"/>
 <node id="1498546315" lat="49.4579088" lon="17.9874863" user="Tomas Pajonk" uid="305367" visible="true" version="1" changeset="9795740" timestamp="2011-11-11T11:56:22Z">
  <tag k="addr:country" v="CZ"/>
  <tag k="addr:housenumber" v="ev.16"/>
  <tag k="addr:provisionalnumber" v="16"/>
  <tag k="addr:street" v="V Zahrádkách"/>
  <tag k="is_in" v="Valašské Meziříčí, Zlínský kraj, CZ"/>
  <tag k="source:addr" v="mvcr:adresa"/>
  <tag k="source:loc" v="cuzk:km"/>
 </node>
 <node id="719165587" lat="49.4582770" lon="17.9884610" user="Petr1868" uid="72020" visible="true" version="1" changeset="4597683" timestamp="2010-05-03T18:43:10Z"/>
 <node id="719171149" lat="49.4579440" lon="17.9874670" user="Petr1868" uid="72020" visible="true" version="1" changeset="4597683" timestamp="2010-05-03T18:45:13Z"/>
 <node id="428270748" lat="49.4611100" lon="17.9858684" user="Petr Dlouhý" uid="17615" visible="true" version="1" changeset="1600136" timestamp="2009-06-23T09:31:07Z"/>
 <node id="719161104" lat="49.4580940" lon="17.9874720" user="Petr1868" uid="72020" visible="true" version="1" changeset="4597683" timestamp="2010-05-03T18:41:36Z"/>
 <node id="719164164" lat="49.4584510" lon="17.9899730" user="Petr1868" uid="72020" visible="true" version="1" changeset="4597683" timestamp="2010-05-03T18:42:40Z"/>
 <node id="719161205" lat="49.4578470" lon="17.9877950" user="Petr1868" uid="72020" visible="true" version="1" changeset="4597683" timestamp="2010-05-03T18:41:39Z"/>
 <node id="719170304" lat="49.4579950" lon="17.9894410" user="Petr1868" uid="72020" visible="true" version="1" changeset="4597683" timestamp="2010-05-03T18:44:51Z"/>
 <node id="719166178" lat="49.4583460" lon="17.9899520" user="Petr1868" uid="72020" visible="true" version="1" changeset="4597683" timestamp="2010-05-03T18:43:19Z"/>
 <node id="719171353" lat="49.4589860" lon="17.9893610" user="Petr1868" uid="72020" visible="true" version="1" changeset="4597683" timestamp="2010-05-03T18:45:19Z"/>
 <node id="1330367654" lat="49.4568658" lon="17.9909056" user="Tomas Pajonk" uid="305367" visible="true" version="1" changeset="8479851" timestamp="2011-06-19T04:10:38Z"/>
 <node id="719167048" lat="49.4592060" lon="17.9887030" user="Petr1868" uid="72020" visible="true" version="1" changeset="4597683" timestamp="2010-05-03T18:43:38Z"/>
 <node id="1498543922" lat="49.4579751" lon="17.9900088" user="Tomas Pajonk" uid="305367" visible="true" version="1" changeset="9795740" timestamp="2011-11-11T11:53:41Z">
  <tag k="addr:conscriptionnumber" v="597"/>
  <tag k="addr:country" v="CZ"/>
  <tag k="addr:housenumber" v="597"/>
  <tag k="addr:street" v="Ve Stráni"/>
  <tag k="is_in" v="Valašské Meziříčí, Zlínský kraj, CZ"/>
  <tag k="source:addr" v="mvcr:adresa"/>
  <tag k="source:loc" v="cuzk:km"/>
 </node>
 <node id="719160434" lat="49.4594560" lon="17.9882260" user="Petr1868" uid="72020" visible="true" version="1" changeset="4597683" timestamp="2010-05-03T18:41:24Z"/>
 <node id="719166128" lat="49.4590270" lon="17.9894470" user="Petr1868" uid="72020" visible="true" version="1" changeset="4597683" timestamp="2010-05-03T18:43:18Z"/>
 <node id="719168824" lat="49.4591160" lon="17.9886570" user="Petr1868" uid="72020" visible="true" version="1" changeset="4597683" timestamp="2010-05-03T18:44:19Z"/>
 <node id="719162178" lat="49.4597510" lon="17.9887080" user="Petr1868" uid="72020" visible="true" version="1" changeset="4597683" timestamp="2010-05-03T18:41:58Z"/>
 <node id="719169345" lat="49.4590000" lon="17.9895200" user="Petr1868" uid="72020" visible="true" version="1" changeset="4597683" timestamp="2010-05-03T18:44:31Z"/>
 <node id="719170672" lat="49.4576850" lon="17.9888610" user="Petr1868" uid="72020" visible="true" version="1" changeset="4597683" timestamp="2010-05-03T18:44:59Z"/>
 <node id="428270770" lat="49.4561194" lon="17.9905471" user="Petr Dlouhý" uid="17615" visible="true" version="1" changeset="1600136" timestamp="2009-06-23T09:31:08Z"/>
 <node id="719160783" lat="49.4577370" lon="17.9902030" user="Petr1868" uid="72020" visible="true" version="1" changeset="4597683" timestamp="2010-05-03T18:41:30Z"/>
 <node id="719164480" lat="49.4596370" lon="17.9875610" user="Petr1868" uid="72020" visible="true" version="1" changeset="4597683" timestamp="2010-05-03T18:42:46Z"/>
 <node id="428270766" lat="49.4573349" lon="17.9894324" user="Petr Dlouhý" uid="17615" visible="true" version="1" changeset="1600136" timestamp="2009-06-23T09:31:08Z"/>
 <node id="719160687" lat="49.4578910" lon="17.9899920" user="Petr1868" uid="72020" visible="true" version="1" changeset="4597683" timestamp="2010-05-03T18:41:28Z"/>
 <node id="719160992" lat="49.4577590" lon="17.9892930" user="Petr1868" uid="72020" visible="true" version="1" changeset="4597683" timestamp="2010-05-03T18:41:34Z"/>
 <node id="719162786" lat="49.4592100" lon="17.9885510" user="Petr1868" uid="72020" visible="true" version="1" changeset="4597683" timestamp="2010-05-03T18:42:10Z"/>
 <node id="428270745" lat="49.4615008" lon="17.9860224" user="Petr Dlouhý" uid="17615" visible="true" version="1" changeset="1600136" timestamp="2009-06-23T09:31:07Z"/>
 <node id="719165990" lat="49.4587160" lon="17.9888670" user="Petr1868" uid="72020" visible="true" version="1" changeset="4597683" timestamp="2010-05-03T18:43:17Z"/>
 <node id="428270945" lat="49.4648121" lon="17.9809190" user="Petr Dlouhý" uid="17615" visible="true" version="1" changeset="1600136" timestamp="2009-06-23T09:31:11Z"/>
 <node id="719165088" lat="49.4586990" lon="17.9889970" user="Petr1868" uid="72020" visible="true" version="1" changeset="4597683" timestamp="2010-05-03T18:42:58Z"/>
 <node id="719170934" lat="49.4583520" lon="17.9884450" user="Petr1868" uid="72020" visible="true" version="1" changeset="4597683" timestamp="2010-05-03T18:45:05Z"/>
 <node id="1498538139" lat="49.4582263" lon="17.9878088" user="Tomas Pajonk" uid="305367" visible="true" version="1" changeset="9795740" timestamp="2011-11-11T11:47:48Z">
  <tag k="addr:conscriptionnumber" v="1435"/>
  <tag k="addr:country" v="CZ"/>
  <tag k="addr:housenumber" v="1435"/>
  <tag k="addr:street" v="V Zahrádkách"/>
  <tag k="is_in" v="Valašské Meziříčí, Zlínský kraj, CZ"/>
  <tag k="source:addr" v="mvcr:adresa"/>
  <tag k="source:loc" v="cuzk:km"/>
 </node>
 <node id="719162503" lat="49.4582050" lon="17.9878210" user="Petr1868" uid="72020" visible="true" version="1" changeset="4597683" timestamp="2010-05-03T18:42:04Z"/>
 <node id="719167768" lat="49.4580810" lon="17.9887250" user="Petr1868" uid="72020" visible="true" version="1" changeset="4597683" timestamp="2010-05-03T18:43:55Z"/>
 <node id="719167291" lat="49.4578300" lon="17.9901760" user="Petr1868" uid="72020" visible="true" version="1" changeset="4597683" timestamp="2010-05-03T18:43:44Z"/>
 <node id="719169263" lat="49.4588160" lon="17.9889020" user="Petr1868" uid="72020" visible="true" version="1" changeset="4597683" timestamp="2010-05-03T18:44:29Z"/>
 <node id="719171034" lat="49.4581810" lon="17.9877770" user="Petr1868" uid="72020" visible="true" version="1" changeset="4597683" timestamp="2010-05-03T18:45:09Z"/>
 <node id="719164029" lat="49.4576700" lon="17.9885950" user="Petr1868" uid="72020" visible="true" version="1" changeset="4597683" timestamp="2010-05-03T18:42:37Z"/>
 <node id="719163203" lat="49.4580140" lon="17.9895160" user="Petr1868" uid="72020" visible="true" version="1" changeset="4597683" timestamp="2010-05-03T18:42:19Z"/>
 <node id="719169133" lat="49.4579670" lon="17.9887970" user="Petr1868" uid="72020" visible="true" version="1" changeset="4597683" timestamp="2010-05-03T18:44:26Z"/>
 <node id="719163517" lat="49.4597270" lon="17.9885450" user="Petr1868" uid="72020" visible="true" version="1" changeset="4597683" timestamp="2010-05-03T18:42:26Z"/>
 <node id="719171250" lat="49.4595790" lon="17.9881760" user="Petr1868" uid="72020" visible="true" version="1" changeset="4597683" timestamp="2010-05-03T18:45:16Z"/>
 <node id="719161411" lat="49.4586990" lon="17.9893470" user="Petr1868" uid="72020" visible="true" version="1" changeset="4597683" timestamp="2010-05-03T18:41:44Z"/>
 <node id="719169485" lat="49.4581920" lon="17.9878210" user="Petr1868" uid="72020" visible="true" version="1" changeset="4597683" timestamp="2010-05-03T18:44:34Z"/>
 <node id="719170670" lat="49.4597250" lon="17.9885570" user="Petr1868" uid="72020" visible="true" version="1" changeset="4597683" timestamp="2010-05-03T18:44:59Z"/>
 <node id="719165687" lat="49.4581850" lon="17.9878050" user="Petr1868" uid="72020" visible="true" version="1" changeset="4597683" timestamp="2010-05-03T18:43:12Z"/>
 <node id="719172481" lat="49.4595000" lon="17.9877110" user="Petr1868" uid="72020" visible="true" version="1" changeset="4597683" timestamp="2010-05-03T18:45:40Z"/>
 <node id="719172485" lat="49.4576820" lon="17.9886430" user="Petr1868" uid="72020" visible="true" version="1" changeset="4597683" timestamp="2010-05-03T18:45:41Z"/>
 <node id="719163834" lat="49.4582560" lon="17.9877530" user="Petr1868" uid="72020" visible="true" version="1" changeset="4597683" timestamp="2010-05-03T18:42:33Z"/>
 <node id="719171954" lat="49.4578140" lon="17.9889320" user="Petr1868" uid="72020" visible="true" version="1" changeset="4597683" timestamp="2010-05-03T18:45:28Z"/>
 <node id="428270753" lat="49.4596801" lon="17.9882077" user="Petr Dlouhý" uid="17615" visible="true" version="1" changeset="1600136" timestamp="2009-06-23T09:31:07Z"/>
 <node id="1498543765" lat="49.4587663" lon="17.9889325" user="Tomas Pajonk" uid="305367" visible="true" version="1" changeset="9795740" timestamp="2011-11-11T11:53:36Z">
  <tag k="addr:conscriptionnumber" v="59"/>
  <tag k="addr:country" v="CZ"/>
  <tag k="addr:housenumber" v="59"/>
  <tag k="addr:street" v="Štěpánov"/>
  <tag k="is_in" v="Valašské Meziříčí, Zlínský kraj, CZ"/>
  <tag k="source:addr" v="mvcr:adresa"/>
  <tag k="source:loc" v="cuzk:km"/>
 </node>
 <node id="1498535707" lat="49.4596513" lon="17.9874613" user="Tomas Pajonk" uid="305367" visible="true" version="1" changeset="9795740" timestamp="2011-11-11T11:46:42Z">
  <tag k="addr:conscriptionnumber" v="119"/>
  <tag k="addr:country" v="CZ"/>
  <tag k="addr:housenumber" v="119"/>
  <tag k="addr:street" v="Štěpánov"/>
  <tag k="is_in" v="Valašské Meziříčí, Zlínský kraj, CZ"/>
  <tag k="source:addr" v="mvcr:adresa"/>
  <tag k="source:loc" v="cuzk:km"/>
 </node>
 <node id="1498537030" lat="49.4596075" lon="17.9870550" user="Tomas Pajonk" uid="305367" visible="true" version="1" changeset="9795740" timestamp="2011-11-11T11:47:12Z">
  <tag k="addr:conscriptionnumber" v="1294"/>
  <tag k="addr:country" v="CZ"/>
  <tag k="addr:housenumber" v="1294"/>
  <tag k="addr:street" v="Štěpánov"/>
  <tag k="is_in" v="Valašské Meziříčí, Zlínský kraj, CZ"/>
  <tag k="source:addr" v="mvcr:adresa"/>
  <tag k="source:loc" v="cuzk:km"/>
 </node>
 <node id="719167591" lat="49.4583410" lon="17.9883200" user="Petr1868" uid="72020" visible="true" version="1" changeset="4597683" timestamp="2010-05-03T18:43:51Z"/>
 <node id="428270751" lat="49.4600137" lon="17.9875917" user="Petr Dlouhý" uid="17615" visible="true" version="1" changeset="1600136" timestamp="2009-06-23T09:31:07Z"/>
 <node id="719169127" lat="49.4598000" lon="17.9886920" user="Petr1868" uid="72020" visible="true" version="1" changeset="4597683" timestamp="2010-05-03T18:44:25Z"/>
 <node id="719169790" lat="49.4592590" lon="17.9886260" user="Petr1868" uid="72020" visible="true" version="1" changeset="4597683" timestamp="2010-05-03T18:44:41Z"/>
 <node id="1498541520" lat="49.4590325" lon="17.9894913" user="Tomas Pajonk" uid="305367" visible="true" version="1" changeset="9795740" timestamp="2011-11-11T11:51:40Z">
  <tag k="addr:conscriptionnumber" v="417"/>
  <tag k="addr:country" v="CZ"/>
  <tag k="addr:housenumber" v="417"/>
  <tag k="addr:street" v="Ve Stráni"/>
  <tag k="is_in" v="Valašské Meziříčí, Zlínský kraj, CZ"/>
  <tag k="source:addr" v="mvcr:adresa"/>
  <tag k="source:loc" v="cuzk:km"/>
 </node>
 <node id="1498534054" lat="49.4577963" lon="17.9893188" user="Tomas Pajonk" uid="305367" visible="true" version="1" changeset="9795740" timestamp="2011-11-11T11:46:08Z">
  <tag k="addr:conscriptionnumber" v="1066"/>
  <tag k="addr:country" v="CZ"/>
  <tag k="addr:housenumber" v="1066"/>
  <tag k="addr:street" v="Štěpánov"/>
  <tag k="is_in" v="Valašské Meziříčí, Zlínský kraj, CZ"/>
  <tag k="source:addr" v="mvcr:adresa"/>
  <tag k="source:loc" v="cuzk:km"/>
 </node>
 <node id="719169115" lat="49.4577050" lon="17.9900930" user="Petr1868" uid="72020" visible="true" version="1" changeset="4597683" timestamp="2010-05-03T18:44:25Z"/>
 <node id="719161277" lat="49.4597920" lon="17.9886350" user="Petr1868" uid="72020" visible="true" version="1" changeset="4597683" timestamp="2010-05-03T18:41:41Z"/>
 <node id="719167194" lat="49.4584240" lon="17.9899200" user="Petr1868" uid="72020" visible="true" version="1" changeset="4597683" timestamp="2010-05-03T18:43:41Z"/>
 <node id="719160321" lat="49.4597170" lon="17.9887100" user="Petr1868" uid="72020" visible="true" version="1" changeset="4597683" timestamp="2010-05-03T18:41:22Z"/>
 <node id="719164131" lat="49.4589450" lon="17.9894120" user="Petr1868" uid="72020" visible="true" version="1" changeset="4597683" timestamp="2010-05-03T18:42:40Z"/>
 <node id="428270762" lat="49.4580118" lon="17.9889557" user="Petr Dlouhý" uid="17615" visible="true" version="1" changeset="1600136" timestamp="2009-06-23T09:31:07Z"/>
 <node id="719166427" lat="49.4577390" lon="17.9876760" user="Petr1868" uid="72020" visible="true" version="1" changeset="4597683" timestamp="2010-05-03T18:43:23Z"/>
 <node id="719167280" lat="49.4578890" lon="17.9877110" user="Petr1868" uid="72020" visible="true" version="1" changeset="4597683" timestamp="2010-05-03T18:43:43Z"/>
 <node id="719172590" lat="49.4592470" lon="17.9887680" user="Petr1868" uid="72020" visible="true" version="1" changeset="4597683" timestamp="2010-05-03T18:45:43Z"/>
 <node id="719165072" lat="49.4581100" lon="17.9893830" user="Petr1868" uid="72020" visible="true" version="1" changeset="4597683" timestamp="2010-05-03T18:42:58Z"/>
 <node id="719167688" lat="49.4579260" lon="17.9901130" user="Petr1868" uid="72020" visible="true" version="1" changeset="4597683" timestamp="2010-05-03T18:43:53Z"/>
 <node id="428270735" lat="49.4655092" lon="17.9794958" user="Petr Dlouhý" uid="17615" visible="true" version="1" changeset="1600136" timestamp="2009-06-23T09:31:07Z"/>
 <node id="719168601" lat="49.4581860" lon="17.9878180" user="Petr1868" uid="72020" visible="true" version="1" changeset="4597683" timestamp="2010-05-03T18:44:15Z"/>
 <node id="719168302" lat="49.4598170" lon="17.9886250" user="Petr1868" uid="72020" visible="true" version="1" changeset="4597683" timestamp="2010-05-03T18:44:07Z"/>
 <node id="719167759" lat="49.4577410" lon="17.9902300" user="Petr1868" uid="72020" visible="true" version="1" changeset="4597683" timestamp="2010-05-03T18:43:55Z"/>
 <node id="719166311" lat="49.4581570" lon="17.9874780" user="Petr1868" uid="72020" visible="true" version="1" changeset="4597683" timestamp="2010-05-03T18:43:21Z"/>
 <node id="719161879" lat="49.4591740" lon="17.9887560" user="Petr1868" uid="72020" visible="true" version="1" changeset="4597683" timestamp="2010-05-03T18:41:51Z"/>
 <node id="719172732" lat="49.4582110" lon="17.9876100" user="Petr1868" uid="72020" visible="true" version="1" changeset="4597683" timestamp="2010-05-03T18:45:47Z"/>
 <node id="1498540304" lat="49.4578326" lon="17.9876950" user="Tomas Pajonk" uid="305367" visible="true" version="1" changeset="9795740" timestamp="2011-11-11T11:50:04Z">
  <tag k="addr:conscriptionnumber" v="290"/>
  <tag k="addr:country" v="CZ"/>
  <tag k="addr:housenumber" v="290"/>
  <tag k="addr:street" v="V Zahrádkách"/>
  <tag k="is_in" v="Valašské Meziříčí, Zlínský kraj, CZ"/>
  <tag k="source:addr" v="mvcr:adresa"/>
  <tag k="source:loc" v="cuzk:km"/>
 </node>
 <node id="719167429" lat="49.4595960" lon="17.9871460" user="Petr1868" uid="72020" visible="true" version="1" changeset="4597683" timestamp="2010-05-03T18:43:47Z"/>
 <node id="428270760" lat="49.4587315" lon="17.9891684" user="Petr Dlouhý" uid="17615" visible="true" version="1" changeset="1600136" timestamp="2009-06-23T09:31:07Z"/>
 <node id="719167472" lat="49.4593860" lon="17.9884080" user="Petr1868" uid="72020" visible="true" version="1" changeset="4597683" timestamp="2010-05-03T18:43:48Z"/>
 <node id="719172376" lat="49.4578550" lon="17.9874880" user="Petr1868" uid="72020" visible="true" version="1" changeset="4597683" timestamp="2010-05-03T18:45:38Z"/>
 <node id="719163429" lat="49.4581920" lon="17.9878710" user="Petr1868" uid="72020" visible="true" version="1" changeset="4597683" timestamp="2010-05-03T18:42:24Z"/>
 <node id="719163926" lat="49.4577110" lon="17.9901120" user="Petr1868" uid="72020" visible="true" version="1" changeset="4597683" timestamp="2010-05-03T18:42:35Z"/>
 <node id="719171391" lat="49.4583570" lon="17.9900180" user="Petr1868" uid="72020" visible="true" version="1" changeset="4597683" timestamp="2010-05-03T18:45:20Z"/>
 <node id="719167963" lat="49.4577210" lon="17.9893120" user="Petr1868" uid="72020" visible="true" version="1" changeset="4597683" timestamp="2010-05-03T18:44:00Z"/>
 <node id="719167868" lat="49.4596900" lon="17.9874210" user="Petr1868" uid="72020" visible="true" version="1" changeset="4597683" timestamp="2010-05-03T18:43:58Z"/>
 <node id="719167564" lat="49.4589710" lon="17.9896310" user="Petr1868" uid="72020" visible="true" version="1" changeset="4597683" timestamp="2010-05-03T18:43:51Z"/>
 <node id="719168422" lat="49.4586520" lon="17.9893820" user="Petr1868" uid="72020" visible="true" version="1" changeset="4597683" timestamp="2010-05-03T18:44:10Z"/>
 <node id="719168088" lat="49.4580920" lon="17.9875320" user="Petr1868" uid="72020" visible="true" version="1" changeset="4597683" timestamp="2010-05-03T18:44:03Z"/>
 <node id="719163521" lat="49.4577290" lon="17.9889950" user="Petr1868" uid="72020" visible="true" version="1" changeset="4597683" timestamp="2010-05-03T18:42:26Z"/>
 <node id="719162160" lat="49.4577910" lon="17.9900460" user="Petr1868" uid="72020" visible="true" version="1" changeset="4597683" timestamp="2010-05-03T18:41:57Z"/>
 <node id="719164053" lat="49.4587870" lon="17.9889030" user="Petr1868" uid="72020" visible="true" version="1" changeset="4597683" timestamp="2010-05-03T18:42:38Z"/>
 <node id="1498543878" lat="49.4577851" lon="17.9901275" user="Tomas Pajonk" uid="305367" visible="true" version="1" changeset="9795740" timestamp="2011-11-11T11:53:40Z">
  <tag k="addr:conscriptionnumber" v="595"/>
  <tag k="addr:country" v="CZ"/>
  <tag k="addr:housenumber" v="595"/>
  <tag k="addr:street" v="Ve Stráni"/>
  <tag k="is_in" v="Valašské Meziříčí, Zlínský kraj, CZ"/>
  <tag k="source:addr" v="mvcr:adresa"/>
  <tag k="source:loc" v="cuzk:km"/>
 </node>
 <node id="428270734" lat="49.4658912" lon="17.9794589" user="Petr Dlouhý" uid="17615" visible="true" version="1" changeset="1600136" timestamp="2009-06-23T09:31:06Z"/>
 <node id="719168400" lat="49.4581260" lon="17.9894570" user="Petr1868" uid="72020" visible="true" version="1" changeset="4597683" timestamp="2010-05-03T18:44:10Z"/>
 <node id="428270746" lat="49.4614198" lon="17.9858831" user="Petr Dlouhý" uid="17615" visible="true" version="1" changeset="1600136" timestamp="2009-06-23T09:31:07Z"/>
 <node id="428270739" lat="49.4628878" lon="17.9851351" user="Petr Dlouhý" uid="17615" visible="true" version="1" changeset="1600136" timestamp="2009-06-23T09:31:07Z"/>
 <node id="1498535227" lat="49.4577651" lon="17.9889063" user="Tomas Pajonk" uid="305367" visible="true" version="1" changeset="9795740" timestamp="2011-11-11T11:46:32Z">
  <tag k="addr:conscriptionnumber" v="1147"/>
  <tag k="addr:country" v="CZ"/>
  <tag k="addr:housenumber" v="1147"/>
  <tag k="addr:street" v="Štěpánov"/>
  <tag k="is_in" v="Valašské Meziříčí, Zlínský kraj, CZ"/>
  <tag k="source:addr" v="mvcr:adresa"/>
  <tag k="source:loc" v="cuzk:km"/>
 </node>
 <node id="719166943" lat="49.4594490" lon="17.9878520" user="Petr1868" uid="72020" visible="true" version="1" changeset="4597683" timestamp="2010-05-03T18:43:36Z"/>
 <node id="719164973" lat="49.4595640" lon="17.9877670" user="Petr1868" uid="72020" visible="true" version="1" changeset="4597683" timestamp="2010-05-03T18:42:56Z"/>
 <node id="719160683" lat="49.4581960" lon="17.9878150" user="Petr1868" uid="72020" visible="true" version="1" changeset="4597683" timestamp="2010-05-03T18:41:28Z"/>
 <node id="428270757" lat="49.4592130" lon="17.9890144" user="Petr Dlouhý" uid="17615" visible="true" version="1" changeset="1600136" timestamp="2009-06-23T09:31:07Z"/>
 <node id="719161903" lat="49.4588150" lon="17.9889780" user="Petr1868" uid="72020" visible="true" version="1" changeset="4597683" timestamp="2010-05-03T18:41:52Z"/>
 <node id="428270768" lat="49.4569297" lon="17.9898724" user="Petr Dlouhý" uid="17615" visible="true" version="1" changeset="1600136" timestamp="2009-06-23T09:31:08Z"/>
 <node id="719163099" lat="49.4576740" lon="17.9885180" user="Petr1868" uid="72020" visible="true" version="1" changeset="4597683" timestamp="2010-05-03T18:42:17Z"/>
 <node id="719164372" lat="49.4597820" lon="17.9885570" user="Petr1868" uid="72020" visible="true" version="1" changeset="4597683" timestamp="2010-05-03T18:42:44Z"/>
 <node id="719162381" lat="49.4589490" lon="17.9895810" user="Petr1868" uid="72020" visible="true" version="1" changeset="4597683" timestamp="2010-05-03T18:42:02Z"/>
 <node id="719163314" lat="49.4581550" lon="17.9875420" user="Petr1868" uid="72020" visible="true" version="1" changeset="4597683" timestamp="2010-05-03T18:42:21Z"/>
 <node id="719162807" lat="49.4584200" lon="17.9898970" user="Petr1868" uid="72020" visible="true" version="1" changeset="4597683" timestamp="2010-05-03T18:42:11Z"/>
 <node id="719164580" lat="49.4592460" lon="17.9886420" user="Petr1868" uid="72020" visible="true" version="1" changeset="4597683" timestamp="2010-05-03T18:42:49Z"/>
 <node id="719161782" lat="49.4595140" lon="17.9879080" user="Petr1868" uid="72020" visible="true" version="1" changeset="4597683" timestamp="2010-05-03T18:41:50Z"/>
 <node id="719169820" lat="49.4585270" lon="17.9893760" user="Petr1868" uid="72020" visible="true" version="1" changeset="4597683" timestamp="2010-05-03T18:44:41Z"/>
 <node id="719163623" lat="49.4591450" lon="17.9886130" user="Petr1868" uid="72020" visible="true" version="1" changeset="4597683" timestamp="2010-05-03T18:42:28Z"/>
 <node id="719170573" lat="49.4582660" lon="17.9878460" user="Petr1868" uid="72020" visible="true" version="1" changeset="4597683" timestamp="2010-05-03T18:44:57Z"/>
 <node id="719163838" lat="49.4579690" lon="17.9899130" user="Petr1868" uid="72020" visible="true" version="1" changeset="4597683" timestamp="2010-05-03T18:42:33Z"/>
 <node id="719163222" lat="49.4586660" lon="17.9894320" user="Petr1868" uid="72020" visible="true" version="1" changeset="4597683" timestamp="2010-05-03T18:42:19Z"/>
 <node id="719163938" lat="49.4580310" lon="17.9887480" user="Petr1868" uid="72020" visible="true" version="1" changeset="4597683" timestamp="2010-05-03T18:42:35Z"/>
 <node id="719169575" lat="49.4598050" lon="17.9885480" user="Petr1868" uid="72020" visible="true" version="1" changeset="4597683" timestamp="2010-05-03T18:44:36Z"/>
 <node id="719160464" lat="49.4590920" lon="17.9894700" user="Petr1868" uid="72020" visible="true" version="1" changeset="4597683" timestamp="2010-05-03T18:41:24Z"/>
 <node id="428270772" lat="49.4554377" lon="17.9907670" user="Petr Dlouhý" uid="17615" visible="true" version="1" changeset="1600136" timestamp="2009-06-23T09:31:08Z"/>
 <node id="719172609" lat="49.4587850" lon="17.9890010" user="Petr1868" uid="72020" visible="true" version="1" changeset="4597683" timestamp="2010-05-03T18:45:43Z"/>
 <node id="428270911" lat="49.4637129" lon="17.9831630" user="Petr Dlouhý" uid="17615" visible="true" version="1" changeset="1600136" timestamp="2009-06-23T09:31:10Z"/>
 <node id="1498545358" lat="49.4585925" lon="17.9894150" user="Tomas Pajonk" uid="305367" visible="true" version="1" changeset="9795740" timestamp="2011-11-11T11:54:57Z">
  <tag k="addr:conscriptionnumber" v="773"/>
  <tag k="addr:country" v="CZ"/>
  <tag k="addr:housenumber" v="773"/>
  <tag k="addr:street" v="Štěpánov"/>
  <tag k="is_in" v="Valašské Meziříčí, Zlínský kraj, CZ"/>
  <tag k="source:addr" v="mvcr:adresa"/>
  <tag k="source:loc" v="cuzk:km"/>
 </node>
 <node id="719170085" lat="49.4579500" lon="17.9874600" user="Petr1868" uid="72020" visible="true" version="1" changeset="4597683" timestamp="2010-05-03T18:44:47Z"/>
 <node id="719169234" lat="49.4594890" lon="17.9883280" user="Petr1868" uid="72020" visible="true" version="1" changeset="4597683" timestamp="2010-05-03T18:44:28Z"/>
 <node id="719160922" lat="49.4586990" lon="17.9888560" user="Petr1868" uid="72020" visible="true" version="1" changeset="4597683" timestamp="2010-05-03T18:41:33Z"/>
 <node id="719164778" lat="49.4580970" lon="17.9873760" user="Petr1868" uid="72020" visible="true" version="1" changeset="4597683" timestamp="2010-05-03T18:42:52Z"/>
 <node id="719167961" lat="49.4591570" lon="17.9886320" user="Petr1868" uid="72020" visible="true" version="1" changeset="4597683" timestamp="2010-05-03T18:44:00Z"/>
 <node id="719167987" lat="49.4583820" lon="17.9899120" user="Petr1868" uid="72020" visible="true" version="1" changeset="4597683" timestamp="2010-05-03T18:44:01Z"/>
 <node id="719170333" lat="49.4587140" lon="17.9893970" user="Petr1868" uid="72020" visible="true" version="1" changeset="4597683" timestamp="2010-05-03T18:44:52Z"/>
 <node id="719162275" lat="49.4594390" lon="17.9884570" user="Petr1868" uid="72020" visible="true" version="1" changeset="4597683" timestamp="2010-05-03T18:42:00Z"/>
 <node id="719162914" lat="49.4581520" lon="17.9875380" user="Petr1868" uid="72020" visible="true" version="1" changeset="4597683" timestamp="2010-05-03T18:42:13Z"/>
 <node id="719161681" lat="49.4581860" lon="17.9878120" user="Petr1868" uid="72020" visible="true" version="1" changeset="4597683" timestamp="2010-05-03T18:41:48Z"/>
 <node id="1330367655" lat="49.4572377" lon="17.9906886" user="Tomas Pajonk" uid="305367" visible="true" version="1" changeset="8479851" timestamp="2011-06-19T04:10:38Z"/>
 <node id="428270744" lat="49.4616391" lon="17.9861324" user="Petr Dlouhý" uid="17615" visible="true" version="1" changeset="1600136" timestamp="2009-06-23T09:31:07Z"/>
 <node id="719165192" lat="49.4581300" lon="17.9875600" user="Petr1868" uid="72020" visible="true" version="1" changeset="4597683" timestamp="2010-05-03T18:43:01Z"/>
 <node id="719168306" lat="49.4576900" lon="17.9885820" user="Petr1868" uid="72020" visible="true" version="1" changeset="4597683" timestamp="2010-05-03T18:44:07Z"/>
 <node id="1330367657" lat="49.4580843" lon="17.9902544" user="Tomas Pajonk" uid="305367" visible="true" version="1" changeset="8479851" timestamp="2011-06-19T04:10:38Z"/>
 <node id="719167685" lat="49.4582060" lon="17.9878120" user="Petr1868" uid="72020" visible="true" version="1" changeset="4597683" timestamp="2010-05-03T18:43:53Z"/>
 <node id="428270743" lat="49.4622206" lon="17.9860518" user="Petr Dlouhý" uid="17615" visible="true" version="1" changeset="1600136" timestamp="2009-06-23T09:31:07Z"/>
 <node id="1498540114" lat="49.4580838" lon="17.9894475" user="Tomas Pajonk" uid="305367" visible="true" version="1" changeset="9795740" timestamp="2011-11-11T11:49:49Z">
  <tag k="addr:conscriptionnumber" v="271"/>
  <tag k="addr:country" v="CZ"/>
  <tag k="addr:housenumber" v="271"/>
  <tag k="addr:street" v="Štěpánov"/>
  <tag k="is_in" v="Valašské Meziříčí, Zlínský kraj, CZ"/>
  <tag k="source:addr" v="mvcr:adresa"/>
  <tag k="source:loc" v="cuzk:km"/>
 </node>
 <node id="1498546506" lat="49.4583888" lon="17.9899638" user="Tomas Pajonk" uid="305367" visible="true" version="1" changeset="9795740" timestamp="2011-11-11T11:56:29Z">
  <tag k="addr:country" v="CZ"/>
  <tag k="addr:housenumber" v="ev.30"/>
  <tag k="addr:provisionalnumber" v="30"/>
  <tag k="addr:street" v="Ve Stráni"/>
  <tag k="is_in" v="Valašské Meziříčí, Zlínský kraj, CZ"/>
  <tag k="source:addr" v="mvcr:adresa"/>
  <tag k="source:loc" v="cuzk:km"/>
 </node>
 <node id="719163054" lat="49.4595770" lon="17.9870110" user="Petr1868" uid="72020" visible="true" version="1" changeset="4597683" timestamp="2010-05-03T18:42:16Z"/>
 <node id="719160386" lat="49.4595500" lon="17.9871260" user="Petr1868" uid="72020" visible="true" version="1" changeset="4597683" timestamp="2010-05-03T18:41:23Z"/>
 <node id="719167069" lat="49.4587840" lon="17.9889780" user="Petr1868" uid="72020" visible="true" version="1" changeset="4597683" timestamp="2010-05-03T18:43:38Z"/>
 <node id="719165380" lat="49.4577490" lon="17.9888080" user="Petr1868" uid="72020" visible="true" version="1" changeset="4597683" timestamp="2010-05-03T18:43:05Z"/>
 <node id="719172380" lat="49.4580070" lon="17.9900620" user="Petr1868" uid="72020" visible="true" version="1" changeset="4597683" timestamp="2010-05-03T18:45:38Z"/>
 <node id="719170459" lat="49.4581350" lon="17.9875410" user="Petr1868" uid="72020" visible="true" version="1" changeset="4597683" timestamp="2010-05-03T18:44:55Z"/>
 <node id="428270764" lat="49.4578116" lon="17.9890511" user="Petr Dlouhý" uid="17615" visible="true" version="1" changeset="1600136" timestamp="2009-06-23T09:31:07Z"/>
 <node id="719166947" lat="49.4581600" lon="17.9887500" user="Petr1868" uid="72020" visible="true" version="1" changeset="4597683" timestamp="2010-05-03T18:43:36Z"/>
 <node id="719171274" lat="49.4587870" lon="17.9888670" user="Petr1868" uid="72020" visible="true" version="1" changeset="4597683" timestamp="2010-05-03T18:45:17Z"/>
 <node id="1330367659" lat="49.4591146" lon="17.9897414" user="Tomas Pajonk" uid="305367" visible="true" version="1" changeset="8479851" timestamp="2011-06-19T04:10:38Z"/>
 <node id="719165378" lat="49.4596960" lon="17.9885630" user="Petr1868" uid="72020" visible="true" version="1" changeset="4597683" timestamp="2010-05-03T18:43:05Z"/>
 <node id="1498540366" lat="49.4592163" lon="17.9886550" user="Tomas Pajonk" uid="305367" visible="true" version="1" changeset="9795740" timestamp="2011-11-11T11:50:08Z">
  <tag k="addr:conscriptionnumber" v="296"/>
  <tag k="addr:country" v="CZ"/>
  <tag k="addr:housenumber" v="296"/>
  <tag k="addr:street" v="Štěpánov"/>
  <tag k="is_in" v="Valašské Meziříčí, Zlínský kraj, CZ"/>
  <tag k="source:addr" v="mvcr:adresa"/>
  <tag k="source:loc" v="cuzk:km"/>
 </node>
 <node id="719168271" lat="49.4596200" lon="17.9870330" user="Petr1868" uid="72020" visible="true" version="1" changeset="4597683" timestamp="2010-05-03T18:44:07Z"/>
 <node id="719170826" lat="49.4586210" lon="17.9894430" user="Petr1868" uid="72020" visible="true" version="1" changeset="4597683" timestamp="2010-05-03T18:45:03Z"/>
 <node id="1498536631" lat="49.4583225" lon="17.9883838" user="Tomas Pajonk" uid="305367" visible="true" version="1" changeset="9795740" timestamp="2011-11-11T11:47:00Z">
  <tag k="addr:conscriptionnumber" v="1252"/>
  <tag k="addr:country" v="CZ"/>
  <tag k="addr:housenumber" v="1252"/>
  <tag k="addr:street" v="V Zahrádkách"/>
  <tag k="is_in" v="Valašské Meziříčí, Zlínský kraj, CZ"/>
  <tag k="source:addr" v="mvcr:adresa"/>
  <tag k="source:loc" v="cuzk:km"/>
 </node>
 <node id="719160990" lat="49.4590610" lon="17.9894060" user="Petr1868" uid="72020" visible="true" version="1" changeset="4597683" timestamp="2010-05-03T18:41:34Z"/>
 <node id="719167370" lat="49.4597460" lon="17.9887000" user="Petr1868" uid="72020" visible="true" version="1" changeset="4597683" timestamp="2010-05-03T18:43:46Z"/>
 <node id="719170068" lat="49.4579840" lon="17.9886120" user="Petr1868" uid="72020" visible="true" version="1" changeset="4597683" timestamp="2010-05-03T18:44:46Z"/>
 <node id="719167372" lat="49.4577870" lon="17.9888510" user="Petr1868" uid="72020" visible="true" version="1" changeset="4597683" timestamp="2010-05-03T18:43:46Z"/>
 <node id="719162789" lat="49.4577440" lon="17.9894020" user="Petr1868" uid="72020" visible="true" version="1" changeset="4597683" timestamp="2010-05-03T18:42:10Z"/>
 <node id="1498540479" lat="49.4581363" lon="17.9874238" user="Tomas Pajonk" uid="305367" visible="true" version="1" changeset="9795740" timestamp="2011-11-11T11:50:15Z">
  <tag k="addr:conscriptionnumber" v="302"/>
  <tag k="addr:country" v="CZ"/>
  <tag k="addr:housenumber" v="302"/>
  <tag k="addr:street" v="V Zahrádkách"/>
  <tag k="is_in" v="Valašské Meziříčí, Zlínský kraj, CZ"/>
  <tag k="source:addr" v="mvcr:adresa"/>
  <tag k="source:loc" v="cuzk:km"/>
 </node>
 <node id="719164603" lat="49.4586040" lon="17.9893450" user="Petr1868" uid="72020" visible="true" version="1" changeset="4597683" timestamp="2010-05-03T18:42:49Z"/>
 <node id="1330367656" lat="49.4577636" lon="17.9904320" user="Tomas Pajonk" uid="305367" visible="true" version="1" changeset="8479851" timestamp="2011-06-19T04:10:38Z"/>
 <node id="428270905" lat="49.4641879" lon="17.9821933" user="Petr Dlouhý" uid="17615" visible="true" version="1" changeset="1600136" timestamp="2009-06-23T09:31:10Z"/>
 <way id="57960600" user="Petr1868" uid="72020" visible="true" version="1" changeset="4597683" timestamp="2010-05-03T18:46:54Z">
  <nd ref="719170085"/>
  <nd ref="719164889"/>
  <nd ref="719172376"/>
  <nd ref="719166849"/>
  <nd ref="719171149"/>
  <nd ref="719170085"/>
  <tag k="building" v="yes"/>
  <tag k="source" v="cuzk:km"/>
 </way>
 <way id="57960983" user="Petr1868" uid="72020" visible="true" version="1" changeset="4597683" timestamp="2010-05-03T18:47:38Z">
  <nd ref="719160804"/>
  <nd ref="719167768"/>
  <nd ref="719162593"/>
  <nd ref="719166947"/>
  <nd ref="719160804"/>
  <tag k="building" v="yes"/>
  <tag k="source" v="cuzk:km"/>
 </way>
 <way id="57960738" user="Petr1868" uid="72020" visible="true" version="1" changeset="4597683" timestamp="2010-05-03T18:47:08Z">
  <nd ref="719163521"/>
  <nd ref="719170672"/>
  <nd ref="719165380"/>
  <nd ref="719160322"/>
  <nd ref="719167372"/>
  <nd ref="719171954"/>
  <nd ref="719163521"/>
  <tag k="building" v="yes"/>
  <tag k="source" v="cuzk:km"/>
 </way>
 <way id="57960394" user="Petr1868" uid="72020" visible="true" version="1" changeset="4597683" timestamp="2010-05-03T18:46:30Z">
  <nd ref="719164973"/>
  <nd ref="719172481"/>
  <nd ref="719166943"/>
  <nd ref="719161782"/>
  <nd ref="719164973"/>
  <tag k="building" v="yes"/>
  <tag k="source" v="cuzk:km"/>
 </way>
 <way id="57960491" user="Petr1868" uid="72020" visible="true" version="1" changeset="4597683" timestamp="2010-05-03T18:46:42Z">
  <nd ref="719165070"/>
  <nd ref="719172590"/>
  <nd ref="719167048"/>
  <nd ref="719161879"/>
  <nd ref="719168824"/>
  <nd ref="719163623"/>
  <nd ref="719167961"/>
  <nd ref="719162786"/>
  <nd ref="719169790"/>
  <nd ref="719164580"/>
  <nd ref="719172140"/>
  <nd ref="719165070"/>
  <tag k="building" v="yes"/>
  <tag k="source" v="cuzk:km"/>
 </way>
 <way id="57960406" user="Petr1868" uid="72020" visible="true" version="1" changeset="4597683" timestamp="2010-05-03T18:46:31Z">
  <nd ref="719167360"/>
  <nd ref="719162160"/>
  <nd ref="719169115"/>
  <nd ref="719163926"/>
  <nd ref="719171123"/>
  <nd ref="719165758"/>
  <nd ref="719160783"/>
  <nd ref="719167759"/>
  <nd ref="719167291"/>
  <nd ref="719167360"/>
  <tag k="building" v="yes"/>
  <tag k="source" v="cuzk:km"/>
 </way>
 <way id="57960381" user="Petr1868" uid="72020" visible="true" version="1" changeset="4597683" timestamp="2010-05-03T18:46:29Z">
  <nd ref="719161518"/>
  <nd ref="719168517"/>
  <nd ref="719162914"/>
  <nd ref="719163314"/>
  <nd ref="719170459"/>
  <nd ref="719165192"/>
  <nd ref="719172732"/>
  <nd ref="719161518"/>
  <tag k="building" v="yes"/>
  <tag k="source" v="cuzk:km"/>
 </way>
 <way id="57960749" user="Petr1868" uid="72020" visible="true" version="1" changeset="4597683" timestamp="2010-05-03T18:47:09Z">
  <nd ref="719170781"/>
  <nd ref="719165464"/>
  <nd ref="719160434"/>
  <nd ref="719167472"/>
  <nd ref="719162275"/>
  <nd ref="719169234"/>
  <nd ref="719164028"/>
  <nd ref="719171250"/>
  <nd ref="719170781"/>
  <tag k="building" v="yes"/>
  <tag k="source" v="cuzk:km"/>
 </way>
 <way id="57960545" user="Petr1868" uid="72020" visible="true" version="1" changeset="4597683" timestamp="2010-05-03T18:46:49Z">
  <nd ref="719170826"/>
  <nd ref="719165497"/>
  <nd ref="719169820"/>
  <nd ref="719164603"/>
  <nd ref="719170826"/>
  <tag k="building" v="yes"/>
  <tag k="source" v="cuzk:km"/>
 </way>
 <way id="57960874" user="Petr1868" uid="72020" visible="true" version="1" changeset="4597683" timestamp="2010-05-03T18:47:25Z">
  <nd ref="719167280"/>
  <nd ref="719162081"/>
  <nd ref="719166427"/>
  <nd ref="719161205"/>
  <nd ref="719167280"/>
  <tag k="building" v="yes"/>
  <tag k="source" v="cuzk:km"/>
 </way>
 <way id="57960125" user="Petr1868" uid="72020" visible="true" version="1" changeset="4597683" timestamp="2010-05-03T18:45:57Z">
  <nd ref="719169991"/>
  <nd ref="719164778"/>
  <nd ref="719161104"/>
  <nd ref="719163875"/>
  <nd ref="719169991"/>
  <tag k="building" v="yes"/>
  <tag k="source" v="cuzk:km"/>
 </way>
 <way id="57960780" user="trekki" uid="119785" visible="true" version="2" changeset="4923057" timestamp="2010-06-06T21:30:05Z">
  <nd ref="719168271"/>
  <nd ref="719163054"/>
  <nd ref="719160386"/>
  <nd ref="719167429"/>
  <nd ref="719168271"/>
  <tag k="building" v="yes"/>
  <tag k="source" v="cuzk:km"/>
 </way>
 <way id="57960151" user="Petr1868" uid="72020" visible="true" version="1" changeset="4597683" timestamp="2010-05-03T18:46:01Z">
  <nd ref="719167868"/>
  <nd ref="719162684"/>
  <nd ref="719169697"/>
  <nd ref="719164480"/>
  <nd ref="719167868"/>
  <tag k="building" v="yes"/>
  <tag k="source" v="cuzk:km"/>
 </way>
 <way id="118260644" user="Tomas Pajonk" uid="305367" visible="true" version="1" changeset="8479851" timestamp="2011-06-19T04:10:38Z">
  <nd ref="1330367650"/>
  <nd ref="1330367653"/>
  <nd ref="1330367654"/>
  <nd ref="1330367655"/>
  <nd ref="1330367656"/>
  <nd ref="1330367657"/>
  <nd ref="1330367658"/>
  <nd ref="1330367659"/>
  <nd ref="428270755"/>
  <tag k="highway" v="residential"/>
  <tag k="name" v="Ve Stráni"/>
 </way>
 <way id="57961121" user="Petr1868" uid="72020" visible="true" version="1" changeset="4597683" timestamp="2010-05-03T18:47:56Z">
  <nd ref="719163838"/>
  <nd ref="719171038"/>
  <nd ref="719165691"/>
  <nd ref="719160687"/>
  <nd ref="719167688"/>
  <nd ref="719172380"/>
  <nd ref="719163838"/>
  <tag k="building" v="yes"/>
  <tag k="source" v="cuzk:km"/>
 </way>
 <way id="57961104" user="Petr1868" uid="72020" visible="true" version="1" changeset="4597683" timestamp="2010-05-03T18:47:53Z">
  <nd ref="719163834"/>
  <nd ref="719171034"/>
  <nd ref="719165687"/>
  <nd ref="719160683"/>
  <nd ref="719167685"/>
  <nd ref="719162503"/>
  <nd ref="719169485"/>
  <nd ref="719161681"/>
  <nd ref="719168601"/>
  <nd ref="719163429"/>
  <nd ref="719170573"/>
  <nd ref="719163834"/>
  <tag k="building" v="yes"/>
  <tag k="source" v="cuzk:km"/>
 </way>
 <way id="36841605" user="Tomas Pajonk" uid="305367" visible="true" version="2" changeset="8479851" timestamp="2011-06-19T04:10:37Z">
  <nd ref="428270734"/>
  <nd ref="428270735"/>
  <nd ref="428270945"/>
  <nd ref="428270905"/>
  <nd ref="428270911"/>
  <nd ref="428270737"/>
  <nd ref="428270739"/>
  <nd ref="428270741"/>
  <nd ref="428270743"/>
  <nd ref="428270744"/>
  <nd ref="428270745"/>
  <nd ref="428270746"/>
  <nd ref="428270747"/>
  <nd ref="428270748"/>
  <nd ref="428270749"/>
  <nd ref="428270751"/>
  <nd ref="428270753"/>
  <nd ref="428270755"/>
  <nd ref="428270757"/>
  <nd ref="428270758"/>
  <nd ref="428270760"/>
  <nd ref="428270762"/>
  <nd ref="428270764"/>
  <nd ref="428270766"/>
  <nd ref="428270768"/>
  <nd ref="428270770"/>
  <nd ref="1330367652"/>
  <nd ref="428270772"/>
  <tag k="highway" v="residential"/>
  <tag k="name" v="Štěpánov"/>
  <tag k="source" v="cuzk:km;uhul:ortofoto"/>
 </way>
 <way id="57961080" user="Petr1868" uid="72020" visible="true" version="1" changeset="4597683" timestamp="2010-05-03T18:47:50Z">
  <nd ref="719169575"/>
  <nd ref="719164372"/>
  <nd ref="719168725"/>
  <nd ref="719163517"/>
  <nd ref="719170670"/>
  <nd ref="719165378"/>
  <nd ref="719160321"/>
  <nd ref="719167370"/>
  <nd ref="719162178"/>
  <nd ref="719169127"/>
  <nd ref="719161277"/>
  <nd ref="719168302"/>
  <nd ref="719169575"/>
  <tag k="building" v="yes"/>
  <tag k="source" v="cuzk:km"/>
 </way>
 <way id="57961067" user="Petr1868" uid="72020" visible="true" version="1" changeset="4597683" timestamp="2010-05-03T18:47:48Z">
  <nd ref="719166311"/>
  <nd ref="719163875"/>
  <nd ref="719161104"/>
  <nd ref="719168088"/>
  <nd ref="719170459"/>
  <nd ref="719162914"/>
  <nd ref="719168517"/>
  <nd ref="719166311"/>
  <tag k="building" v="yes"/>
  <tag k="source" v="cuzk:km"/>
 </way>
 <way id="57960068" user="Petr1868" uid="72020" visible="true" version="1" changeset="4597683" timestamp="2010-05-03T18:45:49Z">
  <nd ref="719168397"/>
  <nd ref="719160537"/>
  <nd ref="719167564"/>
  <nd ref="719162381"/>
  <nd ref="719169345"/>
  <nd ref="719164131"/>
  <nd ref="719171353"/>
  <nd ref="719166128"/>
  <nd ref="719160990"/>
  <nd ref="719160464"/>
  <nd ref="719168397"/>
  <tag k="building" v="yes"/>
  <tag k="source" v="cuzk:km"/>
 </way>
 <way id="57960995" user="Petr1868" uid="72020" visible="true" version="1" changeset="4597683" timestamp="2010-05-03T18:47:39Z">
  <nd ref="719161883"/>
  <nd ref="719166134"/>
  <nd ref="719160992"/>
  <nd ref="719167963"/>
  <nd ref="719162789"/>
  <nd ref="719169794"/>
  <nd ref="719161883"/>
  <tag k="building" v="yes"/>
  <tag k="source" v="cuzk:km"/>
 </way>
 <way id="57960649" user="Petr1868" uid="72020" visible="true" version="1" changeset="4597683" timestamp="2010-05-03T18:46:59Z">
  <nd ref="719170934"/>
  <nd ref="719165587"/>
  <nd ref="719160563"/>
  <nd ref="719167591"/>
  <nd ref="719170934"/>
  <tag k="building" v="yes"/>
  <tag k="source" v="cuzk:km"/>
 </way>
 <way id="57960499" user="Petr1868" uid="72020" visible="true" version="1" changeset="4597683" timestamp="2010-05-03T18:46:43Z">
  <nd ref="719169263"/>
  <nd ref="719164053"/>
  <nd ref="719171274"/>
  <nd ref="719165990"/>
  <nd ref="719160922"/>
  <nd ref="719165088"/>
  <nd ref="719172609"/>
  <nd ref="719167069"/>
  <nd ref="719161903"/>
  <nd ref="719169263"/>
  <tag k="building" v="yes"/>
  <tag k="source" v="cuzk:km"/>
 </way>
 <way id="57960387" user="Petr1868" uid="72020" visible="true" version="1" changeset="4597683" timestamp="2010-05-03T18:46:29Z">
  <nd ref="719168400"/>
  <nd ref="719163203"/>
  <nd ref="719170304"/>
  <nd ref="719165072"/>
  <nd ref="719168400"/>
  <tag k="building" v="yes"/>
  <tag k="source" v="cuzk:km"/>
 </way>
 <way id="57960304" user="Petr1868" uid="72020" visible="true" version="1" changeset="4597683" timestamp="2010-05-03T18:46:19Z">
  <nd ref="719161411"/>
  <nd ref="719168422"/>
  <nd ref="719163222"/>
  <nd ref="719170333"/>
  <nd ref="719161411"/>
  <tag k="building" v="yes"/>
  <tag k="source" v="cuzk:km"/>
 </way>
 <way id="57960306" user="Petr1868" uid="72020" visible="true" version="1" changeset="4597683" timestamp="2010-05-03T18:46:20Z">
  <nd ref="719168306"/>
  <nd ref="719163099"/>
  <nd ref="719170181"/>
  <nd ref="719164976"/>
  <nd ref="719172485"/>
  <nd ref="719164029"/>
  <nd ref="719168306"/>
  <tag k="building" v="yes"/>
  <tag k="source" v="cuzk:km"/>
 </way>
 <way id="57960147" user="Petr1868" uid="72020" visible="true" version="1" changeset="4597683" timestamp="2010-05-03T18:46:00Z">
  <nd ref="719170068"/>
  <nd ref="719162180"/>
  <nd ref="719169133"/>
  <nd ref="719163938"/>
  <nd ref="719170068"/>
  <tag k="building" v="yes"/>
  <tag k="source" v="cuzk:km"/>
 </way>
 <way id="57960070" user="Petr1868" uid="72020" visible="true" version="1" changeset="4597683" timestamp="2010-05-03T18:45:49Z">
  <nd ref="719164164"/>
  <nd ref="719171391"/>
  <nd ref="719166178"/>
  <nd ref="719161011"/>
  <nd ref="719167987"/>
  <nd ref="719162807"/>
  <nd ref="719167194"/>
  <nd ref="719161996"/>
  <nd ref="719164164"/>
  <tag k="building" v="yes"/>
  <tag k="source" v="cuzk:km"/>
 </way>
</osm>
