<?xml version="1.0" encoding="UTF-8"?>
<osm version="0.6" generator="CGImap 0.0.2">
 <bounds minlat="49.4591800" minlon="17.9757300" maxlat="49.4599900" maxlon="17.9822800"/>
 <node id="719274258" lat="49.4596340" lon="17.9794760" user="Petr1868" uid="72020" visible="true" version="1" changeset="4598212" timestamp="2010-05-03T19:27:44Z"/>
 <node id="953690965" lat="49.4593888" lon="17.9715143" user="pavel" uid="1066" visible="true" version="1" changeset="6063620" timestamp="2010-10-17T06:24:01Z"/>
 <node id="952865525" lat="49.4587436" lon="17.9847091" user="pavel" uid="1066" visible="true" version="1" changeset="6062166" timestamp="2010-10-16T22:53:38Z"/>
 <node id="659067548" lat="49.4562906" lon="17.9873942" user="Mike Crash" uid="84326" visible="true" version="1" changeset="4016231" timestamp="2010-03-02T12:06:19Z"/>
 <node id="1498540259" lat="49.4595013" lon="17.9770825" user="Tomas Pajonk" uid="305367" visible="true" version="1" changeset="9795740" timestamp="2011-11-11T11:49:59Z">
  <tag k="addr:conscriptionnumber" v="285"/>
  <tag k="addr:country" v="CZ"/>
  <tag k="addr:housenumber" v="285"/>
  <tag k="addr:street" v="Výletní"/>
  <tag k="is_in" v="Valašské Meziříčí, Zlínský kraj, CZ"/>
  <tag k="source:addr" v="mvcr:adresa"/>
  <tag k="source:loc" v="cuzk:km"/>
 </node>
 <node id="659067532" lat="49.4589613" lon="17.9845890" user="Mike Crash" uid="84326" visible="true" version="1" changeset="4016231" timestamp="2010-03-02T12:06:19Z"/>
 <node id="719277703" lat="49.4597800" lon="17.9772420" user="Petr1868" uid="72020" visible="true" version="1" changeset="4598212" timestamp="2010-05-03T19:28:27Z"/>
 <node id="659067398" lat="49.4517311" lon="17.9576667" user="Mike Crash" uid="84326" visible="true" version="1" changeset="4016231" timestamp="2010-03-02T12:06:13Z"/>
 <node id="659067439" lat="49.4592592" lon="17.9702546" user="Mike Crash" uid="84326" visible="true" version="1" changeset="4016231" timestamp="2010-03-02T12:06:15Z"/>
 <node id="428270858" lat="49.4594608" lon="17.9834558" user="Petr Dlouhý" uid="17615" visible="true" version="1" changeset="1600136" timestamp="2009-06-23T09:31:09Z"/>
 <node id="659067432" lat="49.4593442" lon="17.9723205" user="Mike Crash" uid="84326" visible="true" version="1" changeset="4016231" timestamp="2010-03-02T12:06:15Z"/>
 <node id="714767332" lat="49.4599140" lon="17.9763810" user="Petr1868" uid="72020" visible="true" version="1" changeset="4571761" timestamp="2010-05-01T06:17:08Z"/>
 <node id="719282723" lat="49.4597260" lon="17.9772030" user="Petr1868" uid="72020" visible="true" version="1" changeset="4598212" timestamp="2010-05-03T19:29:34Z"/>
 <node id="428270850" lat="49.4595895" lon="17.9770392" user="Petr Dlouhý" uid="17615" visible="true" version="1" changeset="1600136" timestamp="2009-06-23T09:31:09Z"/>
 <node id="1498540568" lat="49.4597063" lon="17.9807388" user="Tomas Pajonk" uid="305367" visible="true" version="1" changeset="9795740" timestamp="2011-11-11T11:50:25Z">
  <tag k="addr:conscriptionnumber" v="316"/>
  <tag k="addr:country" v="CZ"/>
  <tag k="addr:housenumber" v="316"/>
  <tag k="addr:street" v="Výletní"/>
  <tag k="is_in" v="Valašské Meziříčí, Zlínský kraj, CZ"/>
  <tag k="source:addr" v="mvcr:adresa"/>
  <tag k="source:loc" v="cuzk:km"/>
 </node>
 <node id="719172756" lat="49.4595410" lon="17.9820320" user="Petr1868" uid="72020" visible="true" version="1" changeset="4597683" timestamp="2010-05-03T18:45:48Z"/>
 <node id="719274831" lat="49.4597320" lon="17.9772670" user="Petr1868" uid="72020" visible="true" version="1" changeset="4598212" timestamp="2010-05-03T19:27:53Z"/>
 <node id="428270856" lat="49.4595752" lon="17.9830084" user="Petr Dlouhý" uid="17615" visible="true" version="1" changeset="1600136" timestamp="2009-06-23T09:31:09Z"/>
 <node id="714769550" lat="49.4599040" lon="17.9762800" user="Petr1868" uid="72020" visible="true" version="1" changeset="4571761" timestamp="2010-05-01T06:17:32Z"/>
 <node id="659067544" lat="49.4567519" lon="17.9866383" user="Mike Crash" uid="84326" visible="true" version="1" changeset="4016231" timestamp="2010-03-02T12:06:19Z"/>
 <node id="953249651" lat="49.4595111" lon="17.9803165" user="pavel" uid="1066" visible="true" version="1" changeset="6062986" timestamp="2010-10-17T01:55:23Z"/>
 <node id="428270874" lat="49.4567295" lon="17.9878191" user="Petr Dlouhý" uid="17615" visible="true" version="1" changeset="1600136" timestamp="2009-06-23T09:31:09Z"/>
 <node id="428270847" lat="49.4596515" lon="17.9761665" user="Petr Dlouhý" uid="17615" visible="true" version="1" changeset="1600136" timestamp="2009-06-23T09:31:09Z"/>
 <node id="428270876" lat="49.4563291" lon="17.9885011" user="Petr Dlouhý" uid="17615" visible="true" version="1" changeset="1600136" timestamp="2009-06-23T09:31:09Z"/>
 <node id="953645947" lat="49.4595179" lon="17.9791728" user="pavel" uid="1066" visible="true" version="1" changeset="6063620" timestamp="2010-10-17T05:56:45Z"/>
 <node id="1498540233" lat="49.4598625" lon="17.9763388" user="Tomas Pajonk" uid="305367" visible="true" version="1" changeset="9795740" timestamp="2011-11-11T11:49:56Z">
  <tag k="addr:conscriptionnumber" v="281"/>
  <tag k="addr:country" v="CZ"/>
  <tag k="addr:housenumber" v="281"/>
  <tag k="addr:street" v="Výletní"/>
  <tag k="is_in" v="Valašské Meziříčí, Zlínský kraj, CZ"/>
  <tag k="source:addr" v="mvcr:adresa"/>
  <tag k="source:loc" v="cuzk:km"/>
 </node>
 <node id="719293616" lat="49.4599490" lon="17.9774210" user="Petr1868" uid="72020" visible="true" version="1" changeset="4598212" timestamp="2010-05-03T19:31:35Z"/>
 <node id="75129150" lat="49.4602027" lon="17.9743353" user="Petr Dlouhý" uid="17615" visible="true" version="4" changeset="1600136" timestamp="2009-06-23T09:31:25Z">
  <tag k="created_by" v="JOSM"/>
 </node>
 <node id="953220074" lat="49.4589351" lon="17.9845472" user="pavel" uid="1066" visible="true" version="1" changeset="6062986" timestamp="2010-10-17T01:37:40Z"/>
 <node id="1330367663" lat="49.4600940" lon="17.9865208" user="Tomas Pajonk" uid="305367" visible="true" version="1" changeset="8479851" timestamp="2011-06-19T04:10:38Z"/>
 <node id="659067408" lat="49.4523639" lon="17.9586040" user="Mike Crash" uid="84326" visible="true" version="1" changeset="4016231" timestamp="2010-03-02T12:06:14Z"/>
 <node id="1498540406" lat="49.4596025" lon="17.9821075" user="Tomas Pajonk" uid="305367" visible="true" version="1" changeset="9795740" timestamp="2011-11-11T11:50:10Z">
  <tag k="addr:conscriptionnumber" v="298"/>
  <tag k="addr:country" v="CZ"/>
  <tag k="addr:housenumber" v="298"/>
  <tag k="addr:street" v="Výletní"/>
  <tag k="is_in" v="Valašské Meziříčí, Zlínský kraj, CZ"/>
  <tag k="source:addr" v="mvcr:adresa"/>
  <tag k="source:loc" v="cuzk:km"/>
 </node>
 <node id="659067529" lat="49.4594576" lon="17.9804210" user="Mike Crash" uid="84326" visible="true" version="1" changeset="4016231" timestamp="2010-03-02T12:06:19Z"/>
 <node id="719281803" lat="49.4596270" lon="17.9780020" user="Petr1868" uid="72020" visible="true" version="1" changeset="4598212" timestamp="2010-05-03T19:29:21Z"/>
 <node id="719276777" lat="49.4599450" lon="17.9781860" user="Petr1868" uid="72020" visible="true" version="1" changeset="4598212" timestamp="2010-05-03T19:28:16Z"/>
 <node id="719281229" lat="49.4597600" lon="17.9770900" user="Petr1868" uid="72020" visible="true" version="1" changeset="4598212" timestamp="2010-05-03T19:29:14Z"/>
 <node id="954278195" lat="49.4593822" lon="17.9831067" user="pavel" uid="1066" visible="true" version="1" changeset="6065032" timestamp="2010-10-17T10:41:42Z"/>
 <node id="659067425" lat="49.4548610" lon="17.9669977" user="Mike Crash" uid="84326" visible="true" version="1" changeset="4016231" timestamp="2010-03-02T12:06:14Z"/>
 <node id="1498543364" lat="49.4595938" lon="17.9760850" user="Tomas Pajonk" uid="305367" visible="true" version="1" changeset="9795740" timestamp="2011-11-11T11:53:21Z">
  <tag k="addr:conscriptionnumber" v="561"/>
  <tag k="addr:country" v="CZ"/>
  <tag k="addr:housenumber" v="561"/>
  <tag k="addr:street" v="Výletní"/>
  <tag k="is_in" v="Valašské Meziříčí, Zlínský kraj, CZ"/>
  <tag k="source:addr" v="mvcr:adresa"/>
  <tag k="source:loc" v="cuzk:km"/>
 </node>
 <node id="719293527" lat="49.4595560" lon="17.9799600" user="Petr1868" uid="72020" visible="true" version="1" changeset="4598212" timestamp="2010-05-03T19:31:34Z"/>
 <node id="719274833" lat="49.4598290" lon="17.9769320" user="Petr1868" uid="72020" visible="true" version="1" changeset="4598212" timestamp="2010-05-03T19:27:53Z"/>
 <node id="719292520" lat="49.4599690" lon="17.9784370" user="Petr1868" uid="72020" visible="true" version="1" changeset="4598212" timestamp="2010-05-03T19:31:21Z"/>
 <node id="659067561" lat="49.4559878" lon="17.9914798" user="Mike Crash" uid="84326" visible="true" version="1" changeset="4016231" timestamp="2010-03-02T12:06:20Z"/>
 <node id="659067538" lat="49.4594589" lon="17.9832186" user="Mike Crash" uid="84326" visible="true" version="1" changeset="4016231" timestamp="2010-03-02T12:06:19Z"/>
 <node id="428270845" lat="49.4598612" lon="17.9758438" user="Petr Dlouhý" uid="17615" visible="true" version="1" changeset="1600136" timestamp="2009-06-23T09:31:09Z"/>
 <node id="719171591" lat="49.4596590" lon="17.9811510" user="Petr1868" uid="72020" visible="true" version="1" changeset="4597683" timestamp="2010-05-03T18:45:23Z"/>
 <node id="719282083" lat="49.4596320" lon="17.9793930" user="Petr1868" uid="72020" visible="true" version="1" changeset="4598212" timestamp="2010-05-03T19:29:24Z"/>
 <node id="1498537486" lat="49.4597813" lon="17.9821450" user="Tomas Pajonk" uid="305367" visible="true" version="1" changeset="9795740" timestamp="2011-11-11T11:47:26Z">
  <tag k="addr:conscriptionnumber" v="1348"/>
  <tag k="addr:country" v="CZ"/>
  <tag k="addr:housenumber" v="1348"/>
  <tag k="addr:street" v="Šípková"/>
  <tag k="is_in" v="Valašské Meziříčí, Zlínský kraj, CZ"/>
  <tag k="source:addr" v="mvcr:adresa"/>
  <tag k="source:loc" v="cuzk:km"/>
 </node>
 <node id="659067546" lat="49.4570029" lon="17.9862990" user="Mike Crash" uid="84326" visible="true" version="1" changeset="4016231" timestamp="2010-03-02T12:06:19Z"/>
 <node id="659067527" lat="49.4594772" lon="17.9779807" user="Mike Crash" uid="84326" visible="true" version="1" changeset="4016231" timestamp="2010-03-02T12:06:18Z"/>
 <node id="1498533914" lat="49.4598925" lon="17.9778250" user="Tomas Pajonk" uid="305367" visible="true" version="1" changeset="9795740" timestamp="2011-11-11T11:46:05Z">
  <tag k="addr:conscriptionnumber" v="1050"/>
  <tag k="addr:country" v="CZ"/>
  <tag k="addr:housenumber" v="1050"/>
  <tag k="addr:street" v="Výletní"/>
  <tag k="is_in" v="Valašské Meziříčí, Zlínský kraj, CZ"/>
  <tag k="source:addr" v="mvcr:adresa"/>
  <tag k="source:loc" v="cuzk:km"/>
 </node>
 <node id="954376954" lat="49.4599591" lon="17.9740492" user="pavel" uid="1066" visible="true" version="1" changeset="6065032" timestamp="2010-10-17T11:35:35Z"/>
 <node id="659067405" lat="49.4534951" lon="17.9594170" user="Mike Crash" uid="84326" visible="true" version="1" changeset="4016231" timestamp="2010-03-02T12:06:14Z"/>
 <node id="719291729" lat="49.4594640" lon="17.9776000" user="Petr1868" uid="72020" visible="true" version="1" changeset="4598212" timestamp="2010-05-03T19:31:12Z"/>
 <node id="659067407" lat="49.4532413" lon="17.9590921" user="Mike Crash" uid="84326" visible="true" version="1" changeset="4016231" timestamp="2010-03-02T12:06:14Z"/>
 <node id="659067435" lat="49.4576432" lon="17.9716410" user="Mike Crash" uid="84326" visible="true" version="1" changeset="4016231" timestamp="2010-03-02T12:06:15Z"/>
 <node id="953641607" lat="49.4593638" lon="17.9723570" user="pavel" uid="1066" visible="true" version="1" changeset="6063620" timestamp="2010-10-17T05:54:59Z"/>
 <node id="719291899" lat="49.4597610" lon="17.9770710" user="Petr1868" uid="72020" visible="true" version="1" changeset="4598212" timestamp="2010-05-03T19:31:14Z"/>
 <node id="719274817" lat="49.4596460" lon="17.9799660" user="Petr1868" uid="72020" visible="true" version="1" changeset="4598212" timestamp="2010-05-03T19:27:53Z"/>
 <node id="719293373" lat="49.4598440" lon="17.9781660" user="Petr1868" uid="72020" visible="true" version="1" changeset="4598212" timestamp="2010-05-03T19:31:32Z"/>
 <node id="719167708" lat="49.4597360" lon="17.9809370" user="Petr1868" uid="72020" visible="true" version="1" changeset="4597683" timestamp="2010-05-03T18:43:54Z"/>
 <node id="719292922" lat="49.4596870" lon="17.9793930" user="Petr1868" uid="72020" visible="true" version="1" changeset="4598212" timestamp="2010-05-03T19:31:27Z"/>
 <node id="428270869" lat="49.4573158" lon="17.9862278" user="Petr Dlouhý" uid="17615" visible="true" version="1" changeset="1600136" timestamp="2009-06-23T09:31:09Z"/>
 <node id="719274958" lat="49.4593340" lon="17.9772070" user="Petr1868" uid="72020" visible="true" version="1" changeset="4598212" timestamp="2010-05-03T19:27:55Z"/>
 <node id="953843201" lat="49.4563370" lon="17.9873865" user="pavel" uid="1066" visible="true" version="1" changeset="6064070" timestamp="2010-10-17T07:46:18Z"/>
 <node id="719282622" lat="49.4598800" lon="17.9774420" user="Petr1868" uid="72020" visible="true" version="1" changeset="4598212" timestamp="2010-05-03T19:29:32Z"/>
 <node id="1330367662" lat="49.4602070" lon="17.9871610" user="Tomas Pajonk" uid="305367" visible="true" version="1" changeset="8479851" timestamp="2011-06-19T04:10:38Z"/>
 <node id="719277564" lat="49.4594450" lon="17.9774460" user="Petr1868" uid="72020" visible="true" version="1" changeset="4598212" timestamp="2010-05-03T19:28:26Z"/>
 <node id="719163866" lat="49.4597200" lon="17.9808210" user="Petr1868" uid="72020" visible="true" version="1" changeset="4597683" timestamp="2010-05-03T18:42:33Z"/>
 <node id="428270789" lat="49.4558048" lon="17.9887871" user="Petr Dlouhý" uid="17615" visible="true" version="1" changeset="1600136" timestamp="2009-06-23T09:31:08Z"/>
 <node id="719273217" lat="49.4596170" lon="17.9791560" user="Petr1868" uid="72020" visible="true" version="1" changeset="4598212" timestamp="2010-05-03T19:27:32Z"/>
 <node id="659067429" lat="49.4582738" lon="17.9706953" user="Mike Crash" uid="84326" visible="true" version="1" changeset="4016231" timestamp="2010-03-02T12:06:15Z"/>
 <node id="714767279" lat="49.4596060" lon="17.9761280" user="Petr1868" uid="72020" visible="true" version="1" changeset="4571761" timestamp="2010-05-01T06:17:07Z"/>
 <node id="719288258" lat="49.4596220" lon="17.9790020" user="Petr1868" uid="72020" visible="true" version="1" changeset="4598212" timestamp="2010-05-03T19:30:35Z"/>
 <node id="659067409" lat="49.4549449" lon="17.9610448" user="Mike Crash" uid="84326" visible="true" version="1" changeset="4016231" timestamp="2010-03-02T12:06:14Z"/>
 <node id="719285763" lat="49.4595690" lon="17.9794730" user="Petr1868" uid="72020" visible="true" version="1" changeset="4598212" timestamp="2010-05-03T19:30:04Z"/>
 <node id="719288521" lat="49.4596460" lon="17.9781820" user="Petr1868" uid="72020" visible="true" version="1" changeset="4598212" timestamp="2010-05-03T19:30:38Z"/>
 <node id="1498545418" lat="49.4597213" lon="17.9810388" user="Tomas Pajonk" uid="305367" visible="true" version="1" changeset="9795740" timestamp="2011-11-11T11:55:02Z">
  <tag k="addr:conscriptionnumber" v="782"/>
  <tag k="addr:country" v="CZ"/>
  <tag k="addr:housenumber" v="782"/>
  <tag k="addr:street" v="Výletní"/>
  <tag k="is_in" v="Valašské Meziříčí, Zlínský kraj, CZ"/>
  <tag k="source:addr" v="mvcr:adresa"/>
  <tag k="source:loc" v="cuzk:km"/>
 </node>
 <node id="428270863" lat="49.4582263" lon="17.9856264" user="Petr Dlouhý" uid="17615" visible="true" version="1" changeset="1600136" timestamp="2009-06-23T09:31:09Z"/>
 <node id="1498546200" lat="49.4596900" lon="17.9813100" user="Tomas Pajonk" uid="305367" visible="true" version="1" changeset="9795740" timestamp="2011-11-11T11:56:18Z">
  <tag k="addr:country" v="CZ"/>
  <tag k="addr:housenumber" v="ev.1"/>
  <tag k="addr:provisionalnumber" v="1"/>
  <tag k="addr:street" v="Výletní"/>
  <tag k="is_in" v="Valašské Meziříčí, Zlínský kraj, CZ"/>
  <tag k="source:addr" v="mvcr:adresa"/>
  <tag k="source:loc" v="cuzk:km"/>
 </node>
 <node id="719170597" lat="49.4597290" lon="17.9809810" user="Petr1868" uid="72020" visible="true" version="1" changeset="4597683" timestamp="2010-05-03T18:44:58Z"/>
 <node id="719290091" lat="49.4596050" lon="17.9795720" user="Petr1868" uid="72020" visible="true" version="1" changeset="4598212" timestamp="2010-05-03T19:30:53Z"/>
 <node id="428270842" lat="49.4600328" lon="17.9756238" user="Petr Dlouhý" uid="17615" visible="true" version="1" changeset="1600136" timestamp="2009-06-23T09:31:09Z"/>
 <node id="953857955" lat="49.4592805" lon="17.9835685" user="pavel" uid="1066" visible="true" version="1" changeset="6064070" timestamp="2010-10-17T07:50:49Z"/>
 <node id="952895302" lat="49.4594951" lon="17.9803793" user="pavel" uid="1066" visible="true" version="1" changeset="6062166" timestamp="2010-10-16T23:02:41Z"/>
 <node id="1498544532" lat="49.4599175" lon="17.9781313" user="Tomas Pajonk" uid="305367" visible="true" version="1" changeset="9795740" timestamp="2011-11-11T11:54:04Z">
  <tag k="addr:conscriptionnumber" v="642"/>
  <tag k="addr:country" v="CZ"/>
  <tag k="addr:housenumber" v="642"/>
  <tag k="addr:street" v="Výletní"/>
  <tag k="is_in" v="Valašské Meziříčí, Zlínský kraj, CZ"/>
  <tag k="source:addr" v="mvcr:adresa"/>
  <tag k="source:loc" v="cuzk:km"/>
 </node>
 <node id="659067528" lat="49.4591963" lon="17.9768837" user="Mike Crash" uid="84326" visible="true" version="1" changeset="4016231" timestamp="2010-03-02T12:06:19Z"/>
 <node id="719288963" lat="49.4598120" lon="17.9768070" user="Petr1868" uid="72020" visible="true" version="1" changeset="4598212" timestamp="2010-05-03T19:30:43Z"/>
 <node id="719278756" lat="49.4597100" lon="17.9789950" user="Petr1868" uid="72020" visible="true" version="1" changeset="4598212" timestamp="2010-05-03T19:28:41Z"/>
 <node id="719275241" lat="49.4599500" lon="17.9787480" user="Petr1868" uid="72020" visible="true" version="1" changeset="4598212" timestamp="2010-05-03T19:27:59Z"/>
 <node id="659067403" lat="49.4548309" lon="17.9612544" user="Mike Crash" uid="84326" visible="true" version="1" changeset="4016231" timestamp="2010-03-02T12:06:13Z"/>
 <node id="714768317" lat="49.4596420" lon="17.9760200" user="Petr1868" uid="72020" visible="true" version="1" changeset="4571761" timestamp="2010-05-01T06:17:16Z"/>
 <node id="954316754" lat="49.4593623" lon="17.9805358" user="pavel" uid="1066" visible="true" version="1" changeset="6065032" timestamp="2010-10-17T11:06:34Z"/>
 <node id="719282599" lat="49.4595660" lon="17.9775030" user="Petr1868" uid="72020" visible="true" version="1" changeset="4598212" timestamp="2010-05-03T19:29:32Z"/>
 <node id="719169978" lat="49.4597020" lon="17.9812730" user="Petr1868" uid="72020" visible="true" version="1" changeset="4597683" timestamp="2010-05-03T18:44:44Z"/>
 <node id="719162527" lat="49.4596860" lon="17.9809430" user="Petr1868" uid="72020" visible="true" version="1" changeset="4597683" timestamp="2010-05-03T18:42:05Z"/>
 <node id="659067433" lat="49.4553461" lon="17.9629559" user="Mike Crash" uid="84326" visible="true" version="1" changeset="4016231" timestamp="2010-03-02T12:06:15Z"/>
 <node id="659067537" lat="49.4595040" lon="17.9815227" user="Mike Crash" uid="84326" visible="true" version="1" changeset="4016231" timestamp="2010-03-02T12:06:19Z"/>
 <node id="719273542" lat="49.4597060" lon="17.9770980" user="Petr1868" uid="72020" visible="true" version="1" changeset="4598212" timestamp="2010-05-03T19:27:35Z"/>
 <node id="952965358" lat="49.4599015" lon="17.9739704" user="pavel" uid="1066" visible="true" version="1" changeset="6062166" timestamp="2010-10-16T23:28:49Z"/>
 <node id="953275682" lat="49.4594363" lon="17.9817425" user="pavel" uid="1066" visible="true" version="1" changeset="6062986" timestamp="2010-10-17T02:06:01Z"/>
 <node id="719287084" lat="49.4593190" lon="17.9770920" user="Petr1868" uid="72020" visible="true" version="1" changeset="4598212" timestamp="2010-05-03T19:30:21Z"/>
 <node id="719287784" lat="49.4598100" lon="17.9771480" user="Petr1868" uid="72020" visible="true" version="1" changeset="4598212" timestamp="2010-05-03T19:30:30Z"/>
 <node id="1330367665" lat="49.4599964" lon="17.9844316" user="Tomas Pajonk" uid="305367" visible="true" version="1" changeset="8479851" timestamp="2011-06-19T04:10:38Z"/>
 <node id="659067541" lat="49.4595244" lon="17.9803287" user="Mike Crash" uid="84326" visible="true" version="1" changeset="4016231" timestamp="2010-03-02T12:06:19Z"/>
 <node id="953301857" lat="49.4592827" lon="17.9765760" user="pavel" uid="1066" visible="true" version="1" changeset="6062986" timestamp="2010-10-17T02:15:59Z"/>
 <node id="953187509" lat="49.4568289" lon="17.9863727" user="pavel" uid="1066" visible="true" version="1" changeset="6062986" timestamp="2010-10-17T01:22:12Z"/>
 <node id="659067542" lat="49.4591801" lon="17.9837002" user="Mike Crash" uid="84326" visible="true" version="1" changeset="4016231" timestamp="2010-03-02T12:06:19Z"/>
 <node id="953326256" lat="49.4598252" lon="17.9738070" user="pavel" uid="1066" visible="true" version="1" changeset="6063283" timestamp="2010-10-17T02:28:15Z"/>
 <node id="428270861" lat="49.4585409" lon="17.9853038" user="Petr Dlouhý" uid="17615" visible="true" version="1" changeset="1600136" timestamp="2009-06-23T09:31:09Z"/>
 <node id="714770370" lat="49.4596270" lon="17.9760000" user="Petr1868" uid="72020" visible="true" version="1" changeset="4571761" timestamp="2010-05-01T06:17:44Z"/>
 <node id="659067517" lat="49.4595581" lon="17.9787452" user="Mike Crash" uid="84326" visible="true" version="1" changeset="4016231" timestamp="2010-03-02T12:06:18Z"/>
 <node id="719290415" lat="49.4594370" lon="17.9770270" user="Petr1868" uid="72020" visible="true" version="1" changeset="4598212" timestamp="2010-05-03T19:30:56Z"/>
 <node id="659067539" lat="49.4594174" lon="17.9797341" user="Mike Crash" uid="84326" visible="true" version="1" changeset="4016231" timestamp="2010-03-02T12:06:19Z"/>
 <node id="953953352" lat="49.4595232" lon="17.9757623" user="pavel" uid="1066" visible="true" version="1" changeset="6064070" timestamp="2010-10-17T08:27:48Z"/>
 <node id="719275911" lat="49.4596260" lon="17.9791150" user="Petr1868" uid="72020" visible="true" version="1" changeset="4598212" timestamp="2010-05-03T19:28:06Z"/>
 <node id="719278913" lat="49.4595520" lon="17.9781930" user="Petr1868" uid="72020" visible="true" version="1" changeset="4598212" timestamp="2010-05-03T19:28:43Z"/>
 <node id="659067519" lat="49.4594961" lon="17.9789199" user="Mike Crash" uid="84326" visible="true" version="1" changeset="4016231" timestamp="2010-03-02T12:06:18Z"/>
 <node id="714766632" lat="49.4595850" lon="17.9761760" user="Petr1868" uid="72020" visible="true" version="1" changeset="4571761" timestamp="2010-05-01T06:17:00Z"/>
 <node id="719289533" lat="49.4598440" lon="17.9782160" user="Petr1868" uid="72020" visible="true" version="1" changeset="4598212" timestamp="2010-05-03T19:30:48Z"/>
 <node id="719277866" lat="49.4593590" lon="17.9770770" user="Petr1868" uid="72020" visible="true" version="1" changeset="4598212" timestamp="2010-05-03T19:28:29Z"/>
 <node id="659067434" lat="49.4556636" lon="17.9628290" user="Mike Crash" uid="84326" visible="true" version="1" changeset="4016231" timestamp="2010-03-02T12:06:15Z"/>
 <node id="953989480" lat="49.4595122" lon="17.9788965" user="pavel" uid="1066" visible="true" version="1" changeset="6064070" timestamp="2010-10-17T08:41:17Z"/>
 <node id="719279706" lat="49.4595570" lon="17.9798860" user="Petr1868" uid="72020" visible="true" version="1" changeset="4598212" timestamp="2010-05-03T19:28:53Z"/>
 <node id="719292770" lat="49.4599440" lon="17.9778760" user="Petr1868" uid="72020" visible="true" version="1" changeset="4598212" timestamp="2010-05-03T19:31:24Z"/>
 <node id="719286504" lat="49.4598720" lon="17.9780750" user="Petr1868" uid="72020" visible="true" version="1" changeset="4598212" timestamp="2010-05-03T19:30:10Z"/>
 <node id="719273356" lat="49.4599290" lon="17.9780610" user="Petr1868" uid="72020" visible="true" version="1" changeset="4598212" timestamp="2010-05-03T19:27:33Z"/>
 <node id="719272424" lat="49.4595710" lon="17.9785070" user="Petr1868" uid="72020" visible="true" version="1" changeset="4598212" timestamp="2010-05-03T19:27:25Z"/>
 <node id="719279574" lat="49.4598370" lon="17.9781750" user="Petr1868" uid="72020" visible="true" version="1" changeset="4598212" timestamp="2010-05-03T19:28:52Z"/>
 <node id="1498540858" lat="49.4595388" lon="17.9776363" user="Tomas Pajonk" uid="305367" visible="true" version="1" changeset="9795740" timestamp="2011-11-11T11:50:52Z">
  <tag k="addr:conscriptionnumber" v="352"/>
  <tag k="addr:country" v="CZ"/>
  <tag k="addr:housenumber" v="352"/>
  <tag k="addr:street" v="Výletní"/>
  <tag k="is_in" v="Valašské Meziříčí, Zlínský kraj, CZ"/>
  <tag k="source:addr" v="mvcr:adresa"/>
  <tag k="source:loc" v="cuzk:km"/>
 </node>
 <node id="1498536956" lat="49.4597975" lon="17.9771600" user="Tomas Pajonk" uid="305367" visible="true" version="1" changeset="9795740" timestamp="2011-11-11T11:47:09Z">
  <tag k="addr:conscriptionnumber" v="1286"/>
  <tag k="addr:country" v="CZ"/>
  <tag k="addr:housenumber" v="1286"/>
  <tag k="addr:street" v="Výletní"/>
  <tag k="is_in" v="Valašské Meziříčí, Zlínský kraj, CZ"/>
  <tag k="source:addr" v="mvcr:adresa"/>
  <tag k="source:loc" v="cuzk:km"/>
 </node>
 <node id="714766014" lat="49.4596240" lon="17.9759120" user="Petr1868" uid="72020" visible="true" version="1" changeset="4571761" timestamp="2010-05-01T06:16:51Z"/>
 <node id="719275285" lat="49.4595700" lon="17.9776310" user="Petr1868" uid="72020" visible="true" version="1" changeset="4598212" timestamp="2010-05-03T19:28:00Z"/>
 <node id="719282427" lat="49.4598340" lon="17.9780970" user="Petr1868" uid="72020" visible="true" version="1" changeset="4598212" timestamp="2010-05-03T19:29:29Z"/>
 <node id="659067525" lat="49.4593253" lon="17.9763119" user="Mike Crash" uid="84326" visible="true" version="1" changeset="4016231" timestamp="2010-03-02T12:06:18Z"/>
 <node id="953375198" lat="49.4588293" lon="17.9676546" user="pavel" uid="1066" visible="true" version="1" changeset="6063283" timestamp="2010-10-17T02:49:46Z"/>
 <node id="1330367666" lat="49.4599964" lon="17.9840859" user="Tomas Pajonk" uid="305367" visible="true" version="1" changeset="8479851" timestamp="2011-06-19T04:10:38Z"/>
 <node id="659067551" lat="49.4585183" lon="17.9847331" user="Mike Crash" uid="84326" visible="true" version="1" changeset="4016231" timestamp="2010-03-02T12:06:19Z"/>
 <node id="719280341" lat="49.4596410" lon="17.9780680" user="Petr1868" uid="72020" visible="true" version="1" changeset="4598212" timestamp="2010-05-03T19:29:02Z"/>
 <node id="659067530" lat="49.4592933" lon="17.9825489" user="Mike Crash" uid="84326" visible="true" version="1" changeset="4016231" timestamp="2010-03-02T12:06:19Z"/>
 <node id="719289801" lat="49.4595760" lon="17.9777060" user="Petr1868" uid="72020" visible="true" version="1" changeset="4598212" timestamp="2010-05-03T19:30:50Z"/>
 <node id="659067522" lat="49.4596563" lon="17.9754907" user="Mike Crash" uid="84326" visible="true" version="1" changeset="4016231" timestamp="2010-03-02T12:06:18Z"/>
 <node id="714769731" lat="49.4597850" lon="17.9764070" user="Petr1868" uid="72020" visible="true" version="1" changeset="4571761" timestamp="2010-05-01T06:17:34Z"/>
 <node id="659067521" lat="49.4593150" lon="17.9770613" user="Mike Crash" uid="84326" visible="true" version="1" changeset="4016231" timestamp="2010-03-02T12:06:18Z"/>
 <node id="719281955" lat="49.4598290" lon="17.9779060" user="Petr1868" uid="72020" visible="true" version="1" changeset="4598212" timestamp="2010-05-03T19:29:23Z"/>
 <node id="659067553" lat="49.4582446" lon="17.9849924" user="Mike Crash" uid="84326" visible="true" version="1" changeset="4016231" timestamp="2010-03-02T12:06:20Z"/>
 <node id="719276408" lat="49.4597120" lon="17.9768350" user="Petr1868" uid="72020" visible="true" version="1" changeset="4598212" timestamp="2010-05-03T19:28:12Z"/>
 <node id="719167218" lat="49.4595250" lon="17.9822050" user="Petr1868" uid="72020" visible="true" version="1" changeset="4597683" timestamp="2010-05-03T18:43:41Z"/>
 <node id="719162103" lat="49.4596340" lon="17.9806810" user="Petr1868" uid="72020" visible="true" version="1" changeset="4597683" timestamp="2010-05-03T18:41:56Z"/>
 <node id="719286920" lat="49.4597800" lon="17.9772600" user="Petr1868" uid="72020" visible="true" version="1" changeset="4598212" timestamp="2010-05-03T19:30:17Z"/>
 <node id="719283846" lat="49.4596160" lon="17.9791220" user="Petr1868" uid="72020" visible="true" version="1" changeset="4598212" timestamp="2010-05-03T19:29:47Z"/>
 <node id="1330367669" lat="49.4600259" lon="17.9832242" user="Tomas Pajonk" uid="305367" visible="true" version="1" changeset="8479851" timestamp="2011-06-19T04:10:38Z"/>
 <node id="719290831" lat="49.4594640" lon="17.9775900" user="Petr1868" uid="72020" visible="true" version="1" changeset="4598212" timestamp="2010-05-03T19:31:01Z"/>
 <node id="1498537020" lat="49.4596613" lon="17.9799238" user="Tomas Pajonk" uid="305367" visible="true" version="1" changeset="9795740" timestamp="2011-11-11T11:47:11Z">
  <tag k="addr:conscriptionnumber" v="1292"/>
  <tag k="addr:country" v="CZ"/>
  <tag k="addr:housenumber" v="1292"/>
  <tag k="addr:street" v="Výletní"/>
  <tag k="is_in" v="Valašské Meziříčí, Zlínský kraj, CZ"/>
  <tag k="source:addr" v="mvcr:adresa"/>
  <tag k="source:loc" v="cuzk:km"/>
 </node>
 <node id="719281062" lat="49.4594820" lon="17.9777330" user="Petr1868" uid="72020" visible="true" version="1" changeset="4598212" timestamp="2010-05-03T19:29:12Z"/>
 <node id="719293820" lat="49.4597240" lon="17.9771780" user="Petr1868" uid="72020" visible="true" version="1" changeset="4598212" timestamp="2010-05-03T19:31:38Z"/>
 <node id="953558656" lat="49.4562928" lon="17.9876149" user="pavel" uid="1066" visible="true" version="1" changeset="6063283" timestamp="2010-10-17T04:52:24Z"/>
 <node id="719275131" lat="49.4595540" lon="17.9784280" user="Petr1868" uid="72020" visible="true" version="1" changeset="4598212" timestamp="2010-05-03T19:27:57Z"/>
 <node id="719280875" lat="49.4597140" lon="17.9791480" user="Petr1868" uid="72020" visible="true" version="1" changeset="4598212" timestamp="2010-05-03T19:29:09Z"/>
 <node id="659067515" lat="49.4601571" lon="17.9741751" user="Mike Crash" uid="84326" visible="true" version="1" changeset="4016231" timestamp="2010-03-02T12:06:18Z"/>
 <node id="428270865" lat="49.4578926" lon="17.9857878" user="Petr Dlouhý" uid="17615" visible="true" version="1" changeset="1600136" timestamp="2009-06-23T09:31:09Z"/>
 <node id="428270848" lat="49.4595752" lon="17.9765038" user="Petr Dlouhý" uid="17615" visible="true" version="1" changeset="1600136" timestamp="2009-06-23T09:31:09Z"/>
 <node id="719160714" lat="49.4597360" lon="17.9809730" user="Petr1868" uid="72020" visible="true" version="1" changeset="4597683" timestamp="2010-05-03T18:41:29Z"/>
 <node id="719281414" lat="49.4597200" lon="17.9769610" user="Petr1868" uid="72020" visible="true" version="1" changeset="4598212" timestamp="2010-05-03T19:29:16Z"/>
 <node id="719286738" lat="49.4599410" lon="17.9773550" user="Petr1868" uid="72020" visible="true" version="1" changeset="4598212" timestamp="2010-05-03T19:30:13Z"/>
 <node id="659067524" lat="49.4593299" lon="17.9766991" user="Mike Crash" uid="84326" visible="true" version="1" changeset="4016231" timestamp="2010-03-02T12:06:18Z"/>
 <node id="953654448" lat="49.4601000" lon="17.9741989" user="pavel" uid="1066" visible="true" version="1" changeset="6063620" timestamp="2010-10-17T05:58:52Z"/>
 <node id="659067406" lat="49.4531291" lon="17.9587198" user="Mike Crash" uid="84326" visible="true" version="1" changeset="4016231" timestamp="2010-03-02T12:06:14Z"/>
 <node id="719281395" lat="49.4596850" lon="17.9795250" user="Petr1868" uid="72020" visible="true" version="1" changeset="4598212" timestamp="2010-05-03T19:29:16Z"/>
 <node id="719283626" lat="49.4597960" lon="17.9765260" user="Petr1868" uid="72020" visible="true" version="1" changeset="4598212" timestamp="2010-05-03T19:29:45Z"/>
 <node id="719166768" lat="49.4597010" lon="17.9813560" user="Petr1868" uid="72020" visible="true" version="1" changeset="4597683" timestamp="2010-05-03T18:43:31Z"/>
 <node id="719277021" lat="49.4595690" lon="17.9795730" user="Petr1868" uid="72020" visible="true" version="1" changeset="4598212" timestamp="2010-05-03T19:28:19Z"/>
 <node id="719286894" lat="49.4596470" lon="17.9798950" user="Petr1868" uid="72020" visible="true" version="1" changeset="4598212" timestamp="2010-05-03T19:30:17Z"/>
 <node id="659067404" lat="49.4548652" lon="17.9609173" user="Mike Crash" uid="84326" visible="true" version="1" changeset="4016231" timestamp="2010-03-02T12:06:14Z"/>
 <node id="428270854" lat="49.4598231" lon="17.9812045" user="Petr Dlouhý" uid="17615" visible="true" version="1" changeset="1600136" timestamp="2009-06-23T09:31:09Z"/>
 <node id="954357999" lat="49.4594018" lon="17.9778435" user="pavel" uid="1066" visible="true" version="1" changeset="6065032" timestamp="2010-10-17T11:26:26Z"/>
 <node id="952958046" lat="49.4592193" lon="17.9770714" user="pavel" uid="1066" visible="true" version="1" changeset="6062166" timestamp="2010-10-16T23:25:48Z"/>
 <node id="719167300" lat="49.4597200" lon="17.9806820" user="Petr1868" uid="72020" visible="true" version="1" changeset="4597683" timestamp="2010-05-03T18:43:44Z"/>
 <node id="719275665" lat="49.4596060" lon="17.9795970" user="Petr1868" uid="72020" visible="true" version="1" changeset="4598212" timestamp="2010-05-03T19:28:03Z"/>
 <node id="659067547" lat="49.4572280" lon="17.9858249" user="Mike Crash" uid="84326" visible="true" version="1" changeset="4016231" timestamp="2010-03-02T12:06:19Z"/>
 <node id="428270873" lat="49.4568821" lon="17.9874817" user="Petr Dlouhý" uid="17615" visible="true" version="1" changeset="1600136" timestamp="2009-06-23T09:31:09Z"/>
 <node id="719274731" lat="49.4595560" lon="17.9775030" user="Petr1868" uid="72020" visible="true" version="1" changeset="4598212" timestamp="2010-05-03T19:27:51Z"/>
 <node id="719169510" lat="49.4596870" lon="17.9809850" user="Petr1868" uid="72020" visible="true" version="1" changeset="4597683" timestamp="2010-05-03T18:44:34Z"/>
 <node id="719162018" lat="49.4595640" lon="17.9822120" user="Petr1868" uid="72020" visible="true" version="1" changeset="4597683" timestamp="2010-05-03T18:41:54Z"/>
 <node id="719273699" lat="49.4597120" lon="17.9768970" user="Petr1868" uid="72020" visible="true" version="1" changeset="4598212" timestamp="2010-05-03T19:27:37Z"/>
 <node id="953021776" lat="49.4591774" lon="17.9693129" user="pavel" uid="1066" visible="true" version="1" changeset="6062166" timestamp="2010-10-16T23:50:28Z"/>
 <node id="719278537" lat="49.4596270" lon="17.9795750" user="Petr1868" uid="72020" visible="true" version="1" changeset="4598212" timestamp="2010-05-03T19:28:38Z"/>
 <node id="719284648" lat="49.4597200" lon="17.9768920" user="Petr1868" uid="72020" visible="true" version="1" changeset="4598212" timestamp="2010-05-03T19:29:54Z"/>
 <node id="659067419" lat="49.4546574" lon="17.9684522" user="Mike Crash" uid="84326" visible="true" version="1" changeset="4016231" timestamp="2010-03-02T12:06:14Z"/>
 <node id="719273042" lat="49.4598020" lon="17.9766020" user="Petr1868" uid="72020" visible="true" version="1" changeset="4598212" timestamp="2010-05-03T19:27:30Z"/>
 <node id="719276229" lat="49.4595740" lon="17.9775580" user="Petr1868" uid="72020" visible="true" version="1" changeset="4598212" timestamp="2010-05-03T19:28:10Z"/>
 <node id="719287579" lat="49.4595760" lon="17.9776220" user="Petr1868" uid="72020" visible="true" version="1" changeset="4598212" timestamp="2010-05-03T19:30:27Z"/>
 <node id="659067533" lat="49.4593830" lon="17.9822318" user="Mike Crash" uid="84326" visible="true" version="1" changeset="4016231" timestamp="2010-03-02T12:06:19Z"/>
 <node id="659067531" lat="49.4594310" lon="17.9812003" user="Mike Crash" uid="84326" visible="true" version="1" changeset="4016231" timestamp="2010-03-02T12:06:19Z"/>
 <node id="954009012" lat="49.4600737" lon="17.9741184" user="pavel" uid="1066" visible="true" version="1" changeset="6064070" timestamp="2010-10-17T08:48:09Z"/>
 <node id="953626941" lat="49.4594173" lon="17.9760371" user="pavel" uid="1066" visible="true" version="1" changeset="6063620" timestamp="2010-10-17T05:40:56Z"/>
 <node id="719288929" lat="49.4596870" lon="17.9794750" user="Petr1868" uid="72020" visible="true" version="1" changeset="4598212" timestamp="2010-05-03T19:30:43Z"/>
 <node id="659067523" lat="49.4594966" lon="17.9758451" user="Mike Crash" uid="84326" visible="true" version="1" changeset="4016231" timestamp="2010-03-02T12:06:18Z"/>
 <node id="659067426" lat="49.4550080" lon="17.9676560" user="Mike Crash" uid="84326" visible="true" version="1" changeset="4016231" timestamp="2010-03-02T12:06:14Z"/>
 <node id="659067428" lat="49.4554390" lon="17.9710034" user="Mike Crash" uid="84326" visible="true" version="1" changeset="4016231" timestamp="2010-03-02T12:06:14Z"/>
 <node id="659067554" lat="49.4567975" lon="17.9940321" user="Mike Crash" uid="84326" visible="true" version="1" changeset="4016231" timestamp="2010-03-02T12:06:20Z"/>
 <node id="659067520" lat="49.4592905" lon="17.9772585" user="Mike Crash" uid="84326" visible="true" version="1" changeset="4016231" timestamp="2010-03-02T12:06:18Z"/>
 <node id="719280502" lat="49.4596990" lon="17.9794800" user="Petr1868" uid="72020" visible="true" version="1" changeset="4598212" timestamp="2010-05-03T19:29:04Z"/>
 <node id="719274150" lat="49.4598140" lon="17.9777700" user="Petr1868" uid="72020" visible="true" version="1" changeset="4598212" timestamp="2010-05-03T19:27:42Z"/>
 <node id="719164312" lat="49.4596550" lon="17.9809870" user="Petr1868" uid="72020" visible="true" version="1" changeset="4597683" timestamp="2010-05-03T18:42:43Z"/>
 <node id="659067420" lat="49.4548589" lon="17.9635772" user="Mike Crash" uid="84326" visible="true" version="1" changeset="4016231" timestamp="2010-03-02T12:06:14Z"/>
 <node id="719280214" lat="49.4595760" lon="17.9785980" user="Petr1868" uid="72020" visible="true" version="1" changeset="4598212" timestamp="2010-05-03T19:29:00Z"/>
 <node id="1498544710" lat="49.4599225" lon="17.9774813" user="Tomas Pajonk" uid="305367" visible="true" version="1" changeset="9795740" timestamp="2011-11-11T11:54:09Z">
  <tag k="addr:conscriptionnumber" v="659"/>
  <tag k="addr:country" v="CZ"/>
  <tag k="addr:housenumber" v="659"/>
  <tag k="addr:street" v="Výletní"/>
  <tag k="is_in" v="Valašské Meziříčí, Zlínský kraj, CZ"/>
  <tag k="source:addr" v="mvcr:adresa"/>
  <tag k="source:loc" v="cuzk:km"/>
 </node>
 <node id="952805130" lat="49.4567494" lon="17.9866526" user="pavel" uid="1066" visible="true" version="1" changeset="6062166" timestamp="2010-10-16T22:32:48Z"/>
 <node id="719287552" lat="49.4598850" lon="17.9787620" user="Petr1868" uid="72020" visible="true" version="1" changeset="4598212" timestamp="2010-05-03T19:30:27Z"/>
 <node id="719280056" lat="49.4595220" lon="17.9770160" user="Petr1868" uid="72020" visible="true" version="1" changeset="4598212" timestamp="2010-05-03T19:28:58Z"/>
 <node id="952992432" lat="49.4598142" lon="17.9753848" user="pavel" uid="1066" visible="true" version="1" changeset="6062166" timestamp="2010-10-16T23:39:52Z"/>
 <node id="719280317" lat="49.4599510" lon="17.9782810" user="Petr1868" uid="72020" visible="true" version="1" changeset="4598212" timestamp="2010-05-03T19:29:02Z"/>
 <node id="953915770" lat="49.4593489" lon="17.9806430" user="pavel" uid="1066" visible="true" version="1" changeset="6064070" timestamp="2010-10-17T08:14:08Z"/>
 <node id="1498540239" lat="49.4597875" lon="17.9768563" user="Tomas Pajonk" uid="305367" visible="true" version="1" changeset="9795740" timestamp="2011-11-11T11:49:57Z">
  <tag k="addr:conscriptionnumber" v="282"/>
  <tag k="addr:country" v="CZ"/>
  <tag k="addr:housenumber" v="282"/>
  <tag k="addr:street" v="Výletní"/>
  <tag k="is_in" v="Valašské Meziříčí, Zlínský kraj, CZ"/>
  <tag k="source:addr" v="mvcr:adresa"/>
  <tag k="source:loc" v="cuzk:km"/>
 </node>
 <node id="659067552" lat="49.4578468" lon="17.9856012" user="Mike Crash" uid="84326" visible="true" version="1" changeset="4016231" timestamp="2010-03-02T12:06:19Z"/>
 <node id="659067536" lat="49.4593915" lon="17.9817598" user="Mike Crash" uid="84326" visible="true" version="1" changeset="4016231" timestamp="2010-03-02T12:06:19Z"/>
 <node id="719279221" lat="49.4596860" lon="17.9794580" user="Petr1868" uid="72020" visible="true" version="1" changeset="4598212" timestamp="2010-05-03T19:28:47Z"/>
 <node id="719281775" lat="49.4598650" lon="17.9784660" user="Petr1868" uid="72020" visible="true" version="1" changeset="4598212" timestamp="2010-05-03T19:29:21Z"/>
 <node id="719275492" lat="49.4598260" lon="17.9771470" user="Petr1868" uid="72020" visible="true" version="1" changeset="4598212" timestamp="2010-05-03T19:28:01Z"/>
 <node id="719168956" lat="49.4595690" lon="17.9821860" user="Petr1868" uid="72020" visible="true" version="1" changeset="4597683" timestamp="2010-05-03T18:44:22Z"/>
 <node id="659067417" lat="49.4540453" lon="17.9642048" user="Mike Crash" uid="84326" visible="true" version="1" changeset="4016231" timestamp="2010-03-02T12:06:14Z"/>
 <node id="1498540751" lat="49.4596388" lon="17.9785025" user="Tomas Pajonk" uid="305367" visible="true" version="1" changeset="9795740" timestamp="2011-11-11T11:50:40Z">
  <tag k="addr:conscriptionnumber" v="338"/>
  <tag k="addr:country" v="CZ"/>
  <tag k="addr:housenumber" v="338"/>
  <tag k="addr:street" v="Výletní"/>
  <tag k="is_in" v="Valašské Meziříčí, Zlínský kraj, CZ"/>
  <tag k="source:addr" v="mvcr:adresa"/>
  <tag k="source:loc" v="cuzk:km"/>
 </node>
 <node id="719292556" lat="49.4595450" lon="17.9780160" user="Petr1868" uid="72020" visible="true" version="1" changeset="4598212" timestamp="2010-05-03T19:31:22Z"/>
 <node id="719280674" lat="49.4597610" lon="17.9766120" user="Petr1868" uid="72020" visible="true" version="1" changeset="4598212" timestamp="2010-05-03T19:29:06Z"/>
 <node id="719284392" lat="49.4597120" lon="17.9771750" user="Petr1868" uid="72020" visible="true" version="1" changeset="4598212" timestamp="2010-05-03T19:29:52Z"/>
 <node id="659067545" lat="49.4568417" lon="17.9863212" user="Mike Crash" uid="84326" visible="true" version="1" changeset="4016231" timestamp="2010-03-02T12:06:19Z"/>
 <node id="659067414" lat="49.4559521" lon="17.9622074" user="Mike Crash" uid="84326" visible="true" version="1" changeset="4016231" timestamp="2010-03-02T12:06:14Z"/>
 <node id="659067402" lat="49.4542942" lon="17.9601099" user="Mike Crash" uid="84326" visible="true" version="1" changeset="4016231" timestamp="2010-03-02T12:06:13Z"/>
 <node id="719290808" lat="49.4598460" lon="17.9783110" user="Petr1868" uid="72020" visible="true" version="1" changeset="4598212" timestamp="2010-05-03T19:31:01Z"/>
 <node id="954337654" lat="49.4593002" lon="17.9824913" user="pavel" uid="1066" visible="true" version="1" changeset="6065032" timestamp="2010-10-17T11:17:18Z"/>
 <node id="714769187" lat="49.4596540" lon="17.9759430" user="Petr1868" uid="72020" visible="true" version="1" changeset="4571761" timestamp="2010-05-01T06:17:27Z"/>
 <node id="719277218" lat="49.4594460" lon="17.9771570" user="Petr1868" uid="72020" visible="true" version="1" changeset="4598212" timestamp="2010-05-03T19:28:21Z"/>
 <node id="1330367668" lat="49.4600354" lon="17.9833194" user="Tomas Pajonk" uid="305367" visible="true" version="1" changeset="8479851" timestamp="2011-06-19T04:10:38Z"/>
 <node id="953337102" lat="49.4599167" lon="17.9751676" user="pavel" uid="1066" visible="true" version="1" changeset="6063283" timestamp="2010-10-17T02:31:54Z"/>
 <node id="954064100" lat="49.4593012" lon="17.9702743" user="pavel" uid="1066" visible="true" version="1" changeset="6064070" timestamp="2010-10-17T09:04:26Z"/>
 <node id="659067560" lat="49.4561090" lon="17.9926265" user="Mike Crash" uid="84326" visible="true" version="1" changeset="4016231" timestamp="2010-03-02T12:06:20Z"/>
 <node id="719161127" lat="49.4596090" lon="17.9821980" user="Petr1868" uid="72020" visible="true" version="1" changeset="4597683" timestamp="2010-05-03T18:41:37Z"/>
 <node id="659067540" lat="49.4593957" lon="17.9827564" user="Mike Crash" uid="84326" visible="true" version="1" changeset="4016231" timestamp="2010-03-02T12:06:19Z"/>
 <node id="659067535" lat="49.4595021" lon="17.9796393" user="Mike Crash" uid="84326" visible="true" version="1" changeset="4016231" timestamp="2010-03-02T12:06:19Z"/>
 <node id="719291268" lat="49.4597660" lon="17.9766820" user="Petr1868" uid="72020" visible="true" version="1" changeset="4598212" timestamp="2010-05-03T19:31:06Z"/>
 <node id="1498540919" lat="49.4596238" lon="17.9780925" user="Tomas Pajonk" uid="305367" visible="true" version="1" changeset="9795740" timestamp="2011-11-11T11:50:55Z">
  <tag k="addr:conscriptionnumber" v="356"/>
  <tag k="addr:country" v="CZ"/>
  <tag k="addr:housenumber" v="356"/>
  <tag k="addr:street" v="Výletní"/>
  <tag k="is_in" v="Valašské Meziříčí, Zlínský kraj, CZ"/>
  <tag k="source:addr" v="mvcr:adresa"/>
  <tag k="source:loc" v="cuzk:km"/>
 </node>
 <node id="719287405" lat="49.4596460" lon="17.9784160" user="Petr1868" uid="72020" visible="true" version="1" changeset="4598212" timestamp="2010-05-03T19:30:25Z"/>
 <node id="659067437" lat="49.4578438" lon="17.9710594" user="Mike Crash" uid="84326" visible="true" version="1" changeset="4016231" timestamp="2010-03-02T12:06:15Z"/>
 <node id="719274765" lat="49.4598740" lon="17.9773750" user="Petr1868" uid="72020" visible="true" version="1" changeset="4598212" timestamp="2010-05-03T19:27:52Z"/>
 <node id="719284976" lat="49.4593740" lon="17.9771930" user="Petr1868" uid="72020" visible="true" version="1" changeset="4598212" timestamp="2010-05-03T19:29:57Z"/>
 <node id="954500511" lat="49.4590220" lon="17.9844025" user="pavel" uid="1066" visible="true" version="1" changeset="6066201" timestamp="2010-10-17T12:15:36Z"/>
 <node id="428270867" lat="49.4574684" lon="17.9860738" user="Petr Dlouhý" uid="17615" visible="true" version="1" changeset="1600136" timestamp="2009-06-23T09:31:09Z"/>
 <node id="954421470" lat="49.4592154" lon="17.9698309" user="pavel" uid="1066" visible="true" version="1" changeset="6065032" timestamp="2010-10-17T11:50:53Z"/>
 <node id="659067526" lat="49.4598041" lon="17.9736974" user="Mike Crash" uid="84326" visible="true" version="1" changeset="4016231" timestamp="2010-03-02T12:06:18Z"/>
 <node id="714766468" lat="49.4597750" lon="17.9763050" user="Petr1868" uid="72020" visible="true" version="1" changeset="4571761" timestamp="2010-05-01T06:16:58Z"/>
 <node id="714769725" lat="49.4595940" lon="17.9761100" user="Petr1868" uid="72020" visible="true" version="1" changeset="4571761" timestamp="2010-05-01T06:17:34Z"/>
 <node id="428270852" lat="49.4597277" lon="17.9781685" user="Petr Dlouhý" uid="17615" visible="true" version="1" changeset="1600136" timestamp="2009-06-23T09:31:09Z"/>
 <node id="659067413" lat="49.4550895" lon="17.9616619" user="Mike Crash" uid="84326" visible="true" version="1" changeset="4016231" timestamp="2010-03-02T12:06:14Z"/>
 <node id="659067518" lat="49.4599431" lon="17.9751464" user="Mike Crash" uid="84326" visible="true" version="1" changeset="4016231" timestamp="2010-03-02T12:06:18Z"/>
 <node id="659067549" lat="49.4562283" lon="17.9878737" user="Mike Crash" uid="84326" visible="true" version="1" changeset="4016231" timestamp="2010-03-02T12:06:19Z"/>
 <node id="952930639" lat="49.4593461" lon="17.9818457" user="pavel" uid="1066" visible="true" version="1" changeset="6062166" timestamp="2010-10-16T23:15:41Z"/>
 <node id="659067516" lat="49.4594263" lon="17.9761872" user="Mike Crash" uid="84326" visible="true" version="1" changeset="4016231" timestamp="2010-03-02T12:06:18Z"/>
 <node id="719273996" lat="49.4596300" lon="17.9780680" user="Petr1868" uid="72020" visible="true" version="1" changeset="4598212" timestamp="2010-05-03T19:27:41Z"/>
 <node id="659067534" lat="49.4591766" lon="17.9839500" user="Mike Crash" uid="84326" visible="true" version="1" changeset="4016231" timestamp="2010-03-02T12:06:19Z"/>
 <node id="719172282" lat="49.4596460" lon="17.9813610" user="Petr1868" uid="72020" visible="true" version="1" changeset="4597683" timestamp="2010-05-03T18:45:36Z"/>
 <node id="719275706" lat="49.4598560" lon="17.9765130" user="Petr1868" uid="72020" visible="true" version="1" changeset="4598212" timestamp="2010-05-03T19:28:03Z"/>
 <node id="719282117" lat="49.4598670" lon="17.9766570" user="Petr1868" uid="72020" visible="true" version="1" changeset="4598212" timestamp="2010-05-03T19:29:25Z"/>
 <node id="428270871" lat="49.4570108" lon="17.9868437" user="Petr Dlouhý" uid="17615" visible="true" version="1" changeset="1600136" timestamp="2009-06-23T09:31:09Z"/>
 <node id="719287994" lat="49.4596250" lon="17.9795970" user="Petr1868" uid="72020" visible="true" version="1" changeset="4598212" timestamp="2010-05-03T19:30:32Z"/>
 <node id="1498540253" lat="49.4598388" lon="17.9765925" user="Tomas Pajonk" uid="305367" visible="true" version="1" changeset="9795740" timestamp="2011-11-11T11:49:58Z">
  <tag k="addr:conscriptionnumber" v="284"/>
  <tag k="addr:country" v="CZ"/>
  <tag k="addr:housenumber" v="284"/>
  <tag k="addr:street" v="Výletní"/>
  <tag k="is_in" v="Valašské Meziříčí, Zlínský kraj, CZ"/>
  <tag k="source:addr" v="mvcr:adresa"/>
  <tag k="source:loc" v="cuzk:km"/>
 </node>
 <node id="1498540573" lat="49.4596838" lon="17.9790688" user="Tomas Pajonk" uid="305367" visible="true" version="1" changeset="9795740" timestamp="2011-11-11T11:50:25Z">
  <tag k="addr:conscriptionnumber" v="317"/>
  <tag k="addr:country" v="CZ"/>
  <tag k="addr:housenumber" v="317"/>
  <tag k="addr:street" v="Výletní"/>
  <tag k="is_in" v="Valašské Meziříčí, Zlínský kraj, CZ"/>
  <tag k="source:addr" v="mvcr:adresa"/>
  <tag k="source:loc" v="cuzk:km"/>
 </node>
 <node id="719169054" lat="49.4596370" lon="17.9808270" user="Petr1868" uid="72020" visible="true" version="1" changeset="4597683" timestamp="2010-05-03T18:44:24Z"/>
 <node id="659067427" lat="49.4594031" lon="17.9717860" user="Mike Crash" uid="84326" visible="true" version="1" changeset="4016231" timestamp="2010-03-02T12:06:14Z"/>
 <node id="659067440" lat="49.4565640" lon="17.9710974" user="Mike Crash" uid="84326" visible="true" version="1" changeset="4016231" timestamp="2010-03-02T12:06:15Z"/>
 <node id="659067438" lat="49.4572686" lon="17.9717204" user="Mike Crash" uid="84326" visible="true" version="1" changeset="4016231" timestamp="2010-03-02T12:06:15Z"/>
 <node id="1330367667" lat="49.4600647" lon="17.9839055" user="Tomas Pajonk" uid="305367" visible="true" version="1" changeset="8479851" timestamp="2011-06-19T04:10:38Z"/>
 <node id="1498540852" lat="49.4595325" lon="17.9774988" user="Tomas Pajonk" uid="305367" visible="true" version="1" changeset="9795740" timestamp="2011-11-11T11:50:52Z">
  <tag k="addr:conscriptionnumber" v="351"/>
  <tag k="addr:country" v="CZ"/>
  <tag k="addr:housenumber" v="351"/>
  <tag k="addr:street" v="Výletní"/>
  <tag k="is_in" v="Valašské Meziříčí, Zlínský kraj, CZ"/>
  <tag k="source:addr" v="mvcr:adresa"/>
  <tag k="source:loc" v="cuzk:km"/>
 </node>
 <node id="428270878" lat="49.4561194" lon="17.9887284" user="Petr Dlouhý" uid="17615" visible="true" version="1" changeset="1600136" timestamp="2009-06-23T09:31:10Z"/>
 <node id="719290704" lat="49.4596550" lon="17.9785870" user="Petr1868" uid="72020" visible="true" version="1" changeset="4598212" timestamp="2010-05-03T19:30:59Z"/>
 <node id="953603670" lat="49.4594675" lon="17.9815764" user="pavel" uid="1066" visible="true" version="1" changeset="6063620" timestamp="2010-10-17T05:21:58Z"/>
 <node id="714768161" lat="49.4598520" lon="17.9763920" user="Petr1868" uid="72020" visible="true" version="1" changeset="4571761" timestamp="2010-05-01T06:17:15Z"/>
 <node id="953583397" lat="49.4571694" lon="17.9858525" user="pavel" uid="1066" visible="true" version="1" changeset="6063283" timestamp="2010-10-17T05:11:15Z"/>
 <node id="719291013" lat="49.4598340" lon="17.9772310" user="Petr1868" uid="72020" visible="true" version="1" changeset="4598212" timestamp="2010-05-03T19:31:03Z"/>
 <node id="954296243" lat="49.4584005" lon="17.9848102" user="pavel" uid="1066" visible="true" version="1" changeset="6065032" timestamp="2010-10-17T10:50:16Z"/>
 <node id="719273671" lat="49.4596970" lon="17.9795230" user="Petr1868" uid="72020" visible="true" version="1" changeset="4598212" timestamp="2010-05-03T19:27:36Z"/>
 <node id="719164767" lat="49.4596450" lon="17.9812760" user="Petr1868" uid="72020" visible="true" version="1" changeset="4597683" timestamp="2010-05-03T18:42:52Z"/>
 <node id="1498540513" lat="49.4599088" lon="17.9783725" user="Tomas Pajonk" uid="305367" visible="true" version="1" changeset="9795740" timestamp="2011-11-11T11:50:19Z">
  <tag k="addr:conscriptionnumber" v="307"/>
  <tag k="addr:country" v="CZ"/>
  <tag k="addr:housenumber" v="307"/>
  <tag k="addr:street" v="Výletní"/>
  <tag k="is_in" v="Valašské Meziříčí, Zlínský kraj, CZ"/>
  <tag k="source:addr" v="mvcr:adresa"/>
  <tag k="source:loc" v="cuzk:km"/>
 </node>
 <node id="719165213" lat="49.4596170" lon="17.9820470" user="Petr1868" uid="72020" visible="true" version="1" changeset="4597683" timestamp="2010-05-03T18:43:01Z"/>
 <node id="719292076" lat="49.4596850" lon="17.9795760" user="Petr1868" uid="72020" visible="true" version="1" changeset="4598212" timestamp="2010-05-03T19:31:16Z"/>
 <node id="659067558" lat="49.4562617" lon="17.9930764" user="Mike Crash" uid="84326" visible="true" version="1" changeset="4016231" timestamp="2010-03-02T12:06:20Z"/>
 <node id="719278411" lat="49.4598020" lon="17.9770610" user="Petr1868" uid="72020" visible="true" version="1" changeset="4598212" timestamp="2010-05-03T19:28:36Z"/>
 <node id="719166327" lat="49.4597350" lon="17.9811420" user="Petr1868" uid="72020" visible="true" version="1" changeset="4597683" timestamp="2010-05-03T18:43:21Z"/>
 <node id="719278180" lat="49.4598770" lon="17.9786610" user="Petr1868" uid="72020" visible="true" version="1" changeset="4598212" timestamp="2010-05-03T19:28:33Z"/>
 <node id="953331963" lat="49.4594541" lon="17.9799886" user="pavel" uid="1066" visible="true" version="1" changeset="6063283" timestamp="2010-10-17T02:29:51Z"/>
 <node id="953542432" lat="49.4569709" lon="17.9862242" user="pavel" uid="1066" visible="true" version="1" changeset="6063283" timestamp="2010-10-17T04:34:54Z"/>
 <node id="714769880" lat="49.4595300" lon="17.9761170" user="Petr1868" uid="72020" visible="true" version="1" changeset="4571761" timestamp="2010-05-01T06:17:37Z"/>
 <node id="719285541" lat="49.4599270" lon="17.9777380" user="Petr1868" uid="72020" visible="true" version="1" changeset="4598212" timestamp="2010-05-03T19:30:02Z"/>
 <node id="1330367664" lat="49.4600354" lon="17.9853034" user="Tomas Pajonk" uid="305367" visible="true" version="1" changeset="8479851" timestamp="2011-06-19T04:10:38Z"/>
 <node id="659067430" lat="49.4594840" lon="17.9725505" user="Mike Crash" uid="84326" visible="true" version="1" changeset="4016231" timestamp="2010-03-02T12:06:15Z"/>
 <node id="719291699" lat="49.4599420" lon="17.9786480" user="Petr1868" uid="72020" visible="true" version="1" changeset="4598212" timestamp="2010-05-03T19:31:11Z"/>
 <node id="659067550" lat="49.4559167" lon="17.9887198" user="Mike Crash" uid="84326" visible="true" version="1" changeset="4016231" timestamp="2010-03-02T12:06:19Z"/>
 <node id="719286703" lat="49.4595460" lon="17.9774110" user="Petr1868" uid="72020" visible="true" version="1" changeset="4598212" timestamp="2010-05-03T19:30:13Z"/>
 <node id="954255726" lat="49.4564955" lon="17.9870268" user="pavel" uid="1066" visible="true" version="1" changeset="6065032" timestamp="2010-10-17T10:28:19Z"/>
 <node id="428270859" lat="49.4590175" lon="17.9845924" user="Petr Dlouhý" uid="17615" visible="true" version="1" changeset="1600136" timestamp="2009-06-23T09:31:09Z"/>
 <node id="719278208" lat="49.4595690" lon="17.9775680" user="Petr1868" uid="72020" visible="true" version="1" changeset="4598212" timestamp="2010-05-03T19:28:34Z"/>
 <node id="659067436" lat="49.4568223" lon="17.9721144" user="Mike Crash" uid="84326" visible="true" version="1" changeset="4016231" timestamp="2010-03-02T12:06:15Z"/>
 <node id="659067431" lat="49.4566649" lon="17.9712774" user="Mike Crash" uid="84326" visible="true" version="1" changeset="4016231" timestamp="2010-03-02T12:06:15Z"/>
 <node id="659067543" lat="49.4595448" lon="17.9791348" user="Mike Crash" uid="84326" visible="true" version="1" changeset="4016231" timestamp="2010-03-02T12:06:19Z"/>
 <node id="1498535810" lat="49.4596713" lon="17.9795000" user="Tomas Pajonk" uid="305367" visible="true" version="1" changeset="9795740" timestamp="2011-11-11T11:46:44Z">
  <tag k="addr:conscriptionnumber" v="1199"/>
  <tag k="addr:country" v="CZ"/>
  <tag k="addr:housenumber" v="1199"/>
  <tag k="addr:street" v="Výletní"/>
  <tag k="is_in" v="Valašské Meziříčí, Zlínský kraj, CZ"/>
  <tag k="source:addr" v="mvcr:adresa"/>
  <tag k="source:loc" v="cuzk:km"/>
 </node>
 <node id="719292105" lat="49.4595310" lon="17.9771450" user="Petr1868" uid="72020" visible="true" version="1" changeset="4598212" timestamp="2010-05-03T19:31:16Z"/>
 <node id="719274611" lat="49.4598690" lon="17.9780910" user="Petr1868" uid="72020" visible="true" version="1" changeset="4598212" timestamp="2010-05-03T19:27:49Z"/>
 <node id="719283071" lat="49.4595570" lon="17.9785060" user="Petr1868" uid="72020" visible="true" version="1" changeset="4598212" timestamp="2010-05-03T19:29:38Z"/>
 <node id="953895818" lat="49.4578200" lon="17.9855266" user="pavel" uid="1066" visible="true" version="1" changeset="6064070" timestamp="2010-10-17T08:05:15Z"/>
 <way id="57960167" user="Petr1868" uid="72020" visible="true" version="1" changeset="4597683" timestamp="2010-05-03T18:46:03Z">
  <nd ref="719160714"/>
  <nd ref="719167708"/>
  <nd ref="719162527"/>
  <nd ref="719169510"/>
  <nd ref="719164312"/>
  <nd ref="719171591"/>
  <nd ref="719166327"/>
  <nd ref="719170597"/>
  <nd ref="719160714"/>
  <tag k="building" v="yes"/>
  <tag k="source" v="cuzk:km"/>
 </way>
 <way id="57968642" user="trekki" uid="119785" visible="true" version="2" changeset="5012711" timestamp="2010-06-17T21:49:13Z">
  <nd ref="719279706"/>
  <nd ref="719293527"/>
  <nd ref="719274817"/>
  <nd ref="719286894"/>
  <nd ref="719279706"/>
  <tag k="building" v="yes"/>
  <tag k="source" v="cuzk:km"/>
 </way>
 <way id="57968245" user="Petr1868" uid="72020" visible="true" version="1" changeset="4598212" timestamp="2010-05-03T19:32:34Z">
  <nd ref="719292770"/>
  <nd ref="719281955"/>
  <nd ref="719274150"/>
  <nd ref="719285541"/>
  <nd ref="719292770"/>
  <tag k="building" v="yes"/>
  <tag k="source" v="cuzk:km"/>
 </way>
 <way id="57960852" user="Petr1868" uid="72020" visible="true" version="1" changeset="4597683" timestamp="2010-05-03T18:47:22Z">
  <nd ref="719165213"/>
  <nd ref="719172756"/>
  <nd ref="719167218"/>
  <nd ref="719162018"/>
  <nd ref="719168956"/>
  <nd ref="719161127"/>
  <nd ref="719165213"/>
  <tag k="building" v="yes"/>
  <tag k="source" v="cuzk:km"/>
 </way>
 <way id="57635273" user="Petr1868" uid="72020" visible="true" version="1" changeset="4571761" timestamp="2010-05-01T06:18:04Z">
  <nd ref="714769187"/>
  <nd ref="714766014"/>
  <nd ref="714769880"/>
  <nd ref="714766632"/>
  <nd ref="714767279"/>
  <nd ref="714769725"/>
  <nd ref="714768317"/>
  <nd ref="714770370"/>
  <nd ref="714769187"/>
  <tag k="building" v="yes"/>
  <tag k="source" v="cuzk:km"/>
 </way>
 <way id="81933672" user="pavel" uid="1066" visible="true" version="1" changeset="6066201" timestamp="2010-10-17T16:33:37Z">
  <nd ref="953558656"/>
  <nd ref="953843201"/>
  <nd ref="954255726"/>
  <nd ref="952805130"/>
  <nd ref="953187509"/>
  <nd ref="953542432"/>
  <nd ref="953583397"/>
  <nd ref="953895818"/>
  <nd ref="954296243"/>
  <nd ref="952865525"/>
  <nd ref="953220074"/>
  <nd ref="954500511"/>
  <nd ref="953857955"/>
  <nd ref="954278195"/>
  <nd ref="954337654"/>
  <nd ref="952930639"/>
  <nd ref="953275682"/>
  <nd ref="953603670"/>
  <nd ref="953915770"/>
  <nd ref="954316754"/>
  <nd ref="952895302"/>
  <nd ref="953249651"/>
  <nd ref="953331963"/>
  <nd ref="953645947"/>
  <nd ref="953989480"/>
  <nd ref="954357999"/>
  <nd ref="952958046"/>
  <nd ref="953301857"/>
  <nd ref="953626941"/>
  <nd ref="953953352"/>
  <nd ref="952992432"/>
  <nd ref="953337102"/>
  <nd ref="953654448"/>
  <nd ref="954009012"/>
  <nd ref="954376954"/>
  <nd ref="952965358"/>
  <nd ref="953326256"/>
  <nd ref="953641607"/>
  <nd ref="953690965"/>
  <nd ref="954064100"/>
  <nd ref="954421470"/>
  <nd ref="953021776"/>
  <nd ref="953375198"/>
  <tag k="dibavod:id" v="405320004900"/>
  <tag k="name" v="Štěpánovský potok"/>
  <tag k="source" v="dibavod"/>
  <tag k="waterway" v="stream"/>
 </way>
 <way id="57968822" user="Petr1868" uid="72020" visible="true" version="1" changeset="4598212" timestamp="2010-05-03T19:33:17Z">
  <nd ref="719282599"/>
  <nd ref="719274731"/>
  <nd ref="719286703"/>
  <nd ref="719277564"/>
  <nd ref="719290831"/>
  <nd ref="719276229"/>
  <nd ref="719282599"/>
  <tag k="building" v="yes"/>
  <tag k="source" v="cuzk:km"/>
 </way>
 <way id="57967725" user="Petr1868" uid="72020" visible="true" version="1" changeset="4598212" timestamp="2010-05-03T19:31:44Z">
  <nd ref="719274833"/>
  <nd ref="719281414"/>
  <nd ref="719273699"/>
  <nd ref="719284648"/>
  <nd ref="719276408"/>
  <nd ref="719288963"/>
  <nd ref="719274833"/>
  <tag k="building" v="yes"/>
  <tag k="source" v="cuzk:km"/>
 </way>
 <way id="57968236" user="Petr1868" uid="72020" visible="true" version="1" changeset="4598212" timestamp="2010-05-03T19:32:33Z">
  <nd ref="719290704"/>
  <nd ref="719280214"/>
  <nd ref="719272424"/>
  <nd ref="719283071"/>
  <nd ref="719275131"/>
  <nd ref="719287405"/>
  <nd ref="719290704"/>
  <tag k="building" v="yes"/>
  <tag k="source" v="cuzk:km"/>
 </way>
 <way id="57635141" user="Petr1868" uid="72020" visible="true" version="2" changeset="4598212" timestamp="2010-05-03T19:33:35Z">
  <nd ref="714767332"/>
  <nd ref="714768161"/>
  <nd ref="714769731"/>
  <nd ref="714766468"/>
  <nd ref="714769550"/>
  <nd ref="714767332"/>
  <tag k="building" v="yes"/>
  <tag k="source" v="cuzk:km"/>
 </way>
 <way id="36841608" user="Tomas Pajonk" uid="305367" visible="true" version="2" changeset="8479851" timestamp="2011-06-19T04:10:36Z">
  <nd ref="75129150"/>
  <nd ref="428270842"/>
  <nd ref="428270845"/>
  <nd ref="428270847"/>
  <nd ref="428270848"/>
  <nd ref="428270850"/>
  <nd ref="428270852"/>
  <nd ref="428270854"/>
  <nd ref="428270856"/>
  <nd ref="428270858"/>
  <nd ref="428270859"/>
  <nd ref="428270861"/>
  <nd ref="428270863"/>
  <nd ref="428270865"/>
  <nd ref="428270867"/>
  <nd ref="428270869"/>
  <nd ref="428270871"/>
  <nd ref="428270873"/>
  <nd ref="428270874"/>
  <nd ref="428270876"/>
  <nd ref="428270878"/>
  <nd ref="428270789"/>
  <tag k="highway" v="residential"/>
  <tag k="name" v="Výletní"/>
  <tag k="source" v="cuzk:km;uhul:ortofoto"/>
 </way>
 <way id="57968950" user="Petr1868" uid="72020" visible="true" version="1" changeset="4598212" timestamp="2010-05-03T19:33:28Z">
  <nd ref="719280875"/>
  <nd ref="719273217"/>
  <nd ref="719283846"/>
  <nd ref="719275911"/>
  <nd ref="719288258"/>
  <nd ref="719278756"/>
  <nd ref="719280875"/>
  <tag k="building" v="yes"/>
  <tag k="source" v="cuzk:km"/>
 </way>
 <way id="57968910" user="Petr1868" uid="72020" visible="true" version="1" changeset="4598212" timestamp="2010-05-03T19:33:23Z">
  <nd ref="719275241"/>
  <nd ref="719287552"/>
  <nd ref="719278180"/>
  <nd ref="719291699"/>
  <nd ref="719275241"/>
  <tag k="building" v="yes"/>
  <tag k="source" v="cuzk:km"/>
 </way>
 <way id="57967784" user="Petr1868" uid="72020" visible="true" version="1" changeset="4598212" timestamp="2010-05-03T19:31:50Z">
  <nd ref="719276777"/>
  <nd ref="719289533"/>
  <nd ref="719279574"/>
  <nd ref="719293373"/>
  <nd ref="719282427"/>
  <nd ref="719274611"/>
  <nd ref="719286504"/>
  <nd ref="719273356"/>
  <nd ref="719276777"/>
  <tag k="building" v="yes"/>
  <tag k="source" v="cuzk:km"/>
 </way>
 <way id="57967992" user="Petr1868" uid="72020" visible="true" version="1" changeset="4598212" timestamp="2010-05-03T19:32:10Z">
  <nd ref="719292105"/>
  <nd ref="719277218"/>
  <nd ref="719290415"/>
  <nd ref="719280056"/>
  <nd ref="719292105"/>
  <tag k="building" v="yes"/>
  <tag k="source" v="cuzk:km"/>
 </way>
 <way id="57968363" user="Petr1868" uid="72020" visible="true" version="1" changeset="4598212" timestamp="2010-05-03T19:32:45Z">
  <nd ref="719280502"/>
  <nd ref="719288929"/>
  <nd ref="719279221"/>
  <nd ref="719292922"/>
  <nd ref="719282083"/>
  <nd ref="719274258"/>
  <nd ref="719285763"/>
  <nd ref="719277021"/>
  <nd ref="719290091"/>
  <nd ref="719275665"/>
  <nd ref="719287994"/>
  <nd ref="719278537"/>
  <nd ref="719292076"/>
  <nd ref="719281395"/>
  <nd ref="719273671"/>
  <nd ref="719280502"/>
  <tag k="building" v="yes"/>
  <tag k="source" v="cuzk:km"/>
 </way>
 <way id="57967860" user="Petr1868" uid="72020" visible="true" version="1" changeset="4598212" timestamp="2010-05-03T19:31:58Z">
  <nd ref="719275285"/>
  <nd ref="719287579"/>
  <nd ref="719278208"/>
  <nd ref="719291729"/>
  <nd ref="719281062"/>
  <nd ref="719289801"/>
  <nd ref="719275285"/>
  <tag k="building" v="yes"/>
  <tag k="source" v="cuzk:km"/>
 </way>
 <way id="51646510" user="Mike Crash" uid="84326" visible="true" version="1" changeset="4021834" timestamp="2010-03-03T01:48:56Z">
  <nd ref="659067398"/>
  <nd ref="659067408"/>
  <nd ref="659067406"/>
  <nd ref="659067407"/>
  <nd ref="659067405"/>
  <nd ref="659067402"/>
  <nd ref="659067404"/>
  <nd ref="659067409"/>
  <nd ref="659067403"/>
  <nd ref="659067413"/>
  <nd ref="659067414"/>
  <nd ref="659067434"/>
  <nd ref="659067433"/>
  <nd ref="659067420"/>
  <nd ref="659067417"/>
  <nd ref="659067425"/>
  <nd ref="659067426"/>
  <nd ref="659067419"/>
  <nd ref="659067428"/>
  <nd ref="659067440"/>
  <nd ref="659067431"/>
  <nd ref="659067436"/>
  <nd ref="659067438"/>
  <nd ref="659067435"/>
  <nd ref="659067437"/>
  <nd ref="659067429"/>
  <nd ref="659067439"/>
  <nd ref="659067427"/>
  <nd ref="659067432"/>
  <nd ref="659067430"/>
  <nd ref="659067526"/>
  <nd ref="659067515"/>
  <nd ref="659067518"/>
  <nd ref="659067522"/>
  <nd ref="659067523"/>
  <nd ref="659067516"/>
  <nd ref="659067525"/>
  <nd ref="659067524"/>
  <nd ref="659067528"/>
  <nd ref="659067521"/>
  <nd ref="659067520"/>
  <nd ref="659067527"/>
  <nd ref="659067517"/>
  <nd ref="659067519"/>
  <nd ref="659067543"/>
  <nd ref="659067535"/>
  <nd ref="659067539"/>
  <nd ref="659067541"/>
  <nd ref="659067529"/>
  <nd ref="659067531"/>
  <nd ref="659067537"/>
  <nd ref="659067536"/>
  <nd ref="659067533"/>
  <nd ref="659067530"/>
  <nd ref="659067540"/>
  <nd ref="659067538"/>
  <nd ref="659067542"/>
  <nd ref="659067534"/>
  <nd ref="659067532"/>
  <nd ref="659067551"/>
  <nd ref="659067553"/>
  <nd ref="659067552"/>
  <nd ref="659067547"/>
  <nd ref="659067546"/>
  <nd ref="659067545"/>
  <nd ref="659067544"/>
  <nd ref="659067548"/>
  <nd ref="659067549"/>
  <nd ref="659067550"/>
  <nd ref="659067561"/>
  <nd ref="659067560"/>
  <nd ref="659067558"/>
  <nd ref="659067554"/>
  <tag k="admin_level" v="10"/>
  <tag k="boundary" v="administrative"/>
  <tag k="source" v="cuzk:km"/>
 </way>
 <way id="57967855" user="Petr1868" uid="72020" visible="true" version="1" changeset="4598212" timestamp="2010-05-03T19:31:57Z">
  <nd ref="719292520"/>
  <nd ref="719281775"/>
  <nd ref="719290808"/>
  <nd ref="719280317"/>
  <nd ref="719292520"/>
  <tag k="building" v="yes"/>
  <tag k="source" v="cuzk:km"/>
 </way>
 <way id="57960781" user="Petr1868" uid="72020" visible="true" version="1" changeset="4597683" timestamp="2010-05-03T18:47:13Z">
  <nd ref="719167300"/>
  <nd ref="719162103"/>
  <nd ref="719169054"/>
  <nd ref="719163866"/>
  <nd ref="719167300"/>
  <tag k="building" v="yes"/>
  <tag k="source" v="cuzk:km"/>
 </way>
 <way id="57960405" user="Petr1868" uid="72020" visible="true" version="1" changeset="4597683" timestamp="2010-05-03T18:46:31Z">
  <nd ref="719169978"/>
  <nd ref="719164767"/>
  <nd ref="719172282"/>
  <nd ref="719166768"/>
  <nd ref="719169978"/>
  <tag k="building" v="yes"/>
  <tag k="source" v="cuzk:km"/>
 </way>
 <way id="57967716" user="Petr1868" uid="72020" visible="true" version="1" changeset="4598212" timestamp="2010-05-03T19:31:44Z">
  <nd ref="719274958"/>
  <nd ref="719287084"/>
  <nd ref="719277866"/>
  <nd ref="719284976"/>
  <nd ref="719274958"/>
  <tag k="building" v="yes"/>
  <tag k="source" v="cuzk:km"/>
 </way>
 <way id="57968318" user="Petr1868" uid="72020" visible="true" version="1" changeset="4598212" timestamp="2010-05-03T19:32:41Z">
  <nd ref="719288521"/>
  <nd ref="719278913"/>
  <nd ref="719292556"/>
  <nd ref="719281803"/>
  <nd ref="719273996"/>
  <nd ref="719280341"/>
  <nd ref="719288521"/>
  <tag k="building" v="yes"/>
  <tag k="source" v="cuzk:km"/>
 </way>
 <way id="57968973" user="Petr1868" uid="72020" visible="true" version="1" changeset="4598212" timestamp="2010-05-03T19:33:31Z">
  <nd ref="719293616"/>
  <nd ref="719282622"/>
  <nd ref="719274765"/>
  <nd ref="719286738"/>
  <nd ref="719293616"/>
  <tag k="building" v="yes"/>
  <tag k="source" v="cuzk:km"/>
 </way>
 <way id="57967965" user="Petr1868" uid="72020" visible="true" version="1" changeset="4598212" timestamp="2010-05-03T19:32:08Z">
  <nd ref="719275492"/>
  <nd ref="719287784"/>
  <nd ref="719278411"/>
  <nd ref="719291899"/>
  <nd ref="719281229"/>
  <nd ref="719273542"/>
  <nd ref="719284392"/>
  <nd ref="719293820"/>
  <nd ref="719282723"/>
  <nd ref="719274831"/>
  <nd ref="719286920"/>
  <nd ref="719277703"/>
  <nd ref="719291013"/>
  <nd ref="719275492"/>
  <tag k="building" v="yes"/>
  <tag k="source" v="cuzk:km"/>
 </way>
 <way id="57968562" user="Petr1868" uid="72020" visible="true" version="1" changeset="4598212" timestamp="2010-05-03T19:32:54Z">
  <nd ref="719282117"/>
  <nd ref="719291268"/>
  <nd ref="719280674"/>
  <nd ref="719273042"/>
  <nd ref="719283626"/>
  <nd ref="719275706"/>
  <nd ref="719282117"/>
  <tag k="building" v="yes"/>
  <tag k="source" v="cuzk:km"/>
 </way>
 <way id="118260646" user="Tomas Pajonk" uid="305367" visible="true" version="1" changeset="8479851" timestamp="2011-06-19T04:10:38Z">
  <nd ref="1330367662"/>
  <nd ref="1330367663"/>
  <nd ref="1330367664"/>
  <nd ref="1330367665"/>
  <nd ref="1330367666"/>
  <nd ref="1330367667"/>
  <nd ref="1330367668"/>
  <nd ref="1330367669"/>
  <nd ref="428270854"/>
  <tag k="highway" v="residential"/>
  <tag k="name" v="Šípková"/>
 </way>
 <relation id="426034" user="Mike Crash" uid="84326" visible="true" version="1" changeset="4031751" timestamp="2010-03-04T11:23:35Z">
  <member type="way" ref="51646491" role="outer"/>
  <member type="way" ref="51646514" role="outer"/>
  <member type="way" ref="51646517" role="outer"/>
  <member type="way" ref="51646510" role="outer"/>
  <member type="way" ref="51646512" role="outer"/>
  <tag k="admin_level" v="10"/>
  <tag k="boundary" v="administrative"/>
  <tag k="name" v="Křivé"/>
  <tag k="ref" v="723959"/>
  <tag k="source" v="cuzk:km"/>
  <tag k="type" v="boundary"/>
 </relation>
 <relation id="433784" user="Mike Crash" uid="84326" visible="true" version="1" changeset="4031751" timestamp="2010-03-04T11:55:58Z">
  <member type="way" ref="51646518" role="outer"/>
  <member type="way" ref="51646515" role="outer"/>
  <member type="way" ref="51646510" role="outer"/>
  <member type="way" ref="51646519" role="outer"/>
  <member type="way" ref="51646513" role="outer"/>
  <tag k="admin_level" v="10"/>
  <tag k="boundary" v="administrative"/>
  <tag k="name" v="Valašské Meziříčí-město"/>
  <tag k="ref" v="776360"/>
  <tag k="source" v="cuzk:km"/>
  <tag k="type" v="boundary"/>
 </relation>
 <relation id="435549" user="xificurk" uid="229590" visible="true" version="7" changeset="10608493" timestamp="2012-02-07T00:51:31Z">
  <member type="way" ref="51646544" role="outer"/>
  <member type="way" ref="51646557" role="outer"/>
  <member type="way" ref="51646541" role="outer"/>
  <member type="way" ref="51646549" role="outer"/>
  <member type="way" ref="51646547" role="outer"/>
  <member type="way" ref="51646546" role="outer"/>
  <member type="way" ref="51646545" role="outer"/>
  <member type="way" ref="51645988" role="outer"/>
  <member type="way" ref="51646196" role="outer"/>
  <member type="way" ref="51646193" role="outer"/>
  <member type="way" ref="51646357" role="outer"/>
  <member type="way" ref="51646359" role="outer"/>
  <member type="way" ref="51645983" role="outer"/>
  <member type="way" ref="51646490" role="outer"/>
  <member type="way" ref="51646519" role="outer"/>
  <member type="way" ref="51646512" role="outer"/>
  <member type="way" ref="51646489" role="outer"/>
  <member type="way" ref="51646498" role="outer"/>
  <member type="way" ref="51646508" role="outer"/>
  <member type="way" ref="51646492" role="outer"/>
  <member type="way" ref="51646514" role="outer"/>
  <member type="way" ref="51646497" role="outer"/>
  <member type="way" ref="51646495" role="outer"/>
  <member type="way" ref="51646488" role="outer"/>
  <member type="way" ref="51646482" role="outer"/>
  <member type="way" ref="51646581" role="outer"/>
  <member type="way" ref="51646538" role="outer"/>
  <member type="node" ref="1598960928" role="admin_centre"/>
  <member type="relation" ref="432113" role="subarea"/>
  <member type="relation" ref="432419" role="subarea"/>
  <member type="relation" ref="433784" role="subarea"/>
  <member type="relation" ref="434099" role="subarea"/>
  <member type="relation" ref="430789" role="subarea"/>
  <member type="relation" ref="431468" role="subarea"/>
  <member type="relation" ref="431511" role="subarea"/>
  <member type="relation" ref="432053" role="subarea"/>
  <member type="relation" ref="426034" role="subarea"/>
  <member type="relation" ref="431469" role="subarea"/>
  <tag k="admin_level" v="8"/>
  <tag k="boundary" v="administrative"/>
  <tag k="name" v="Valašské Meziříčí"/>
  <tag k="name:prefix" v="město"/>
  <tag k="population" v="27071"/>
  <tag k="ref" v="CZ0723545058"/>
  <tag k="source" v="cuzk"/>
  <tag k="source:population" v="csu:uir-zsj"/>
  <tag k="type" v="boundary"/>
 </relation>
</osm>
