<?xml version="1.0" encoding="UTF-8"?>
<osm version="0.6" generator="CGImap 0.0.2">
 <bounds minlat="49.4677700" minlon="17.9647700" maxlat="49.4691100" maxlon="17.9678800"/>
 <node id="721083521" lat="49.4678140" lon="17.9673870" user="Petr1868" uid="72020" visible="true" version="1" changeset="4605359" timestamp="2010-05-04T16:03:24Z"/>
 <node id="721083292" lat="49.4692740" lon="17.9677830" user="Petr1868" uid="72020" visible="true" version="1" changeset="4605359" timestamp="2010-05-04T16:03:20Z"/>
 <node id="721081223" lat="49.4690290" lon="17.9665520" user="Petr1868" uid="72020" visible="true" version="1" changeset="4605359" timestamp="2010-05-04T16:02:06Z"/>
 <node id="721083249" lat="49.4690610" lon="17.9648820" user="Petr1868" uid="72020" visible="true" version="1" changeset="4605359" timestamp="2010-05-04T16:03:20Z"/>
 <node id="721084959" lat="49.4690220" lon="17.9655360" user="Petr1868" uid="72020" visible="true" version="1" changeset="4605359" timestamp="2010-05-04T16:03:49Z"/>
 <node id="721084614" lat="49.4680420" lon="17.9672310" user="Petr1868" uid="72020" visible="true" version="1" changeset="4605359" timestamp="2010-05-04T16:03:44Z"/>
 <node id="721082486" lat="49.4677890" lon="17.9657480" user="Petr1868" uid="72020" visible="true" version="1" changeset="4605359" timestamp="2010-05-04T16:02:55Z"/>
 <node id="721082197" lat="49.4691010" lon="17.9677110" user="Petr1868" uid="72020" visible="true" version="1" changeset="4605359" timestamp="2010-05-04T16:02:44Z"/>
 <node id="721082831" lat="49.4681170" lon="17.9666370" user="Petr1868" uid="72020" visible="true" version="1" changeset="4605359" timestamp="2010-05-04T16:03:09Z"/>
 <node id="721081015" lat="49.4681110" lon="17.9666160" user="Petr1868" uid="72020" visible="true" version="1" changeset="4605359" timestamp="2010-05-04T16:01:59Z"/>
 <node id="721081168" lat="49.4689590" lon="17.9654750" user="Petr1868" uid="72020" visible="true" version="1" changeset="4605359" timestamp="2010-05-04T16:02:04Z"/>
 <node id="721082282" lat="49.4689790" lon="17.9650110" user="Petr1868" uid="72020" visible="true" version="1" changeset="4605359" timestamp="2010-05-04T16:02:47Z"/>
 <node id="721082257" lat="49.4690810" lon="17.9649630" user="Petr1868" uid="72020" visible="true" version="1" changeset="4605359" timestamp="2010-05-04T16:02:46Z"/>
 <node id="1498540627" lat="49.4680838" lon="17.9671513" user="Tomas Pajonk" uid="305367" visible="true" version="1" changeset="9795740" timestamp="2011-11-11T11:50:31Z">
  <tag k="addr:conscriptionnumber" v="324"/>
  <tag k="addr:country" v="CZ"/>
  <tag k="addr:housenumber" v="324/17"/>
  <tag k="addr:street" v="Blahoslavova"/>
  <tag k="addr:streetnumber" v="17"/>
  <tag k="is_in" v="Valašské Meziříčí, Zlínský kraj, CZ"/>
  <tag k="source:addr" v="mvcr:adresa"/>
  <tag k="source:loc" v="cuzk:km"/>
 </node>
 <node id="721084490" lat="49.4683350" lon="17.9648720" user="Petr1868" uid="72020" visible="true" version="1" changeset="4605359" timestamp="2010-05-04T16:03:42Z"/>
 <node id="721082743" lat="49.4690770" lon="17.9678680" user="Petr1868" uid="72020" visible="true" version="1" changeset="4605359" timestamp="2010-05-04T16:03:05Z"/>
 <node id="721081117" lat="49.4680150" lon="17.9654000" user="Petr1868" uid="72020" visible="true" version="1" changeset="4605359" timestamp="2010-05-04T16:02:03Z"/>
 <node id="721081242" lat="49.4683070" lon="17.9652680" user="Petr1868" uid="72020" visible="true" version="1" changeset="4605359" timestamp="2010-05-04T16:02:07Z"/>
 <node id="721081364" lat="49.4685910" lon="17.9667100" user="Petr1868" uid="72020" visible="true" version="1" changeset="4605359" timestamp="2010-05-04T16:02:11Z"/>
 <node id="721081082" lat="49.4684350" lon="17.9652400" user="Petr1868" uid="72020" visible="true" version="1" changeset="4605359" timestamp="2010-05-04T16:02:01Z"/>
 <node id="721085085" lat="49.4684860" lon="17.9663410" user="Petr1868" uid="72020" visible="true" version="1" changeset="4605359" timestamp="2010-05-04T16:03:50Z"/>
 <node id="721085047" lat="49.4684900" lon="17.9669550" user="Petr1868" uid="72020" visible="true" version="1" changeset="4605359" timestamp="2010-05-04T16:03:50Z"/>
 <node id="721084373" lat="49.4689500" lon="17.9648820" user="Petr1868" uid="72020" visible="true" version="1" changeset="4605359" timestamp="2010-05-04T16:03:40Z"/>
 <node id="721081467" lat="49.4679220" lon="17.9651920" user="Petr1868" uid="72020" visible="true" version="1" changeset="4605359" timestamp="2010-05-04T16:02:16Z"/>
 <node id="721081059" lat="49.4686260" lon="17.9664160" user="Petr1868" uid="72020" visible="true" version="1" changeset="4605359" timestamp="2010-05-04T16:02:01Z"/>
 <node id="721082385" lat="49.4689570" lon="17.9678050" user="Petr1868" uid="72020" visible="true" version="1" changeset="4605359" timestamp="2010-05-04T16:02:51Z"/>
 <node id="721084054" lat="49.4690020" lon="17.9654300" user="Petr1868" uid="72020" visible="true" version="1" changeset="4605359" timestamp="2010-05-04T16:03:34Z"/>
 <node id="721084126" lat="49.4687560" lon="17.9662020" user="Petr1868" uid="72020" visible="true" version="1" changeset="4605359" timestamp="2010-05-04T16:03:36Z"/>
 <node id="1498541369" lat="49.4690600" lon="17.9649375" user="Tomas Pajonk" uid="305367" visible="true" version="1" changeset="9795740" timestamp="2011-11-11T11:51:32Z">
  <tag k="addr:conscriptionnumber" v="404"/>
  <tag k="addr:country" v="CZ"/>
  <tag k="addr:housenumber" v="404/17"/>
  <tag k="addr:street" v="Husova"/>
  <tag k="addr:streetnumber" v="17"/>
  <tag k="is_in" v="Valašské Meziříčí, Zlínský kraj, CZ"/>
  <tag k="source:addr" v="mvcr:adresa"/>
  <tag k="source:loc" v="cuzk:km"/>
 </node>
 <node id="721082785" lat="49.4683910" lon="17.9646930" user="Petr1868" uid="72020" visible="true" version="1" changeset="4605359" timestamp="2010-05-04T16:03:07Z"/>
 <node id="721085411" lat="49.4690270" lon="17.9653730" user="Petr1868" uid="72020" visible="true" version="1" changeset="4605359" timestamp="2010-05-04T16:03:54Z"/>
 <node id="721084851" lat="49.4689990" lon="17.9653530" user="Petr1868" uid="72020" visible="true" version="1" changeset="4605359" timestamp="2010-05-04T16:03:48Z"/>
 <node id="721081692" lat="49.4684220" lon="17.9664000" user="Petr1868" uid="72020" visible="true" version="1" changeset="4605359" timestamp="2010-05-04T16:02:24Z"/>
 <node id="721084072" lat="49.4679560" lon="17.9668520" user="Petr1868" uid="72020" visible="true" version="1" changeset="4605359" timestamp="2010-05-04T16:03:35Z"/>
 <node id="721081805" lat="49.4690510" lon="17.9648320" user="Petr1868" uid="72020" visible="true" version="1" changeset="4605359" timestamp="2010-05-04T16:02:29Z"/>
 <node id="721081201" lat="49.4684570" lon="17.9663510" user="Petr1868" uid="72020" visible="true" version="1" changeset="4605359" timestamp="2010-05-04T16:02:06Z"/>
 <node id="721083996" lat="49.4683060" lon="17.9670430" user="Petr1868" uid="72020" visible="true" version="1" changeset="4605359" timestamp="2010-05-04T16:03:33Z"/>
 <node id="721081477" lat="49.4687360" lon="17.9666010" user="Petr1868" uid="72020" visible="true" version="1" changeset="4605359" timestamp="2010-05-04T16:02:16Z"/>
 <node id="721081140" lat="49.4682560" lon="17.9669400" user="Petr1868" uid="72020" visible="true" version="1" changeset="4605359" timestamp="2010-05-04T16:02:03Z"/>
 <node id="721081428" lat="49.4681240" lon="17.9671950" user="Petr1868" uid="72020" visible="true" version="1" changeset="4605359" timestamp="2010-05-04T16:02:14Z"/>
 <node id="721082891" lat="49.4684050" lon="17.9652610" user="Petr1868" uid="72020" visible="true" version="1" changeset="4605359" timestamp="2010-05-04T16:03:11Z"/>
 <node id="1498546167" lat="49.4679175" lon="17.9672513" user="Tomas Pajonk" uid="305367" visible="true" version="1" changeset="9795740" timestamp="2011-11-11T11:56:14Z">
  <tag k="addr:conscriptionnumber" v="982"/>
  <tag k="addr:country" v="CZ"/>
  <tag k="addr:housenumber" v="982/19"/>
  <tag k="addr:street" v="Blahoslavova"/>
  <tag k="addr:streetnumber" v="19"/>
  <tag k="is_in" v="Valašské Meziříčí, Zlínský kraj, CZ"/>
  <tag k="source:addr" v="mvcr:adresa"/>
  <tag k="source:loc" v="cuzk:km"/>
 </node>
 <node id="1498546109" lat="49.4689288" lon="17.9665825" user="Tomas Pajonk" uid="305367" visible="true" version="1" changeset="9795740" timestamp="2011-11-11T11:56:09Z">
  <tag k="addr:conscriptionnumber" v="963"/>
  <tag k="addr:country" v="CZ"/>
  <tag k="addr:housenumber" v="963/7"/>
  <tag k="addr:street" v="Blahoslavova"/>
  <tag k="addr:streetnumber" v="7"/>
  <tag k="is_in" v="Valašské Meziříčí, Zlínský kraj, CZ"/>
  <tag k="source:addr" v="mvcr:adresa"/>
  <tag k="source:loc" v="cuzk:km"/>
 </node>
 <node id="721083526" lat="49.4690320" lon="17.9679200" user="Petr1868" uid="72020" visible="true" version="1" changeset="4605359" timestamp="2010-05-04T16:03:24Z"/>
 <node id="721083476" lat="49.4681040" lon="17.9672100" user="Petr1868" uid="72020" visible="true" version="1" changeset="4605359" timestamp="2010-05-04T16:03:23Z"/>
 <node id="721083131" lat="49.4682910" lon="17.9652780" user="Petr1868" uid="72020" visible="true" version="1" changeset="4605359" timestamp="2010-05-04T16:03:17Z"/>
 <node id="1498545984" lat="49.4688813" lon="17.9678275" user="Tomas Pajonk" uid="305367" visible="true" version="1" changeset="9795740" timestamp="2011-11-11T11:55:57Z">
  <tag k="addr:conscriptionnumber" v="920"/>
  <tag k="addr:country" v="CZ"/>
  <tag k="addr:housenumber" v="920/12"/>
  <tag k="addr:street" v="Havlíčkova"/>
  <tag k="addr:streetnumber" v="12"/>
  <tag k="is_in" v="Valašské Meziříčí, Zlínský kraj, CZ"/>
  <tag k="source:addr" v="mvcr:adresa"/>
  <tag k="source:loc" v="cuzk:km"/>
 </node>
 <node id="721084871" lat="49.4682150" lon="17.9671080" user="Petr1868" uid="72020" visible="true" version="1" changeset="4605359" timestamp="2010-05-04T16:03:48Z"/>
 <node id="721080936" lat="49.4681700" lon="17.9667250" user="Petr1868" uid="72020" visible="true" version="1" changeset="4605359" timestamp="2010-05-04T16:01:56Z"/>
 <node id="721082367" lat="49.4680660" lon="17.9666450" user="Petr1868" uid="72020" visible="true" version="1" changeset="4605359" timestamp="2010-05-04T16:02:50Z"/>
 <node id="1498533938" lat="49.4678188" lon="17.9668788" user="Tomas Pajonk" uid="305367" visible="true" version="1" changeset="9795740" timestamp="2011-11-11T11:46:05Z">
  <tag k="addr:conscriptionnumber" v="1053"/>
  <tag k="addr:country" v="CZ"/>
  <tag k="addr:housenumber" v="1053/22"/>
  <tag k="addr:street" v="Blahoslavova"/>
  <tag k="addr:streetnumber" v="22"/>
  <tag k="is_in" v="Valašské Meziříčí, Zlínský kraj, CZ"/>
  <tag k="source:addr" v="mvcr:adresa"/>
  <tag k="source:loc" v="cuzk:km"/>
 </node>
 <node id="721081773" lat="49.4676740" lon="17.9657100" user="Petr1868" uid="72020" visible="true" version="1" changeset="4605359" timestamp="2010-05-04T16:02:28Z"/>
 <node id="721081588" lat="49.4684470" lon="17.9668100" user="Petr1868" uid="72020" visible="true" version="1" changeset="4605359" timestamp="2010-05-04T16:02:20Z"/>
 <node id="721081278" lat="49.4691650" lon="17.9653030" user="Petr1868" uid="72020" visible="true" version="1" changeset="4605359" timestamp="2010-05-04T16:02:09Z"/>
 <node id="721083988" lat="49.4690770" lon="17.9655100" user="Petr1868" uid="72020" visible="true" version="1" changeset="4605359" timestamp="2010-05-04T16:03:33Z"/>
 <node id="721081646" lat="49.4690810" lon="17.9655270" user="Petr1868" uid="72020" visible="true" version="1" changeset="4605359" timestamp="2010-05-04T16:02:23Z"/>
 <node id="721083648" lat="49.4680900" lon="17.9650710" user="Petr1868" uid="72020" visible="true" version="1" changeset="4605359" timestamp="2010-05-04T16:03:26Z"/>
 <node id="721085144" lat="49.4684290" lon="17.9648120" user="Petr1868" uid="72020" visible="true" version="1" changeset="4605359" timestamp="2010-05-04T16:03:51Z"/>
 <node id="721083195" lat="49.4676670" lon="17.9657050" user="Petr1868" uid="72020" visible="true" version="1" changeset="4605359" timestamp="2010-05-04T16:03:18Z"/>
 <node id="721084423" lat="49.4681970" lon="17.9666860" user="Petr1868" uid="72020" visible="true" version="1" changeset="4605359" timestamp="2010-05-04T16:03:41Z"/>
 <node id="721085939" lat="49.4690970" lon="17.9678600" user="Petr1868" uid="72020" visible="true" version="1" changeset="4605359" timestamp="2010-05-04T16:04:00Z"/>
 <node id="721081634" lat="49.4684410" lon="17.9651310" user="Petr1868" uid="72020" visible="true" version="1" changeset="4605359" timestamp="2010-05-04T16:02:22Z"/>
 <node id="721081078" lat="49.4680510" lon="17.9649350" user="Petr1868" uid="72020" visible="true" version="1" changeset="4605359" timestamp="2010-05-04T16:02:01Z"/>
 <node id="721082827" lat="49.4689120" lon="17.9653300" user="Petr1868" uid="72020" visible="true" version="1" changeset="4605359" timestamp="2010-05-04T16:03:09Z"/>
 <node id="1498546078" lat="49.4684950" lon="17.9664388" user="Tomas Pajonk" uid="305367" visible="true" version="1" changeset="9795740" timestamp="2011-11-11T11:56:05Z">
  <tag k="addr:conscriptionnumber" v="950"/>
  <tag k="addr:country" v="CZ"/>
  <tag k="addr:housenumber" v="950/14"/>
  <tag k="addr:street" v="Blahoslavova"/>
  <tag k="addr:streetnumber" v="14"/>
  <tag k="is_in" v="Valašské Meziříčí, Zlínský kraj, CZ"/>
  <tag k="source:addr" v="mvcr:adresa"/>
  <tag k="source:loc" v="cuzk:km"/>
 </node>
 <node id="721085633" lat="49.4686050" lon="17.9667760" user="Petr1868" uid="72020" visible="true" version="1" changeset="4605359" timestamp="2010-05-04T16:03:56Z"/>
 <node id="1498546110" lat="49.4682775" lon="17.9653063" user="Tomas Pajonk" uid="305367" visible="true" version="1" changeset="9795740" timestamp="2011-11-11T11:56:09Z">
  <tag k="addr:conscriptionnumber" v="964"/>
  <tag k="addr:country" v="CZ"/>
  <tag k="addr:housenumber" v="964/5"/>
  <tag k="addr:street" v="Fügnerova"/>
  <tag k="addr:streetnumber" v="5"/>
  <tag k="is_in" v="Valašské Meziříčí, Zlínský kraj, CZ"/>
  <tag k="source:addr" v="mvcr:adresa"/>
  <tag k="source:loc" v="cuzk:km"/>
 </node>
 <node id="721082263" lat="49.4678220" lon="17.9668200" user="Petr1868" uid="72020" visible="true" version="1" changeset="4605359" timestamp="2010-05-04T16:02:46Z"/>
 <node id="721082943" lat="49.4686650" lon="17.9649950" user="Petr1868" uid="72020" visible="true" version="1" changeset="4605359" timestamp="2010-05-04T16:03:14Z"/>
 <node id="721081543" lat="49.4689660" lon="17.9652920" user="Petr1868" uid="72020" visible="true" version="1" changeset="4605359" timestamp="2010-05-04T16:02:18Z"/>
 <node id="721082442" lat="49.4689390" lon="17.9666170" user="Petr1868" uid="72020" visible="true" version="1" changeset="4605359" timestamp="2010-05-04T16:02:53Z"/>
 <node id="721085706" lat="49.4683250" lon="17.9653270" user="Petr1868" uid="72020" visible="true" version="1" changeset="4605359" timestamp="2010-05-04T16:03:57Z"/>
 <node id="721083310" lat="49.4685170" lon="17.9667580" user="Petr1868" uid="72020" visible="true" version="1" changeset="4605359" timestamp="2010-05-04T16:03:21Z"/>
 <node id="721082045" lat="49.4677890" lon="17.9656960" user="Petr1868" uid="72020" visible="true" version="1" changeset="4605359" timestamp="2010-05-04T16:02:38Z"/>
 <node id="1498546113" lat="49.4679875" lon="17.9667850" user="Tomas Pajonk" uid="305367" visible="true" version="1" changeset="9795740" timestamp="2011-11-11T11:56:09Z">
  <tag k="addr:conscriptionnumber" v="966"/>
  <tag k="addr:country" v="CZ"/>
  <tag k="addr:housenumber" v="966/20"/>
  <tag k="addr:street" v="Blahoslavova"/>
  <tag k="addr:streetnumber" v="20"/>
  <tag k="is_in" v="Valašské Meziříčí, Zlínský kraj, CZ"/>
  <tag k="source:addr" v="mvcr:adresa"/>
  <tag k="source:loc" v="cuzk:km"/>
 </node>
 <node id="721080965" lat="49.4683660" lon="17.9647060" user="Petr1868" uid="72020" visible="true" version="1" changeset="4605359" timestamp="2010-05-04T16:01:57Z"/>
 <node id="721082948" lat="49.4677650" lon="17.9658500" user="Petr1868" uid="72020" visible="true" version="1" changeset="4605359" timestamp="2010-05-04T16:03:14Z"/>
 <node id="721081990" lat="49.4684570" lon="17.9651820" user="Petr1868" uid="72020" visible="true" version="1" changeset="4605359" timestamp="2010-05-04T16:02:35Z"/>
 <node id="721081531" lat="49.4679440" lon="17.9654810" user="Petr1868" uid="72020" visible="true" version="1" changeset="4605359" timestamp="2010-05-04T16:02:18Z"/>
 <node id="721082114" lat="49.4684720" lon="17.9651670" user="Petr1868" uid="72020" visible="true" version="1" changeset="4605359" timestamp="2010-05-04T16:02:40Z"/>
 <node id="721082073" lat="49.4684110" lon="17.9670070" user="Petr1868" uid="72020" visible="true" version="1" changeset="4605359" timestamp="2010-05-04T16:02:39Z"/>
 <node id="721085363" lat="49.4685340" lon="17.9649910" user="Petr1868" uid="72020" visible="true" version="1" changeset="4605359" timestamp="2010-05-04T16:03:53Z"/>
 <node id="721082714" lat="49.4690720" lon="17.9648810" user="Petr1868" uid="72020" visible="true" version="1" changeset="4605359" timestamp="2010-05-04T16:03:04Z"/>
 <node id="721082587" lat="49.4680110" lon="17.9668180" user="Petr1868" uid="72020" visible="true" version="1" changeset="4605359" timestamp="2010-05-04T16:02:59Z"/>
 <node id="721084442" lat="49.4686220" lon="17.9668300" user="Petr1868" uid="72020" visible="true" version="1" changeset="4605359" timestamp="2010-05-04T16:03:41Z"/>
 <node id="721083600" lat="49.4686650" lon="17.9666520" user="Petr1868" uid="72020" visible="true" version="1" changeset="4605359" timestamp="2010-05-04T16:03:26Z"/>
 <node id="721082221" lat="49.4682360" lon="17.9653910" user="Petr1868" uid="72020" visible="true" version="1" changeset="4605359" timestamp="2010-05-04T16:02:45Z"/>
 <node id="721081657" lat="49.4686490" lon="17.9650100" user="Petr1868" uid="72020" visible="true" version="1" changeset="4605359" timestamp="2010-05-04T16:02:23Z"/>
 <node id="1498545941" lat="49.4690763" lon="17.9664663" user="Tomas Pajonk" uid="305367" visible="true" version="1" changeset="9795740" timestamp="2011-11-11T11:55:52Z">
  <tag k="addr:conscriptionnumber" v="902"/>
  <tag k="addr:country" v="CZ"/>
  <tag k="addr:housenumber" v="902/5"/>
  <tag k="addr:street" v="Blahoslavova"/>
  <tag k="addr:streetnumber" v="5"/>
  <tag k="is_in" v="Valašské Meziříčí, Zlínský kraj, CZ"/>
  <tag k="source:addr" v="mvcr:adresa"/>
  <tag k="source:loc" v="cuzk:km"/>
 </node>
 <node id="721082637" lat="49.4689500" lon="17.9679750" user="Petr1868" uid="72020" visible="true" version="1" changeset="4605359" timestamp="2010-05-04T16:03:01Z"/>
 <node id="721085943" lat="49.4689950" lon="17.9650030" user="Petr1868" uid="72020" visible="true" version="1" changeset="4605359" timestamp="2010-05-04T16:04:00Z"/>
 <node id="721085844" lat="49.4690900" lon="17.9649530" user="Petr1868" uid="72020" visible="true" version="1" changeset="4605359" timestamp="2010-05-04T16:03:59Z"/>
 <node id="721081698" lat="49.4684460" lon="17.9663610" user="Petr1868" uid="72020" visible="true" version="1" changeset="4605359" timestamp="2010-05-04T16:02:25Z"/>
 <node id="721081493" lat="49.4680640" lon="17.9649950" user="Petr1868" uid="72020" visible="true" version="1" changeset="4605359" timestamp="2010-05-04T16:02:17Z"/>
 <node id="1498546190" lat="49.4677788" lon="17.9673463" user="Tomas Pajonk" uid="305367" visible="true" version="1" changeset="9795740" timestamp="2011-11-11T11:56:17Z">
  <tag k="addr:conscriptionnumber" v="991"/>
  <tag k="addr:country" v="CZ"/>
  <tag k="addr:housenumber" v="991/21"/>
  <tag k="addr:street" v="Blahoslavova"/>
  <tag k="addr:streetnumber" v="21"/>
  <tag k="is_in" v="Valašské Meziříčí, Zlínský kraj, CZ"/>
  <tag k="source:addr" v="mvcr:adresa"/>
  <tag k="source:loc" v="cuzk:km"/>
 </node>
 <node id="721084924" lat="49.4678020" lon="17.9657360" user="Petr1868" uid="72020" visible="true" version="1" changeset="4605359" timestamp="2010-05-04T16:03:49Z"/>
 <node id="721083295" lat="49.4679240" lon="17.9651200" user="Petr1868" uid="72020" visible="true" version="1" changeset="4605359" timestamp="2010-05-04T16:03:21Z"/>
 <node id="1498546016" lat="49.4687388" lon="17.9666775" user="Tomas Pajonk" uid="305367" visible="true" version="1" changeset="9795740" timestamp="2011-11-11T11:55:58Z">
  <tag k="addr:conscriptionnumber" v="927"/>
  <tag k="addr:country" v="CZ"/>
  <tag k="addr:housenumber" v="927/9"/>
  <tag k="addr:street" v="Blahoslavova"/>
  <tag k="addr:streetnumber" v="9"/>
  <tag k="is_in" v="Valašské Meziříčí, Zlínský kraj, CZ"/>
  <tag k="source:addr" v="mvcr:adresa"/>
  <tag k="source:loc" v="cuzk:km"/>
 </node>
 <node id="721082182" lat="49.4684250" lon="17.9664130" user="Petr1868" uid="72020" visible="true" version="1" changeset="4605359" timestamp="2010-05-04T16:02:43Z"/>
 <node id="721082548" lat="49.4689960" lon="17.9664370" user="Petr1868" uid="72020" visible="true" version="1" changeset="4605359" timestamp="2010-05-04T16:02:58Z"/>
 <node id="721083021" lat="49.4688490" lon="17.9662610" user="Petr1868" uid="72020" visible="true" version="1" changeset="4605359" timestamp="2010-05-04T16:03:16Z"/>
 <node id="721082166" lat="49.4686560" lon="17.9649610" user="Petr1868" uid="72020" visible="true" version="1" changeset="4605359" timestamp="2010-05-04T16:02:42Z"/>
 <node id="721081268" lat="49.4676300" lon="17.9657320" user="Petr1868" uid="72020" visible="true" version="1" changeset="4605359" timestamp="2010-05-04T16:02:08Z"/>
 <node id="721082137" lat="49.4685720" lon="17.9651160" user="Petr1868" uid="72020" visible="true" version="1" changeset="4605359" timestamp="2010-05-04T16:02:41Z"/>
 <node id="721084570" lat="49.4679420" lon="17.9655500" user="Petr1868" uid="72020" visible="true" version="1" changeset="4605359" timestamp="2010-05-04T16:03:43Z"/>
 <node id="721081255" lat="49.4679820" lon="17.9667120" user="Petr1868" uid="72020" visible="true" version="1" changeset="4605359" timestamp="2010-05-04T16:02:08Z"/>
 <node id="721081969" lat="49.4686970" lon="17.9667670" user="Petr1868" uid="72020" visible="true" version="1" changeset="4605359" timestamp="2010-05-04T16:02:35Z"/>
 <node id="721081307" lat="49.4685010" lon="17.9665250" user="Petr1868" uid="72020" visible="true" version="1" changeset="4605359" timestamp="2010-05-04T16:02:10Z"/>
 <node id="721081265" lat="49.4686290" lon="17.9649380" user="Petr1868" uid="72020" visible="true" version="1" changeset="4605359" timestamp="2010-05-04T16:02:08Z"/>
 <node id="721083537" lat="49.4680890" lon="17.9670560" user="Petr1868" uid="72020" visible="true" version="1" changeset="4605359" timestamp="2010-05-04T16:03:24Z"/>
 <node id="721082638" lat="49.4684960" lon="17.9665010" user="Petr1868" uid="72020" visible="true" version="1" changeset="4605359" timestamp="2010-05-04T16:03:01Z"/>
 <node id="721085161" lat="49.4683460" lon="17.9651320" user="Petr1868" uid="72020" visible="true" version="1" changeset="4605359" timestamp="2010-05-04T16:03:51Z"/>
 <node id="721081283" lat="49.4678350" lon="17.9669300" user="Petr1868" uid="72020" visible="true" version="1" changeset="4605359" timestamp="2010-05-04T16:02:09Z"/>
 <node id="721084816" lat="49.4679860" lon="17.9654380" user="Petr1868" uid="72020" visible="true" version="1" changeset="4605359" timestamp="2010-05-04T16:03:48Z"/>
 <node id="721082141" lat="49.4676870" lon="17.9658970" user="Petr1868" uid="72020" visible="true" version="1" changeset="4605359" timestamp="2010-05-04T16:02:41Z"/>
 <node id="721082014" lat="49.4679870" lon="17.9654600" user="Petr1868" uid="72020" visible="true" version="1" changeset="4605359" timestamp="2010-05-04T16:02:36Z"/>
 <node id="721082029" lat="49.4689860" lon="17.9653080" user="Petr1868" uid="72020" visible="true" version="1" changeset="4605359" timestamp="2010-05-04T16:02:37Z"/>
 <node id="721081550" lat="49.4681740" lon="17.9665960" user="Petr1868" uid="72020" visible="true" version="1" changeset="4605359" timestamp="2010-05-04T16:02:18Z"/>
 <node id="721082959" lat="49.4689480" lon="17.9654445" user="Petr1868" uid="72020" visible="true" version="1" changeset="4605359" timestamp="2010-05-04T16:03:15Z"/>
 <node id="721082888" lat="49.4680870" lon="17.9650500" user="Petr1868" uid="72020" visible="true" version="1" changeset="4605359" timestamp="2010-05-04T16:03:11Z"/>
 <node id="721081925" lat="49.4680990" lon="17.9671910" user="Petr1868" uid="72020" visible="true" version="1" changeset="4605359" timestamp="2010-05-04T16:02:33Z"/>
 <node id="721081902" lat="49.4679700" lon="17.9656410" user="Petr1868" uid="72020" visible="true" version="1" changeset="4605359" timestamp="2010-05-04T16:02:32Z"/>
 <node id="721082654" lat="49.4683590" lon="17.9666030" user="Petr1868" uid="72020" visible="true" version="1" changeset="4605359" timestamp="2010-05-04T16:03:02Z"/>
 <node id="721082767" lat="49.4687710" lon="17.9667160" user="Petr1868" uid="72020" visible="true" version="1" changeset="4605359" timestamp="2010-05-04T16:03:06Z"/>
 <node id="1498546148" lat="49.4684350" lon="17.9668825" user="Tomas Pajonk" uid="305367" visible="true" version="1" changeset="9795740" timestamp="2011-11-11T11:56:12Z">
  <tag k="addr:conscriptionnumber" v="976"/>
  <tag k="addr:country" v="CZ"/>
  <tag k="addr:housenumber" v="976/13"/>
  <tag k="addr:street" v="Blahoslavova"/>
  <tag k="addr:streetnumber" v="13"/>
  <tag k="is_in" v="Valašské Meziříčí, Zlínský kraj, CZ"/>
  <tag k="source:addr" v="mvcr:adresa"/>
  <tag k="source:loc" v="cuzk:km"/>
 </node>
 <node id="721085918" lat="49.4677740" lon="17.9672600" user="Petr1868" uid="72020" visible="true" version="1" changeset="4605359" timestamp="2010-05-04T16:04:00Z"/>
 <node id="1498541437" lat="49.4686238" lon="17.9650163" user="Tomas Pajonk" uid="305367" visible="true" version="1" changeset="9795740" timestamp="2011-11-11T11:51:37Z">
  <tag k="addr:conscriptionnumber" v="411"/>
  <tag k="addr:country" v="CZ"/>
  <tag k="addr:housenumber" v="411/1"/>
  <tag k="addr:street" v="Fügnerova"/>
  <tag k="addr:streetnumber" v="1"/>
  <tag k="is_in" v="Valašské Meziříčí, Zlínský kraj, CZ"/>
  <tag k="source:addr" v="mvcr:adresa"/>
  <tag k="source:loc" v="cuzk:km"/>
 </node>
 <node id="721082102" lat="49.4691010" lon="17.9665030" user="Petr1868" uid="72020" visible="true" version="1" changeset="4605359" timestamp="2010-05-04T16:02:40Z"/>
 <node id="721081854" lat="49.4681490" lon="17.9654530" user="Petr1868" uid="72020" visible="true" version="1" changeset="4605359" timestamp="2010-05-04T16:02:31Z"/>
 <node id="721081662" lat="49.4677360" lon="17.9658700" user="Petr1868" uid="72020" visible="true" version="1" changeset="4605359" timestamp="2010-05-04T16:02:23Z"/>
 <node id="721084317" lat="49.4677510" lon="17.9668620" user="Petr1868" uid="72020" visible="true" version="1" changeset="4605359" timestamp="2010-05-04T16:03:39Z"/>
 <node id="721085950" lat="49.4680070" lon="17.9671120" user="Petr1868" uid="72020" visible="true" version="1" changeset="4605359" timestamp="2010-05-04T16:04:00Z"/>
 <node id="721082793" lat="49.4689220" lon="17.9664870" user="Petr1868" uid="72020" visible="true" version="1" changeset="4605359" timestamp="2010-05-04T16:03:08Z"/>
 <node id="721082747" lat="49.4680490" lon="17.9670780" user="Petr1868" uid="72020" visible="true" version="1" changeset="4605359" timestamp="2010-05-04T16:03:06Z"/>
 <node id="721085810" lat="49.4681950" lon="17.9652750" user="Petr1868" uid="72020" visible="true" version="1" changeset="4605359" timestamp="2010-05-04T16:03:58Z"/>
 <node id="721081745" lat="49.4682720" lon="17.9652210" user="Petr1868" uid="72020" visible="true" version="1" changeset="4605359" timestamp="2010-05-04T16:02:26Z"/>
 <node id="721082662" lat="49.4686070" lon="17.9667630" user="Petr1868" uid="72020" visible="true" version="1" changeset="4605359" timestamp="2010-05-04T16:03:02Z"/>
 <node id="1498546175" lat="49.4681550" lon="17.9666763" user="Tomas Pajonk" uid="305367" visible="true" version="1" changeset="9795740" timestamp="2011-11-11T11:56:15Z">
  <tag k="addr:conscriptionnumber" v="988"/>
  <tag k="addr:country" v="CZ"/>
  <tag k="addr:housenumber" v="988/18"/>
  <tag k="addr:street" v="Blahoslavova"/>
  <tag k="addr:streetnumber" v="18"/>
  <tag k="is_in" v="Valašské Meziříčí, Zlínský kraj, CZ"/>
  <tag k="source:addr" v="mvcr:adresa"/>
  <tag k="source:loc" v="cuzk:km"/>
 </node>
 <node id="721084133" lat="49.4684570" lon="17.9663930" user="Petr1868" uid="72020" visible="true" version="1" changeset="4605359" timestamp="2010-05-04T16:03:36Z"/>
 <node id="721083959" lat="49.4684600" lon="17.9651230" user="Petr1868" uid="72020" visible="true" version="1" changeset="4605359" timestamp="2010-05-04T16:03:33Z"/>
 <node id="721082607" lat="49.4691000" lon="17.9653320" user="Petr1868" uid="72020" visible="true" version="1" changeset="4605359" timestamp="2010-05-04T16:03:00Z"/>
 <node id="721083772" lat="49.4677760" lon="17.9657050" user="Petr1868" uid="72020" visible="true" version="1" changeset="4605359" timestamp="2010-05-04T16:03:29Z"/>
 <node id="721081723" lat="49.4685320" lon="17.9665050" user="Petr1868" uid="72020" visible="true" version="1" changeset="4605359" timestamp="2010-05-04T16:02:26Z"/>
 <node id="721081995" lat="49.4688970" lon="17.9666250" user="Petr1868" uid="72020" visible="true" version="1" changeset="4605359" timestamp="2010-05-04T16:02:36Z"/>
 <node id="721084173" lat="49.4683420" lon="17.9664850" user="Petr1868" uid="72020" visible="true" version="1" changeset="4605359" timestamp="2010-05-04T16:03:36Z"/>
 <node id="721084238" lat="49.4682000" lon="17.9652710" user="Petr1868" uid="72020" visible="true" version="1" changeset="4605359" timestamp="2010-05-04T16:03:37Z"/>
 <node id="721082494" lat="49.4690020" lon="17.9654420" user="Petr1868" uid="72020" visible="true" version="1" changeset="4605359" timestamp="2010-05-04T16:02:56Z"/>
 <node id="721081560" lat="49.4680340" lon="17.9654160" user="Petr1868" uid="72020" visible="true" version="1" changeset="4605359" timestamp="2010-05-04T16:02:19Z"/>
 <node id="721082744" lat="49.4690070" lon="17.9650600" user="Petr1868" uid="72020" visible="true" version="1" changeset="4605359" timestamp="2010-05-04T16:03:05Z"/>
 <node id="721085609" lat="49.4682950" lon="17.9666470" user="Petr1868" uid="72020" visible="true" version="1" changeset="4605359" timestamp="2010-05-04T16:03:56Z"/>
 <node id="721081506" lat="49.4688550" lon="17.9665260" user="Petr1868" uid="72020" visible="true" version="1" changeset="4605359" timestamp="2010-05-04T16:02:17Z"/>
 <node id="721081608" lat="49.4681800" lon="17.9649860" user="Petr1868" uid="72020" visible="true" version="1" changeset="4605359" timestamp="2010-05-04T16:02:21Z"/>
 <node id="721082540" lat="49.4683500" lon="17.9651230" user="Petr1868" uid="72020" visible="true" version="1" changeset="4605359" timestamp="2010-05-04T16:02:57Z"/>
 <node id="721084306" lat="49.4690910" lon="17.9650120" user="Petr1868" uid="72020" visible="true" version="1" changeset="4605359" timestamp="2010-05-04T16:03:39Z"/>
 <node id="721084017" lat="49.4686620" lon="17.9650560" user="Petr1868" uid="72020" visible="true" version="1" changeset="4605359" timestamp="2010-05-04T16:03:34Z"/>
 <node id="721082612" lat="49.4678520" lon="17.9669200" user="Petr1868" uid="72020" visible="true" version="1" changeset="4605359" timestamp="2010-05-04T16:03:00Z"/>
 <node id="721082594" lat="49.4686260" lon="17.9649230" user="Petr1868" uid="72020" visible="true" version="1" changeset="4605359" timestamp="2010-05-04T16:02:59Z"/>
 <node id="721081846" lat="49.4679420" lon="17.9651720" user="Petr1868" uid="72020" visible="true" version="1" changeset="4605359" timestamp="2010-05-04T16:02:31Z"/>
 <node id="721081470" lat="49.4680920" lon="17.9666980" user="Petr1868" uid="72020" visible="true" version="1" changeset="4605359" timestamp="2010-05-04T16:02:16Z"/>
 <node id="721082651" lat="49.4691370" lon="17.9677770" user="Petr1868" uid="72020" visible="true" version="1" changeset="4605359" timestamp="2010-05-04T16:03:02Z"/>
 <node id="721082173" lat="49.4683970" lon="17.9665610" user="Petr1868" uid="72020" visible="true" version="1" changeset="4605359" timestamp="2010-05-04T16:02:43Z"/>
 <node id="721082299" lat="49.4681650" lon="17.9667060" user="Petr1868" uid="72020" visible="true" version="1" changeset="4605359" timestamp="2010-05-04T16:02:48Z"/>
 <node id="721081339" lat="49.4683460" lon="17.9665610" user="Petr1868" uid="72020" visible="true" version="1" changeset="4605359" timestamp="2010-05-04T16:02:11Z"/>
 <node id="721084289" lat="49.4677590" lon="17.9656470" user="Petr1868" uid="72020" visible="true" version="1" changeset="4605359" timestamp="2010-05-04T16:03:39Z"/>
 <node id="721082095" lat="49.4683090" lon="17.9651580" user="Petr1868" uid="72020" visible="true" version="1" changeset="4605359" timestamp="2010-05-04T16:02:40Z"/>
 <node id="721081714" lat="49.4683600" lon="17.9665500" user="Petr1868" uid="72020" visible="true" version="1" changeset="4605359" timestamp="2010-05-04T16:02:25Z"/>
 <node id="721081696" lat="49.4687840" lon="17.9663060" user="Petr1868" uid="72020" visible="true" version="1" changeset="4605359" timestamp="2010-05-04T16:02:25Z"/>
 <node id="721083841" lat="49.4683690" lon="17.9668620" user="Petr1868" uid="72020" visible="true" version="1" changeset="4605359" timestamp="2010-05-04T16:03:31Z"/>
 <node id="721082759" lat="49.4681090" lon="17.9667630" user="Petr1868" uid="72020" visible="true" version="1" changeset="4605359" timestamp="2010-05-04T16:03:06Z"/>
 <node id="1498543001" lat="49.4680275" lon="17.9655313" user="Tomas Pajonk" uid="305367" visible="true" version="1" changeset="9795740" timestamp="2011-11-11T11:52:52Z">
  <tag k="addr:conscriptionnumber" v="514"/>
  <tag k="addr:country" v="CZ"/>
  <tag k="addr:housenumber" v="514/7"/>
  <tag k="addr:street" v="Fügnerova"/>
  <tag k="addr:streetnumber" v="7"/>
  <tag k="is_in" v="Valašské Meziříčí, Zlínský kraj, CZ"/>
  <tag k="source:addr" v="mvcr:adresa"/>
  <tag k="source:loc" v="cuzk:km"/>
 </node>
 <node id="721083911" lat="49.4683450" lon="17.9652780" user="Petr1868" uid="72020" visible="true" version="1" changeset="4605359" timestamp="2010-05-04T16:03:32Z"/>
 <node id="721082351" lat="49.4679300" lon="17.9655410" user="Petr1868" uid="72020" visible="true" version="1" changeset="4605359" timestamp="2010-05-04T16:02:50Z"/>
 <node id="721085530" lat="49.4684590" lon="17.9665280" user="Petr1868" uid="72020" visible="true" version="1" changeset="4605359" timestamp="2010-05-04T16:03:55Z"/>
 <node id="721083740" lat="49.4689720" lon="17.9653170" user="Petr1868" uid="72020" visible="true" version="1" changeset="4605359" timestamp="2010-05-04T16:03:28Z"/>
 <node id="721081804" lat="49.4688690" lon="17.9680210" user="Petr1868" uid="72020" visible="true" version="1" changeset="4605359" timestamp="2010-05-04T16:02:29Z"/>
 <node id="721082154" lat="49.4690360" lon="17.9654070" user="Petr1868" uid="72020" visible="true" version="1" changeset="4605359" timestamp="2010-05-04T16:02:42Z"/>
 <node id="721082482" lat="49.4678090" lon="17.9658070" user="Petr1868" uid="72020" visible="true" version="1" changeset="4605359" timestamp="2010-05-04T16:02:55Z"/>
 <node id="721082640" lat="49.4678760" lon="17.9673550" user="Petr1868" uid="72020" visible="true" version="1" changeset="4605359" timestamp="2010-05-04T16:03:01Z"/>
 <node id="721083360" lat="49.4682310" lon="17.9653930" user="Petr1868" uid="72020" visible="true" version="1" changeset="4605359" timestamp="2010-05-04T16:03:22Z"/>
 <node id="721083207" lat="49.4678270" lon="17.9669270" user="Petr1868" uid="72020" visible="true" version="1" changeset="4605359" timestamp="2010-05-04T16:03:19Z"/>
 <node id="721082814" lat="49.4679260" lon="17.9654920" user="Petr1868" uid="72020" visible="true" version="1" changeset="4605359" timestamp="2010-05-04T16:03:08Z"/>
 <node id="1498542094" lat="49.4681463" lon="17.9649413" user="Tomas Pajonk" uid="305367" visible="true" version="1" changeset="9795740" timestamp="2011-11-11T11:52:02Z">
  <tag k="addr:conscriptionnumber" v="449"/>
  <tag k="addr:country" v="CZ"/>
  <tag k="addr:housenumber" v="449/8"/>
  <tag k="addr:street" v="Fügnerova"/>
  <tag k="addr:streetnumber" v="8"/>
  <tag k="is_in" v="Valašské Meziříčí, Zlínský kraj, CZ"/>
  <tag k="source:addr" v="mvcr:adresa"/>
  <tag k="source:loc" v="cuzk:km"/>
 </node>
 <node id="1498541881" lat="49.4684113" lon="17.9651738" user="Tomas Pajonk" uid="305367" visible="true" version="1" changeset="9795740" timestamp="2011-11-11T11:51:50Z">
  <tag k="addr:conscriptionnumber" v="431"/>
  <tag k="addr:country" v="CZ"/>
  <tag k="addr:housenumber" v="431/3"/>
  <tag k="addr:street" v="Fügnerova"/>
  <tag k="addr:streetnumber" v="3"/>
  <tag k="is_in" v="Valašské Meziříčí, Zlínský kraj, CZ"/>
  <tag k="source:addr" v="mvcr:adresa"/>
  <tag k="source:loc" v="cuzk:km"/>
 </node>
 <node id="721082187" lat="49.4679120" lon="17.9671760" user="Petr1868" uid="72020" visible="true" version="1" changeset="4605359" timestamp="2010-05-04T16:02:43Z"/>
 <node id="721085376" lat="49.4676590" lon="17.9658050" user="Petr1868" uid="72020" visible="true" version="1" changeset="4605359" timestamp="2010-05-04T16:03:53Z"/>
 <node id="721082295" lat="49.4678340" lon="17.9650860" user="Petr1868" uid="72020" visible="true" version="1" changeset="4605359" timestamp="2010-05-04T16:02:48Z"/>
 <node id="721080933" lat="49.4678720" lon="17.9652030" user="Petr1868" uid="72020" visible="true" version="1" changeset="4605359" timestamp="2010-05-04T16:01:56Z"/>
 <node id="721081948" lat="49.4690340" lon="17.9679280" user="Petr1868" uid="72020" visible="true" version="1" changeset="4605359" timestamp="2010-05-04T16:02:34Z"/>
 <node id="721084167" lat="49.4692370" lon="17.9676320" user="Petr1868" uid="72020" visible="true" version="1" changeset="4605359" timestamp="2010-05-04T16:03:36Z"/>
 <node id="721082178" lat="49.4688210" lon="17.9661600" user="Petr1868" uid="72020" visible="true" version="1" changeset="4605359" timestamp="2010-05-04T16:02:43Z"/>
 <node id="721080959" lat="49.4679940" lon="17.9651420" user="Petr1868" uid="72020" visible="true" version="1" changeset="4605359" timestamp="2010-05-04T16:01:56Z"/>
 <node id="721083766" lat="49.4680500" lon="17.9654060" user="Petr1868" uid="72020" visible="true" version="1" changeset="4605359" timestamp="2010-05-04T16:03:29Z"/>
 <node id="721081153" lat="49.4677670" lon="17.9658350" user="Petr1868" uid="72020" visible="true" version="1" changeset="4605359" timestamp="2010-05-04T16:02:04Z"/>
 <node id="721081679" lat="49.4679290" lon="17.9667460" user="Petr1868" uid="72020" visible="true" version="1" changeset="4605359" timestamp="2010-05-04T16:02:24Z"/>
 <node id="721084601" lat="49.4689840" lon="17.9653650" user="Petr1868" uid="72020" visible="true" version="1" changeset="4605359" timestamp="2010-05-04T16:03:44Z"/>
 <node id="721085544" lat="49.4678370" lon="17.9672270" user="Petr1868" uid="72020" visible="true" version="1" changeset="4605359" timestamp="2010-05-04T16:03:55Z"/>
 <node id="721082875" lat="49.4685940" lon="17.9663050" user="Petr1868" uid="72020" visible="true" version="1" changeset="4605359" timestamp="2010-05-04T16:03:11Z"/>
 <node id="721081649" lat="49.4682990" lon="17.9670100" user="Petr1868" uid="72020" visible="true" version="1" changeset="4605359" timestamp="2010-05-04T16:02:23Z"/>
 <node id="721082932" lat="49.4691990" lon="17.9654610" user="Petr1868" uid="72020" visible="true" version="1" changeset="4605359" timestamp="2010-05-04T16:03:13Z"/>
 <node id="1498546112" lat="49.4686600" lon="17.9663363" user="Tomas Pajonk" uid="305367" visible="true" version="1" changeset="9795740" timestamp="2011-11-11T11:56:09Z">
  <tag k="addr:conscriptionnumber" v="965"/>
  <tag k="addr:country" v="CZ"/>
  <tag k="addr:housenumber" v="965/12"/>
  <tag k="addr:street" v="Blahoslavova"/>
  <tag k="addr:streetnumber" v="12"/>
  <tag k="is_in" v="Valašské Meziříčí, Zlínský kraj, CZ"/>
  <tag k="source:addr" v="mvcr:adresa"/>
  <tag k="source:loc" v="cuzk:km"/>
 </node>
 <node id="721082434" lat="49.4684270" lon="17.9652180" user="Petr1868" uid="72020" visible="true" version="1" changeset="4605359" timestamp="2010-05-04T16:02:53Z"/>
 <node id="721081093" lat="49.4689320" lon="17.9665980" user="Petr1868" uid="72020" visible="true" version="1" changeset="4605359" timestamp="2010-05-04T16:02:02Z"/>
 <node id="721081310" lat="49.4679500" lon="17.9673030" user="Petr1868" uid="72020" visible="true" version="1" changeset="4605359" timestamp="2010-05-04T16:02:10Z"/>
 <node id="721081306" lat="49.4689150" lon="17.9678310" user="Petr1868" uid="72020" visible="true" version="1" changeset="4605359" timestamp="2010-05-04T16:02:10Z"/>
 <node id="1498546197" lat="49.4685863" lon="17.9667913" user="Tomas Pajonk" uid="305367" visible="true" version="1" changeset="9795740" timestamp="2011-11-11T11:56:17Z">
  <tag k="addr:conscriptionnumber" v="999"/>
  <tag k="addr:country" v="CZ"/>
  <tag k="addr:housenumber" v="999/11"/>
  <tag k="addr:street" v="Blahoslavova"/>
  <tag k="addr:streetnumber" v="11"/>
  <tag k="is_in" v="Valašské Meziříčí, Zlínský kraj, CZ"/>
  <tag k="source:addr" v="mvcr:adresa"/>
  <tag k="source:loc" v="cuzk:km"/>
 </node>
 <node id="721082362" lat="49.4689970" lon="17.9654050" user="Petr1868" uid="72020" visible="true" version="1" changeset="4605359" timestamp="2010-05-04T16:02:50Z"/>
 <node id="1498545673" lat="49.4683225" lon="17.9665500" user="Tomas Pajonk" uid="305367" visible="true" version="1" changeset="9795740" timestamp="2011-11-11T11:55:30Z">
  <tag k="addr:conscriptionnumber" v="844"/>
  <tag k="addr:country" v="CZ"/>
  <tag k="addr:housenumber" v="844/16"/>
  <tag k="addr:street" v="Blahoslavova"/>
  <tag k="addr:streetnumber" v="16"/>
  <tag k="is_in" v="Valašské Meziříčí, Zlínský kraj, CZ"/>
  <tag k="source:addr" v="mvcr:adresa"/>
  <tag k="source:loc" v="cuzk:km"/>
 </node>
 <node id="721082249" lat="49.4681120" lon="17.9653320" user="Petr1868" uid="72020" visible="true" version="1" changeset="4605359" timestamp="2010-05-04T16:02:46Z"/>
 <node id="721083008" lat="49.4684190" lon="17.9664180" user="Petr1868" uid="72020" visible="true" version="1" changeset="4605359" timestamp="2010-05-04T16:03:15Z"/>
 <node id="721081036" lat="49.4690710" lon="17.9677410" user="Petr1868" uid="72020" visible="true" version="1" changeset="4605359" timestamp="2010-05-04T16:02:00Z"/>
 <node id="721081455" lat="49.4680620" lon="17.9670770" user="Petr1868" uid="72020" visible="true" version="1" changeset="4605359" timestamp="2010-05-04T16:02:15Z"/>
 <node id="721082935" lat="49.4682770" lon="17.9670210" user="Petr1868" uid="72020" visible="true" version="1" changeset="4605359" timestamp="2010-05-04T16:03:14Z"/>
 <node id="721085187" lat="49.4690690" lon="17.9663920" user="Petr1868" uid="72020" visible="true" version="1" changeset="4605359" timestamp="2010-05-04T16:03:51Z"/>
 <node id="721082431" lat="49.4681450" lon="17.9648720" user="Petr1868" uid="72020" visible="true" version="1" changeset="4605359" timestamp="2010-05-04T16:02:53Z"/>
 <node id="721084765" lat="49.4684590" lon="17.9651970" user="Petr1868" uid="72020" visible="true" version="1" changeset="4605359" timestamp="2010-05-04T16:03:47Z"/>
 <node id="721085586" lat="49.4691200" lon="17.9677870" user="Petr1868" uid="72020" visible="true" version="1" changeset="4605359" timestamp="2010-05-04T16:03:56Z"/>
 <node id="721082522" lat="49.4684620" lon="17.9663570" user="Petr1868" uid="72020" visible="true" version="1" changeset="4605359" timestamp="2010-05-04T16:02:57Z"/>
 <node id="721084665" lat="49.4689890" lon="17.9679520" user="Petr1868" uid="72020" visible="true" version="1" changeset="4605359" timestamp="2010-05-04T16:03:45Z"/>
 <node id="721080995" lat="49.4679210" lon="17.9655130" user="Petr1868" uid="72020" visible="true" version="1" changeset="4605359" timestamp="2010-05-04T16:01:58Z"/>
 <node id="721082920" lat="49.4684210" lon="17.9650780" user="Petr1868" uid="72020" visible="true" version="1" changeset="4605359" timestamp="2010-05-04T16:03:12Z"/>
 <node id="721082756" lat="49.4679170" lon="17.9651670" user="Petr1868" uid="72020" visible="true" version="1" changeset="4605359" timestamp="2010-05-04T16:03:06Z"/>
 <node id="721081447" lat="49.4677350" lon="17.9674420" user="Petr1868" uid="72020" visible="true" version="1" changeset="4605359" timestamp="2010-05-04T16:02:15Z"/>
 <node id="721083722" lat="49.4679520" lon="17.9654830" user="Petr1868" uid="72020" visible="true" version="1" changeset="4605359" timestamp="2010-05-04T16:03:28Z"/>
 <node id="721082323" lat="49.4683000" lon="17.9647570" user="Petr1868" uid="72020" visible="true" version="1" changeset="4605359" timestamp="2010-05-04T16:02:49Z"/>
 <node id="1498546081" lat="49.4682500" lon="17.9670113" user="Tomas Pajonk" uid="305367" visible="true" version="1" changeset="9795740" timestamp="2011-11-11T11:56:06Z">
  <tag k="addr:conscriptionnumber" v="952"/>
  <tag k="addr:country" v="CZ"/>
  <tag k="addr:housenumber" v="952/15"/>
  <tag k="addr:street" v="Blahoslavova"/>
  <tag k="addr:streetnumber" v="15"/>
  <tag k="is_in" v="Valašské Meziříčí, Zlínský kraj, CZ"/>
  <tag k="source:addr" v="mvcr:adresa"/>
  <tag k="source:loc" v="cuzk:km"/>
 </node>
 <node id="721084117" lat="49.4683600" lon="17.9664420" user="Petr1868" uid="72020" visible="true" version="1" changeset="4605359" timestamp="2010-05-04T16:03:35Z"/>
 <node id="721082780" lat="49.4679690" lon="17.9650610" user="Petr1868" uid="72020" visible="true" version="1" changeset="4605359" timestamp="2010-05-04T16:03:07Z"/>
 <node id="721082738" lat="49.4676970" lon="17.9673150" user="Petr1868" uid="72020" visible="true" version="1" changeset="4605359" timestamp="2010-05-04T16:03:05Z"/>
 <node id="721081768" lat="49.4686490" lon="17.9649600" user="Petr1868" uid="72020" visible="true" version="1" changeset="4605359" timestamp="2010-05-04T16:02:27Z"/>
 <node id="721081787" lat="49.4677790" lon="17.9669610" user="Petr1868" uid="72020" visible="true" version="1" changeset="4605359" timestamp="2010-05-04T16:02:28Z"/>
 <node id="721082414" lat="49.4686910" lon="17.9663670" user="Petr1868" uid="72020" visible="true" version="1" changeset="4605359" timestamp="2010-05-04T16:02:52Z"/>
 <node id="721081334" lat="49.4691560" lon="17.9678520" user="Petr1868" uid="72020" visible="true" version="1" changeset="4605359" timestamp="2010-05-04T16:02:11Z"/>
 <node id="721084419" lat="49.4678900" lon="17.9650430" user="Petr1868" uid="72020" visible="true" version="1" changeset="4605359" timestamp="2010-05-04T16:03:41Z"/>
 <node id="721082897" lat="49.4689500" lon="17.9665900" user="Petr1868" uid="72020" visible="true" version="1" changeset="4605359" timestamp="2010-05-04T16:03:12Z"/>
 <node id="721081595" lat="49.4686610" lon="17.9662580" user="Petr1868" uid="72020" visible="true" version="1" changeset="4605359" timestamp="2010-05-04T16:02:20Z"/>
 <node id="721083581" lat="49.4680820" lon="17.9667030" user="Petr1868" uid="72020" visible="true" version="1" changeset="4605359" timestamp="2010-05-04T16:03:25Z"/>
 <node id="1498542132" lat="49.4680388" lon="17.9650675" user="Tomas Pajonk" uid="305367" visible="true" version="1" changeset="9795740" timestamp="2011-11-11T11:52:05Z">
  <tag k="addr:conscriptionnumber" v="453"/>
  <tag k="addr:country" v="CZ"/>
  <tag k="addr:housenumber" v="453"/>
  <tag k="addr:street" v="Fügnerova"/>
  <tag k="is_in" v="Valašské Meziříčí, Zlínský kraj, CZ"/>
  <tag k="source:addr" v="mvcr:adresa"/>
  <tag k="source:loc" v="cuzk:km"/>
 </node>
 <node id="721081611" lat="49.4684040" lon="17.9652380" user="Petr1868" uid="72020" visible="true" version="1" changeset="4605359" timestamp="2010-05-04T16:02:21Z"/>
 <node id="721083029" lat="49.4684520" lon="17.9663550" user="Petr1868" uid="72020" visible="true" version="1" changeset="4605359" timestamp="2010-05-04T16:03:16Z"/>
 <node id="721081820" lat="49.4679160" lon="17.9651220" user="Petr1868" uid="72020" visible="true" version="1" changeset="4605359" timestamp="2010-05-04T16:02:30Z"/>
 <node id="1498545647" lat="49.4678963" lon="17.9651125" user="Tomas Pajonk" uid="305367" visible="true" version="1" changeset="9795740" timestamp="2011-11-11T11:55:28Z">
  <tag k="addr:conscriptionnumber" v="839"/>
  <tag k="addr:country" v="CZ"/>
  <tag k="addr:housenumber" v="839/10"/>
  <tag k="addr:street" v="Fügnerova"/>
  <tag k="addr:streetnumber" v="10"/>
  <tag k="is_in" v="Valašské Meziříčí, Zlínský kraj, CZ"/>
  <tag k="source:addr" v="mvcr:adresa"/>
  <tag k="source:loc" v="cuzk:km"/>
 </node>
 <node id="1498546104" lat="49.4688263" lon="17.9662225" user="Tomas Pajonk" uid="305367" visible="true" version="1" changeset="9795740" timestamp="2011-11-11T11:56:08Z">
  <tag k="addr:conscriptionnumber" v="960"/>
  <tag k="addr:country" v="CZ"/>
  <tag k="addr:housenumber" v="960/10"/>
  <tag k="addr:street" v="Blahoslavova"/>
  <tag k="addr:streetnumber" v="10"/>
  <tag k="is_in" v="Valašské Meziříčí, Zlínský kraj, CZ"/>
  <tag k="source:addr" v="mvcr:adresa"/>
  <tag k="source:loc" v="cuzk:km"/>
 </node>
 <node id="721084028" lat="49.4677300" lon="17.9658650" user="Petr1868" uid="72020" visible="true" version="1" changeset="4605359" timestamp="2010-05-04T16:03:34Z"/>
 <node id="721081827" lat="49.4685520" lon="17.9668770" user="Petr1868" uid="72020" visible="true" version="1" changeset="4605359" timestamp="2010-05-04T16:02:30Z"/>
 <node id="721083431" lat="49.4680950" lon="17.9655530" user="Petr1868" uid="72020" visible="true" version="1" changeset="4605359" timestamp="2010-05-04T16:03:23Z"/>
 <node id="721082200" lat="49.4682610" lon="17.9665370" user="Petr1868" uid="72020" visible="true" version="1" changeset="4605359" timestamp="2010-05-04T16:02:44Z"/>
 <node id="721083247" lat="49.4688340" lon="17.9678810" user="Petr1868" uid="72020" visible="true" version="1" changeset="4605359" timestamp="2010-05-04T16:03:20Z"/>
 <node id="721083667" lat="49.4688860" lon="17.9666350" user="Petr1868" uid="72020" visible="true" version="1" changeset="4605359" timestamp="2010-05-04T16:03:27Z"/>
 <node id="721082472" lat="49.4681810" lon="17.9669920" user="Petr1868" uid="72020" visible="true" version="1" changeset="4605359" timestamp="2010-05-04T16:02:55Z"/>
 <node id="721084787" lat="49.4689020" lon="17.9666420" user="Petr1868" uid="72020" visible="true" version="1" changeset="4605359" timestamp="2010-05-04T16:03:47Z"/>
 <node id="721082598" lat="49.4676500" lon="17.9658020" user="Petr1868" uid="72020" visible="true" version="1" changeset="4605359" timestamp="2010-05-04T16:03:00Z"/>
 <node id="1498545526" lat="49.4690338" lon="17.9678300" user="Tomas Pajonk" uid="305367" visible="true" version="1" changeset="9795740" timestamp="2011-11-11T11:55:14Z">
  <tag k="addr:conscriptionnumber" v="808"/>
  <tag k="addr:country" v="CZ"/>
  <tag k="addr:housenumber" v="808/10"/>
  <tag k="addr:street" v="Havlíčkova"/>
  <tag k="addr:streetnumber" v="10"/>
  <tag k="is_in" v="Valašské Meziříčí, Zlínský kraj, CZ"/>
  <tag k="source:addr" v="mvcr:adresa"/>
  <tag k="source:loc" v="cuzk:km"/>
 </node>
 <node id="721081450" lat="49.4690860" lon="17.9678900" user="Petr1868" uid="72020" visible="true" version="1" changeset="4605359" timestamp="2010-05-04T16:02:15Z"/>
 <node id="721085498" lat="49.4684520" lon="17.9665250" user="Petr1868" uid="72020" visible="true" version="1" changeset="4605359" timestamp="2010-05-04T16:03:55Z"/>
 <node id="1498541333" lat="49.4691013" lon="17.9654438" user="Tomas Pajonk" uid="305367" visible="true" version="1" changeset="9795740" timestamp="2011-11-11T11:51:30Z">
  <tag k="addr:conscriptionnumber" v="402"/>
  <tag k="addr:country" v="CZ"/>
  <tag k="addr:housenumber" v="402/15"/>
  <tag k="addr:street" v="Husova"/>
  <tag k="addr:streetnumber" v="15"/>
  <tag k="is_in" v="Valašské Meziříčí, Zlínský kraj, CZ"/>
  <tag k="source:addr" v="mvcr:adresa"/>
  <tag k="source:loc" v="cuzk:km"/>
 </node>
 <node id="721083186" lat="49.4686400" lon="17.9649320" user="Petr1868" uid="72020" visible="true" version="1" changeset="4605359" timestamp="2010-05-04T16:03:18Z"/>
 <node id="721082456" lat="49.4679960" lon="17.9654180" user="Petr1868" uid="72020" visible="true" version="1" changeset="4605359" timestamp="2010-05-04T16:02:54Z"/>
 <node id="721081673" lat="49.4690000" lon="17.9654100" user="Petr1868" uid="72020" visible="true" version="1" changeset="4605359" timestamp="2010-05-04T16:02:24Z"/>
 <node id="1498533694" lat="49.4681875" lon="17.9653788" user="Tomas Pajonk" uid="305367" visible="true" version="1" changeset="9795740" timestamp="2011-11-11T11:46:00Z">
  <tag k="addr:conscriptionnumber" v="1031"/>
  <tag k="addr:country" v="CZ"/>
  <tag k="addr:housenumber" v="1031"/>
  <tag k="addr:street" v="Fügnerova"/>
  <tag k="is_in" v="Valašské Meziříčí, Zlínský kraj, CZ"/>
  <tag k="source:addr" v="mvcr:adresa"/>
  <tag k="source:loc" v="cuzk:km"/>
 </node>
 <way id="58107642" user="Petr1868" uid="72020" visible="true" version="1" changeset="4605359" timestamp="2010-05-04T16:04:16Z">
  <nd ref="721083648"/>
  <nd ref="721082888"/>
  <nd ref="721081493"/>
  <nd ref="721082780"/>
  <nd ref="721080959"/>
  <nd ref="721083648"/>
  <tag k="building" v="yes"/>
  <tag k="source" v="cuzk:km"/>
 </way>
 <way id="58107937" user="Petr1868" uid="72020" visible="true" version="1" changeset="4605359" timestamp="2010-05-04T16:04:55Z">
  <nd ref="721081036"/>
  <nd ref="721082385"/>
  <nd ref="721084665"/>
  <nd ref="721081948"/>
  <nd ref="721083526"/>
  <nd ref="721081450"/>
  <nd ref="721082743"/>
  <nd ref="721085939"/>
  <nd ref="721081036"/>
  <tag k="building" v="yes"/>
  <tag k="source" v="cuzk:km"/>
 </way>
 <way id="58107669" user="Petr1868" uid="72020" visible="true" version="1" changeset="4605359" timestamp="2010-05-04T16:04:20Z">
  <nd ref="721081804"/>
  <nd ref="721083247"/>
  <nd ref="721081306"/>
  <nd ref="721082637"/>
  <nd ref="721081804"/>
  <tag k="building" v="yes"/>
  <tag k="source" v="cuzk:km"/>
 </way>
 <way id="58107622" user="Petr1868" uid="72020" visible="true" version="1" changeset="4605359" timestamp="2010-05-04T16:04:12Z">
  <nd ref="721081278"/>
  <nd ref="721082607"/>
  <nd ref="721085411"/>
  <nd ref="721082154"/>
  <nd ref="721084054"/>
  <nd ref="721081673"/>
  <nd ref="721082959"/>
  <nd ref="721081168"/>
  <nd ref="721082494"/>
  <nd ref="721084959"/>
  <nd ref="721083988"/>
  <nd ref="721081646"/>
  <nd ref="721082932"/>
  <nd ref="721081278"/>
  <tag k="building" v="yes"/>
  <tag k="source" v="cuzk:km"/>
 </way>
 <way id="58107724" user="Petr1868" uid="72020" visible="true" version="1" changeset="4605359" timestamp="2010-05-04T16:04:27Z">
  <nd ref="721083537"/>
  <nd ref="721081455"/>
  <nd ref="721082747"/>
  <nd ref="721085950"/>
  <nd ref="721084614"/>
  <nd ref="721081925"/>
  <nd ref="721083476"/>
  <nd ref="721081428"/>
  <nd ref="721083537"/>
  <tag k="building" v="yes"/>
  <tag k="source" v="cuzk:km"/>
 </way>
 <way id="58107971" user="Petr1868" uid="72020" visible="true" version="1" changeset="4605359" timestamp="2010-05-04T16:04:59Z">
  <nd ref="721084442"/>
  <nd ref="721081827"/>
  <nd ref="721083310"/>
  <nd ref="721081364"/>
  <nd ref="721082662"/>
  <nd ref="721085633"/>
  <nd ref="721084442"/>
  <tag k="building" v="yes"/>
  <tag k="source" v="cuzk:km"/>
 </way>
 <way id="58107709" user="Petr1868" uid="72020" visible="true" version="1" changeset="4605359" timestamp="2010-05-04T16:04:25Z">
  <nd ref="721081339"/>
  <nd ref="721082654"/>
  <nd ref="721085609"/>
  <nd ref="721082200"/>
  <nd ref="721084173"/>
  <nd ref="721081714"/>
  <nd ref="721081339"/>
  <tag k="building" v="yes"/>
  <tag k="source" v="cuzk:km"/>
 </way>
 <way id="58107946" user="Petr1868" uid="72020" visible="true" version="1" changeset="4605359" timestamp="2010-05-04T16:04:56Z">
  <nd ref="721081595"/>
  <nd ref="721082875"/>
  <nd ref="721081059"/>
  <nd ref="721082414"/>
  <nd ref="721081595"/>
  <tag k="building" v="yes"/>
  <tag k="source" v="cuzk:km"/>
 </way>
 <way id="58107647" user="Petr1868" uid="72020" visible="true" version="1" changeset="4605359" timestamp="2010-05-04T16:04:17Z">
  <nd ref="721082744"/>
  <nd ref="721085943"/>
  <nd ref="721082282"/>
  <nd ref="721084373"/>
  <nd ref="721081805"/>
  <nd ref="721083249"/>
  <nd ref="721082714"/>
  <nd ref="721085844"/>
  <nd ref="721082257"/>
  <nd ref="721084306"/>
  <nd ref="721082744"/>
  <tag k="building" v="yes"/>
  <tag k="source" v="cuzk:km"/>
 </way>
 <way id="58107852" user="Petr1868" uid="72020" visible="true" version="1" changeset="4605359" timestamp="2010-05-04T16:04:44Z">
  <nd ref="721082897"/>
  <nd ref="721081093"/>
  <nd ref="721082442"/>
  <nd ref="721084787"/>
  <nd ref="721081995"/>
  <nd ref="721083667"/>
  <nd ref="721081506"/>
  <nd ref="721082793"/>
  <nd ref="721082897"/>
  <tag k="building" v="yes"/>
  <tag k="source" v="cuzk:km"/>
 </way>
 <way id="58107601" user="Petr1868" uid="72020" visible="true" version="1" changeset="4605359" timestamp="2010-05-04T16:04:09Z">
  <nd ref="721084072"/>
  <nd ref="721081679"/>
  <nd ref="721081255"/>
  <nd ref="721082587"/>
  <nd ref="721084072"/>
  <tag k="building" v="yes"/>
  <tag k="source" v="cuzk:km"/>
 </way>
 <way id="58107755" user="Petr1868" uid="72020" visible="true" version="1" changeset="4605359" timestamp="2010-05-04T16:04:32Z">
  <nd ref="721082166"/>
  <nd ref="721081768"/>
  <nd ref="721083186"/>
  <nd ref="721081265"/>
  <nd ref="721082594"/>
  <nd ref="721085363"/>
  <nd ref="721082137"/>
  <nd ref="721084017"/>
  <nd ref="721081657"/>
  <nd ref="721082943"/>
  <nd ref="721082166"/>
  <tag k="building" v="yes"/>
  <tag k="source" v="cuzk:km"/>
 </way>
 <way id="58107778" user="Petr1868" uid="72020" visible="true" version="1" changeset="4605359" timestamp="2010-05-04T16:04:35Z">
  <nd ref="721081223"/>
  <nd ref="721082548"/>
  <nd ref="721085187"/>
  <nd ref="721082102"/>
  <nd ref="721081223"/>
  <tag k="building" v="yes"/>
  <tag k="source" v="cuzk:km"/>
 </way>
 <way id="58107744" user="Petr1868" uid="72020" visible="true" version="1" changeset="4605359" timestamp="2010-05-04T16:04:30Z">
  <nd ref="721081608"/>
  <nd ref="721082888"/>
  <nd ref="721081078"/>
  <nd ref="721082431"/>
  <nd ref="721081608"/>
  <tag k="building" v="yes"/>
  <tag k="source" v="cuzk:km"/>
 </way>
 <way id="58107676" user="Petr1868" uid="72020" visible="true" version="1" changeset="4605359" timestamp="2010-05-04T16:04:21Z">
  <nd ref="721083292"/>
  <nd ref="721081334"/>
  <nd ref="721082651"/>
  <nd ref="721085586"/>
  <nd ref="721082197"/>
  <nd ref="721084167"/>
  <nd ref="721083292"/>
  <tag k="building" v="yes"/>
  <tag k="source" v="cuzk:km"/>
 </way>
 <way id="58108006" user="Petr1868" uid="72020" visible="true" version="1" changeset="4605359" timestamp="2010-05-04T16:05:04Z">
  <nd ref="721085498"/>
  <nd ref="721082173"/>
  <nd ref="721084117"/>
  <nd ref="721081692"/>
  <nd ref="721083008"/>
  <nd ref="721085498"/>
  <tag k="building" v="yes"/>
  <tag k="source" v="cuzk:km"/>
 </way>
 <way id="58107658" user="Petr1868" uid="72020" visible="true" version="1" changeset="4605359" timestamp="2010-05-04T16:04:19Z">
  <nd ref="721083996"/>
  <nd ref="721081649"/>
  <nd ref="721082935"/>
  <nd ref="721081140"/>
  <nd ref="721082472"/>
  <nd ref="721084871"/>
  <nd ref="721083996"/>
  <tag k="building" v="yes"/>
  <tag k="source" v="cuzk:km"/>
 </way>
 <way id="58107631" user="Petr1868" uid="72020" visible="true" version="1" changeset="4605359" timestamp="2010-05-04T16:04:14Z">
  <nd ref="721085047"/>
  <nd ref="721082073"/>
  <nd ref="721083841"/>
  <nd ref="721081588"/>
  <nd ref="721085047"/>
  <tag k="building" v="yes"/>
  <tag k="source" v="cuzk:km"/>
 </way>
 <way id="58107653" user="Petr1868" uid="72020" visible="true" version="1" changeset="4605359" timestamp="2010-05-04T16:04:18Z">
  <nd ref="721083766"/>
  <nd ref="721081560"/>
  <nd ref="721081117"/>
  <nd ref="721082456"/>
  <nd ref="721084816"/>
  <nd ref="721082014"/>
  <nd ref="721083722"/>
  <nd ref="721081531"/>
  <nd ref="721082814"/>
  <nd ref="721080995"/>
  <nd ref="721082351"/>
  <nd ref="721084570"/>
  <nd ref="721081902"/>
  <nd ref="721083431"/>
  <nd ref="721083766"/>
  <tag k="building" v="yes"/>
  <tag k="source" v="cuzk:km"/>
 </way>
 <way id="58107704" user="Petr1868" uid="72020" visible="true" version="1" changeset="4605359" timestamp="2010-05-04T16:04:24Z">
  <nd ref="721081846"/>
  <nd ref="721081467"/>
  <nd ref="721082756"/>
  <nd ref="721080933"/>
  <nd ref="721082295"/>
  <nd ref="721084419"/>
  <nd ref="721081820"/>
  <nd ref="721083295"/>
  <nd ref="721081846"/>
  <tag k="building" v="yes"/>
  <tag k="source" v="cuzk:km"/>
 </way>
 <way id="58107650" user="Petr1868" uid="72020" visible="true" version="1" changeset="4605359" timestamp="2010-05-04T16:04:18Z">
  <nd ref="721082114"/>
  <nd ref="721083959"/>
  <nd ref="721081634"/>
  <nd ref="721082920"/>
  <nd ref="721082540"/>
  <nd ref="721085161"/>
  <nd ref="721082095"/>
  <nd ref="721083911"/>
  <nd ref="721081611"/>
  <nd ref="721082891"/>
  <nd ref="721081082"/>
  <nd ref="721082434"/>
  <nd ref="721084765"/>
  <nd ref="721081990"/>
  <nd ref="721082114"/>
  <tag k="building" v="yes"/>
  <tag k="source" v="cuzk:km"/>
 </way>
 <way id="58107806" user="Petr1868" uid="72020" visible="true" version="1" changeset="4605359" timestamp="2010-05-04T16:04:39Z">
  <nd ref="721081310"/>
  <nd ref="721082640"/>
  <nd ref="721085544"/>
  <nd ref="721082187"/>
  <nd ref="721081310"/>
  <tag k="building" v="yes"/>
  <tag k="source" v="cuzk:km"/>
 </way>
 <way id="58107822" user="Petr1868" uid="72020" visible="true" version="1" changeset="4605359" timestamp="2010-05-04T16:04:41Z">
  <nd ref="721085706"/>
  <nd ref="721082221"/>
  <nd ref="721084238"/>
  <nd ref="721081745"/>
  <nd ref="721083131"/>
  <nd ref="721081242"/>
  <nd ref="721085706"/>
  <tag k="building" v="yes"/>
  <tag k="source" v="cuzk:km"/>
 </way>
 <way id="58107753" user="Petr1868" uid="72020" visible="true" version="1" changeset="4605359" timestamp="2010-05-04T16:04:31Z">
  <nd ref="721085810"/>
  <nd ref="721082249"/>
  <nd ref="721081854"/>
  <nd ref="721083360"/>
  <nd ref="721085810"/>
  <tag k="building" v="yes"/>
  <tag k="source" v="cuzk:km"/>
 </way>
 <way id="58107748" user="Petr1868" uid="72020" visible="true" version="1" changeset="4605359" timestamp="2010-05-04T16:04:31Z">
  <nd ref="721082785"/>
  <nd ref="721080965"/>
  <nd ref="721082323"/>
  <nd ref="721084490"/>
  <nd ref="721085144"/>
  <nd ref="721082785"/>
  <tag k="building" v="yes"/>
  <tag k="source" v="cuzk:km"/>
 </way>
 <way id="58107958" user="Petr1868" uid="72020" visible="true" version="1" changeset="4605359" timestamp="2010-05-04T16:04:58Z">
  <nd ref="721081550"/>
  <nd ref="721082831"/>
  <nd ref="721081015"/>
  <nd ref="721082367"/>
  <nd ref="721083581"/>
  <nd ref="721081470"/>
  <nd ref="721082759"/>
  <nd ref="721080936"/>
  <nd ref="721082299"/>
  <nd ref="721084423"/>
  <nd ref="721081550"/>
  <tag k="building" v="yes"/>
  <tag k="source" v="cuzk:km"/>
 </way>
 <way id="58107776" user="Petr1868" uid="72020" visible="true" version="1" changeset="4605359" timestamp="2010-05-04T16:04:35Z">
  <nd ref="721081723"/>
  <nd ref="721081307"/>
  <nd ref="721082638"/>
  <nd ref="721085530"/>
  <nd ref="721082182"/>
  <nd ref="721084133"/>
  <nd ref="721081698"/>
  <nd ref="721083029"/>
  <nd ref="721081201"/>
  <nd ref="721082522"/>
  <nd ref="721085085"/>
  <nd ref="721081723"/>
  <tag k="building" v="yes"/>
  <tag k="source" v="cuzk:km"/>
 </way>
 <way id="58107701" user="Petr1868" uid="72020" visible="true" version="1" changeset="4605359" timestamp="2010-05-04T16:04:24Z">
  <nd ref="721082486"/>
  <nd ref="721084924"/>
  <nd ref="721082045"/>
  <nd ref="721083772"/>
  <nd ref="721084289"/>
  <nd ref="721081773"/>
  <nd ref="721083195"/>
  <nd ref="721081268"/>
  <nd ref="721082598"/>
  <nd ref="721085376"/>
  <nd ref="721082141"/>
  <nd ref="721084028"/>
  <nd ref="721081662"/>
  <nd ref="721082948"/>
  <nd ref="721081153"/>
  <nd ref="721082482"/>
  <nd ref="721082486"/>
  <tag k="building" v="yes"/>
  <tag k="source" v="cuzk:km"/>
 </way>
 <way id="58107885" user="Petr1868" uid="72020" visible="true" version="1" changeset="4605359" timestamp="2010-05-04T16:04:49Z">
  <nd ref="721081969"/>
  <nd ref="721083600"/>
  <nd ref="721081477"/>
  <nd ref="721082767"/>
  <nd ref="721081969"/>
  <tag k="building" v="yes"/>
  <tag k="source" v="cuzk:km"/>
 </way>
 <way id="58107766" user="Petr1868" uid="72020" visible="true" version="1" changeset="4605359" timestamp="2010-05-04T16:04:33Z">
  <nd ref="721082263"/>
  <nd ref="721084317"/>
  <nd ref="721081787"/>
  <nd ref="721083207"/>
  <nd ref="721081283"/>
  <nd ref="721082612"/>
  <nd ref="721082263"/>
  <tag k="building" v="yes"/>
  <tag k="source" v="cuzk:km"/>
 </way>
 <way id="58107609" user="Petr1868" uid="72020" visible="true" version="1" changeset="4605359" timestamp="2010-05-04T16:04:10Z">
  <nd ref="721083521"/>
  <nd ref="721081447"/>
  <nd ref="721082738"/>
  <nd ref="721085918"/>
  <nd ref="721083521"/>
  <tag k="building" v="yes"/>
  <tag k="source" v="cuzk:km"/>
 </way>
 <way id="58107727" user="Petr1868" uid="72020" visible="true" version="1" changeset="4605359" timestamp="2010-05-04T16:04:28Z">
  <nd ref="721082178"/>
  <nd ref="721084126"/>
  <nd ref="721081696"/>
  <nd ref="721083021"/>
  <nd ref="721082178"/>
  <tag k="building" v="yes"/>
  <tag k="source" v="cuzk:km"/>
 </way>
 <way id="58107991" user="Petr1868" uid="72020" visible="true" version="1" changeset="4605359" timestamp="2010-05-04T16:05:02Z">
  <nd ref="721084851"/>
  <nd ref="721082029"/>
  <nd ref="721083740"/>
  <nd ref="721081543"/>
  <nd ref="721082827"/>
  <nd ref="721082959"/>
  <nd ref="721082362"/>
  <nd ref="721084601"/>
  <nd ref="721084851"/>
  <tag k="building" v="yes"/>
  <tag k="source" v="cuzk:km"/>
 </way>
</osm>
